<?xml version="1.0" encoding="utf-8" standalone="no"?>
<!DOCTYPE svg PUBLIC "-//W3C//DTD SVG 1.1//EN"
  "http://www.w3.org/Graphics/SVG/1.1/DTD/svg11.dtd">
<!-- Created with matplotlib (https://matplotlib.org/) -->
<svg height="345.6pt" version="1.1" viewBox="0 0 460.8 345.6" width="460.8pt" xmlns="http://www.w3.org/2000/svg" xmlns:xlink="http://www.w3.org/1999/xlink">
 <defs>
  <style type="text/css">
*{stroke-linecap:butt;stroke-linejoin:round;}
  </style>
 </defs>
 <g id="figure_1">
  <g id="patch_1">
   <path d="M 0 345.6 
L 460.8 345.6 
L 460.8 0 
L 0 0 
z
" style="fill:#ffffff;"/>
  </g>
  <g id="axes_1">
   <g id="patch_2">
    <path d="M 45.5 310.18 
L 144.24 310.18 
L 144.24 19.44 
L 45.5 19.44 
z
" style="fill:#eaeaf2;"/>
   </g>
   <g id="matplotlib.axis_1">
    <g id="xtick_1">
     <g id="line2d_1">
      <path clip-path="url(#pb4965cdeb0)" d="M 48.310357 310.18 
L 48.310357 19.44 
" style="fill:none;stroke:#ffffff;stroke-linecap:round;"/>
     </g>
     <g id="text_1">
      <!-- 0.000175 -->
      <defs>
       <path d="M 31.78125 66.40625 
Q 24.171875 66.40625 20.328125 58.90625 
Q 16.5 51.421875 16.5 36.375 
Q 16.5 21.390625 20.328125 13.890625 
Q 24.171875 6.390625 31.78125 6.390625 
Q 39.453125 6.390625 43.28125 13.890625 
Q 47.125 21.390625 47.125 36.375 
Q 47.125 51.421875 43.28125 58.90625 
Q 39.453125 66.40625 31.78125 66.40625 
z
M 31.78125 74.21875 
Q 44.046875 74.21875 50.515625 64.515625 
Q 56.984375 54.828125 56.984375 36.375 
Q 56.984375 17.96875 50.515625 8.265625 
Q 44.046875 -1.421875 31.78125 -1.421875 
Q 19.53125 -1.421875 13.0625 8.265625 
Q 6.59375 17.96875 6.59375 36.375 
Q 6.59375 54.828125 13.0625 64.515625 
Q 19.53125 74.21875 31.78125 74.21875 
z
" id="DejaVuSans-48"/>
       <path d="M 10.6875 12.40625 
L 21 12.40625 
L 21 0 
L 10.6875 0 
z
" id="DejaVuSans-46"/>
       <path d="M 12.40625 8.296875 
L 28.515625 8.296875 
L 28.515625 63.921875 
L 10.984375 60.40625 
L 10.984375 69.390625 
L 28.421875 72.90625 
L 38.28125 72.90625 
L 38.28125 8.296875 
L 54.390625 8.296875 
L 54.390625 0 
L 12.40625 0 
z
" id="DejaVuSans-49"/>
       <path d="M 8.203125 72.90625 
L 55.078125 72.90625 
L 55.078125 68.703125 
L 28.609375 0 
L 18.3125 0 
L 43.21875 64.59375 
L 8.203125 64.59375 
z
" id="DejaVuSans-55"/>
       <path d="M 10.796875 72.90625 
L 49.515625 72.90625 
L 49.515625 64.59375 
L 19.828125 64.59375 
L 19.828125 46.734375 
Q 21.96875 47.46875 24.109375 47.828125 
Q 26.265625 48.1875 28.421875 48.1875 
Q 40.625 48.1875 47.75 41.5 
Q 54.890625 34.8125 54.890625 23.390625 
Q 54.890625 11.625 47.5625 5.09375 
Q 40.234375 -1.421875 26.90625 -1.421875 
Q 22.3125 -1.421875 17.546875 -0.640625 
Q 12.796875 0.140625 7.71875 1.703125 
L 7.71875 11.625 
Q 12.109375 9.234375 16.796875 8.0625 
Q 21.484375 6.890625 26.703125 6.890625 
Q 35.15625 6.890625 40.078125 11.328125 
Q 45.015625 15.765625 45.015625 23.390625 
Q 45.015625 31 40.078125 35.4375 
Q 35.15625 39.890625 26.703125 39.890625 
Q 22.75 39.890625 18.8125 39.015625 
Q 14.890625 38.140625 10.796875 36.28125 
z
" id="DejaVuSans-53"/>
      </defs>
      <g style="fill:#262626;" transform="translate(22.066763 328.038281)scale(0.11 -0.11)">
       <use xlink:href="#DejaVuSans-48"/>
       <use x="63.623047" xlink:href="#DejaVuSans-46"/>
       <use x="95.410156" xlink:href="#DejaVuSans-48"/>
       <use x="159.033203" xlink:href="#DejaVuSans-48"/>
       <use x="222.65625" xlink:href="#DejaVuSans-48"/>
       <use x="286.279297" xlink:href="#DejaVuSans-49"/>
       <use x="349.902344" xlink:href="#DejaVuSans-55"/>
       <use x="413.525391" xlink:href="#DejaVuSans-53"/>
      </g>
     </g>
    </g>
    <g id="xtick_2">
     <g id="line2d_2">
      <path clip-path="url(#pb4965cdeb0)" d="M 83.265044 310.18 
L 83.265044 19.44 
" style="fill:none;stroke:#ffffff;stroke-linecap:round;"/>
     </g>
     <g id="text_2">
      <!-- 0.000200 -->
      <defs>
       <path d="M 19.1875 8.296875 
L 53.609375 8.296875 
L 53.609375 0 
L 7.328125 0 
L 7.328125 8.296875 
Q 12.9375 14.109375 22.625 23.890625 
Q 32.328125 33.6875 34.8125 36.53125 
Q 39.546875 41.84375 41.421875 45.53125 
Q 43.3125 49.21875 43.3125 52.78125 
Q 43.3125 58.59375 39.234375 62.25 
Q 35.15625 65.921875 28.609375 65.921875 
Q 23.96875 65.921875 18.8125 64.3125 
Q 13.671875 62.703125 7.8125 59.421875 
L 7.8125 69.390625 
Q 13.765625 71.78125 18.9375 73 
Q 24.125 74.21875 28.421875 74.21875 
Q 39.75 74.21875 46.484375 68.546875 
Q 53.21875 62.890625 53.21875 53.421875 
Q 53.21875 48.921875 51.53125 44.890625 
Q 49.859375 40.875 45.40625 35.40625 
Q 44.1875 33.984375 37.640625 27.21875 
Q 31.109375 20.453125 19.1875 8.296875 
z
" id="DejaVuSans-50"/>
      </defs>
      <g style="fill:#262626;" transform="translate(57.02145 328.038281)scale(0.11 -0.11)">
       <use xlink:href="#DejaVuSans-48"/>
       <use x="63.623047" xlink:href="#DejaVuSans-46"/>
       <use x="95.410156" xlink:href="#DejaVuSans-48"/>
       <use x="159.033203" xlink:href="#DejaVuSans-48"/>
       <use x="222.65625" xlink:href="#DejaVuSans-48"/>
       <use x="286.279297" xlink:href="#DejaVuSans-50"/>
       <use x="349.902344" xlink:href="#DejaVuSans-48"/>
       <use x="413.525391" xlink:href="#DejaVuSans-48"/>
      </g>
     </g>
    </g>
    <g id="xtick_3">
     <g id="line2d_3">
      <path clip-path="url(#pb4965cdeb0)" d="M 118.219731 310.18 
L 118.219731 19.44 
" style="fill:none;stroke:#ffffff;stroke-linecap:round;"/>
     </g>
     <g id="text_3">
      <!-- 0.000225 -->
      <g style="fill:#262626;" transform="translate(91.976137 328.038281)scale(0.11 -0.11)">
       <use xlink:href="#DejaVuSans-48"/>
       <use x="63.623047" xlink:href="#DejaVuSans-46"/>
       <use x="95.410156" xlink:href="#DejaVuSans-48"/>
       <use x="159.033203" xlink:href="#DejaVuSans-48"/>
       <use x="222.65625" xlink:href="#DejaVuSans-48"/>
       <use x="286.279297" xlink:href="#DejaVuSans-50"/>
       <use x="349.902344" xlink:href="#DejaVuSans-50"/>
       <use x="413.525391" xlink:href="#DejaVuSans-53"/>
      </g>
     </g>
    </g>
   </g>
   <g id="matplotlib.axis_2">
    <g id="ytick_1">
     <g id="line2d_4">
      <path clip-path="url(#pb4965cdeb0)" d="M 45.5 298.762566 
L 144.24 298.762566 
" style="fill:none;stroke:#ffffff;stroke-linecap:round;"/>
     </g>
     <g id="text_4">
      <!-- 80 -->
      <defs>
       <path d="M 31.78125 34.625 
Q 24.75 34.625 20.71875 30.859375 
Q 16.703125 27.09375 16.703125 20.515625 
Q 16.703125 13.921875 20.71875 10.15625 
Q 24.75 6.390625 31.78125 6.390625 
Q 38.8125 6.390625 42.859375 10.171875 
Q 46.921875 13.96875 46.921875 20.515625 
Q 46.921875 27.09375 42.890625 30.859375 
Q 38.875 34.625 31.78125 34.625 
z
M 21.921875 38.8125 
Q 15.578125 40.375 12.03125 44.71875 
Q 8.5 49.078125 8.5 55.328125 
Q 8.5 64.0625 14.71875 69.140625 
Q 20.953125 74.21875 31.78125 74.21875 
Q 42.671875 74.21875 48.875 69.140625 
Q 55.078125 64.0625 55.078125 55.328125 
Q 55.078125 49.078125 51.53125 44.71875 
Q 48 40.375 41.703125 38.8125 
Q 48.828125 37.15625 52.796875 32.3125 
Q 56.78125 27.484375 56.78125 20.515625 
Q 56.78125 9.90625 50.3125 4.234375 
Q 43.84375 -1.421875 31.78125 -1.421875 
Q 19.734375 -1.421875 13.25 4.234375 
Q 6.78125 9.90625 6.78125 20.515625 
Q 6.78125 27.484375 10.78125 32.3125 
Q 14.796875 37.15625 21.921875 38.8125 
z
M 18.3125 54.390625 
Q 18.3125 48.734375 21.84375 45.5625 
Q 25.390625 42.390625 31.78125 42.390625 
Q 38.140625 42.390625 41.71875 45.5625 
Q 45.3125 48.734375 45.3125 54.390625 
Q 45.3125 60.0625 41.71875 63.234375 
Q 38.140625 66.40625 31.78125 66.40625 
Q 25.390625 66.40625 21.84375 63.234375 
Q 18.3125 60.0625 18.3125 54.390625 
z
" id="DejaVuSans-56"/>
      </defs>
      <g style="fill:#262626;" transform="translate(22.0025 302.941707)scale(0.11 -0.11)">
       <use xlink:href="#DejaVuSans-56"/>
       <use x="63.623047" xlink:href="#DejaVuSans-48"/>
      </g>
     </g>
    </g>
    <g id="ytick_2">
     <g id="line2d_5">
      <path clip-path="url(#pb4965cdeb0)" d="M 45.5 262.802146 
L 144.24 262.802146 
" style="fill:none;stroke:#ffffff;stroke-linecap:round;"/>
     </g>
     <g id="text_5">
      <!-- 100 -->
      <g style="fill:#262626;" transform="translate(15.00375 266.981287)scale(0.11 -0.11)">
       <use xlink:href="#DejaVuSans-49"/>
       <use x="63.623047" xlink:href="#DejaVuSans-48"/>
       <use x="127.246094" xlink:href="#DejaVuSans-48"/>
      </g>
     </g>
    </g>
    <g id="ytick_3">
     <g id="line2d_6">
      <path clip-path="url(#pb4965cdeb0)" d="M 45.5 226.841725 
L 144.24 226.841725 
" style="fill:none;stroke:#ffffff;stroke-linecap:round;"/>
     </g>
     <g id="text_6">
      <!-- 120 -->
      <g style="fill:#262626;" transform="translate(15.00375 231.020866)scale(0.11 -0.11)">
       <use xlink:href="#DejaVuSans-49"/>
       <use x="63.623047" xlink:href="#DejaVuSans-50"/>
       <use x="127.246094" xlink:href="#DejaVuSans-48"/>
      </g>
     </g>
    </g>
    <g id="ytick_4">
     <g id="line2d_7">
      <path clip-path="url(#pb4965cdeb0)" d="M 45.5 190.881305 
L 144.24 190.881305 
" style="fill:none;stroke:#ffffff;stroke-linecap:round;"/>
     </g>
     <g id="text_7">
      <!-- 140 -->
      <defs>
       <path d="M 37.796875 64.3125 
L 12.890625 25.390625 
L 37.796875 25.390625 
z
M 35.203125 72.90625 
L 47.609375 72.90625 
L 47.609375 25.390625 
L 58.015625 25.390625 
L 58.015625 17.1875 
L 47.609375 17.1875 
L 47.609375 0 
L 37.796875 0 
L 37.796875 17.1875 
L 4.890625 17.1875 
L 4.890625 26.703125 
z
" id="DejaVuSans-52"/>
      </defs>
      <g style="fill:#262626;" transform="translate(15.00375 195.060446)scale(0.11 -0.11)">
       <use xlink:href="#DejaVuSans-49"/>
       <use x="63.623047" xlink:href="#DejaVuSans-52"/>
       <use x="127.246094" xlink:href="#DejaVuSans-48"/>
      </g>
     </g>
    </g>
    <g id="ytick_5">
     <g id="line2d_8">
      <path clip-path="url(#pb4965cdeb0)" d="M 45.5 154.920884 
L 144.24 154.920884 
" style="fill:none;stroke:#ffffff;stroke-linecap:round;"/>
     </g>
     <g id="text_8">
      <!-- 160 -->
      <defs>
       <path d="M 33.015625 40.375 
Q 26.375 40.375 22.484375 35.828125 
Q 18.609375 31.296875 18.609375 23.390625 
Q 18.609375 15.53125 22.484375 10.953125 
Q 26.375 6.390625 33.015625 6.390625 
Q 39.65625 6.390625 43.53125 10.953125 
Q 47.40625 15.53125 47.40625 23.390625 
Q 47.40625 31.296875 43.53125 35.828125 
Q 39.65625 40.375 33.015625 40.375 
z
M 52.59375 71.296875 
L 52.59375 62.3125 
Q 48.875 64.0625 45.09375 64.984375 
Q 41.3125 65.921875 37.59375 65.921875 
Q 27.828125 65.921875 22.671875 59.328125 
Q 17.53125 52.734375 16.796875 39.40625 
Q 19.671875 43.65625 24.015625 45.921875 
Q 28.375 48.1875 33.59375 48.1875 
Q 44.578125 48.1875 50.953125 41.515625 
Q 57.328125 34.859375 57.328125 23.390625 
Q 57.328125 12.15625 50.6875 5.359375 
Q 44.046875 -1.421875 33.015625 -1.421875 
Q 20.359375 -1.421875 13.671875 8.265625 
Q 6.984375 17.96875 6.984375 36.375 
Q 6.984375 53.65625 15.1875 63.9375 
Q 23.390625 74.21875 37.203125 74.21875 
Q 40.921875 74.21875 44.703125 73.484375 
Q 48.484375 72.75 52.59375 71.296875 
z
" id="DejaVuSans-54"/>
      </defs>
      <g style="fill:#262626;" transform="translate(15.00375 159.100025)scale(0.11 -0.11)">
       <use xlink:href="#DejaVuSans-49"/>
       <use x="63.623047" xlink:href="#DejaVuSans-54"/>
       <use x="127.246094" xlink:href="#DejaVuSans-48"/>
      </g>
     </g>
    </g>
    <g id="ytick_6">
     <g id="line2d_9">
      <path clip-path="url(#pb4965cdeb0)" d="M 45.5 118.960464 
L 144.24 118.960464 
" style="fill:none;stroke:#ffffff;stroke-linecap:round;"/>
     </g>
     <g id="text_9">
      <!-- 180 -->
      <g style="fill:#262626;" transform="translate(15.00375 123.139604)scale(0.11 -0.11)">
       <use xlink:href="#DejaVuSans-49"/>
       <use x="63.623047" xlink:href="#DejaVuSans-56"/>
       <use x="127.246094" xlink:href="#DejaVuSans-48"/>
      </g>
     </g>
    </g>
    <g id="ytick_7">
     <g id="line2d_10">
      <path clip-path="url(#pb4965cdeb0)" d="M 45.5 83.000043 
L 144.24 83.000043 
" style="fill:none;stroke:#ffffff;stroke-linecap:round;"/>
     </g>
     <g id="text_10">
      <!-- 200 -->
      <g style="fill:#262626;" transform="translate(15.00375 87.179184)scale(0.11 -0.11)">
       <use xlink:href="#DejaVuSans-50"/>
       <use x="63.623047" xlink:href="#DejaVuSans-48"/>
       <use x="127.246094" xlink:href="#DejaVuSans-48"/>
      </g>
     </g>
    </g>
    <g id="ytick_8">
     <g id="line2d_11">
      <path clip-path="url(#pb4965cdeb0)" d="M 45.5 47.039623 
L 144.24 47.039623 
" style="fill:none;stroke:#ffffff;stroke-linecap:round;"/>
     </g>
     <g id="text_11">
      <!-- 220 -->
      <g style="fill:#262626;" transform="translate(15.00375 51.218763)scale(0.11 -0.11)">
       <use xlink:href="#DejaVuSans-50"/>
       <use x="63.623047" xlink:href="#DejaVuSans-50"/>
       <use x="127.246094" xlink:href="#DejaVuSans-48"/>
      </g>
     </g>
    </g>
   </g>
   <g id="line2d_12">
    <path clip-path="url(#pb4965cdeb0)" d="M 49.988182 32.655455 
L 50.128001 83.000043 
L 50.267819 90.192127 
L 50.407638 57.827749 
L 50.687276 120.758485 
L 50.827094 108.172338 
L 50.966913 81.202022 
L 51.246551 104.576296 
L 51.386369 59.62577 
L 51.526188 111.76838 
L 51.666007 100.980254 
L 51.805826 81.202022 
L 51.945644 90.192127 
L 52.085463 38.049518 
L 52.225282 95.58619 
L 52.365101 90.192127 
L 52.504919 70.413896 
L 52.784557 86.596085 
L 52.924376 74.009938 
L 53.204013 124.354527 
L 53.343832 86.596085 
L 53.483651 138.738695 
L 53.623469 135.142653 
L 53.763288 65.019833 
L 54.042926 147.7288 
L 54.322563 77.60598 
L 54.462382 145.930779 
L 54.602201 135.142653 
L 54.742019 90.192127 
L 54.881838 153.122863 
L 55.021657 106.374317 
L 55.161476 109.970359 
L 55.301294 180.093179 
L 55.441113 135.142653 
L 55.580932 156.718905 
L 55.72075 136.940674 
L 55.860569 147.7288 
L 56.000388 199.87141 
L 56.140207 127.950569 
L 56.280025 127.950569 
L 56.419844 149.526821 
L 56.699482 109.970359 
L 56.8393 154.920884 
L 56.979119 156.718905 
L 57.118938 138.738695 
L 57.258757 158.516926 
L 57.398575 194.477347 
L 57.538394 147.7288 
L 57.678213 190.881305 
L 57.95785 111.76838 
L 58.097669 158.516926 
L 58.237488 163.910989 
L 58.377307 163.910989 
L 58.517125 189.083284 
L 58.796763 151.324842 
L 59.0764 144.132758 
L 59.356038 190.881305 
L 59.635675 145.930779 
L 59.775494 181.8912 
L 59.915313 180.093179 
L 60.055132 203.467452 
L 60.19495 171.103074 
L 60.334769 203.467452 
L 60.474588 144.132758 
L 60.614407 136.940674 
L 60.754225 201.669431 
L 60.894044 171.103074 
L 61.033863 181.8912 
L 61.173682 142.334737 
L 61.453319 154.920884 
L 61.593138 189.083284 
L 61.732957 187.285263 
L 61.872775 156.718905 
L 62.012594 187.285263 
L 62.292232 196.275368 
L 62.43205 187.285263 
L 62.571869 196.275368 
L 62.711688 178.295158 
L 62.851507 189.083284 
L 63.131144 142.334737 
L 63.270963 160.314947 
L 63.410782 156.718905 
L 63.690419 171.103074 
L 63.830238 117.162443 
L 63.970057 198.073389 
L 64.109875 172.901095 
L 64.249694 198.073389 
L 64.529332 169.305053 
L 64.66915 237.629852 
L 64.808969 176.497137 
L 64.948788 190.881305 
L 65.088607 244.821936 
L 65.368244 185.487242 
L 65.508063 217.85162 
L 65.647882 207.063494 
L 65.7877 162.112968 
L 66.067338 207.063494 
L 66.207157 158.516926 
L 66.626613 217.85162 
L 66.766432 252.01402 
L 66.90625 198.073389 
L 67.046069 205.265473 
L 67.185888 225.043704 
L 67.325707 223.245683 
L 67.605344 151.324842 
L 68.0248 208.861515 
L 68.164619 208.861515 
L 68.304438 198.073389 
L 68.444257 221.447662 
L 68.584075 225.043704 
L 68.723894 154.920884 
L 68.863713 221.447662 
L 69.14335 198.073389 
L 69.283169 205.265473 
L 69.422988 198.073389 
L 69.562807 205.265473 
L 69.702625 201.669431 
L 69.842444 241.225894 
L 70.122082 205.265473 
L 70.2619 221.447662 
L 70.541538 189.083284 
L 70.681357 201.669431 
L 70.821175 250.215999 
L 70.960994 217.85162 
L 71.100813 214.255578 
L 71.240632 205.265473 
L 71.520269 239.427873 
L 71.660088 235.831831 
L 71.799907 248.417978 
L 72.079544 208.861515 
L 72.219363 239.427873 
L 72.359182 225.043704 
L 72.499 185.487242 
L 72.778638 244.821936 
L 72.918457 190.881305 
L 73.058275 205.265473 
L 73.198094 183.689221 
L 73.337913 190.881305 
L 73.477732 234.03381 
L 73.61755 201.669431 
L 73.757369 217.85162 
L 73.897188 208.861515 
L 74.037007 237.629852 
L 74.176825 237.629852 
L 74.316644 216.053599 
L 74.456463 219.649641 
L 74.596282 230.437767 
L 74.7361 201.669431 
L 74.875919 201.669431 
L 75.015738 243.023915 
L 75.155556 201.669431 
L 75.295375 237.629852 
L 75.435194 198.073389 
L 75.714831 257.408083 
L 75.85465 241.225894 
L 75.994469 187.285263 
L 76.134288 237.629852 
L 76.274106 219.649641 
L 76.413925 243.023915 
L 76.553744 210.659536 
L 76.693563 230.437767 
L 76.833381 214.255578 
L 76.9732 212.457557 
L 77.113019 217.85162 
L 77.252838 216.053599 
L 77.392656 205.265473 
L 77.532475 244.821936 
L 77.672294 234.03381 
L 77.812113 273.590272 
L 77.951931 212.457557 
L 78.09175 232.235788 
L 78.231569 214.255578 
L 78.511206 252.01402 
L 78.790844 207.063494 
L 78.930663 203.467452 
L 79.070481 181.8912 
L 79.350119 246.619957 
L 79.489938 223.245683 
L 79.769575 253.812041 
L 80.049213 205.265473 
L 80.189031 252.01402 
L 80.32885 235.831831 
L 80.468669 244.821936 
L 80.748306 214.255578 
L 80.888125 219.649641 
L 81.027944 214.255578 
L 81.167763 237.629852 
L 81.307581 214.255578 
L 81.587219 250.215999 
L 81.727038 212.457557 
L 81.866856 226.841725 
L 82.006675 219.649641 
L 82.286313 261.004125 
L 82.426131 259.206104 
L 82.56595 234.03381 
L 82.705769 243.023915 
L 82.985406 201.669431 
L 83.125225 252.01402 
L 83.265044 228.639746 
L 83.404863 225.043704 
L 83.544681 250.215999 
L 83.6845 198.073389 
L 83.964138 252.01402 
L 84.103956 250.215999 
L 84.243775 228.639746 
L 84.383594 226.841725 
L 84.523413 243.023915 
L 84.80305 208.861515 
L 84.942869 234.03381 
L 85.082688 232.235788 
L 85.222506 248.417978 
L 85.362325 221.447662 
L 85.641963 244.821936 
L 85.781781 183.689221 
L 86.061419 228.639746 
L 86.201238 225.043704 
L 86.341056 217.85162 
L 86.480875 194.477347 
L 86.620694 253.812041 
L 86.760513 252.01402 
L 86.900331 255.610062 
L 87.04015 225.043704 
L 87.179969 261.004125 
L 87.319788 223.245683 
L 87.459606 252.01402 
L 87.599425 221.447662 
L 87.739244 223.245683 
L 88.018881 235.831831 
L 88.1587 201.669431 
L 88.298519 234.03381 
L 88.438338 230.437767 
L 88.578156 232.235788 
L 88.717975 248.417978 
L 88.857794 244.821936 
L 88.997613 230.437767 
L 89.137431 275.388293 
L 89.27725 239.427873 
L 89.417069 286.176419 
L 89.556888 228.639746 
L 89.696706 237.629852 
L 89.836525 277.186314 
L 89.976344 225.043704 
L 90.116163 250.215999 
L 90.255981 198.073389 
L 90.3958 250.215999 
L 90.535619 244.821936 
L 90.675438 246.619957 
L 90.815256 205.265473 
L 90.955075 216.053599 
L 91.094894 250.215999 
L 91.234713 219.649641 
L 91.374531 226.841725 
L 91.51435 241.225894 
L 91.793988 228.639746 
L 91.933806 228.639746 
L 92.073625 237.629852 
L 92.213444 237.629852 
L 92.353263 205.265473 
L 92.6329 230.437767 
L 92.772719 246.619957 
L 92.912538 225.043704 
L 93.052356 230.437767 
L 93.192175 268.196209 
L 93.331994 269.99423 
L 93.471813 187.285263 
L 93.611631 291.570482 
L 93.891269 207.063494 
L 94.031088 259.206104 
L 94.170906 212.457557 
L 94.310725 239.427873 
L 94.450544 205.265473 
L 94.590363 223.245683 
L 94.87 228.639746 
L 95.009819 261.004125 
L 95.149637 223.245683 
L 95.289456 237.629852 
L 95.429275 230.437767 
L 95.569094 214.255578 
L 95.708912 269.99423 
L 95.98855 214.255578 
L 96.128369 252.01402 
L 96.268187 259.206104 
L 96.408006 210.659536 
L 96.547825 207.063494 
L 96.687644 243.023915 
L 96.827462 223.245683 
L 96.967281 255.610062 
L 97.1071 190.881305 
L 97.246919 221.447662 
L 97.386737 203.467452 
L 97.526556 235.831831 
L 97.666375 217.85162 
L 97.806194 232.235788 
L 97.946012 221.447662 
L 98.085831 232.235788 
L 98.22565 226.841725 
L 98.365469 243.023915 
L 98.505287 235.831831 
L 98.645106 253.812041 
L 98.784925 203.467452 
L 98.924744 271.792251 
L 99.064562 192.679326 
L 99.204381 248.417978 
L 99.484019 208.861515 
L 99.623837 252.01402 
L 99.763656 255.610062 
L 99.903475 219.649641 
L 100.043294 257.408083 
L 100.46275 187.285263 
L 100.742387 232.235788 
L 100.882206 205.265473 
L 101.022025 235.831831 
L 101.161844 198.073389 
L 101.301662 239.427873 
L 101.441481 225.043704 
L 101.5813 237.629852 
L 101.721119 268.196209 
L 102.140575 232.235788 
L 102.280394 253.812041 
L 102.420212 246.619957 
L 102.560031 228.639746 
L 102.69985 252.01402 
L 102.839669 235.831831 
L 103.119306 275.388293 
L 103.259125 259.206104 
L 103.398944 221.447662 
L 103.538762 248.417978 
L 103.8184 225.043704 
L 104.098037 248.417978 
L 104.377675 208.861515 
L 104.517494 235.831831 
L 104.657312 226.841725 
L 104.797131 237.629852 
L 105.076769 223.245683 
L 105.216587 235.831831 
L 105.356406 230.437767 
L 105.496225 207.063494 
L 105.636044 239.427873 
L 105.915681 199.87141 
L 106.335137 244.821936 
L 106.474956 252.01402 
L 106.614775 223.245683 
L 106.754594 264.600167 
L 106.894412 257.408083 
L 107.034231 241.225894 
L 107.17405 246.619957 
L 107.313869 246.619957 
L 107.453687 264.600167 
L 107.593506 253.812041 
L 107.733325 252.01402 
L 108.012962 228.639746 
L 108.152781 232.235788 
L 108.2926 203.467452 
L 108.432419 252.01402 
L 108.572237 237.629852 
L 108.712056 255.610062 
L 108.851875 226.841725 
L 108.991694 221.447662 
L 109.131512 237.629852 
L 109.271331 217.85162 
L 109.41115 232.235788 
L 109.550969 210.659536 
L 109.690787 230.437767 
L 109.830606 230.437767 
L 109.970425 250.215999 
L 110.110244 187.285263 
L 110.250062 239.427873 
L 110.389881 235.831831 
L 110.669519 216.053599 
L 110.809337 250.215999 
L 110.949156 198.073389 
L 111.228794 255.610062 
L 111.368612 243.023915 
L 111.508431 250.215999 
L 111.64825 248.417978 
L 111.788069 228.639746 
L 111.927887 232.235788 
L 112.067706 230.437767 
L 112.207525 296.964545 
L 112.487162 243.023915 
L 112.626981 243.023915 
L 112.7668 221.447662 
L 112.906619 226.841725 
L 113.186256 203.467452 
L 113.326075 225.043704 
L 113.465894 216.053599 
L 113.745531 239.427873 
L 113.88535 239.427873 
L 114.025169 237.629852 
L 114.164987 252.01402 
L 114.304806 253.812041 
L 114.444625 264.600167 
L 114.584444 257.408083 
L 114.724262 257.408083 
L 114.864081 235.831831 
L 115.0039 244.821936 
L 115.143718 203.467452 
L 115.423356 253.812041 
L 115.563175 261.004125 
L 115.842812 226.841725 
L 115.982631 225.043704 
L 116.12245 232.235788 
L 116.262268 228.639746 
L 116.402087 248.417978 
L 116.681725 235.831831 
L 116.821543 250.215999 
L 117.101181 212.457557 
L 117.241 248.417978 
L 117.380818 237.629852 
L 117.520637 237.629852 
L 117.660456 221.447662 
L 117.800275 241.225894 
L 117.940093 234.03381 
L 118.079912 214.255578 
L 118.219731 230.437767 
L 118.35955 232.235788 
L 118.499368 244.821936 
L 118.779006 230.437767 
L 118.918825 226.841725 
L 119.198462 208.861515 
L 119.338281 226.841725 
L 119.4781 226.841725 
L 119.617918 230.437767 
L 119.757737 253.812041 
L 119.897556 228.639746 
L 120.177193 246.619957 
L 120.456831 214.255578 
L 120.59665 223.245683 
L 120.736468 244.821936 
L 120.876287 244.821936 
L 121.016106 230.437767 
L 121.155925 269.99423 
L 121.295743 243.023915 
L 121.435562 262.802146 
L 121.575381 246.619957 
L 121.7152 250.215999 
L 121.855018 234.03381 
L 121.994837 273.590272 
L 122.134656 210.659536 
L 122.274475 243.023915 
L 122.414293 225.043704 
L 122.554112 230.437767 
L 122.693931 252.01402 
L 122.83375 196.275368 
L 123.113387 250.215999 
L 123.253206 207.063494 
L 123.532843 269.99423 
L 123.812481 207.063494 
L 123.9523 212.457557 
L 124.092118 235.831831 
L 124.231937 225.043704 
L 124.371756 234.03381 
L 124.511575 261.004125 
L 124.651393 239.427873 
L 124.791212 255.610062 
L 125.210668 228.639746 
L 125.350487 192.679326 
L 125.490306 219.649641 
L 125.630125 214.255578 
L 125.769943 239.427873 
L 125.909762 221.447662 
L 126.049581 246.619957 
L 126.1894 232.235788 
L 126.329218 255.610062 
L 126.469037 234.03381 
L 126.608856 243.023915 
L 126.748675 210.659536 
L 126.888493 264.600167 
L 127.168131 214.255578 
L 127.30795 221.447662 
L 127.447768 248.417978 
L 127.587587 244.821936 
L 127.727406 246.619957 
L 127.867225 262.802146 
L 128.286681 194.477347 
L 128.4265 232.235788 
L 128.706137 250.215999 
L 128.985775 237.629852 
L 129.125593 208.861515 
L 129.265412 244.821936 
L 129.405231 212.457557 
L 129.54505 246.619957 
L 129.684868 241.225894 
L 129.824687 221.447662 
L 130.104325 244.821936 
L 130.244143 243.023915 
L 130.383962 257.408083 
L 130.6636 234.03381 
L 130.803418 223.245683 
L 131.083056 241.225894 
L 131.222875 212.457557 
L 131.502512 264.600167 
L 131.642331 282.580377 
L 131.78215 194.477347 
L 132.061787 252.01402 
L 132.201606 237.629852 
L 132.481243 269.99423 
L 132.760881 244.821936 
L 132.9007 243.023915 
L 133.040518 243.023915 
L 133.180337 257.408083 
L 133.320156 230.437767 
L 133.459975 226.841725 
L 133.599793 226.841725 
L 133.739612 230.437767 
L 133.879431 246.619957 
L 134.01925 248.417978 
L 134.159068 205.265473 
L 134.298887 205.265473 
L 134.438706 262.802146 
L 134.578524 208.861515 
L 134.718343 246.619957 
L 134.858162 252.01402 
L 135.137799 244.821936 
L 135.277618 214.255578 
L 135.417437 250.215999 
L 135.557256 230.437767 
L 135.697074 250.215999 
L 135.836893 232.235788 
L 135.976712 250.215999 
L 136.116531 244.821936 
L 136.256349 261.004125 
L 136.396168 198.073389 
L 136.535987 252.01402 
L 136.675806 244.821936 
L 136.815624 255.610062 
L 136.955443 234.03381 
L 137.095262 275.388293 
L 137.374899 216.053599 
L 137.514718 234.03381 
L 137.654537 208.861515 
L 137.934174 226.841725 
L 138.073993 246.619957 
L 138.213812 239.427873 
L 138.353631 219.649641 
L 138.493449 228.639746 
L 138.633268 255.610062 
L 138.912906 234.03381 
L 139.052724 208.861515 
L 139.192543 252.01402 
L 139.332362 226.841725 
L 139.751818 216.053599 
L 139.751818 216.053599 
" style="fill:none;stroke:#4c72b0;stroke-linecap:round;stroke-width:1.5;"/>
   </g>
   <g id="line2d_13">
    <path clip-path="url(#pb4965cdeb0)" d="M 49.988182 32.655455 
L 50.128001 78.206701 
L 50.267819 80.124638 
L 50.407638 54.471854 
L 50.547457 86.227547 
L 50.687276 88.851283 
L 50.966913 67.079349 
L 51.246551 75.778803 
L 51.386369 63.005147 
L 51.526188 78.22222 
L 51.805826 73.635386 
L 51.945644 77.022697 
L 52.085463 70.764672 
L 52.225282 81.409102 
L 52.365101 82.674551 
L 52.504919 82.670032 
L 53.204013 98.047192 
L 53.343832 98.318127 
L 53.623469 105.080088 
L 53.763288 104.843909 
L 54.042926 111.893035 
L 54.322563 114.54236 
L 54.602201 119.792597 
L 54.742019 121.112408 
L 55.021657 125.242594 
L 56.140207 139.029839 
L 57.258757 149.893222 
L 58.097669 156.407452 
L 59.216219 163.453085 
L 60.474588 169.812007 
L 62.43205 178.324728 
L 66.346975 195.155527 
L 68.584075 204.770016 
L 69.982263 209.739934 
L 71.38045 213.837688 
L 72.638819 216.888204 
L 73.897188 219.353978 
L 75.155556 221.344032 
L 78.09175 225.377979 
L 79.909394 227.580203 
L 81.4474 229.101112 
L 84.523413 231.675235 
L 87.319788 233.915921 
L 88.717975 234.694157 
L 89.836525 235.07595 
L 90.675438 235.142088 
L 91.51435 234.968271 
L 92.353263 234.555313 
L 93.471813 233.711072 
L 95.569094 232.07389 
L 96.547825 231.57162 
L 97.386737 231.362823 
L 98.085831 231.399744 
L 98.924744 231.70644 
L 99.903475 232.339128 
L 104.377675 235.626217 
L 105.216587 235.835792 
L 106.0555 235.803196 
L 108.572237 235.497027 
L 110.250062 235.68644 
L 114.584444 236.308499 
L 115.842812 236.072446 
L 120.59665 234.987173 
L 122.134656 234.920682 
L 124.651393 235.088383 
L 125.909762 235.329931 
L 126.888493 235.749338 
L 128.007043 236.487953 
L 130.943237 238.605239 
L 131.921968 238.954195 
L 132.760881 239.00723 
L 133.459975 238.824017 
L 134.159068 238.397253 
L 134.997981 237.562841 
L 135.976712 236.222591 
L 137.374899 233.885822 
L 139.751818 229.836857 
L 139.751818 229.836857 
" style="fill:none;stroke:#dd8452;stroke-linecap:round;stroke-width:1.5;"/>
   </g>
   <g id="patch_3">
    <path d="M 45.5 310.18 
L 45.5 19.44 
" style="fill:none;stroke:#ffffff;stroke-linecap:square;stroke-linejoin:miter;stroke-width:1.25;"/>
   </g>
   <g id="patch_4">
    <path d="M 144.24 310.18 
L 144.24 19.44 
" style="fill:none;stroke:#ffffff;stroke-linecap:square;stroke-linejoin:miter;stroke-width:1.25;"/>
   </g>
   <g id="patch_5">
    <path d="M 45.5 310.18 
L 144.24 310.18 
" style="fill:none;stroke:#ffffff;stroke-linecap:square;stroke-linejoin:miter;stroke-width:1.25;"/>
   </g>
   <g id="patch_6">
    <path d="M 45.5 19.44 
L 144.24 19.44 
" style="fill:none;stroke:#ffffff;stroke-linecap:square;stroke-linejoin:miter;stroke-width:1.25;"/>
   </g>
  </g>
  <g id="axes_2">
   <g id="patch_7">
    <path d="M 194.06 310.18 
L 292.8 310.18 
L 292.8 19.44 
L 194.06 19.44 
z
" style="fill:#eaeaf2;"/>
   </g>
   <g id="matplotlib.axis_3">
    <g id="xtick_4">
     <g id="line2d_14">
      <path clip-path="url(#pee4380bdaf)" d="M 199.099725 310.18 
L 199.099725 19.44 
" style="fill:none;stroke:#ffffff;stroke-linecap:round;"/>
     </g>
     <g id="text_12">
      <!-- 0.00035 -->
      <defs>
       <path d="M 40.578125 39.3125 
Q 47.65625 37.796875 51.625 33 
Q 55.609375 28.21875 55.609375 21.1875 
Q 55.609375 10.40625 48.1875 4.484375 
Q 40.765625 -1.421875 27.09375 -1.421875 
Q 22.515625 -1.421875 17.65625 -0.515625 
Q 12.796875 0.390625 7.625 2.203125 
L 7.625 11.71875 
Q 11.71875 9.328125 16.59375 8.109375 
Q 21.484375 6.890625 26.8125 6.890625 
Q 36.078125 6.890625 40.9375 10.546875 
Q 45.796875 14.203125 45.796875 21.1875 
Q 45.796875 27.640625 41.28125 31.265625 
Q 36.765625 34.90625 28.71875 34.90625 
L 20.21875 34.90625 
L 20.21875 43.015625 
L 29.109375 43.015625 
Q 36.375 43.015625 40.234375 45.921875 
Q 44.09375 48.828125 44.09375 54.296875 
Q 44.09375 59.90625 40.109375 62.90625 
Q 36.140625 65.921875 28.71875 65.921875 
Q 24.65625 65.921875 20.015625 65.03125 
Q 15.375 64.15625 9.8125 62.3125 
L 9.8125 71.09375 
Q 15.4375 72.65625 20.34375 73.4375 
Q 25.25 74.21875 29.59375 74.21875 
Q 40.828125 74.21875 47.359375 69.109375 
Q 53.90625 64.015625 53.90625 55.328125 
Q 53.90625 49.265625 50.4375 45.09375 
Q 46.96875 40.921875 40.578125 39.3125 
z
" id="DejaVuSans-51"/>
      </defs>
      <g style="fill:#262626;" transform="translate(176.355506 328.038281)scale(0.11 -0.11)">
       <use xlink:href="#DejaVuSans-48"/>
       <use x="63.623047" xlink:href="#DejaVuSans-46"/>
       <use x="95.410156" xlink:href="#DejaVuSans-48"/>
       <use x="159.033203" xlink:href="#DejaVuSans-48"/>
       <use x="222.65625" xlink:href="#DejaVuSans-48"/>
       <use x="286.279297" xlink:href="#DejaVuSans-51"/>
       <use x="349.902344" xlink:href="#DejaVuSans-53"/>
      </g>
     </g>
    </g>
    <g id="xtick_5">
     <g id="line2d_15">
      <path clip-path="url(#pee4380bdaf)" d="M 268.04261 310.18 
L 268.04261 19.44 
" style="fill:none;stroke:#ffffff;stroke-linecap:round;"/>
     </g>
     <g id="text_13">
      <!-- 0.00040 -->
      <g style="fill:#262626;" transform="translate(245.298391 328.038281)scale(0.11 -0.11)">
       <use xlink:href="#DejaVuSans-48"/>
       <use x="63.623047" xlink:href="#DejaVuSans-46"/>
       <use x="95.410156" xlink:href="#DejaVuSans-48"/>
       <use x="159.033203" xlink:href="#DejaVuSans-48"/>
       <use x="222.65625" xlink:href="#DejaVuSans-48"/>
       <use x="286.279297" xlink:href="#DejaVuSans-52"/>
       <use x="349.902344" xlink:href="#DejaVuSans-48"/>
      </g>
     </g>
    </g>
   </g>
   <g id="matplotlib.axis_4">
    <g id="ytick_9">
     <g id="line2d_16">
      <path clip-path="url(#pee4380bdaf)" d="M 194.06 295.800188 
L 292.8 295.800188 
" style="fill:none;stroke:#ffffff;stroke-linecap:round;"/>
     </g>
     <g id="text_14">
      <!-- 100 -->
      <g style="fill:#262626;" transform="translate(163.56375 299.979329)scale(0.11 -0.11)">
       <use xlink:href="#DejaVuSans-49"/>
       <use x="63.623047" xlink:href="#DejaVuSans-48"/>
       <use x="127.246094" xlink:href="#DejaVuSans-48"/>
      </g>
     </g>
    </g>
    <g id="ytick_10">
     <g id="line2d_17">
      <path clip-path="url(#pee4380bdaf)" d="M 194.06 237.582327 
L 292.8 237.582327 
" style="fill:none;stroke:#ffffff;stroke-linecap:round;"/>
     </g>
     <g id="text_15">
      <!-- 150 -->
      <g style="fill:#262626;" transform="translate(163.56375 241.761467)scale(0.11 -0.11)">
       <use xlink:href="#DejaVuSans-49"/>
       <use x="63.623047" xlink:href="#DejaVuSans-53"/>
       <use x="127.246094" xlink:href="#DejaVuSans-48"/>
      </g>
     </g>
    </g>
    <g id="ytick_11">
     <g id="line2d_18">
      <path clip-path="url(#pee4380bdaf)" d="M 194.06 179.364465 
L 292.8 179.364465 
" style="fill:none;stroke:#ffffff;stroke-linecap:round;"/>
     </g>
     <g id="text_16">
      <!-- 200 -->
      <g style="fill:#262626;" transform="translate(163.56375 183.543606)scale(0.11 -0.11)">
       <use xlink:href="#DejaVuSans-50"/>
       <use x="63.623047" xlink:href="#DejaVuSans-48"/>
       <use x="127.246094" xlink:href="#DejaVuSans-48"/>
      </g>
     </g>
    </g>
    <g id="ytick_12">
     <g id="line2d_19">
      <path clip-path="url(#pee4380bdaf)" d="M 194.06 121.146604 
L 292.8 121.146604 
" style="fill:none;stroke:#ffffff;stroke-linecap:round;"/>
     </g>
     <g id="text_17">
      <!-- 250 -->
      <g style="fill:#262626;" transform="translate(163.56375 125.325745)scale(0.11 -0.11)">
       <use xlink:href="#DejaVuSans-50"/>
       <use x="63.623047" xlink:href="#DejaVuSans-53"/>
       <use x="127.246094" xlink:href="#DejaVuSans-48"/>
      </g>
     </g>
    </g>
    <g id="ytick_13">
     <g id="line2d_20">
      <path clip-path="url(#pee4380bdaf)" d="M 194.06 62.928742 
L 292.8 62.928742 
" style="fill:none;stroke:#ffffff;stroke-linecap:round;"/>
     </g>
     <g id="text_18">
      <!-- 300 -->
      <g style="fill:#262626;" transform="translate(163.56375 67.107883)scale(0.11 -0.11)">
       <use xlink:href="#DejaVuSans-51"/>
       <use x="63.623047" xlink:href="#DejaVuSans-48"/>
       <use x="127.246094" xlink:href="#DejaVuSans-48"/>
      </g>
     </g>
    </g>
   </g>
   <g id="line2d_21">
    <path clip-path="url(#pee4380bdaf)" d="M 198.548182 32.655455 
L 198.686068 41.970312 
L 198.823953 89.708959 
L 199.099725 54.778242 
L 199.375496 106.00996 
L 199.651268 76.901029 
L 199.789154 110.667389 
L 199.92704 69.914886 
L 200.202811 122.310961 
L 200.478583 69.914886 
L 200.616468 104.845603 
L 200.754354 103.681245 
L 200.89224 112.996103 
L 201.168011 81.558458 
L 201.719555 138.611962 
L 201.85744 102.516888 
L 201.995326 114.160461 
L 202.133212 86.215887 
L 202.408983 136.283248 
L 202.546869 139.77632 
L 202.684755 147.92682 
L 202.822641 138.611962 
L 202.960526 156.077321 
L 203.098412 154.912964 
L 203.236298 142.105034 
L 203.374184 144.433748 
L 203.51207 114.160461 
L 203.649955 156.077321 
L 203.787841 160.73475 
L 203.925727 154.912964 
L 204.063613 182.857537 
L 204.339384 143.269391 
L 204.47727 144.433748 
L 204.615156 196.829824 
L 204.753041 158.406035 
L 204.890927 178.200108 
L 205.028813 170.049608 
L 205.304585 143.269391 
L 205.44247 140.940677 
L 205.718242 182.857537 
L 205.856128 153.748606 
L 205.994013 165.392179 
L 206.131899 154.912964 
L 206.269785 181.69318 
L 206.407671 171.213965 
L 206.545556 172.378322 
L 206.821328 200.322895 
L 207.0971 157.241678 
L 207.234985 187.514966 
L 207.372871 158.406035 
L 207.510757 179.364465 
L 207.786528 147.92682 
L 208.0623 214.295182 
L 208.200186 168.88525 
L 208.338071 220.116968 
L 208.475957 184.021894 
L 208.613843 204.980324 
L 208.751729 201.487253 
L 208.889615 207.309039 
L 209.165386 186.350609 
L 209.303272 184.021894 
L 209.716929 204.980324 
L 209.854815 232.924898 
L 209.992701 230.596183 
L 210.130587 202.65161 
L 210.268472 227.103112 
L 210.406358 189.84368 
L 210.820015 228.267469 
L 210.957901 221.281326 
L 211.095787 192.172395 
L 211.509444 222.445683 
L 211.64733 188.679323 
L 212.060987 224.774397 
L 212.198873 202.65161 
L 212.336759 202.65161 
L 212.474645 229.431826 
L 212.61253 202.65161 
L 212.750416 235.253612 
L 213.164073 200.322895 
L 213.439845 227.103112 
L 213.715617 211.966468 
L 213.853502 211.966468 
L 213.991388 216.623897 
L 214.129274 239.911041 
L 214.26716 208.473396 
L 214.405045 210.802111 
L 214.542931 200.322895 
L 214.818703 216.623897 
L 214.956588 216.623897 
L 215.094474 224.774397 
L 215.370246 213.130825 
L 215.646017 241.075398 
L 215.783903 235.253612 
L 215.921789 223.61004 
L 216.059675 248.061542 
L 216.19756 232.924898 
L 216.473332 252.718971 
L 216.611218 239.911041 
L 216.749103 242.239756 
L 217.024875 259.705114 
L 217.300647 230.596183 
L 217.438532 221.281326 
L 217.714304 234.089255 
L 217.85219 216.623897 
L 217.990075 221.281326 
L 218.127961 249.225899 
L 218.265847 224.774397 
L 218.403733 243.404113 
L 218.541618 245.732827 
L 218.679504 241.075398 
L 218.81739 253.883328 
L 219.093162 230.596183 
L 219.231047 260.869471 
L 219.506819 218.952611 
L 219.644705 245.732827 
L 219.78259 235.253612 
L 219.920476 258.540757 
L 220.058362 250.390256 
L 220.196248 276.006115 
L 220.472019 223.61004 
L 220.747791 255.047685 
L 220.885677 236.41797 
L 221.023562 238.746684 
L 221.161448 237.582327 
L 221.299334 257.3764 
L 221.43722 248.061542 
L 221.712991 252.718971 
L 221.850877 234.089255 
L 221.988763 235.253612 
L 222.126649 258.540757 
L 222.40242 229.431826 
L 222.540306 223.61004 
L 222.678192 230.596183 
L 222.816077 259.705114 
L 222.953963 260.869471 
L 223.229735 244.56847 
L 223.36762 259.705114 
L 223.643392 221.281326 
L 223.781278 253.883328 
L 223.919164 207.309039 
L 224.057049 207.309039 
L 224.332821 260.869471 
L 224.470707 276.006115 
L 224.608592 239.911041 
L 224.746478 241.075398 
L 224.884364 237.582327 
L 225.160135 263.198186 
L 225.298021 262.033829 
L 225.573793 235.253612 
L 225.711679 232.924898 
L 225.849564 248.061542 
L 225.98745 225.938755 
L 226.125336 256.212042 
L 226.263222 243.404113 
L 226.401107 250.390256 
L 226.538993 246.897185 
L 226.814765 263.198186 
L 226.95265 238.746684 
L 227.090536 253.883328 
L 227.228422 236.41797 
L 227.642079 253.883328 
L 227.779965 243.404113 
L 228.055737 253.883328 
L 228.193622 245.732827 
L 228.331508 257.3764 
L 228.469394 246.897185 
L 228.60728 256.212042 
L 228.745165 253.883328 
L 228.883051 217.788254 
L 229.158823 256.212042 
L 229.296709 251.554614 
L 229.434594 259.705114 
L 229.57248 245.732827 
L 229.848252 280.663544 
L 230.124023 246.897185 
L 230.261909 244.56847 
L 230.399795 250.390256 
L 230.53768 273.677401 
L 230.675566 262.033829 
L 230.813452 227.103112 
L 230.951338 276.006115 
L 231.364995 238.746684 
L 231.502881 258.540757 
L 231.640767 251.554614 
L 231.778652 251.554614 
L 231.916538 239.911041 
L 232.054424 270.184329 
L 232.19231 245.732827 
L 232.330196 263.198186 
L 232.468081 251.554614 
L 232.605967 217.788254 
L 232.743853 248.061542 
L 232.881739 244.56847 
L 233.019624 264.362543 
L 233.15751 262.033829 
L 233.295396 266.691258 
L 233.433282 249.225899 
L 233.571167 249.225899 
L 233.709053 238.746684 
L 233.984825 267.855615 
L 234.122711 257.3764 
L 234.260596 267.855615 
L 234.536368 259.705114 
L 234.674254 265.5269 
L 234.812139 246.897185 
L 234.950025 279.499187 
L 235.087911 250.390256 
L 235.225797 263.198186 
L 235.363682 262.033829 
L 235.501568 250.390256 
L 235.639454 250.390256 
L 235.77734 270.184329 
L 236.053111 249.225899 
L 236.190997 243.404113 
L 236.604654 262.033829 
L 236.74254 241.075398 
L 237.018312 272.513044 
L 237.156197 270.184329 
L 237.294083 273.677401 
L 237.431969 248.061542 
L 237.569855 253.883328 
L 237.707741 273.677401 
L 237.845626 269.019972 
L 237.983512 245.732827 
L 238.121398 267.855615 
L 238.397169 242.239756 
L 238.672941 260.869471 
L 238.810827 237.582327 
L 238.948712 260.869471 
L 239.086598 255.047685 
L 239.224484 269.019972 
L 239.36237 256.212042 
L 239.500256 230.596183 
L 239.638141 278.33483 
L 239.776027 281.827901 
L 240.051799 237.582327 
L 240.189684 238.746684 
L 240.32757 248.061542 
L 240.465456 282.992259 
L 240.741227 251.554614 
L 241.016999 263.198186 
L 241.154885 272.513044 
L 241.292771 255.047685 
L 241.430656 255.047685 
L 241.706428 293.471474 
L 241.982199 241.075398 
L 242.120085 237.582327 
L 242.257971 238.746684 
L 242.395857 259.705114 
L 242.533742 260.869471 
L 242.671628 258.540757 
L 242.809514 248.061542 
L 243.085286 276.006115 
L 243.498943 256.212042 
L 243.636829 252.718971 
L 243.774714 245.732827 
L 243.9126 251.554614 
L 244.050486 266.691258 
L 244.188372 241.075398 
L 244.464143 282.992259 
L 244.602029 250.390256 
L 244.739915 249.225899 
L 244.877801 237.582327 
L 245.015686 257.3764 
L 245.153572 250.390256 
L 245.291458 257.3764 
L 245.429344 277.170473 
L 245.567229 244.56847 
L 245.705115 242.239756 
L 245.843001 255.047685 
L 245.980887 257.3764 
L 246.118773 229.431826 
L 246.394544 273.677401 
L 246.53243 227.103112 
L 246.670316 251.554614 
L 246.946087 257.3764 
L 247.083973 249.225899 
L 247.221859 265.5269 
L 247.359744 243.404113 
L 247.49763 249.225899 
L 247.635516 278.33483 
L 247.773402 252.718971 
L 248.049173 265.5269 
L 248.187059 238.746684 
L 248.324945 276.006115 
L 248.462831 266.691258 
L 248.600716 278.33483 
L 248.738602 272.513044 
L 248.876488 258.540757 
L 249.014374 259.705114 
L 249.152259 269.019972 
L 249.290145 259.705114 
L 249.428031 272.513044 
L 249.703803 241.075398 
L 249.841688 249.225899 
L 249.979574 269.019972 
L 250.11746 251.554614 
L 250.255346 255.047685 
L 250.393231 269.019972 
L 250.531117 263.198186 
L 250.669003 273.677401 
L 250.806889 258.540757 
L 250.944774 258.540757 
L 251.08266 255.047685 
L 251.496318 270.184329 
L 251.634203 271.348686 
L 251.772089 241.075398 
L 251.909975 270.184329 
L 252.047861 256.212042 
L 252.185746 263.198186 
L 252.323632 245.732827 
L 252.461518 273.677401 
L 252.599404 259.705114 
L 252.737289 262.033829 
L 252.875175 249.225899 
L 253.013061 259.705114 
L 253.150947 249.225899 
L 253.288833 281.827901 
L 253.426718 253.883328 
L 253.564604 256.212042 
L 253.70249 248.061542 
L 253.840376 271.348686 
L 253.978261 239.911041 
L 254.116147 238.746684 
L 254.254033 248.061542 
L 254.391919 245.732827 
L 254.529804 270.184329 
L 254.66769 243.404113 
L 254.805576 260.869471 
L 254.943462 227.103112 
L 255.081348 241.075398 
L 255.219233 270.184329 
L 255.357119 238.746684 
L 255.632891 281.827901 
L 255.770776 259.705114 
L 255.908662 292.307117 
L 256.046548 267.855615 
L 256.184434 276.006115 
L 256.32232 238.746684 
L 256.598091 238.746684 
L 256.735977 257.3764 
L 256.873863 239.911041 
L 257.149634 276.006115 
L 257.28752 244.56847 
L 257.425406 257.3764 
L 257.563291 242.239756 
L 257.701177 248.061542 
L 257.839063 267.855615 
L 257.976949 238.746684 
L 258.25272 264.362543 
L 258.390606 245.732827 
L 258.528492 263.198186 
L 258.666378 227.103112 
L 258.804263 255.047685 
L 258.942149 245.732827 
L 259.080035 284.156616 
L 259.217921 269.019972 
L 259.355806 279.499187 
L 259.631578 251.554614 
L 259.90735 263.198186 
L 260.045235 257.3764 
L 260.183121 260.869471 
L 260.321007 245.732827 
L 260.458893 257.3764 
L 260.596778 242.239756 
L 260.734664 277.170473 
L 260.87255 252.718971 
L 261.010436 267.855615 
L 261.148321 242.239756 
L 261.286207 266.691258 
L 261.561979 235.253612 
L 261.699865 269.019972 
L 261.83775 243.404113 
L 261.975636 252.718971 
L 262.113522 246.897185 
L 262.251408 253.883328 
L 262.389293 248.061542 
L 262.527179 271.348686 
L 262.665065 255.047685 
L 262.802951 256.212042 
L 262.940836 250.390256 
L 263.078722 270.184329 
L 263.216608 234.089255 
L 263.354494 250.390256 
L 263.49238 234.089255 
L 263.906037 281.827901 
L 264.043923 273.677401 
L 264.181808 252.718971 
L 264.319694 257.3764 
L 264.45758 257.3764 
L 264.595466 278.33483 
L 264.733351 238.746684 
L 264.871237 257.3764 
L 265.009123 249.225899 
L 265.147009 218.952611 
L 265.42278 269.019972 
L 265.560666 243.404113 
L 265.698552 271.348686 
L 265.974323 253.883328 
L 266.112209 258.540757 
L 266.250095 257.3764 
L 266.387981 249.225899 
L 266.525866 260.869471 
L 266.663752 248.061542 
L 266.801638 259.705114 
L 266.939524 255.047685 
L 267.07741 243.404113 
L 267.215295 253.883328 
L 267.353181 276.006115 
L 267.491067 250.390256 
L 267.628953 255.047685 
L 267.766838 265.5269 
L 267.904724 248.061542 
L 268.04261 269.019972 
L 268.180496 260.869471 
L 268.318382 266.691258 
L 268.456267 259.705114 
L 268.594153 270.184329 
L 268.732039 229.431826 
L 268.869925 257.3764 
L 269.00781 255.047685 
L 269.283582 274.841758 
L 269.559353 256.212042 
L 269.697239 285.320973 
L 269.835125 274.841758 
L 269.973011 252.718971 
L 270.110897 252.718971 
L 270.248782 282.992259 
L 270.386668 280.663544 
L 270.524554 248.061542 
L 270.66244 252.718971 
L 270.938211 281.827901 
L 271.213983 250.390256 
L 271.351868 266.691258 
L 271.765526 250.390256 
L 271.903412 282.992259 
L 272.041297 255.047685 
L 272.179183 257.3764 
L 272.317069 264.362543 
L 272.730726 256.212042 
L 272.868612 262.033829 
L 273.006498 260.869471 
L 273.144383 256.212042 
L 273.282269 262.033829 
L 273.420155 249.225899 
L 273.558041 274.841758 
L 273.695927 259.705114 
L 273.833812 260.869471 
L 273.971698 230.596183 
L 274.109584 243.404113 
L 274.24747 244.56847 
L 274.385355 231.760541 
L 274.523241 255.047685 
L 274.661127 255.047685 
L 274.936898 273.677401 
L 275.21267 253.883328 
L 275.350556 258.540757 
L 275.488442 251.554614 
L 275.626327 264.362543 
L 275.764213 235.253612 
L 276.17787 278.33483 
L 276.315756 255.047685 
L 276.453642 288.814045 
L 276.591528 262.033829 
L 276.729413 276.006115 
L 277.005185 245.732827 
L 277.143071 276.006115 
L 277.280957 251.554614 
L 277.418842 278.33483 
L 277.556728 245.732827 
L 277.694614 259.705114 
L 277.8325 243.404113 
L 277.970385 265.5269 
L 278.108271 237.582327 
L 278.246157 271.348686 
L 278.384043 238.746684 
L 278.521929 272.513044 
L 278.659814 258.540757 
L 278.7977 280.663544 
L 278.935586 243.404113 
L 279.073472 255.047685 
L 279.211357 248.061542 
L 279.349243 285.320973 
L 279.487129 257.3764 
L 279.625015 257.3764 
L 279.7629 255.047685 
L 279.900786 244.56847 
L 280.038672 266.691258 
L 280.314444 257.3764 
L 280.452329 266.691258 
L 280.590215 249.225899 
L 280.728101 280.663544 
L 280.865987 256.212042 
L 281.003872 258.540757 
L 281.141758 271.348686 
L 281.41753 228.267469 
L 281.555415 286.48533 
L 281.693301 280.663544 
L 281.831187 256.212042 
L 281.969073 255.047685 
L 282.106959 252.718971 
L 282.244844 245.732827 
L 282.38273 224.774397 
L 282.658502 258.540757 
L 282.796387 245.732827 
L 282.934273 271.348686 
L 283.072159 265.5269 
L 283.210045 250.390256 
L 283.34793 263.198186 
L 283.485816 263.198186 
L 283.899474 249.225899 
L 284.037359 267.855615 
L 284.313131 252.718971 
L 284.451017 267.855615 
L 284.588902 253.883328 
L 284.726788 255.047685 
L 284.864674 229.431826 
L 285.00256 264.362543 
L 285.140445 227.103112 
L 285.416217 271.348686 
L 285.691989 258.540757 
L 285.96776 232.924898 
L 286.243532 274.841758 
L 286.381417 248.061542 
L 286.519303 270.184329 
L 286.795075 242.239756 
L 286.93296 281.827901 
L 287.070846 242.239756 
L 287.208732 296.964545 
L 287.346618 245.732827 
L 287.484504 252.718971 
L 287.622389 253.883328 
L 287.760275 263.198186 
L 288.036047 248.061542 
L 288.173932 252.718971 
L 288.311818 282.992259 
L 288.311818 282.992259 
" style="fill:none;stroke:#4c72b0;stroke-linecap:round;stroke-width:1.5;"/>
   </g>
   <g id="line2d_22">
    <path clip-path="url(#pee4380bdaf)" d="M 198.548182 32.655455 
L 198.686068 42.185346 
L 198.823953 84.066153 
L 199.099725 54.419842 
L 199.375496 89.416468 
L 199.651268 71.416459 
L 199.789154 89.860722 
L 199.92704 69.934155 
L 200.202811 95.140631 
L 200.478583 76.986082 
L 200.616468 90.90123 
L 200.754354 91.935952 
L 200.89224 96.24136 
L 201.030126 91.439761 
L 201.168011 91.489896 
L 201.719555 112.112097 
L 201.85744 107.599667 
L 201.995326 111.897131 
L 202.133212 109.924329 
L 202.408983 121.705479 
L 203.098412 133.868818 
L 203.236298 134.710963 
L 203.374184 136.896414 
L 203.51207 136.623153 
L 203.787841 143.763824 
L 203.925727 145.233572 
L 204.063613 148.597748 
L 204.339384 150.044646 
L 204.47727 151.869094 
L 204.615156 155.778516 
L 204.753041 155.850287 
L 205.028813 159.480941 
L 205.44247 163.266275 
L 205.718242 167.253755 
L 205.856128 168.016964 
L 206.683442 176.597501 
L 207.234985 181.292717 
L 207.648643 184.426441 
L 210.544244 204.094656 
L 212.060987 212.305557 
L 214.129274 221.955052 
L 216.19756 230.186463 
L 217.576418 234.861313 
L 218.679504 237.90554 
L 219.644705 239.958432 
L 220.609905 241.498249 
L 221.712991 242.827409 
L 223.091849 244.116947 
L 225.573793 246.377345 
L 227.228422 248.277775 
L 232.054424 254.002746 
L 233.709053 255.565734 
L 235.363682 256.821048 
L 236.74254 257.613628 
L 237.845626 258.01393 
L 238.948712 258.168752 
L 240.051799 258.09593 
L 241.292771 257.787697 
L 243.9126 257.049356 
L 244.877801 257.022222 
L 245.980887 257.232474 
L 247.359744 257.752938 
L 249.428031 258.555944 
L 250.393231 258.671002 
L 251.220546 258.554646 
L 252.185746 258.194022 
L 253.70249 257.338727 
L 255.495005 256.351689 
L 256.735977 255.943673 
L 258.114835 255.751514 
L 260.045235 255.726962 
L 262.113522 255.933287 
L 263.49238 256.245386 
L 264.595466 256.733544 
L 265.698552 257.472761 
L 268.732039 259.696908 
L 269.697239 260.082199 
L 270.66244 260.227508 
L 271.765526 260.14965 
L 273.282269 259.794713 
L 276.453642 258.982195 
L 278.935586 258.467361 
L 282.244844 257.447308 
L 282.934273 257.530765 
L 283.623702 257.818797 
L 284.313131 258.325955 
L 285.140445 259.216782 
L 288.311818 263.092253 
L 288.311818 263.092253 
" style="fill:none;stroke:#dd8452;stroke-linecap:round;stroke-width:1.5;"/>
   </g>
   <g id="patch_8">
    <path d="M 194.06 310.18 
L 194.06 19.44 
" style="fill:none;stroke:#ffffff;stroke-linecap:square;stroke-linejoin:miter;stroke-width:1.25;"/>
   </g>
   <g id="patch_9">
    <path d="M 292.8 310.18 
L 292.8 19.44 
" style="fill:none;stroke:#ffffff;stroke-linecap:square;stroke-linejoin:miter;stroke-width:1.25;"/>
   </g>
   <g id="patch_10">
    <path d="M 194.06 310.18 
L 292.8 310.18 
" style="fill:none;stroke:#ffffff;stroke-linecap:square;stroke-linejoin:miter;stroke-width:1.25;"/>
   </g>
   <g id="patch_11">
    <path d="M 194.06 19.44 
L 292.8 19.44 
" style="fill:none;stroke:#ffffff;stroke-linecap:square;stroke-linejoin:miter;stroke-width:1.25;"/>
   </g>
  </g>
  <g id="axes_3">
   <g id="patch_12">
    <path d="M 342.62 310.18 
L 441.36 310.18 
L 441.36 19.44 
L 342.62 19.44 
z
" style="fill:#eaeaf2;"/>
   </g>
   <g id="matplotlib.axis_5">
    <g id="xtick_6">
     <g id="line2d_23">
      <path clip-path="url(#p6c7ac8f4ee)" d="M 348.352978 310.18 
L 348.352978 19.44 
" style="fill:none;stroke:#ffffff;stroke-linecap:round;"/>
     </g>
     <g id="text_19">
      <!-- 0.000525 -->
      <g style="fill:#262626;" transform="translate(322.109384 328.038281)scale(0.11 -0.11)">
       <use xlink:href="#DejaVuSans-48"/>
       <use x="63.623047" xlink:href="#DejaVuSans-46"/>
       <use x="95.410156" xlink:href="#DejaVuSans-48"/>
       <use x="159.033203" xlink:href="#DejaVuSans-48"/>
       <use x="222.65625" xlink:href="#DejaVuSans-48"/>
       <use x="286.279297" xlink:href="#DejaVuSans-53"/>
       <use x="349.902344" xlink:href="#DejaVuSans-50"/>
       <use x="413.525391" xlink:href="#DejaVuSans-53"/>
      </g>
     </g>
    </g>
    <g id="xtick_7">
     <g id="line2d_24">
      <path clip-path="url(#p6c7ac8f4ee)" d="M 382.93065 310.18 
L 382.93065 19.44 
" style="fill:none;stroke:#ffffff;stroke-linecap:round;"/>
     </g>
     <g id="text_20">
      <!-- 0.000550 -->
      <g style="fill:#262626;" transform="translate(356.687056 328.038281)scale(0.11 -0.11)">
       <use xlink:href="#DejaVuSans-48"/>
       <use x="63.623047" xlink:href="#DejaVuSans-46"/>
       <use x="95.410156" xlink:href="#DejaVuSans-48"/>
       <use x="159.033203" xlink:href="#DejaVuSans-48"/>
       <use x="222.65625" xlink:href="#DejaVuSans-48"/>
       <use x="286.279297" xlink:href="#DejaVuSans-53"/>
       <use x="349.902344" xlink:href="#DejaVuSans-53"/>
       <use x="413.525391" xlink:href="#DejaVuSans-48"/>
      </g>
     </g>
    </g>
    <g id="xtick_8">
     <g id="line2d_25">
      <path clip-path="url(#p6c7ac8f4ee)" d="M 417.508322 310.18 
L 417.508322 19.44 
" style="fill:none;stroke:#ffffff;stroke-linecap:round;"/>
     </g>
     <g id="text_21">
      <!-- 0.000575 -->
      <g style="fill:#262626;" transform="translate(391.264728 328.038281)scale(0.11 -0.11)">
       <use xlink:href="#DejaVuSans-48"/>
       <use x="63.623047" xlink:href="#DejaVuSans-46"/>
       <use x="95.410156" xlink:href="#DejaVuSans-48"/>
       <use x="159.033203" xlink:href="#DejaVuSans-48"/>
       <use x="222.65625" xlink:href="#DejaVuSans-48"/>
       <use x="286.279297" xlink:href="#DejaVuSans-53"/>
       <use x="349.902344" xlink:href="#DejaVuSans-55"/>
       <use x="413.525391" xlink:href="#DejaVuSans-53"/>
      </g>
     </g>
    </g>
   </g>
   <g id="matplotlib.axis_6">
    <g id="ytick_14">
     <g id="line2d_26">
      <path clip-path="url(#p6c7ac8f4ee)" d="M 342.62 301.213888 
L 441.36 301.213888 
" style="fill:none;stroke:#ffffff;stroke-linecap:round;"/>
     </g>
     <g id="text_22">
      <!-- 100 -->
      <g style="fill:#262626;" transform="translate(312.12375 305.393028)scale(0.11 -0.11)">
       <use xlink:href="#DejaVuSans-49"/>
       <use x="63.623047" xlink:href="#DejaVuSans-48"/>
       <use x="127.246094" xlink:href="#DejaVuSans-48"/>
      </g>
     </g>
    </g>
    <g id="ytick_15">
     <g id="line2d_27">
      <path clip-path="url(#p6c7ac8f4ee)" d="M 342.62 258.720465 
L 441.36 258.720465 
" style="fill:none;stroke:#ffffff;stroke-linecap:round;"/>
     </g>
     <g id="text_23">
      <!-- 150 -->
      <g style="fill:#262626;" transform="translate(312.12375 262.899605)scale(0.11 -0.11)">
       <use xlink:href="#DejaVuSans-49"/>
       <use x="63.623047" xlink:href="#DejaVuSans-53"/>
       <use x="127.246094" xlink:href="#DejaVuSans-48"/>
      </g>
     </g>
    </g>
    <g id="ytick_16">
     <g id="line2d_28">
      <path clip-path="url(#p6c7ac8f4ee)" d="M 342.62 216.227042 
L 441.36 216.227042 
" style="fill:none;stroke:#ffffff;stroke-linecap:round;"/>
     </g>
     <g id="text_24">
      <!-- 200 -->
      <g style="fill:#262626;" transform="translate(312.12375 220.406182)scale(0.11 -0.11)">
       <use xlink:href="#DejaVuSans-50"/>
       <use x="63.623047" xlink:href="#DejaVuSans-48"/>
       <use x="127.246094" xlink:href="#DejaVuSans-48"/>
      </g>
     </g>
    </g>
    <g id="ytick_17">
     <g id="line2d_29">
      <path clip-path="url(#p6c7ac8f4ee)" d="M 342.62 173.733619 
L 441.36 173.733619 
" style="fill:none;stroke:#ffffff;stroke-linecap:round;"/>
     </g>
     <g id="text_25">
      <!-- 250 -->
      <g style="fill:#262626;" transform="translate(312.12375 177.912759)scale(0.11 -0.11)">
       <use xlink:href="#DejaVuSans-50"/>
       <use x="63.623047" xlink:href="#DejaVuSans-53"/>
       <use x="127.246094" xlink:href="#DejaVuSans-48"/>
      </g>
     </g>
    </g>
    <g id="ytick_18">
     <g id="line2d_30">
      <path clip-path="url(#p6c7ac8f4ee)" d="M 342.62 131.240196 
L 441.36 131.240196 
" style="fill:none;stroke:#ffffff;stroke-linecap:round;"/>
     </g>
     <g id="text_26">
      <!-- 300 -->
      <g style="fill:#262626;" transform="translate(312.12375 135.419336)scale(0.11 -0.11)">
       <use xlink:href="#DejaVuSans-51"/>
       <use x="63.623047" xlink:href="#DejaVuSans-48"/>
       <use x="127.246094" xlink:href="#DejaVuSans-48"/>
      </g>
     </g>
    </g>
    <g id="ytick_19">
     <g id="line2d_31">
      <path clip-path="url(#p6c7ac8f4ee)" d="M 342.62 88.746773 
L 441.36 88.746773 
" style="fill:none;stroke:#ffffff;stroke-linecap:round;"/>
     </g>
     <g id="text_27">
      <!-- 350 -->
      <g style="fill:#262626;" transform="translate(312.12375 92.925913)scale(0.11 -0.11)">
       <use xlink:href="#DejaVuSans-51"/>
       <use x="63.623047" xlink:href="#DejaVuSans-53"/>
       <use x="127.246094" xlink:href="#DejaVuSans-48"/>
      </g>
     </g>
    </g>
    <g id="ytick_20">
     <g id="line2d_32">
      <path clip-path="url(#p6c7ac8f4ee)" d="M 342.62 46.25335 
L 441.36 46.25335 
" style="fill:none;stroke:#ffffff;stroke-linecap:round;"/>
     </g>
     <g id="text_28">
      <!-- 400 -->
      <g style="fill:#262626;" transform="translate(312.12375 50.432491)scale(0.11 -0.11)">
       <use xlink:href="#DejaVuSans-52"/>
       <use x="63.623047" xlink:href="#DejaVuSans-48"/>
       <use x="127.246094" xlink:href="#DejaVuSans-48"/>
      </g>
     </g>
    </g>
   </g>
   <g id="line2d_33">
    <path clip-path="url(#p6c7ac8f4ee)" d="M 347.108182 32.655455 
L 347.246493 96.395589 
L 347.523114 89.596641 
L 347.661425 75.148878 
L 347.799735 72.599272 
L 347.938046 39.454402 
L 348.076357 86.197167 
L 348.214667 88.746773 
L 348.352978 105.744142 
L 348.491289 76.848614 
L 348.629599 81.097957 
L 348.76791 116.792432 
L 348.906221 85.347299 
L 349.044531 116.792432 
L 349.182842 106.594011 
L 349.321153 126.990854 
L 349.597774 90.44651 
L 349.736085 133.789801 
L 350.012706 91.296378 
L 350.151017 128.69059 
L 350.289328 117.6423 
L 350.427638 116.792432 
L 350.565949 121.041774 
L 350.70426 135.489538 
L 350.84257 120.191906 
L 351.119192 161.83546 
L 351.257502 136.339407 
L 351.395813 133.789801 
L 351.534124 135.489538 
L 351.672435 141.438617 
L 351.810745 156.73625 
L 352.087367 132.939933 
L 352.225677 158.435987 
L 352.363988 151.637039 
L 352.502299 158.435987 
L 352.640609 158.435987 
L 352.77892 159.285855 
L 352.917231 176.283224 
L 353.055541 166.084803 
L 353.193852 176.283224 
L 353.470473 172.033882 
L 353.608784 172.033882 
L 353.747095 158.435987 
L 353.885406 186.481646 
L 354.023716 185.631777 
L 354.300338 166.084803 
L 354.438648 173.733619 
L 354.576959 164.385066 
L 354.71527 183.082172 
L 354.85358 171.184013 
L 354.991891 205.178752 
L 355.130202 177.982961 
L 355.268512 198.379804 
L 355.406823 189.031251 
L 355.545134 207.728357 
L 355.683444 197.529936 
L 355.821755 204.328883 
L 355.960066 177.982961 
L 356.236687 226.425463 
L 356.374998 196.680067 
L 356.513309 194.130462 
L 356.78993 206.02862 
L 356.928241 192.430725 
L 357.204862 210.277963 
L 357.343173 232.374543 
L 357.481483 223.875858 
L 357.758105 233.224411 
L 357.896415 201.779278 
L 358.034726 217.07691 
L 358.173037 206.878489 
L 358.311348 217.07691 
L 358.449658 202.629146 
L 358.587969 204.328883 
L 358.72628 219.626516 
L 358.86459 205.178752 
L 359.002901 229.824937 
L 359.279522 214.527305 
L 359.417833 234.074279 
L 359.556144 209.428094 
L 359.694454 231.524674 
L 359.832765 223.875858 
L 359.971076 195.830199 
L 360.109386 220.476384 
L 360.247697 206.878489 
L 360.662629 234.924148 
L 360.80094 210.277963 
L 360.939251 238.323622 
L 361.215872 229.824937 
L 361.630804 238.323622 
L 361.769115 234.074279 
L 361.907425 219.626516 
L 362.045736 251.071649 
L 362.184047 238.323622 
L 362.322357 243.422833 
L 362.460668 229.824937 
L 362.598979 245.122569 
L 362.73729 223.025989 
L 362.8756 222.176121 
L 363.152222 245.122569 
L 363.290532 228.1252 
L 363.428843 252.771386 
L 363.567154 240.023359 
L 363.705464 242.572964 
L 363.843775 233.224411 
L 363.982086 250.22178 
L 364.120396 238.323622 
L 364.397018 243.422833 
L 364.535328 243.422833 
L 364.673639 259.570333 
L 364.81195 249.371912 
L 365.088571 256.170859 
L 365.226882 234.074279 
L 365.503503 245.972438 
L 365.641814 247.672175 
L 365.780125 247.672175 
L 365.918435 253.621254 
L 366.056746 245.122569 
L 366.195057 224.725726 
L 366.471678 254.471122 
L 366.609989 271.468492 
L 366.748299 269.768755 
L 367.024921 238.323622 
L 367.163232 238.323622 
L 367.578164 267.219149 
L 367.716474 219.626516 
L 367.854785 268.069018 
L 368.131406 238.323622 
L 368.269717 240.023359 
L 368.408028 258.720465 
L 368.546338 256.170859 
L 368.684649 268.918886 
L 368.82296 238.323622 
L 368.96127 247.672175 
L 369.099581 264.669544 
L 369.376203 245.972438 
L 369.514513 248.522043 
L 369.652824 255.320991 
L 369.791135 271.468492 
L 369.929445 244.272701 
L 370.067756 251.921517 
L 370.206067 251.071649 
L 370.344377 262.969807 
L 370.482688 243.422833 
L 370.620999 240.873227 
L 370.759309 249.371912 
L 370.89762 236.623885 
L 371.174241 245.122569 
L 371.450863 249.371912 
L 371.589174 275.717834 
L 371.865795 234.924148 
L 372.142416 257.870596 
L 372.280727 250.22178 
L 372.419038 266.369281 
L 372.557348 266.369281 
L 372.695659 245.972438 
L 372.83397 258.720465 
L 372.97228 241.723096 
L 373.110591 251.921517 
L 373.248902 252.771386 
L 373.525523 249.371912 
L 373.663834 262.969807 
L 373.802145 256.170859 
L 373.940455 264.669544 
L 374.078766 244.272701 
L 374.217077 261.27007 
L 374.355387 246.822306 
L 374.493698 248.522043 
L 374.632009 258.720465 
L 374.770319 285.916255 
L 374.90863 237.473753 
L 375.046941 237.473753 
L 375.185251 263.819676 
L 375.323562 242.572964 
L 375.461873 254.471122 
L 375.600183 242.572964 
L 375.738494 258.720465 
L 375.876805 249.371912 
L 376.015116 261.27007 
L 376.153426 251.921517 
L 376.291737 273.168229 
L 376.430048 264.669544 
L 376.568358 267.219149 
L 376.98329 238.323622 
L 377.121601 271.468492 
L 377.259912 252.771386 
L 377.398222 262.119939 
L 377.536533 245.122569 
L 377.813155 258.720465 
L 377.951465 257.870596 
L 378.228087 274.867966 
L 378.366397 253.621254 
L 378.504708 262.969807 
L 378.643019 258.720465 
L 378.781329 280.817045 
L 378.91964 259.570333 
L 379.057951 267.219149 
L 379.196261 246.822306 
L 379.611193 274.867966 
L 379.749504 255.320991 
L 379.887815 257.870596 
L 380.164436 252.771386 
L 380.441058 261.27007 
L 380.85599 246.822306 
L 380.9943 247.672175 
L 381.132611 254.471122 
L 381.270922 244.272701 
L 381.547543 279.117308 
L 381.685854 245.972438 
L 381.962475 276.567702 
L 382.100786 264.669544 
L 382.239097 278.267439 
L 382.515718 245.972438 
L 382.654029 276.567702 
L 382.792339 242.572964 
L 382.93065 270.618623 
L 383.068961 257.020728 
L 383.207271 261.27007 
L 383.345582 237.473753 
L 383.483893 235.774016 
L 383.760514 254.471122 
L 383.898825 245.972438 
L 384.037135 268.918886 
L 384.175446 262.119939 
L 384.313757 269.768755 
L 384.728689 246.822306 
L 384.867 254.471122 
L 385.00531 246.822306 
L 385.281932 281.666913 
L 385.420242 264.669544 
L 385.558553 270.618623 
L 385.696864 239.17349 
L 385.973485 279.117308 
L 386.111796 248.522043 
L 386.250106 259.570333 
L 386.388417 259.570333 
L 386.526728 279.117308 
L 386.665039 248.522043 
L 386.803349 249.371912 
L 386.94166 238.323622 
L 387.218281 262.119939 
L 387.356592 264.669544 
L 387.494903 251.921517 
L 387.633213 271.468492 
L 387.771524 267.219149 
L 387.909835 247.672175 
L 388.048145 256.170859 
L 388.186456 254.471122 
L 388.324767 273.168229 
L 388.463077 262.119939 
L 388.601388 266.369281 
L 388.739699 261.27007 
L 388.87801 247.672175 
L 389.01632 266.369281 
L 389.292942 241.723096 
L 389.431252 262.969807 
L 389.569563 261.27007 
L 389.707874 262.119939 
L 389.846184 256.170859 
L 389.984495 257.870596 
L 390.122806 256.170859 
L 390.261116 296.964545 
L 390.537738 258.720465 
L 390.676048 260.420202 
L 390.814359 268.918886 
L 390.95267 247.672175 
L 391.090981 275.717834 
L 391.367602 242.572964 
L 391.505913 258.720465 
L 391.644223 250.22178 
L 391.782534 264.669544 
L 391.920845 267.219149 
L 392.197466 248.522043 
L 392.335777 282.516782 
L 392.474087 256.170859 
L 392.612398 274.867966 
L 392.889019 249.371912 
L 393.02733 231.524674 
L 393.165641 257.870596 
L 393.303952 256.170859 
L 393.442262 258.720465 
L 393.580573 282.516782 
L 393.995505 248.522043 
L 394.410437 258.720465 
L 394.548748 284.216519 
L 394.687058 252.771386 
L 394.825369 272.31836 
L 394.96368 265.519412 
L 395.10199 246.822306 
L 395.240301 263.819676 
L 395.378612 255.320991 
L 395.655233 274.018097 
L 395.793544 251.071649 
L 395.931855 277.417571 
L 396.070165 276.567702 
L 396.208476 274.867966 
L 396.346787 249.371912 
L 396.485097 277.417571 
L 396.761719 246.822306 
L 397.03834 267.219149 
L 397.314961 255.320991 
L 397.591583 274.018097 
L 397.868204 245.972438 
L 398.144826 272.31836 
L 398.283136 256.170859 
L 398.421447 272.31836 
L 398.559758 266.369281 
L 398.698068 254.471122 
L 398.836379 262.969807 
L 398.97469 249.371912 
L 399.251311 268.069018 
L 399.389622 264.669544 
L 399.527932 257.870596 
L 399.666243 257.870596 
L 399.804554 266.369281 
L 399.942865 250.22178 
L 400.081175 247.672175 
L 400.219486 251.921517 
L 400.496107 264.669544 
L 400.772729 248.522043 
L 400.911039 273.168229 
L 401.04935 248.522043 
L 401.187661 257.020728 
L 401.325971 247.672175 
L 401.602593 275.717834 
L 401.879214 246.822306 
L 402.017525 246.822306 
L 402.155836 251.071649 
L 402.432457 268.918886 
L 402.709078 265.519412 
L 402.847389 267.219149 
L 402.9857 263.819676 
L 403.262321 248.522043 
L 403.538942 266.369281 
L 403.677253 261.27007 
L 403.815564 274.867966 
L 403.953874 243.422833 
L 404.092185 247.672175 
L 404.230496 257.870596 
L 404.368807 243.422833 
L 404.507117 256.170859 
L 404.783739 254.471122 
L 404.922049 268.918886 
L 405.06036 270.618623 
L 405.198671 268.069018 
L 405.336981 280.817045 
L 405.613603 250.22178 
L 405.751913 240.873227 
L 405.890224 272.31836 
L 406.028535 271.468492 
L 406.166845 247.672175 
L 406.443467 275.717834 
L 406.720088 239.17349 
L 406.858399 280.817045 
L 406.99671 279.117308 
L 407.13502 287.615992 
L 407.549952 241.723096 
L 407.826574 284.216519 
L 407.964884 245.122569 
L 408.241506 257.870596 
L 408.379817 247.672175 
L 408.518127 271.468492 
L 408.656438 253.621254 
L 408.794749 256.170859 
L 409.07137 245.122569 
L 409.209681 267.219149 
L 409.486302 245.972438 
L 409.624613 261.27007 
L 409.762923 241.723096 
L 409.901234 269.768755 
L 410.039545 268.069018 
L 410.316166 240.873227 
L 410.454477 245.972438 
L 410.592788 262.969807 
L 410.731098 250.22178 
L 410.869409 268.918886 
L 411.00772 245.972438 
L 411.14603 255.320991 
L 411.284341 251.921517 
L 411.422652 251.921517 
L 411.560962 272.31836 
L 411.699273 259.570333 
L 411.975894 269.768755 
L 412.114205 239.17349 
L 412.252516 264.669544 
L 412.390826 263.819676 
L 412.529137 251.921517 
L 412.667448 265.519412 
L 412.805759 251.071649 
L 412.944069 262.119939 
L 413.08238 262.969807 
L 413.220691 257.020728 
L 413.359001 268.918886 
L 413.497312 264.669544 
L 413.635623 242.572964 
L 413.773933 241.723096 
L 414.050555 258.720465 
L 414.188865 262.969807 
L 414.327176 250.22178 
L 414.465487 249.371912 
L 414.603797 261.27007 
L 414.742108 256.170859 
L 414.880419 261.27007 
L 415.01873 246.822306 
L 415.15704 264.669544 
L 415.433662 242.572964 
L 415.571972 257.020728 
L 415.710283 253.621254 
L 415.848594 245.972438 
L 415.986904 255.320991 
L 416.125215 249.371912 
L 416.263526 279.117308 
L 416.540147 258.720465 
L 416.678458 272.31836 
L 416.816768 263.819676 
L 416.955079 273.168229 
L 417.09339 258.720465 
L 417.231701 261.27007 
L 417.370011 249.371912 
L 417.508322 258.720465 
L 417.646633 257.870596 
L 417.784943 260.420202 
L 417.923254 248.522043 
L 418.061565 261.27007 
L 418.199875 255.320991 
L 418.338186 257.870596 
L 418.476497 257.020728 
L 418.891429 240.023359 
L 419.16805 260.420202 
L 419.306361 253.621254 
L 419.582982 276.567702 
L 419.721293 250.22178 
L 419.859604 266.369281 
L 420.136225 257.020728 
L 420.274536 262.969807 
L 420.412846 258.720465 
L 420.551157 250.22178 
L 420.689468 276.567702 
L 420.966089 246.822306 
L 421.24271 248.522043 
L 421.381021 256.170859 
L 421.519332 246.822306 
L 421.795953 265.519412 
L 421.934264 254.471122 
L 422.072575 258.720465 
L 422.210885 279.967176 
L 422.487507 246.822306 
L 422.625817 266.369281 
L 422.902439 258.720465 
L 423.040749 282.516782 
L 423.317371 255.320991 
L 423.455681 251.071649 
L 423.732303 279.967176 
L 424.008924 249.371912 
L 424.147235 270.618623 
L 424.285546 251.071649 
L 424.423856 274.867966 
L 424.562167 274.018097 
L 424.700478 258.720465 
L 424.838788 257.870596 
L 424.977099 273.168229 
L 425.11541 262.969807 
L 425.25372 275.717834 
L 425.530342 261.27007 
L 425.668652 268.918886 
L 425.806963 252.771386 
L 426.221895 271.468492 
L 426.360206 248.522043 
L 426.498517 266.369281 
L 426.775138 255.320991 
L 426.913449 244.272701 
L 427.19007 262.969807 
L 427.466691 255.320991 
L 427.605002 252.771386 
L 427.743313 245.972438 
L 428.019934 282.516782 
L 428.158245 257.020728 
L 428.296556 266.369281 
L 428.434866 260.420202 
L 428.573177 260.420202 
L 428.711488 235.774016 
L 428.849798 266.369281 
L 428.988109 254.471122 
L 429.12642 262.969807 
L 429.26473 262.119939 
L 429.403041 257.870596 
L 429.541352 248.522043 
L 429.679662 251.921517 
L 429.817973 251.071649 
L 430.094594 279.117308 
L 430.232905 271.468492 
L 430.371216 256.170859 
L 430.509527 260.420202 
L 430.786148 244.272701 
L 430.924459 262.969807 
L 431.062769 244.272701 
L 431.20108 271.468492 
L 431.339391 239.17349 
L 431.477701 250.22178 
L 431.616012 271.468492 
L 431.754323 268.069018 
L 431.892633 254.471122 
L 432.169255 275.717834 
L 432.307565 244.272701 
L 432.445876 255.320991 
L 432.584187 278.267439 
L 432.860808 272.31836 
L 432.999119 259.570333 
L 433.27574 275.717834 
L 433.552362 259.570333 
L 433.828983 275.717834 
L 433.967294 240.023359 
L 434.105604 262.119939 
L 434.243915 255.320991 
L 434.382226 268.918886 
L 434.520536 266.369281 
L 434.658847 248.522043 
L 434.797158 262.969807 
L 435.073779 248.522043 
L 435.21209 263.819676 
L 435.350401 262.969807 
L 435.627022 251.071649 
L 435.765333 273.168229 
L 436.180265 245.122569 
L 436.318575 252.771386 
L 436.595197 272.31836 
L 436.733507 262.969807 
L 436.871818 245.122569 
L 436.871818 245.122569 
" style="fill:none;stroke:#4c72b0;stroke-linecap:round;stroke-width:1.5;"/>
   </g>
   <g id="line2d_34">
    <path clip-path="url(#p6c7ac8f4ee)" d="M 347.108182 32.655455 
L 347.246493 93.896587 
L 347.799735 69.270658 
L 347.938046 45.055291 
L 348.076357 79.436759 
L 348.214667 81.330176 
L 348.352978 92.422887 
L 348.491289 75.091867 
L 348.629599 78.644185 
L 348.76791 99.193388 
L 348.906221 83.357668 
L 349.044531 100.159018 
L 349.182842 96.180126 
L 349.321153 106.391503 
L 349.597774 93.714639 
L 349.736085 112.107721 
L 349.874396 101.352692 
L 350.012706 100.089638 
L 350.151017 114.487004 
L 350.289328 112.744094 
L 350.427638 114.452021 
L 350.565949 117.703192 
L 350.70426 123.614496 
L 350.84257 121.668194 
L 351.119192 135.516086 
L 351.257502 131.715127 
L 351.534124 135.648352 
L 351.949056 144.02964 
L 352.087367 143.554225 
L 352.225677 149.515316 
L 352.363988 150.417435 
L 352.917231 160.948284 
L 353.055541 161.530341 
L 353.332163 165.820432 
L 353.747095 169.514476 
L 354.023716 175.018676 
L 354.162027 175.359097 
L 354.576959 179.701734 
L 354.991891 186.424772 
L 355.130202 186.338429 
L 355.545134 191.738416 
L 355.683444 192.54688 
L 355.821755 194.064692 
L 355.960066 194.261138 
L 356.236687 198.394044 
L 356.374998 198.523232 
L 357.204862 205.41116 
L 357.619794 208.774458 
L 358.034726 211.375734 
L 358.587969 214.763723 
L 359.141212 218.38776 
L 360.524319 225.922959 
L 361.354183 230.021057 
L 362.598979 235.569781 
L 365.226882 244.709406 
L 366.195057 247.058625 
L 366.88661 248.418102 
L 367.993096 250.007244 
L 369.099581 251.098096 
L 370.482688 252.030873 
L 373.248902 253.75619 
L 374.770319 255.05615 
L 377.259912 257.176517 
L 378.504708 257.924466 
L 379.611193 258.343224 
L 380.717679 258.519521 
L 382.377407 258.516027 
L 384.313757 258.533205 
L 385.696864 258.776135 
L 387.079971 259.248571 
L 391.782534 261.06944 
L 393.165641 261.361451 
L 394.410437 261.397028 
L 395.793544 261.19938 
L 397.314961 260.742951 
L 400.634418 259.64577 
L 401.879214 259.529186 
L 403.538942 259.647267 
L 405.06036 259.685483 
L 406.166845 259.494881 
L 407.549952 259.022267 
L 409.624613 258.045907 
L 411.422652 257.260518 
L 412.529137 257.035509 
L 413.773933 257.041783 
L 415.710283 257.313242 
L 417.09339 257.70293 
L 418.338186 258.27008 
L 419.997914 259.310602 
L 422.487507 260.883697 
L 423.593992 261.288939 
L 424.562167 261.422453 
L 425.668652 261.336449 
L 427.051759 260.971309 
L 429.12642 260.43549 
L 432.169255 259.872361 
L 433.27574 259.352917 
L 435.488711 257.932776 
L 436.871818 257.039989 
L 436.871818 257.039989 
" style="fill:none;stroke:#dd8452;stroke-linecap:round;stroke-width:1.5;"/>
   </g>
   <g id="patch_13">
    <path d="M 342.62 310.18 
L 342.62 19.44 
" style="fill:none;stroke:#ffffff;stroke-linecap:square;stroke-linejoin:miter;stroke-width:1.25;"/>
   </g>
   <g id="patch_14">
    <path d="M 441.36 310.18 
L 441.36 19.44 
" style="fill:none;stroke:#ffffff;stroke-linecap:square;stroke-linejoin:miter;stroke-width:1.25;"/>
   </g>
   <g id="patch_15">
    <path d="M 342.62 310.18 
L 441.36 310.18 
" style="fill:none;stroke:#ffffff;stroke-linecap:square;stroke-linejoin:miter;stroke-width:1.25;"/>
   </g>
   <g id="patch_16">
    <path d="M 342.62 19.44 
L 441.36 19.44 
" style="fill:none;stroke:#ffffff;stroke-linecap:square;stroke-linejoin:miter;stroke-width:1.25;"/>
   </g>
  </g>
 </g>
 <defs>
  <clipPath id="pb4965cdeb0">
   <rect height="290.74" width="98.74" x="45.5" y="19.44"/>
  </clipPath>
  <clipPath id="pee4380bdaf">
   <rect height="290.74" width="98.74" x="194.06" y="19.44"/>
  </clipPath>
  <clipPath id="p6c7ac8f4ee">
   <rect height="290.74" width="98.74" x="342.62" y="19.44"/>
  </clipPath>
 </defs>
</svg>
