<?xml version="1.0" encoding="utf-8" standalone="no"?>
<!DOCTYPE svg PUBLIC "-//W3C//DTD SVG 1.1//EN"
  "http://www.w3.org/Graphics/SVG/1.1/DTD/svg11.dtd">
<!-- Created with matplotlib (https://matplotlib.org/) -->
<svg height="345.6pt" version="1.1" viewBox="0 0 460.8 345.6" width="460.8pt" xmlns="http://www.w3.org/2000/svg" xmlns:xlink="http://www.w3.org/1999/xlink">
 <defs>
  <style type="text/css">
*{stroke-linecap:butt;stroke-linejoin:round;}
  </style>
 </defs>
 <g id="figure_1">
  <g id="patch_1">
   <path d="M 0 345.6 
L 460.8 345.6 
L 460.8 0 
L 0 0 
z
" style="fill:#ffffff;"/>
  </g>
  <g id="axes_1">
   <g id="patch_2">
    <path d="M 45.5 310.18 
L 139.68 310.18 
L 139.68 19.44 
L 45.5 19.44 
z
" style="fill:#eaeaf2;"/>
   </g>
   <g id="matplotlib.axis_1">
    <g id="xtick_1">
     <g id="line2d_1">
      <path clip-path="url(#pb9d0098588)" d="M 49.649794 310.18 
L 49.649794 19.44 
" style="fill:none;stroke:#ffffff;stroke-linecap:round;"/>
     </g>
     <g id="text_1">
      <!-- 0.000175 -->
      <defs>
       <path d="M 31.78125 66.40625 
Q 24.171875 66.40625 20.328125 58.90625 
Q 16.5 51.421875 16.5 36.375 
Q 16.5 21.390625 20.328125 13.890625 
Q 24.171875 6.390625 31.78125 6.390625 
Q 39.453125 6.390625 43.28125 13.890625 
Q 47.125 21.390625 47.125 36.375 
Q 47.125 51.421875 43.28125 58.90625 
Q 39.453125 66.40625 31.78125 66.40625 
z
M 31.78125 74.21875 
Q 44.046875 74.21875 50.515625 64.515625 
Q 56.984375 54.828125 56.984375 36.375 
Q 56.984375 17.96875 50.515625 8.265625 
Q 44.046875 -1.421875 31.78125 -1.421875 
Q 19.53125 -1.421875 13.0625 8.265625 
Q 6.59375 17.96875 6.59375 36.375 
Q 6.59375 54.828125 13.0625 64.515625 
Q 19.53125 74.21875 31.78125 74.21875 
z
" id="DejaVuSans-48"/>
       <path d="M 10.6875 12.40625 
L 21 12.40625 
L 21 0 
L 10.6875 0 
z
" id="DejaVuSans-46"/>
       <path d="M 12.40625 8.296875 
L 28.515625 8.296875 
L 28.515625 63.921875 
L 10.984375 60.40625 
L 10.984375 69.390625 
L 28.421875 72.90625 
L 38.28125 72.90625 
L 38.28125 8.296875 
L 54.390625 8.296875 
L 54.390625 0 
L 12.40625 0 
z
" id="DejaVuSans-49"/>
       <path d="M 8.203125 72.90625 
L 55.078125 72.90625 
L 55.078125 68.703125 
L 28.609375 0 
L 18.3125 0 
L 43.21875 64.59375 
L 8.203125 64.59375 
z
" id="DejaVuSans-55"/>
       <path d="M 10.796875 72.90625 
L 49.515625 72.90625 
L 49.515625 64.59375 
L 19.828125 64.59375 
L 19.828125 46.734375 
Q 21.96875 47.46875 24.109375 47.828125 
Q 26.265625 48.1875 28.421875 48.1875 
Q 40.625 48.1875 47.75 41.5 
Q 54.890625 34.8125 54.890625 23.390625 
Q 54.890625 11.625 47.5625 5.09375 
Q 40.234375 -1.421875 26.90625 -1.421875 
Q 22.3125 -1.421875 17.546875 -0.640625 
Q 12.796875 0.140625 7.71875 1.703125 
L 7.71875 11.625 
Q 12.109375 9.234375 16.796875 8.0625 
Q 21.484375 6.890625 26.703125 6.890625 
Q 35.15625 6.890625 40.078125 11.328125 
Q 45.015625 15.765625 45.015625 23.390625 
Q 45.015625 31 40.078125 35.4375 
Q 35.15625 39.890625 26.703125 39.890625 
Q 22.75 39.890625 18.8125 39.015625 
Q 14.890625 38.140625 10.796875 36.28125 
z
" id="DejaVuSans-53"/>
      </defs>
      <g style="fill:#262626;" transform="translate(23.4062 328.038281)scale(0.11 -0.11)">
       <use xlink:href="#DejaVuSans-48"/>
       <use x="63.623047" xlink:href="#DejaVuSans-46"/>
       <use x="95.410156" xlink:href="#DejaVuSans-48"/>
       <use x="159.033203" xlink:href="#DejaVuSans-48"/>
       <use x="222.65625" xlink:href="#DejaVuSans-48"/>
       <use x="286.279297" xlink:href="#DejaVuSans-49"/>
       <use x="349.902344" xlink:href="#DejaVuSans-55"/>
       <use x="413.525391" xlink:href="#DejaVuSans-53"/>
      </g>
     </g>
    </g>
    <g id="xtick_2">
     <g id="line2d_2">
      <path clip-path="url(#pb9d0098588)" d="M 82.428577 310.18 
L 82.428577 19.44 
" style="fill:none;stroke:#ffffff;stroke-linecap:round;"/>
     </g>
     <g id="text_2">
      <!-- 0.000200 -->
      <defs>
       <path d="M 19.1875 8.296875 
L 53.609375 8.296875 
L 53.609375 0 
L 7.328125 0 
L 7.328125 8.296875 
Q 12.9375 14.109375 22.625 23.890625 
Q 32.328125 33.6875 34.8125 36.53125 
Q 39.546875 41.84375 41.421875 45.53125 
Q 43.3125 49.21875 43.3125 52.78125 
Q 43.3125 58.59375 39.234375 62.25 
Q 35.15625 65.921875 28.609375 65.921875 
Q 23.96875 65.921875 18.8125 64.3125 
Q 13.671875 62.703125 7.8125 59.421875 
L 7.8125 69.390625 
Q 13.765625 71.78125 18.9375 73 
Q 24.125 74.21875 28.421875 74.21875 
Q 39.75 74.21875 46.484375 68.546875 
Q 53.21875 62.890625 53.21875 53.421875 
Q 53.21875 48.921875 51.53125 44.890625 
Q 49.859375 40.875 45.40625 35.40625 
Q 44.1875 33.984375 37.640625 27.21875 
Q 31.109375 20.453125 19.1875 8.296875 
z
" id="DejaVuSans-50"/>
      </defs>
      <g style="fill:#262626;" transform="translate(56.184983 328.038281)scale(0.11 -0.11)">
       <use xlink:href="#DejaVuSans-48"/>
       <use x="63.623047" xlink:href="#DejaVuSans-46"/>
       <use x="95.410156" xlink:href="#DejaVuSans-48"/>
       <use x="159.033203" xlink:href="#DejaVuSans-48"/>
       <use x="222.65625" xlink:href="#DejaVuSans-48"/>
       <use x="286.279297" xlink:href="#DejaVuSans-50"/>
       <use x="349.902344" xlink:href="#DejaVuSans-48"/>
       <use x="413.525391" xlink:href="#DejaVuSans-48"/>
      </g>
     </g>
    </g>
    <g id="xtick_3">
     <g id="line2d_3">
      <path clip-path="url(#pb9d0098588)" d="M 115.20736 310.18 
L 115.20736 19.44 
" style="fill:none;stroke:#ffffff;stroke-linecap:round;"/>
     </g>
     <g id="text_3">
      <!-- 0.000225 -->
      <g style="fill:#262626;" transform="translate(88.963767 328.038281)scale(0.11 -0.11)">
       <use xlink:href="#DejaVuSans-48"/>
       <use x="63.623047" xlink:href="#DejaVuSans-46"/>
       <use x="95.410156" xlink:href="#DejaVuSans-48"/>
       <use x="159.033203" xlink:href="#DejaVuSans-48"/>
       <use x="222.65625" xlink:href="#DejaVuSans-48"/>
       <use x="286.279297" xlink:href="#DejaVuSans-50"/>
       <use x="349.902344" xlink:href="#DejaVuSans-50"/>
       <use x="413.525391" xlink:href="#DejaVuSans-53"/>
      </g>
     </g>
    </g>
   </g>
   <g id="matplotlib.axis_2">
    <g id="ytick_1">
     <g id="line2d_4">
      <path clip-path="url(#pb9d0098588)" d="M 45.5 296.964545 
L 139.68 296.964545 
" style="fill:none;stroke:#ffffff;stroke-linecap:round;"/>
     </g>
     <g id="text_4">
      <!-- 100 -->
      <g style="fill:#262626;" transform="translate(15.00375 301.143686)scale(0.11 -0.11)">
       <use xlink:href="#DejaVuSans-49"/>
       <use x="63.623047" xlink:href="#DejaVuSans-48"/>
       <use x="127.246094" xlink:href="#DejaVuSans-48"/>
      </g>
     </g>
    </g>
    <g id="ytick_2">
     <g id="line2d_5">
      <path clip-path="url(#pb9d0098588)" d="M 45.5 252.765701 
L 139.68 252.765701 
" style="fill:none;stroke:#ffffff;stroke-linecap:round;"/>
     </g>
     <g id="text_5">
      <!-- 200 -->
      <g style="fill:#262626;" transform="translate(15.00375 256.944841)scale(0.11 -0.11)">
       <use xlink:href="#DejaVuSans-50"/>
       <use x="63.623047" xlink:href="#DejaVuSans-48"/>
       <use x="127.246094" xlink:href="#DejaVuSans-48"/>
      </g>
     </g>
    </g>
    <g id="ytick_3">
     <g id="line2d_6">
      <path clip-path="url(#pb9d0098588)" d="M 45.5 208.566856 
L 139.68 208.566856 
" style="fill:none;stroke:#ffffff;stroke-linecap:round;"/>
     </g>
     <g id="text_6">
      <!-- 300 -->
      <defs>
       <path d="M 40.578125 39.3125 
Q 47.65625 37.796875 51.625 33 
Q 55.609375 28.21875 55.609375 21.1875 
Q 55.609375 10.40625 48.1875 4.484375 
Q 40.765625 -1.421875 27.09375 -1.421875 
Q 22.515625 -1.421875 17.65625 -0.515625 
Q 12.796875 0.390625 7.625 2.203125 
L 7.625 11.71875 
Q 11.71875 9.328125 16.59375 8.109375 
Q 21.484375 6.890625 26.8125 6.890625 
Q 36.078125 6.890625 40.9375 10.546875 
Q 45.796875 14.203125 45.796875 21.1875 
Q 45.796875 27.640625 41.28125 31.265625 
Q 36.765625 34.90625 28.71875 34.90625 
L 20.21875 34.90625 
L 20.21875 43.015625 
L 29.109375 43.015625 
Q 36.375 43.015625 40.234375 45.921875 
Q 44.09375 48.828125 44.09375 54.296875 
Q 44.09375 59.90625 40.109375 62.90625 
Q 36.140625 65.921875 28.71875 65.921875 
Q 24.65625 65.921875 20.015625 65.03125 
Q 15.375 64.15625 9.8125 62.3125 
L 9.8125 71.09375 
Q 15.4375 72.65625 20.34375 73.4375 
Q 25.25 74.21875 29.59375 74.21875 
Q 40.828125 74.21875 47.359375 69.109375 
Q 53.90625 64.015625 53.90625 55.328125 
Q 53.90625 49.265625 50.4375 45.09375 
Q 46.96875 40.921875 40.578125 39.3125 
z
" id="DejaVuSans-51"/>
      </defs>
      <g style="fill:#262626;" transform="translate(15.00375 212.745997)scale(0.11 -0.11)">
       <use xlink:href="#DejaVuSans-51"/>
       <use x="63.623047" xlink:href="#DejaVuSans-48"/>
       <use x="127.246094" xlink:href="#DejaVuSans-48"/>
      </g>
     </g>
    </g>
    <g id="ytick_4">
     <g id="line2d_7">
      <path clip-path="url(#pb9d0098588)" d="M 45.5 164.368012 
L 139.68 164.368012 
" style="fill:none;stroke:#ffffff;stroke-linecap:round;"/>
     </g>
     <g id="text_7">
      <!-- 400 -->
      <defs>
       <path d="M 37.796875 64.3125 
L 12.890625 25.390625 
L 37.796875 25.390625 
z
M 35.203125 72.90625 
L 47.609375 72.90625 
L 47.609375 25.390625 
L 58.015625 25.390625 
L 58.015625 17.1875 
L 47.609375 17.1875 
L 47.609375 0 
L 37.796875 0 
L 37.796875 17.1875 
L 4.890625 17.1875 
L 4.890625 26.703125 
z
" id="DejaVuSans-52"/>
      </defs>
      <g style="fill:#262626;" transform="translate(15.00375 168.547152)scale(0.11 -0.11)">
       <use xlink:href="#DejaVuSans-52"/>
       <use x="63.623047" xlink:href="#DejaVuSans-48"/>
       <use x="127.246094" xlink:href="#DejaVuSans-48"/>
      </g>
     </g>
    </g>
    <g id="ytick_5">
     <g id="line2d_8">
      <path clip-path="url(#pb9d0098588)" d="M 45.5 120.169167 
L 139.68 120.169167 
" style="fill:none;stroke:#ffffff;stroke-linecap:round;"/>
     </g>
     <g id="text_8">
      <!-- 500 -->
      <g style="fill:#262626;" transform="translate(15.00375 124.348308)scale(0.11 -0.11)">
       <use xlink:href="#DejaVuSans-53"/>
       <use x="63.623047" xlink:href="#DejaVuSans-48"/>
       <use x="127.246094" xlink:href="#DejaVuSans-48"/>
      </g>
     </g>
    </g>
    <g id="ytick_6">
     <g id="line2d_9">
      <path clip-path="url(#pb9d0098588)" d="M 45.5 75.970322 
L 139.68 75.970322 
" style="fill:none;stroke:#ffffff;stroke-linecap:round;"/>
     </g>
     <g id="text_9">
      <!-- 600 -->
      <defs>
       <path d="M 33.015625 40.375 
Q 26.375 40.375 22.484375 35.828125 
Q 18.609375 31.296875 18.609375 23.390625 
Q 18.609375 15.53125 22.484375 10.953125 
Q 26.375 6.390625 33.015625 6.390625 
Q 39.65625 6.390625 43.53125 10.953125 
Q 47.40625 15.53125 47.40625 23.390625 
Q 47.40625 31.296875 43.53125 35.828125 
Q 39.65625 40.375 33.015625 40.375 
z
M 52.59375 71.296875 
L 52.59375 62.3125 
Q 48.875 64.0625 45.09375 64.984375 
Q 41.3125 65.921875 37.59375 65.921875 
Q 27.828125 65.921875 22.671875 59.328125 
Q 17.53125 52.734375 16.796875 39.40625 
Q 19.671875 43.65625 24.015625 45.921875 
Q 28.375 48.1875 33.59375 48.1875 
Q 44.578125 48.1875 50.953125 41.515625 
Q 57.328125 34.859375 57.328125 23.390625 
Q 57.328125 12.15625 50.6875 5.359375 
Q 44.046875 -1.421875 33.015625 -1.421875 
Q 20.359375 -1.421875 13.671875 8.265625 
Q 6.984375 17.96875 6.984375 36.375 
Q 6.984375 53.65625 15.1875 63.9375 
Q 23.390625 74.21875 37.203125 74.21875 
Q 40.921875 74.21875 44.703125 73.484375 
Q 48.484375 72.75 52.59375 71.296875 
z
" id="DejaVuSans-54"/>
      </defs>
      <g style="fill:#262626;" transform="translate(15.00375 80.149463)scale(0.11 -0.11)">
       <use xlink:href="#DejaVuSans-54"/>
       <use x="63.623047" xlink:href="#DejaVuSans-48"/>
       <use x="127.246094" xlink:href="#DejaVuSans-48"/>
      </g>
     </g>
    </g>
    <g id="ytick_7">
     <g id="line2d_10">
      <path clip-path="url(#pb9d0098588)" d="M 45.5 31.771478 
L 139.68 31.771478 
" style="fill:none;stroke:#ffffff;stroke-linecap:round;"/>
     </g>
     <g id="text_10">
      <!-- 700 -->
      <g style="fill:#262626;" transform="translate(15.00375 35.950618)scale(0.11 -0.11)">
       <use xlink:href="#DejaVuSans-55"/>
       <use x="63.623047" xlink:href="#DejaVuSans-48"/>
       <use x="127.246094" xlink:href="#DejaVuSans-48"/>
      </g>
     </g>
    </g>
   </g>
   <g id="line2d_11">
    <path clip-path="url(#pb9d0098588)" d="M 49.780909 32.655455 
L 50.174254 82.600149 
L 50.30537 74.202369 
L 50.436485 75.086345 
L 50.5676 94.975825 
L 50.698715 85.694068 
L 50.82983 103.373606 
L 50.960945 79.948218 
L 51.223176 137.406716 
L 51.354291 127.682971 
L 51.485406 120.169167 
L 51.747636 155.970231 
L 51.878751 147.572451 
L 52.403212 170.997838 
L 52.534327 163.926023 
L 52.665442 171.439827 
L 52.796557 187.351411 
L 52.927672 175.859711 
L 53.321018 205.914926 
L 53.452133 200.169076 
L 53.583248 185.141469 
L 53.845478 212.102764 
L 53.976593 206.356914 
L 54.369939 225.804406 
L 54.501054 217.406625 
L 54.632169 226.246394 
L 54.763284 216.964637 
L 54.894399 217.848614 
L 55.025514 238.622071 
L 55.15663 230.666279 
L 55.287745 231.108267 
L 55.41886 247.903828 
L 55.68109 234.644175 
L 55.94332 248.345816 
L 56.074435 247.461839 
L 56.205551 243.483943 
L 56.336666 255.85962 
L 56.467781 245.693886 
L 56.598896 258.511551 
L 56.992241 249.229793 
L 57.123357 243.483943 
L 57.385587 259.395528 
L 57.516702 259.395528 
L 57.647817 256.301608 
L 57.910047 260.721493 
L 58.041162 258.953539 
L 58.303393 262.931435 
L 58.434508 273.539158 
L 58.827853 260.721493 
L 58.958968 267.793308 
L 59.090084 264.699389 
L 59.221199 280.168984 
L 59.352314 268.235296 
L 59.483429 275.7491 
L 59.614544 267.35132 
L 59.876774 274.865123 
L 60.007889 280.610973 
L 60.27012 269.119273 
L 60.401235 272.655181 
L 60.53235 265.583366 
L 60.663465 277.959042 
L 60.79458 274.865123 
L 60.925695 281.49495 
L 61.056811 266.467343 
L 61.187926 279.726996 
L 61.319041 279.285008 
L 61.450156 275.307112 
L 61.581271 263.815412 
L 61.843501 279.285008 
L 62.105732 269.119273 
L 62.236847 286.356823 
L 62.367962 283.262904 
L 62.499077 266.467343 
L 62.630192 281.49495 
L 62.761307 277.517054 
L 62.892422 277.517054 
L 63.023538 284.146881 
L 63.154653 259.395528 
L 63.285768 277.959042 
L 63.416883 273.981146 
L 63.547998 278.843019 
L 63.810228 271.329216 
L 63.941343 280.610973 
L 64.072459 280.610973 
L 64.203574 272.213192 
L 64.465804 280.168984 
L 64.596919 282.378927 
L 64.728034 287.2408 
L 64.859149 282.378927 
L 64.990265 282.820915 
L 65.12138 281.49495 
L 65.252495 295.196592 
L 65.38361 283.704892 
L 65.514725 283.262904 
L 65.64584 272.213192 
L 65.90807 289.89273 
L 66.039186 279.285008 
L 66.170301 278.401031 
L 66.432531 281.936938 
L 66.563646 282.378927 
L 66.694761 287.682788 
L 66.825876 277.517054 
L 66.956992 277.075065 
L 67.088107 272.655181 
L 67.219222 285.914834 
L 67.350337 282.378927 
L 67.481452 285.472846 
L 67.612567 296.522557 
L 67.743682 273.097169 
L 68.005913 286.798811 
L 68.137028 270.445239 
L 68.399258 281.936938 
L 68.530373 267.35132 
L 68.661488 277.959042 
L 68.792603 269.561262 
L 68.923719 287.2408 
L 69.054834 275.7491 
L 69.317064 291.660684 
L 69.579294 274.423135 
L 69.97264 286.798811 
L 70.103755 284.588869 
L 70.23487 290.334719 
L 70.365985 282.820915 
L 70.4971 282.820915 
L 70.628215 281.49495 
L 70.75933 288.124777 
L 70.890445 275.307112 
L 71.152676 279.285008 
L 71.283791 288.566765 
L 71.414906 287.2408 
L 71.546021 276.191088 
L 71.677136 287.2408 
L 71.808251 281.936938 
L 72.070482 289.450742 
L 72.201597 291.660684 
L 72.463827 283.262904 
L 72.594942 285.472846 
L 72.726057 285.472846 
L 72.857172 280.168984 
L 72.988288 282.378927 
L 73.119403 281.936938 
L 73.250518 275.7491 
L 73.381633 288.124777 
L 73.512748 283.704892 
L 73.643863 283.262904 
L 73.774978 280.610973 
L 73.906094 281.052961 
L 74.037209 287.682788 
L 74.299439 277.075065 
L 74.430554 289.89273 
L 74.692784 271.329216 
L 74.823899 284.588869 
L 74.955015 285.472846 
L 75.08613 285.030857 
L 75.217245 280.610973 
L 75.34836 284.146881 
L 75.479475 280.610973 
L 75.61059 280.610973 
L 75.741705 282.820915 
L 75.872821 279.726996 
L 76.003936 290.334719 
L 76.135051 288.124777 
L 76.266166 277.517054 
L 76.528396 287.682788 
L 76.659511 280.610973 
L 76.790626 280.168984 
L 76.921742 285.914834 
L 77.052857 284.588869 
L 77.183972 285.030857 
L 77.446202 293.870626 
L 77.577317 279.726996 
L 77.708432 284.146881 
L 77.839548 282.820915 
L 78.101778 289.89273 
L 78.232893 281.49495 
L 78.364008 289.450742 
L 78.495123 288.124777 
L 78.626238 288.566765 
L 78.757353 281.052961 
L 79.150699 292.544661 
L 79.281814 284.588869 
L 79.544044 283.704892 
L 79.675159 284.146881 
L 79.806275 278.843019 
L 79.93739 280.610973 
L 80.19962 286.798811 
L 80.330735 281.052961 
L 80.592965 291.218696 
L 80.72408 271.771204 
L 80.855196 289.89273 
L 80.986311 275.7491 
L 81.117426 288.566765 
L 81.379656 283.262904 
L 81.641886 288.566765 
L 81.773002 283.262904 
L 81.904117 286.798811 
L 82.035232 280.610973 
L 82.166347 281.49495 
L 82.428577 285.030857 
L 82.559692 279.285008 
L 82.690807 290.334719 
L 82.953038 284.588869 
L 83.215268 279.726996 
L 83.346383 281.936938 
L 83.477498 279.285008 
L 83.608613 290.776707 
L 83.739729 288.124777 
L 83.870844 291.218696 
L 84.133074 287.2408 
L 84.264189 276.633077 
L 84.395304 286.798811 
L 84.526419 275.307112 
L 84.78865 293.428638 
L 84.919765 283.704892 
L 85.181995 282.378927 
L 85.31311 292.986649 
L 85.444225 290.776707 
L 85.57534 276.633077 
L 85.706456 278.401031 
L 85.968686 289.450742 
L 86.099801 289.450742 
L 86.230916 277.517054 
L 86.362031 289.450742 
L 86.493146 289.89273 
L 86.624261 289.89273 
L 86.755377 287.2408 
L 86.886492 280.168984 
L 87.017607 289.450742 
L 87.148722 281.052961 
L 87.279837 286.356823 
L 87.542067 280.610973 
L 87.673183 290.776707 
L 87.804298 280.168984 
L 87.935413 287.2408 
L 88.066528 287.2408 
L 88.197643 279.285008 
L 88.328758 284.588869 
L 88.459873 280.610973 
L 88.590988 286.798811 
L 88.722104 287.682788 
L 89.115449 274.865123 
L 89.246564 285.030857 
L 89.508794 278.401031 
L 89.63991 286.798811 
L 89.771025 285.030857 
L 89.90214 295.196592 
L 90.033255 292.544661 
L 90.16437 281.052961 
L 90.295485 281.052961 
L 90.557715 289.450742 
L 90.688831 283.704892 
L 90.819946 286.798811 
L 90.951061 285.472846 
L 91.082176 274.865123 
L 91.213291 284.146881 
L 91.344406 281.052961 
L 91.475521 284.588869 
L 91.606637 283.262904 
L 91.737752 279.285008 
L 91.999982 285.914834 
L 92.262212 289.008753 
L 92.393327 271.329216 
L 92.524442 288.566765 
L 92.786673 286.356823 
L 92.917788 279.726996 
L 93.048903 280.610973 
L 93.180018 279.726996 
L 93.442248 289.008753 
L 93.573363 276.633077 
L 93.704479 287.682788 
L 93.835594 285.472846 
L 94.097824 275.307112 
L 94.360054 289.450742 
L 94.491169 286.798811 
L 94.622285 292.102673 
L 94.884515 280.610973 
L 95.146745 295.63858 
L 95.408975 276.633077 
L 95.54009 289.008753 
L 95.671206 286.798811 
L 95.802321 289.008753 
L 95.933436 276.191088 
L 96.064551 279.726996 
L 96.195666 289.008753 
L 96.457896 283.704892 
L 96.589012 288.566765 
L 96.851242 284.146881 
L 96.982357 274.423135 
L 97.113472 284.588869 
L 97.375702 284.588869 
L 97.506817 284.146881 
L 97.637933 287.2408 
L 97.769048 280.168984 
L 97.900163 280.610973 
L 98.031278 285.914834 
L 98.162393 282.378927 
L 98.293508 282.378927 
L 98.424623 282.820915 
L 98.555739 286.798811 
L 98.686854 281.49495 
L 98.817969 288.566765 
L 99.080199 277.075065 
L 99.211314 279.285008 
L 99.342429 289.89273 
L 99.60466 285.472846 
L 99.735775 271.329216 
L 99.86689 289.89273 
L 99.998005 285.472846 
L 100.12912 286.798811 
L 100.260235 286.798811 
L 100.653581 278.843019 
L 100.784696 282.378927 
L 100.915811 292.102673 
L 101.046926 291.660684 
L 101.178041 278.401031 
L 101.309156 289.450742 
L 101.571387 282.820915 
L 101.702502 286.356823 
L 101.833617 285.030857 
L 101.964732 277.517054 
L 102.095847 285.914834 
L 102.226962 284.146881 
L 102.358077 286.798811 
L 102.489193 272.213192 
L 102.751423 285.472846 
L 102.882538 280.168984 
L 103.144768 285.030857 
L 103.275883 281.936938 
L 103.406998 284.146881 
L 103.538114 281.936938 
L 103.669229 289.450742 
L 103.800344 288.124777 
L 103.931459 289.008753 
L 104.062574 283.262904 
L 104.193689 290.776707 
L 104.324804 276.633077 
L 104.45592 276.191088 
L 104.587035 290.776707 
L 104.71815 292.986649 
L 104.98038 273.539158 
L 105.111495 286.356823 
L 105.24261 284.146881 
L 105.373725 288.566765 
L 105.635956 274.423135 
L 105.767071 280.168984 
L 105.898186 291.660684 
L 106.029301 277.517054 
L 106.160416 287.682788 
L 106.291531 275.307112 
L 106.422647 280.610973 
L 106.553762 275.7491 
L 106.684877 285.914834 
L 106.815992 281.052961 
L 107.078222 282.820915 
L 107.209337 289.008753 
L 107.340452 289.008753 
L 107.471568 290.334719 
L 107.602683 279.726996 
L 107.864913 287.2408 
L 108.258258 277.075065 
L 108.520489 285.472846 
L 108.651604 285.030857 
L 108.782719 296.964545 
L 108.913834 279.726996 
L 109.044949 284.588869 
L 109.176064 281.49495 
L 109.307179 292.544661 
L 109.438295 285.030857 
L 109.56941 290.334719 
L 109.700525 281.052961 
L 109.83164 282.820915 
L 109.962755 277.959042 
L 110.356101 287.682788 
L 110.487216 292.544661 
L 110.618331 289.89273 
L 110.749446 290.776707 
L 110.880561 277.075065 
L 111.011676 290.334719 
L 111.273906 282.820915 
L 111.405022 283.262904 
L 111.536137 288.124777 
L 111.667252 278.401031 
L 111.798367 288.566765 
L 111.929482 287.682788 
L 112.060597 292.544661 
L 112.322828 282.378927 
L 112.453943 286.798811 
L 112.716173 276.633077 
L 112.847288 290.776707 
L 113.240633 282.820915 
L 113.371749 290.776707 
L 113.502864 281.052961 
L 113.633979 282.820915 
L 113.896209 280.168984 
L 114.158439 289.008753 
L 114.289555 289.008753 
L 114.42067 288.566765 
L 114.551785 272.655181 
L 114.6829 289.89273 
L 114.94513 277.075065 
L 115.076245 283.262904 
L 115.20736 282.820915 
L 115.338476 276.191088 
L 115.469591 282.820915 
L 115.600706 282.820915 
L 115.731821 283.704892 
L 115.862936 288.566765 
L 115.994051 285.472846 
L 116.256281 289.008753 
L 116.387397 282.820915 
L 116.518512 288.566765 
L 116.649627 284.588869 
L 116.780742 289.008753 
L 116.911857 281.052961 
L 117.042972 290.334719 
L 117.174087 287.2408 
L 117.305203 272.655181 
L 117.567433 280.168984 
L 117.960778 286.356823 
L 118.091893 292.102673 
L 118.223008 273.097169 
L 118.485239 286.798811 
L 118.616354 279.726996 
L 118.747469 286.356823 
L 118.878584 284.146881 
L 119.009699 289.450742 
L 119.140814 276.633077 
L 119.403045 283.262904 
L 119.53416 278.401031 
L 119.79639 284.146881 
L 119.927505 285.030857 
L 120.05862 295.196592 
L 120.189735 285.030857 
L 120.320851 285.472846 
L 120.451966 283.262904 
L 120.583081 288.566765 
L 120.714196 279.285008 
L 120.845311 283.704892 
L 120.976426 280.610973 
L 121.107541 283.262904 
L 121.238657 289.450742 
L 121.369772 273.097169 
L 121.500887 272.213192 
L 121.632002 289.450742 
L 121.763117 280.168984 
L 121.894232 291.218696 
L 122.025347 284.588869 
L 122.156462 287.2408 
L 122.549808 280.168984 
L 122.680923 281.052961 
L 122.812038 284.146881 
L 122.943153 278.843019 
L 123.074268 279.285008 
L 123.205384 281.49495 
L 123.336499 288.566765 
L 123.598729 284.588869 
L 123.729844 282.820915 
L 123.860959 286.356823 
L 123.992074 282.378927 
L 124.123189 285.030857 
L 124.38542 280.168984 
L 124.516535 280.610973 
L 124.64765 285.914834 
L 124.778765 274.423135 
L 124.90988 288.124777 
L 125.040995 277.959042 
L 125.172111 286.798811 
L 125.303226 278.843019 
L 125.565456 281.936938 
L 125.696571 279.726996 
L 125.958801 285.030857 
L 126.221032 276.191088 
L 126.352147 283.262904 
L 126.483262 270.887227 
L 126.614377 287.2408 
L 126.745492 278.843019 
L 127.007722 289.450742 
L 127.269953 279.726996 
L 127.401068 290.776707 
L 127.663298 284.146881 
L 127.794413 282.378927 
L 127.925528 286.798811 
L 128.056643 278.401031 
L 128.318874 289.89273 
L 128.449989 283.262904 
L 128.581104 296.522557 
L 128.843334 275.307112 
L 128.974449 290.334719 
L 129.105565 276.633077 
L 129.23668 277.517054 
L 129.367795 281.052961 
L 129.49891 281.052961 
L 129.76114 287.2408 
L 129.892255 288.566765 
L 130.02337 277.959042 
L 130.154486 282.378927 
L 130.285601 281.49495 
L 130.416716 277.075065 
L 130.678946 281.052961 
L 130.810061 289.008753 
L 130.941176 283.704892 
L 131.072292 287.682788 
L 131.203407 281.49495 
L 131.334522 285.030857 
L 131.465637 281.49495 
L 131.596752 290.776707 
L 131.727867 275.7491 
L 131.990097 286.356823 
L 132.252328 272.655181 
L 132.514558 288.566765 
L 132.645673 281.936938 
L 132.776788 282.820915 
L 132.907903 289.450742 
L 133.039019 279.726996 
L 133.170134 284.588869 
L 133.301249 285.030857 
L 133.432364 283.262904 
L 133.563479 292.102673 
L 133.694594 289.008753 
L 133.825709 275.307112 
L 133.956824 280.168984 
L 134.08794 280.610973 
L 134.35017 275.307112 
L 134.6124 285.030857 
L 134.743515 279.285008 
L 134.87463 282.378927 
L 135.005746 282.820915 
L 135.267976 285.914834 
L 135.399091 275.307112 
L 135.399091 275.307112 
" style="fill:none;stroke:#4c72b0;stroke-linecap:round;stroke-width:1.5;"/>
   </g>
   <g id="line2d_12">
    <path clip-path="url(#pb9d0098588)" d="M 49.780909 32.655455 
L 50.174254 79.891578 
L 50.30537 75.712223 
L 50.436485 78.370969 
L 50.5676 90.39297 
L 50.698715 88.434454 
L 50.82983 97.780125 
L 50.960945 92.556374 
L 51.354291 114.722418 
L 51.485406 116.105588 
L 51.878751 130.190673 
L 53.976593 190.922471 
L 55.025514 215.893488 
L 56.074435 235.404796 
L 56.992241 248.351717 
L 57.910047 257.968835 
L 58.696738 264.034606 
L 59.483429 268.529988 
L 60.27012 271.832448 
L 61.056811 274.262956 
L 61.843501 276.062907 
L 62.761307 277.591941 
L 63.679113 278.692903 
L 64.728034 279.612901 
L 66.170301 280.546362 
L 68.005913 281.459865 
L 70.103755 282.230236 
L 76.659511 284.2309 
L 79.019584 284.687372 
L 80.986311 284.834795 
L 84.657534 284.805375 
L 87.279837 284.594602 
L 91.475521 284.19627 
L 97.769048 284.145664 
L 104.587035 283.651652 
L 106.160416 283.849991 
L 109.176064 284.533441 
L 110.749446 284.754868 
L 112.191712 284.7317 
L 114.027324 284.451904 
L 118.485239 283.639216 
L 124.254305 282.963197 
L 127.138838 282.994905 
L 129.367795 282.932586 
L 130.547831 282.694305 
L 131.858982 282.183432 
L 134.6124 280.76235 
L 135.399091 280.353165 
L 135.399091 280.353165 
" style="fill:none;stroke:#dd8452;stroke-linecap:round;stroke-width:1.5;"/>
   </g>
   <g id="patch_3">
    <path d="M 45.5 310.18 
L 45.5 19.44 
" style="fill:none;stroke:#ffffff;stroke-linecap:square;stroke-linejoin:miter;stroke-width:1.25;"/>
   </g>
   <g id="patch_4">
    <path d="M 139.68 310.18 
L 139.68 19.44 
" style="fill:none;stroke:#ffffff;stroke-linecap:square;stroke-linejoin:miter;stroke-width:1.25;"/>
   </g>
   <g id="patch_5">
    <path d="M 45.5 310.18 
L 139.68 310.18 
" style="fill:none;stroke:#ffffff;stroke-linecap:square;stroke-linejoin:miter;stroke-width:1.25;"/>
   </g>
   <g id="patch_6">
    <path d="M 45.5 19.44 
L 139.68 19.44 
" style="fill:none;stroke:#ffffff;stroke-linecap:square;stroke-linejoin:miter;stroke-width:1.25;"/>
   </g>
  </g>
  <g id="axes_2">
   <g id="patch_7">
    <path d="M 196.34 310.18 
L 290.52 310.18 
L 290.52 19.44 
L 196.34 19.44 
z
" style="fill:#eaeaf2;"/>
   </g>
   <g id="matplotlib.axis_3">
    <g id="xtick_4">
     <g id="line2d_13">
      <path clip-path="url(#p8e02d20e0f)" d="M 201.4076 310.18 
L 201.4076 19.44 
" style="fill:none;stroke:#ffffff;stroke-linecap:round;"/>
     </g>
     <g id="text_11">
      <!-- 0.00035 -->
      <g style="fill:#262626;" transform="translate(178.663381 328.038281)scale(0.11 -0.11)">
       <use xlink:href="#DejaVuSans-48"/>
       <use x="63.623047" xlink:href="#DejaVuSans-46"/>
       <use x="95.410156" xlink:href="#DejaVuSans-48"/>
       <use x="159.033203" xlink:href="#DejaVuSans-48"/>
       <use x="222.65625" xlink:href="#DejaVuSans-48"/>
       <use x="286.279297" xlink:href="#DejaVuSans-51"/>
       <use x="349.902344" xlink:href="#DejaVuSans-53"/>
      </g>
     </g>
    </g>
    <g id="xtick_5">
     <g id="line2d_14">
      <path clip-path="url(#p8e02d20e0f)" d="M 266.965166 310.18 
L 266.965166 19.44 
" style="fill:none;stroke:#ffffff;stroke-linecap:round;"/>
     </g>
     <g id="text_12">
      <!-- 0.00040 -->
      <g style="fill:#262626;" transform="translate(244.220948 328.038281)scale(0.11 -0.11)">
       <use xlink:href="#DejaVuSans-48"/>
       <use x="63.623047" xlink:href="#DejaVuSans-46"/>
       <use x="95.410156" xlink:href="#DejaVuSans-48"/>
       <use x="159.033203" xlink:href="#DejaVuSans-48"/>
       <use x="222.65625" xlink:href="#DejaVuSans-48"/>
       <use x="286.279297" xlink:href="#DejaVuSans-52"/>
       <use x="349.902344" xlink:href="#DejaVuSans-48"/>
      </g>
     </g>
    </g>
   </g>
   <g id="matplotlib.axis_4">
    <g id="ytick_8">
     <g id="line2d_15">
      <path clip-path="url(#p8e02d20e0f)" d="M 196.34 268.103208 
L 290.52 268.103208 
" style="fill:none;stroke:#ffffff;stroke-linecap:round;"/>
     </g>
     <g id="text_13">
      <!-- 200 -->
      <g style="fill:#262626;" transform="translate(165.84375 272.282349)scale(0.11 -0.11)">
       <use xlink:href="#DejaVuSans-50"/>
       <use x="63.623047" xlink:href="#DejaVuSans-48"/>
       <use x="127.246094" xlink:href="#DejaVuSans-48"/>
      </g>
     </g>
    </g>
    <g id="ytick_9">
     <g id="line2d_16">
      <path clip-path="url(#p8e02d20e0f)" d="M 196.34 207.342497 
L 290.52 207.342497 
" style="fill:none;stroke:#ffffff;stroke-linecap:round;"/>
     </g>
     <g id="text_14">
      <!-- 400 -->
      <g style="fill:#262626;" transform="translate(165.84375 211.521638)scale(0.11 -0.11)">
       <use xlink:href="#DejaVuSans-52"/>
       <use x="63.623047" xlink:href="#DejaVuSans-48"/>
       <use x="127.246094" xlink:href="#DejaVuSans-48"/>
      </g>
     </g>
    </g>
    <g id="ytick_10">
     <g id="line2d_17">
      <path clip-path="url(#p8e02d20e0f)" d="M 196.34 146.581787 
L 290.52 146.581787 
" style="fill:none;stroke:#ffffff;stroke-linecap:round;"/>
     </g>
     <g id="text_15">
      <!-- 600 -->
      <g style="fill:#262626;" transform="translate(165.84375 150.760927)scale(0.11 -0.11)">
       <use xlink:href="#DejaVuSans-54"/>
       <use x="63.623047" xlink:href="#DejaVuSans-48"/>
       <use x="127.246094" xlink:href="#DejaVuSans-48"/>
      </g>
     </g>
    </g>
    <g id="ytick_11">
     <g id="line2d_18">
      <path clip-path="url(#p8e02d20e0f)" d="M 196.34 85.821076 
L 290.52 85.821076 
" style="fill:none;stroke:#ffffff;stroke-linecap:round;"/>
     </g>
     <g id="text_16">
      <!-- 800 -->
      <defs>
       <path d="M 31.78125 34.625 
Q 24.75 34.625 20.71875 30.859375 
Q 16.703125 27.09375 16.703125 20.515625 
Q 16.703125 13.921875 20.71875 10.15625 
Q 24.75 6.390625 31.78125 6.390625 
Q 38.8125 6.390625 42.859375 10.171875 
Q 46.921875 13.96875 46.921875 20.515625 
Q 46.921875 27.09375 42.890625 30.859375 
Q 38.875 34.625 31.78125 34.625 
z
M 21.921875 38.8125 
Q 15.578125 40.375 12.03125 44.71875 
Q 8.5 49.078125 8.5 55.328125 
Q 8.5 64.0625 14.71875 69.140625 
Q 20.953125 74.21875 31.78125 74.21875 
Q 42.671875 74.21875 48.875 69.140625 
Q 55.078125 64.0625 55.078125 55.328125 
Q 55.078125 49.078125 51.53125 44.71875 
Q 48 40.375 41.703125 38.8125 
Q 48.828125 37.15625 52.796875 32.3125 
Q 56.78125 27.484375 56.78125 20.515625 
Q 56.78125 9.90625 50.3125 4.234375 
Q 43.84375 -1.421875 31.78125 -1.421875 
Q 19.734375 -1.421875 13.25 4.234375 
Q 6.78125 9.90625 6.78125 20.515625 
Q 6.78125 27.484375 10.78125 32.3125 
Q 14.796875 37.15625 21.921875 38.8125 
z
M 18.3125 54.390625 
Q 18.3125 48.734375 21.84375 45.5625 
Q 25.390625 42.390625 31.78125 42.390625 
Q 38.140625 42.390625 41.71875 45.5625 
Q 45.3125 48.734375 45.3125 54.390625 
Q 45.3125 60.0625 41.71875 63.234375 
Q 38.140625 66.40625 31.78125 66.40625 
Q 25.390625 66.40625 21.84375 63.234375 
Q 18.3125 60.0625 18.3125 54.390625 
z
" id="DejaVuSans-56"/>
      </defs>
      <g style="fill:#262626;" transform="translate(165.84375 90.000217)scale(0.11 -0.11)">
       <use xlink:href="#DejaVuSans-56"/>
       <use x="63.623047" xlink:href="#DejaVuSans-48"/>
       <use x="127.246094" xlink:href="#DejaVuSans-48"/>
      </g>
     </g>
    </g>
    <g id="ytick_12">
     <g id="line2d_19">
      <path clip-path="url(#p8e02d20e0f)" d="M 196.34 25.060366 
L 290.52 25.060366 
" style="fill:none;stroke:#ffffff;stroke-linecap:round;"/>
     </g>
     <g id="text_17">
      <!-- 1000 -->
      <g style="fill:#262626;" transform="translate(158.845 29.239506)scale(0.11 -0.11)">
       <use xlink:href="#DejaVuSans-49"/>
       <use x="63.623047" xlink:href="#DejaVuSans-48"/>
       <use x="127.246094" xlink:href="#DejaVuSans-48"/>
       <use x="190.869141" xlink:href="#DejaVuSans-48"/>
      </g>
     </g>
    </g>
   </g>
   <g id="line2d_20">
    <path clip-path="url(#p8e02d20e0f)" d="M 200.620909 32.655455 
L 200.752024 66.985256 
L 200.883139 55.136917 
L 201.014254 89.162915 
L 201.14537 92.200951 
L 201.4076 107.998736 
L 201.538715 100.099843 
L 201.800945 144.455162 
L 201.93206 143.543751 
L 202.063176 145.97418 
L 202.194291 143.847555 
L 202.325406 146.88559 
L 202.587636 185.164838 
L 202.718751 173.924107 
L 202.849866 186.380052 
L 202.980981 183.64582 
L 203.243212 203.089248 
L 203.374327 197.31698 
L 203.767672 214.329979 
L 203.898787 212.203354 
L 204.161018 234.381014 
L 204.292133 225.570711 
L 204.554363 238.33046 
L 204.685478 228.608746 
L 204.947708 241.064692 
L 205.078824 243.798924 
L 205.209939 238.026656 
L 205.341054 239.545674 
L 205.603284 257.16628 
L 205.734399 244.102727 
L 205.865514 249.267388 
L 205.99663 248.659781 
L 206.25886 265.67278 
L 206.389975 258.989101 
L 206.652205 271.141243 
L 206.78332 263.242351 
L 206.914435 271.748851 
L 207.045551 268.103208 
L 207.176666 275.09069 
L 207.307781 264.457565 
L 207.438896 274.179279 
L 207.701126 265.368976 
L 207.963357 272.052654 
L 208.094472 274.179279 
L 208.356702 271.748851 
L 208.487817 268.710815 
L 208.618932 277.521118 
L 208.750047 270.229833 
L 208.881162 280.559154 
L 209.012278 279.040136 
L 209.143393 272.660261 
L 209.274508 276.609707 
L 209.405623 276.305904 
L 209.536738 279.040136 
L 209.667853 277.824922 
L 209.798968 280.862957 
L 209.930084 272.356458 
L 210.061199 281.470564 
L 210.192314 276.609707 
L 210.454544 281.166761 
L 210.585659 278.432529 
L 210.716774 271.445047 
L 210.847889 285.723814 
L 210.979005 275.698297 
L 211.241235 284.204796 
L 211.37235 285.42001 
L 211.503465 273.267868 
L 211.63458 283.900993 
L 211.765695 279.040136 
L 211.896811 282.685778 
L 212.027926 280.25535 
L 212.159041 285.42001 
L 212.290156 283.900993 
L 212.683501 291.192278 
L 212.814616 282.989582 
L 212.945732 282.685778 
L 213.076847 290.888474 
L 213.207962 282.685778 
L 213.339077 287.242832 
L 213.470192 282.685778 
L 213.732422 284.204796 
L 213.863538 282.381975 
L 213.994653 286.635225 
L 214.125768 280.862957 
L 214.256883 284.812403 
L 214.387998 283.597189 
L 214.519113 283.900993 
L 214.650228 286.331421 
L 214.912459 277.824922 
L 215.043574 289.369457 
L 215.174689 285.116207 
L 215.305804 284.812403 
L 215.436919 278.432529 
L 215.568034 279.040136 
L 215.830265 288.76185 
L 215.96138 282.078171 
L 216.092495 281.166761 
L 216.22361 282.685778 
L 216.354725 279.647743 
L 216.48584 289.369457 
L 216.616955 282.989582 
L 216.879186 289.369457 
L 217.010301 288.76185 
L 217.141416 285.42001 
L 217.272531 286.027618 
L 217.403646 276.609707 
L 217.665876 287.242832 
L 217.928107 276.609707 
L 218.059222 279.343939 
L 218.190337 287.850439 
L 218.321452 286.027618 
L 218.452567 286.939028 
L 218.583682 281.166761 
L 218.714797 286.635225 
L 218.977028 288.154242 
L 219.108143 289.67326 
L 219.239258 279.951546 
L 219.501488 285.116207 
L 219.632603 277.521118 
L 219.894834 289.369457 
L 220.025949 282.685778 
L 220.157064 286.939028 
L 220.288179 287.546635 
L 220.419294 289.369457 
L 220.550409 279.647743 
L 220.681524 286.331421 
L 220.81264 284.204796 
L 220.943755 279.040136 
L 221.07487 278.432529 
L 221.205985 282.685778 
L 221.3371 279.951546 
L 221.468215 284.5086 
L 221.59933 282.381975 
L 221.730445 284.812403 
L 221.861561 281.166761 
L 221.992676 286.939028 
L 222.123791 286.939028 
L 222.254906 286.331421 
L 222.386021 290.280867 
L 222.517136 287.546635 
L 222.648251 289.369457 
L 222.779367 282.989582 
L 222.910482 282.989582 
L 223.041597 286.027618 
L 223.172712 279.040136 
L 223.303827 287.546635 
L 223.434942 279.040136 
L 223.566057 289.67326 
L 223.697172 287.546635 
L 223.828288 289.065653 
L 223.959403 283.900993 
L 224.221633 288.154242 
L 224.352748 284.812403 
L 224.483863 288.154242 
L 224.614978 282.989582 
L 224.746094 288.154242 
L 224.877209 282.078171 
L 225.139439 286.027618 
L 225.270554 286.027618 
L 225.401669 287.546635 
L 225.532784 285.116207 
L 225.663899 288.154242 
L 225.795015 281.774368 
L 226.057245 294.837921 
L 226.319475 281.774368 
L 226.45059 284.812403 
L 226.581705 284.812403 
L 226.843936 289.67326 
L 227.106166 282.989582 
L 227.237281 287.546635 
L 227.368396 281.470564 
L 227.630626 289.977064 
L 227.761742 289.065653 
L 227.892857 280.862957 
L 228.155087 291.192278 
L 228.417317 284.5086 
L 228.548432 286.331421 
L 228.679548 281.166761 
L 228.810663 292.407492 
L 229.072893 285.42001 
L 229.204008 287.546635 
L 229.335123 279.951546 
L 229.859584 292.711296 
L 230.121814 279.647743 
L 230.252929 285.116207 
L 230.646275 279.040136 
L 230.77739 284.204796 
L 230.908505 284.204796 
L 231.03962 278.128725 
L 231.30185 283.293386 
L 231.432965 282.078171 
L 231.695196 285.723814 
L 231.826311 289.67326 
L 231.957426 281.166761 
L 232.088541 284.204796 
L 232.219656 291.799885 
L 232.481886 279.040136 
L 232.744117 288.154242 
L 233.006347 281.470564 
L 233.137462 286.939028 
L 233.268577 287.546635 
L 233.399692 282.381975 
L 233.530807 281.774368 
L 233.661923 282.685778 
L 233.793038 289.67326 
L 233.924153 289.67326 
L 234.055268 288.154242 
L 234.186383 290.280867 
L 234.317498 281.470564 
L 234.448613 289.977064 
L 234.579729 287.242832 
L 234.710844 291.496082 
L 234.973074 285.723814 
L 235.104189 289.065653 
L 235.366419 282.078171 
L 235.497534 288.458046 
L 235.62865 287.850439 
L 235.759765 277.217315 
L 235.89088 281.470564 
L 236.021995 281.470564 
L 236.15311 283.597189 
L 236.284225 292.407492 
L 236.677571 276.0021 
L 236.939801 288.458046 
L 237.070916 285.116207 
L 237.202031 289.369457 
L 237.333146 279.647743 
L 237.595377 291.192278 
L 237.988722 283.597189 
L 238.250952 286.635225 
L 238.382067 282.685778 
L 238.513183 294.230313 
L 238.644298 285.42001 
L 238.775413 289.67326 
L 238.906528 281.470564 
L 239.037643 281.470564 
L 239.168758 289.065653 
L 239.299873 280.862957 
L 239.430988 286.027618 
L 239.562104 284.5086 
L 239.693219 291.496082 
L 239.824334 286.635225 
L 239.955449 286.027618 
L 240.086564 283.597189 
L 240.217679 285.42001 
L 240.348794 285.42001 
L 240.47991 280.559154 
L 240.611025 287.546635 
L 240.74214 286.027618 
L 241.00437 290.280867 
L 241.135485 286.635225 
L 241.2666 296.964545 
L 241.397715 289.369457 
L 241.528831 289.67326 
L 241.659946 282.685778 
L 241.922176 288.458046 
L 242.053291 284.812403 
L 242.184406 289.065653 
L 242.315521 284.812403 
L 242.446637 286.635225 
L 242.577752 280.862957 
L 242.708867 288.76185 
L 242.839982 288.458046 
L 242.971097 289.67326 
L 243.102212 287.546635 
L 243.233327 288.154242 
L 243.364442 283.293386 
L 243.495558 286.027618 
L 243.626673 282.685778 
L 243.757788 287.850439 
L 243.888903 283.900993 
L 244.151133 288.458046 
L 244.282248 283.597189 
L 244.413363 285.723814 
L 244.544479 284.204796 
L 244.675594 287.546635 
L 244.806709 287.242832 
L 244.937824 286.635225 
L 245.068939 288.458046 
L 245.200054 281.166761 
L 245.462285 284.812403 
L 245.5934 291.799885 
L 245.724515 284.812403 
L 245.85563 286.939028 
L 245.986745 282.078171 
L 246.11786 281.774368 
L 246.248975 290.584671 
L 246.38009 282.685778 
L 246.511206 284.204796 
L 246.642321 284.204796 
L 246.904551 290.584671 
L 247.035666 287.850439 
L 247.166781 291.799885 
L 247.429012 284.5086 
L 247.691242 292.407492 
L 247.822357 283.293386 
L 247.953472 283.900993 
L 248.084587 289.065653 
L 248.346817 282.989582 
L 248.477933 288.154242 
L 248.609048 278.128725 
L 248.871278 289.065653 
L 249.133508 283.597189 
L 249.264623 284.812403 
L 249.395739 279.343939 
L 249.526854 285.42001 
L 249.657969 283.293386 
L 249.789084 284.812403 
L 249.920199 282.685778 
L 250.051314 285.723814 
L 250.182429 286.027618 
L 250.313544 283.293386 
L 250.44466 283.597189 
L 250.575775 286.939028 
L 250.70689 286.331421 
L 250.838005 279.040136 
L 251.100235 290.280867 
L 251.23135 282.685778 
L 251.362466 286.027618 
L 251.755811 280.25535 
L 252.018041 286.027618 
L 252.149156 289.065653 
L 252.280271 283.597189 
L 252.411387 287.850439 
L 252.542502 285.116207 
L 252.673617 290.584671 
L 252.804732 282.078171 
L 252.935847 293.015099 
L 253.066962 284.204796 
L 253.198077 285.42001 
L 253.329193 281.774368 
L 253.591423 286.027618 
L 253.722538 275.698297 
L 253.853653 285.723814 
L 253.984768 286.331421 
L 254.115883 275.698297 
L 254.246998 287.242832 
L 254.378114 285.42001 
L 254.509229 290.280867 
L 254.640344 286.331421 
L 254.771459 290.280867 
L 254.902574 286.939028 
L 255.164804 290.280867 
L 255.29592 290.584671 
L 255.55815 282.989582 
L 255.951495 289.065653 
L 256.08261 283.900993 
L 256.213725 285.42001 
L 256.344841 282.685778 
L 256.475956 287.546635 
L 256.607071 281.166761 
L 256.869301 289.369457 
L 257.000416 283.293386 
L 257.131531 285.42001 
L 257.262647 284.204796 
L 257.393762 284.812403 
L 257.524877 275.394493 
L 257.655992 276.0021 
L 257.787107 289.67326 
L 257.918222 286.939028 
L 258.049337 277.521118 
L 258.180452 276.913511 
L 258.573798 290.280867 
L 258.704913 282.685778 
L 258.836028 288.154242 
L 258.967143 276.305904 
L 259.229374 286.027618 
L 259.360489 286.635225 
L 259.491604 288.458046 
L 259.622719 286.635225 
L 259.753834 289.369457 
L 259.884949 280.25535 
L 260.016064 283.900993 
L 260.147179 279.040136 
L 260.278295 282.078171 
L 260.40941 292.103689 
L 260.540525 278.432529 
L 260.93387 288.76185 
L 261.064985 285.42001 
L 261.196101 289.065653 
L 261.327216 282.078171 
L 261.458331 286.635225 
L 261.720561 284.204796 
L 261.851676 285.723814 
L 261.982791 282.989582 
L 262.113906 284.812403 
L 262.245022 284.812403 
L 262.376137 282.989582 
L 262.507252 287.242832 
L 262.638367 284.204796 
L 262.900597 289.065653 
L 263.031712 284.204796 
L 263.162828 285.723814 
L 263.293943 284.812403 
L 263.425058 284.812403 
L 263.687288 289.977064 
L 263.818403 278.128725 
L 264.080633 294.534117 
L 264.342864 285.723814 
L 264.605094 284.5086 
L 264.736209 284.204796 
L 264.867324 287.242832 
L 264.998439 281.774368 
L 265.129555 286.939028 
L 265.391785 279.343939 
L 265.5229 288.76185 
L 265.78513 285.723814 
L 265.916245 282.685778 
L 266.04736 287.242832 
L 266.178476 285.116207 
L 266.309591 286.331421 
L 266.571821 277.824922 
L 266.834051 289.977064 
L 266.965166 285.116207 
L 267.096281 284.5086 
L 267.227397 294.534117 
L 267.358512 282.078171 
L 267.489627 283.293386 
L 267.620742 286.939028 
L 267.751857 284.5086 
L 268.014087 289.369457 
L 268.145203 289.67326 
L 268.407433 279.343939 
L 268.538548 289.065653 
L 268.669663 288.154242 
L 268.800778 282.078171 
L 268.931893 286.939028 
L 269.063008 283.293386 
L 269.194124 291.192278 
L 269.325239 290.888474 
L 269.456354 287.546635 
L 269.587469 289.67326 
L 269.718584 289.67326 
L 269.849699 291.192278 
L 269.980814 282.989582 
L 270.243045 289.67326 
L 270.37416 284.812403 
L 270.505275 272.964065 
L 270.767505 287.242832 
L 270.89862 291.799885 
L 271.029735 284.204796 
L 271.160851 285.116207 
L 271.291966 290.584671 
L 271.423081 289.065653 
L 271.554196 292.407492 
L 271.685311 286.939028 
L 271.816426 289.977064 
L 271.947541 285.116207 
L 272.209772 291.192278 
L 272.340887 282.989582 
L 272.472002 287.850439 
L 272.603117 282.685778 
L 272.734232 285.116207 
L 272.865347 285.116207 
L 273.127578 290.888474 
L 273.389808 274.483083 
L 273.520923 283.900993 
L 273.652038 283.597189 
L 273.783153 284.204796 
L 273.914268 286.939028 
L 274.045384 282.078171 
L 274.176499 290.888474 
L 274.569844 281.774368 
L 274.700959 285.116207 
L 274.832074 285.116207 
L 274.963189 293.318903 
L 275.22542 282.078171 
L 275.48765 290.888474 
L 275.618765 282.381975 
L 275.880995 284.812403 
L 276.012111 282.685778 
L 276.143226 290.280867 
L 276.274341 288.458046 
L 276.405456 282.989582 
L 276.536571 287.242832 
L 276.667686 284.812403 
L 276.798801 290.888474 
L 276.929916 289.369457 
L 277.061032 282.685778 
L 277.192147 286.939028 
L 277.323262 286.027618 
L 277.454377 292.103689 
L 277.585492 284.812403 
L 277.716607 287.546635 
L 277.847722 284.812403 
L 277.978838 285.42001 
L 278.109953 290.888474 
L 278.372183 284.204796 
L 278.503298 279.343939 
L 278.634413 286.939028 
L 279.027759 283.900993 
L 279.158874 288.154242 
L 279.289989 283.597189 
L 279.421104 292.103689 
L 279.552219 279.951546 
L 279.945565 285.42001 
L 280.07668 286.027618 
L 280.207795 288.76185 
L 280.33891 285.42001 
L 280.470025 285.116207 
L 280.60114 282.685778 
L 280.732255 285.116207 
L 280.86337 290.584671 
L 280.994486 285.723814 
L 281.125601 288.458046 
L 281.256716 279.951546 
L 281.650061 284.204796 
L 281.781176 285.42001 
L 281.912292 288.154242 
L 282.043407 288.458046 
L 282.174522 289.065653 
L 282.305637 280.559154 
L 282.436752 279.951546 
L 282.567867 280.862957 
L 282.698982 283.293386 
L 282.830097 288.458046 
L 282.961213 282.381975 
L 283.092328 285.723814 
L 283.223443 284.204796 
L 283.354558 278.128725 
L 283.485673 290.280867 
L 283.616788 278.736332 
L 283.747903 286.027618 
L 283.879019 286.331421 
L 284.010134 282.989582 
L 284.141249 289.369457 
L 284.272364 276.609707 
L 284.403479 286.939028 
L 284.534594 288.458046 
L 284.665709 286.635225 
L 284.796824 287.546635 
L 284.92794 281.166761 
L 285.059055 288.76185 
L 285.19017 283.597189 
L 285.321285 283.900993 
L 285.583515 286.027618 
L 285.71463 286.027618 
L 285.845746 279.647743 
L 286.239091 285.723814 
L 286.239091 285.723814 
" style="fill:none;stroke:#4c72b0;stroke-linecap:round;stroke-width:1.5;"/>
   </g>
   <g id="line2d_21">
    <path clip-path="url(#p8e02d20e0f)" d="M 200.620909 32.655455 
L 200.752024 67.376997 
L 200.883139 58.115781 
L 201.014254 87.746713 
L 201.14537 90.782638 
L 201.4076 103.724879 
L 201.538715 100.264291 
L 201.800945 127.881147 
L 201.93206 128.574121 
L 202.325406 135.635364 
L 202.587636 153.758886 
L 202.718751 152.298092 
L 203.112097 166.785644 
L 204.554363 209.380395 
L 204.685478 211.576636 
L 205.078824 222.483783 
L 205.472169 231.956842 
L 206.25886 247.348438 
L 207.570011 264.903582 
L 208.356702 271.759027 
L 209.143393 276.414646 
L 209.798968 279.10652 
L 210.716774 281.410917 
L 211.11012 282.11332 
L 211.765695 282.90094 
L 212.421271 283.429707 
L 213.207962 283.811616 
L 214.125768 284.069202 
L 215.436919 284.232757 
L 220.550409 284.651368 
L 223.828288 285.441476 
L 225.532784 285.720713 
L 226.843936 285.718651 
L 228.679548 285.454567 
L 231.170735 285.119518 
L 232.875232 285.117043 
L 234.579729 285.340615 
L 241.00437 286.430594 
L 242.971097 286.446547 
L 244.806709 286.249559 
L 247.953472 285.597559 
L 250.44466 285.225121 
L 252.804732 285.105518 
L 255.427035 284.913548 
L 258.836028 284.642733 
L 260.40941 284.753704 
L 262.769482 285.193267 
L 267.489627 286.052525 
L 269.980814 286.280222 
L 272.209772 286.230543 
L 276.274341 285.876154 
L 279.421104 285.431462 
L 282.567867 284.94986 
L 286.239091 284.742151 
L 286.239091 284.742151 
" style="fill:none;stroke:#dd8452;stroke-linecap:round;stroke-width:1.5;"/>
   </g>
   <g id="patch_8">
    <path d="M 196.34 310.18 
L 196.34 19.44 
" style="fill:none;stroke:#ffffff;stroke-linecap:square;stroke-linejoin:miter;stroke-width:1.25;"/>
   </g>
   <g id="patch_9">
    <path d="M 290.52 310.18 
L 290.52 19.44 
" style="fill:none;stroke:#ffffff;stroke-linecap:square;stroke-linejoin:miter;stroke-width:1.25;"/>
   </g>
   <g id="patch_10">
    <path d="M 196.34 310.18 
L 290.52 310.18 
" style="fill:none;stroke:#ffffff;stroke-linecap:square;stroke-linejoin:miter;stroke-width:1.25;"/>
   </g>
   <g id="patch_11">
    <path d="M 196.34 19.44 
L 290.52 19.44 
" style="fill:none;stroke:#ffffff;stroke-linecap:square;stroke-linejoin:miter;stroke-width:1.25;"/>
   </g>
  </g>
  <g id="axes_3">
   <g id="patch_12">
    <path d="M 347.18 310.18 
L 441.36 310.18 
L 441.36 19.44 
L 347.18 19.44 
z
" style="fill:#eaeaf2;"/>
   </g>
   <g id="matplotlib.axis_5">
    <g id="xtick_6">
     <g id="line2d_22">
      <path clip-path="url(#p8fbad638c9)" d="M 353.036704 310.18 
L 353.036704 19.44 
" style="fill:none;stroke:#ffffff;stroke-linecap:round;"/>
     </g>
     <g id="text_18">
      <!-- 0.000525 -->
      <g style="fill:#262626;" transform="translate(326.79311 328.038281)scale(0.11 -0.11)">
       <use xlink:href="#DejaVuSans-48"/>
       <use x="63.623047" xlink:href="#DejaVuSans-46"/>
       <use x="95.410156" xlink:href="#DejaVuSans-48"/>
       <use x="159.033203" xlink:href="#DejaVuSans-48"/>
       <use x="222.65625" xlink:href="#DejaVuSans-48"/>
       <use x="286.279297" xlink:href="#DejaVuSans-53"/>
       <use x="349.902344" xlink:href="#DejaVuSans-50"/>
       <use x="413.525391" xlink:href="#DejaVuSans-53"/>
      </g>
     </g>
    </g>
    <g id="xtick_7">
     <g id="line2d_23">
      <path clip-path="url(#p8fbad638c9)" d="M 385.865761 310.18 
L 385.865761 19.44 
" style="fill:none;stroke:#ffffff;stroke-linecap:round;"/>
     </g>
     <g id="text_19">
      <!-- 0.000550 -->
      <g style="fill:#262626;" transform="translate(359.622168 328.038281)scale(0.11 -0.11)">
       <use xlink:href="#DejaVuSans-48"/>
       <use x="63.623047" xlink:href="#DejaVuSans-46"/>
       <use x="95.410156" xlink:href="#DejaVuSans-48"/>
       <use x="159.033203" xlink:href="#DejaVuSans-48"/>
       <use x="222.65625" xlink:href="#DejaVuSans-48"/>
       <use x="286.279297" xlink:href="#DejaVuSans-53"/>
       <use x="349.902344" xlink:href="#DejaVuSans-53"/>
       <use x="413.525391" xlink:href="#DejaVuSans-48"/>
      </g>
     </g>
    </g>
    <g id="xtick_8">
     <g id="line2d_24">
      <path clip-path="url(#p8fbad638c9)" d="M 418.694819 310.18 
L 418.694819 19.44 
" style="fill:none;stroke:#ffffff;stroke-linecap:round;"/>
     </g>
     <g id="text_20">
      <!-- 0.000575 -->
      <g style="fill:#262626;" transform="translate(392.451225 328.038281)scale(0.11 -0.11)">
       <use xlink:href="#DejaVuSans-48"/>
       <use x="63.623047" xlink:href="#DejaVuSans-46"/>
       <use x="95.410156" xlink:href="#DejaVuSans-48"/>
       <use x="159.033203" xlink:href="#DejaVuSans-48"/>
       <use x="222.65625" xlink:href="#DejaVuSans-48"/>
       <use x="286.279297" xlink:href="#DejaVuSans-53"/>
       <use x="349.902344" xlink:href="#DejaVuSans-55"/>
       <use x="413.525391" xlink:href="#DejaVuSans-53"/>
      </g>
     </g>
    </g>
   </g>
   <g id="matplotlib.axis_6">
    <g id="ytick_13">
     <g id="line2d_25">
      <path clip-path="url(#p8fbad638c9)" d="M 347.18 275.312106 
L 441.36 275.312106 
" style="fill:none;stroke:#ffffff;stroke-linecap:round;"/>
     </g>
     <g id="text_21">
      <!-- 200 -->
      <g style="fill:#262626;" transform="translate(316.68375 279.491246)scale(0.11 -0.11)">
       <use xlink:href="#DejaVuSans-50"/>
       <use x="63.623047" xlink:href="#DejaVuSans-48"/>
       <use x="127.246094" xlink:href="#DejaVuSans-48"/>
      </g>
     </g>
    </g>
    <g id="ytick_14">
     <g id="line2d_26">
      <path clip-path="url(#p8fbad638c9)" d="M 347.18 225.536382 
L 441.36 225.536382 
" style="fill:none;stroke:#ffffff;stroke-linecap:round;"/>
     </g>
     <g id="text_22">
      <!-- 400 -->
      <g style="fill:#262626;" transform="translate(316.68375 229.715523)scale(0.11 -0.11)">
       <use xlink:href="#DejaVuSans-52"/>
       <use x="63.623047" xlink:href="#DejaVuSans-48"/>
       <use x="127.246094" xlink:href="#DejaVuSans-48"/>
      </g>
     </g>
    </g>
    <g id="ytick_15">
     <g id="line2d_27">
      <path clip-path="url(#p8fbad638c9)" d="M 347.18 175.760659 
L 441.36 175.760659 
" style="fill:none;stroke:#ffffff;stroke-linecap:round;"/>
     </g>
     <g id="text_23">
      <!-- 600 -->
      <g style="fill:#262626;" transform="translate(316.68375 179.9398)scale(0.11 -0.11)">
       <use xlink:href="#DejaVuSans-54"/>
       <use x="63.623047" xlink:href="#DejaVuSans-48"/>
       <use x="127.246094" xlink:href="#DejaVuSans-48"/>
      </g>
     </g>
    </g>
    <g id="ytick_16">
     <g id="line2d_28">
      <path clip-path="url(#p8fbad638c9)" d="M 347.18 125.984936 
L 441.36 125.984936 
" style="fill:none;stroke:#ffffff;stroke-linecap:round;"/>
     </g>
     <g id="text_24">
      <!-- 800 -->
      <g style="fill:#262626;" transform="translate(316.68375 130.164076)scale(0.11 -0.11)">
       <use xlink:href="#DejaVuSans-56"/>
       <use x="63.623047" xlink:href="#DejaVuSans-48"/>
       <use x="127.246094" xlink:href="#DejaVuSans-48"/>
      </g>
     </g>
    </g>
    <g id="ytick_17">
     <g id="line2d_29">
      <path clip-path="url(#p8fbad638c9)" d="M 347.18 76.209212 
L 441.36 76.209212 
" style="fill:none;stroke:#ffffff;stroke-linecap:round;"/>
     </g>
     <g id="text_25">
      <!-- 1000 -->
      <g style="fill:#262626;" transform="translate(309.685 80.388353)scale(0.11 -0.11)">
       <use xlink:href="#DejaVuSans-49"/>
       <use x="63.623047" xlink:href="#DejaVuSans-48"/>
       <use x="127.246094" xlink:href="#DejaVuSans-48"/>
       <use x="190.869141" xlink:href="#DejaVuSans-48"/>
      </g>
     </g>
    </g>
    <g id="ytick_18">
     <g id="line2d_30">
      <path clip-path="url(#p8fbad638c9)" d="M 347.18 26.433489 
L 441.36 26.433489 
" style="fill:none;stroke:#ffffff;stroke-linecap:round;"/>
     </g>
     <g id="text_26">
      <!-- 1200 -->
      <g style="fill:#262626;" transform="translate(309.685 30.61263)scale(0.11 -0.11)">
       <use xlink:href="#DejaVuSans-49"/>
       <use x="63.623047" xlink:href="#DejaVuSans-50"/>
       <use x="127.246094" xlink:href="#DejaVuSans-48"/>
       <use x="190.869141" xlink:href="#DejaVuSans-48"/>
      </g>
     </g>
    </g>
   </g>
   <g id="line2d_31">
    <path clip-path="url(#p8fbad638c9)" d="M 351.460909 32.655455 
L 351.854858 88.653143 
L 352.11749 100.848196 
L 352.380123 131.709144 
L 352.511439 148.63289 
L 352.642755 142.659803 
L 352.774071 164.063364 
L 352.905388 159.33467 
L 353.16802 181.733746 
L 353.430653 190.195619 
L 353.693285 203.883943 
L 353.824601 212.843573 
L 353.955917 213.092452 
L 354.087234 220.807689 
L 354.21855 220.309932 
L 354.481182 236.73592 
L 354.612499 228.274047 
L 354.743815 242.460128 
L 354.875131 235.989284 
L 355.006447 247.686579 
L 355.137764 248.184337 
L 355.26908 248.184337 
L 355.400396 252.91303 
L 355.531712 251.917516 
L 355.794345 266.103597 
L 355.925661 258.637238 
L 356.056977 261.374903 
L 356.188293 261.374903 
L 356.31961 254.406302 
L 356.582242 268.592383 
L 356.713558 258.38836 
L 356.976191 272.82332 
L 357.107507 268.592383 
L 357.238823 275.560984 
L 357.370139 273.321077 
L 357.501456 279.294164 
L 357.764088 275.560984 
L 357.895404 275.063227 
L 358.158037 281.036314 
L 358.289353 275.312106 
L 358.420669 283.027343 
L 358.551985 283.5251 
L 358.814618 278.298649 
L 358.945934 278.547528 
L 359.339883 286.511644 
L 359.471199 278.049771 
L 359.733832 280.538557 
L 359.996464 278.049771 
L 360.12778 271.578927 
L 360.259096 280.0408 
L 360.390413 280.787435 
L 360.653045 288.751551 
L 360.784361 289.00043 
L 360.915678 287.009401 
L 361.046994 277.800892 
L 361.17831 287.009401 
L 361.309626 282.031828 
L 361.440943 288.502672 
L 361.703575 285.765008 
L 361.834891 276.805378 
L 361.966207 288.004915 
L 362.22884 285.516129 
L 362.491472 290.74258 
L 362.622789 290.244823 
L 362.754105 284.769493 
L 362.885421 289.00043 
L 363.016737 276.805378 
L 363.148054 286.013886 
L 363.27937 284.520615 
L 363.410686 279.791921 
L 363.542002 284.271736 
L 363.673318 282.529586 
L 363.804635 288.253794 
L 363.935951 287.258279 
L 364.067267 280.538557 
L 364.198583 286.511644 
L 364.3299 281.036314 
L 364.461216 283.773979 
L 364.592532 281.534071 
L 364.723848 282.778464 
L 364.855165 281.036314 
L 365.117797 284.271736 
L 365.249113 289.00043 
L 365.380429 285.765008 
L 365.511746 286.013886 
L 365.774378 285.516129 
L 366.037011 293.978002 
L 366.168327 281.285193 
L 366.299643 290.991459 
L 366.430959 285.018372 
L 366.562276 293.480245 
L 366.693592 282.031828 
L 366.824908 288.004915 
L 366.956224 288.004915 
L 367.08754 289.249308 
L 367.218857 288.751551 
L 367.481489 283.276222 
L 367.612805 283.276222 
L 367.744122 289.498187 
L 368.13807 281.534071 
L 368.269387 289.00043 
L 368.532019 286.262765 
L 368.663335 283.027343 
L 368.794651 288.751551 
L 369.057284 285.516129 
L 369.1886 289.00043 
L 369.319916 286.760522 
L 369.451233 291.489216 
L 369.582549 288.502672 
L 369.713865 288.253794 
L 369.845181 282.529586 
L 369.976497 289.498187 
L 370.107814 282.778464 
L 370.370446 286.262765 
L 370.501762 287.258279 
L 370.633079 281.78295 
L 370.764395 285.516129 
L 370.895711 281.534071 
L 371.158344 290.244823 
L 371.28966 281.285193 
L 371.420976 287.507158 
L 371.552292 282.280707 
L 371.683608 293.231366 
L 371.814925 286.760522 
L 371.946241 289.498187 
L 372.208873 284.769493 
L 372.34019 284.769493 
L 372.471506 282.529586 
L 372.602822 287.507158 
L 372.734138 285.26725 
L 372.996771 290.493701 
L 373.259403 284.022857 
L 373.522036 288.751551 
L 373.784668 286.262765 
L 373.915984 285.516129 
L 374.047301 289.747066 
L 374.178617 289.995944 
L 374.309933 289.249308 
L 374.441249 287.258279 
L 374.572566 283.276222 
L 374.703882 291.489216 
L 374.835198 288.751551 
L 374.966514 279.543042 
L 375.09783 281.036314 
L 375.229147 287.009401 
L 375.360463 287.507158 
L 375.491779 278.298649 
L 375.623095 290.74258 
L 375.754412 289.498187 
L 375.885728 291.489216 
L 376.017044 287.009401 
L 376.14836 288.004915 
L 376.279677 288.004915 
L 376.410993 290.74258 
L 376.673625 285.018372 
L 376.804941 287.507158 
L 376.936258 284.022857 
L 377.067574 289.995944 
L 377.19889 288.502672 
L 377.461523 283.5251 
L 377.592839 288.004915 
L 377.724155 285.765008 
L 377.855471 291.738095 
L 377.986788 286.760522 
L 378.118104 293.978002 
L 378.24942 288.253794 
L 378.380736 287.507158 
L 378.512052 286.013886 
L 378.643369 275.312106 
L 379.037317 290.493701 
L 379.29995 280.289678 
L 379.431266 286.511644 
L 379.562582 285.26725 
L 379.693898 282.529586 
L 379.956531 289.498187 
L 380.087847 287.756037 
L 380.219163 284.022857 
L 380.35048 289.747066 
L 380.481796 289.249308 
L 380.613112 284.022857 
L 380.744428 286.760522 
L 380.875745 287.009401 
L 381.138377 279.543042 
L 381.269693 286.262765 
L 381.401009 282.529586 
L 381.532326 291.986973 
L 381.794958 281.534071 
L 382.057591 289.498187 
L 382.188907 285.765008 
L 382.320223 287.009401 
L 382.451539 287.009401 
L 382.582856 294.226881 
L 382.714172 285.26725 
L 382.845488 286.262765 
L 383.10812 285.018372 
L 383.370753 289.498187 
L 383.502069 285.765008 
L 383.633385 286.511644 
L 383.764702 281.78295 
L 383.896018 287.507158 
L 384.027334 285.26725 
L 384.15865 290.244823 
L 384.421283 283.5251 
L 384.552599 288.004915 
L 384.683915 286.262765 
L 384.815231 279.045285 
L 384.946548 286.262765 
L 385.077864 283.773979 
L 385.20918 290.991459 
L 385.340496 282.529586 
L 385.471813 287.507158 
L 385.603129 286.760522 
L 385.865761 288.004915 
L 385.997078 287.756037 
L 386.128394 283.5251 
L 386.25971 287.258279 
L 386.391026 284.520615 
L 386.522342 289.249308 
L 386.653659 286.511644 
L 386.784975 289.00043 
L 386.916291 285.26725 
L 387.047607 285.516129 
L 387.178924 286.013886 
L 387.31024 281.534071 
L 387.441556 287.756037 
L 387.704189 284.271736 
L 387.835505 291.240337 
L 388.098137 284.022857 
L 388.229453 286.760522 
L 388.36077 286.013886 
L 388.492086 293.729123 
L 388.623402 287.507158 
L 388.754718 287.756037 
L 389.017351 285.018372 
L 389.148667 289.747066 
L 389.279983 289.498187 
L 389.411299 287.507158 
L 389.542616 287.756037 
L 389.673932 285.765008 
L 389.805248 279.294164 
L 390.067881 293.231366 
L 390.199197 286.511644 
L 390.461829 289.995944 
L 390.724462 284.271736 
L 390.855778 288.253794 
L 390.987094 281.534071 
L 391.11841 287.756037 
L 391.249727 282.778464 
L 391.381043 285.26725 
L 391.512359 285.26725 
L 391.643675 289.995944 
L 391.774992 289.747066 
L 392.037624 289.00043 
L 392.16894 292.982488 
L 392.300257 287.756037 
L 392.431573 290.244823 
L 392.562889 283.276222 
L 392.694205 284.271736 
L 392.825521 289.249308 
L 392.956838 288.253794 
L 393.21947 290.991459 
L 393.350786 284.022857 
L 393.482103 289.249308 
L 393.613419 286.760522 
L 393.744735 289.995944 
L 393.876051 288.502672 
L 394.007368 289.00043 
L 394.138684 288.751551 
L 394.27 286.262765 
L 394.401316 288.502672 
L 394.532632 284.520615 
L 394.663949 286.511644 
L 394.795265 284.271736 
L 394.926581 290.244823 
L 395.189214 282.778464 
L 395.32053 283.5251 
L 395.451846 293.480245 
L 395.583162 288.502672 
L 395.714479 289.00043 
L 395.845795 286.511644 
L 395.977111 290.991459 
L 396.108427 288.253794 
L 396.239743 291.489216 
L 396.37106 288.751551 
L 396.502376 295.222395 
L 396.633692 279.045285 
L 396.765008 286.760522 
L 396.896325 287.258279 
L 397.027641 291.986973 
L 397.158957 289.747066 
L 397.42159 284.022857 
L 397.552906 286.511644 
L 397.815538 284.520615 
L 397.946854 284.520615 
L 398.078171 287.756037 
L 398.209487 287.258279 
L 398.340803 287.258279 
L 398.472119 285.26725 
L 398.603436 285.765008 
L 398.734752 289.249308 
L 398.866068 287.507158 
L 398.997384 287.258279 
L 399.128701 290.493701 
L 399.260017 282.031828 
L 399.522649 291.489216 
L 399.653965 290.244823 
L 399.785282 286.013886 
L 399.916598 287.258279 
L 400.047914 282.280707 
L 400.17923 285.018372 
L 400.310547 284.769493 
L 400.441863 289.498187 
L 400.704495 279.791921 
L 400.967128 286.013886 
L 401.098444 283.027343 
L 401.22976 291.489216 
L 401.492393 281.036314 
L 401.623709 285.26725 
L 401.755025 280.0408 
L 401.886341 290.244823 
L 402.148974 283.773979 
L 402.28029 292.982488 
L 402.542922 282.529586 
L 402.674239 285.26725 
L 402.805555 284.769493 
L 402.936871 290.991459 
L 403.199504 283.027343 
L 403.724769 287.756037 
L 403.856085 287.756037 
L 403.987401 282.280707 
L 404.118717 287.258279 
L 404.250033 284.520615 
L 404.38135 293.729123 
L 404.512666 294.475759 
L 404.643982 284.022857 
L 404.775298 287.507158 
L 404.906615 287.507158 
L 405.037931 286.262765 
L 405.169247 279.543042 
L 405.43188 290.74258 
L 405.694512 283.027343 
L 405.957144 284.520615 
L 406.088461 289.249308 
L 406.219777 287.756037 
L 406.351093 281.036314 
L 406.482409 291.489216 
L 406.613726 285.516129 
L 406.745042 286.013886 
L 406.876358 284.520615 
L 407.007674 291.489216 
L 407.138991 283.027343 
L 407.270307 285.018372 
L 407.401623 280.0408 
L 407.664255 293.729123 
L 407.795572 285.26725 
L 408.058204 288.502672 
L 408.18952 285.26725 
L 408.320837 288.253794 
L 408.452153 284.520615 
L 408.583469 286.262765 
L 408.714785 282.031828 
L 408.977418 291.489216 
L 409.108734 282.778464 
L 409.24005 296.964545 
L 409.502683 290.493701 
L 409.633999 286.511644 
L 409.765315 289.249308 
L 409.896631 284.271736 
L 410.027948 285.018372 
L 410.159264 281.036314 
L 410.29058 290.244823 
L 410.553212 283.027343 
L 410.684529 285.26725 
L 410.815845 289.747066 
L 411.078477 286.013886 
L 411.209794 287.507158 
L 411.34111 290.74258 
L 411.472426 289.995944 
L 411.735059 284.520615 
L 411.997691 289.995944 
L 412.260323 286.511644 
L 412.39164 291.738095 
L 412.654272 284.022857 
L 412.785588 286.262765 
L 412.916905 282.280707 
L 413.179537 289.747066 
L 413.310853 288.004915 
L 413.44217 292.235852 
L 413.704802 287.756037 
L 413.836118 289.00043 
L 414.098751 285.765008 
L 414.230067 287.507158 
L 414.361383 284.520615 
L 414.624016 287.756037 
L 414.755332 281.036314 
L 414.886648 285.018372 
L 415.017964 283.276222 
L 415.280597 289.747066 
L 415.411913 290.74258 
L 415.543229 286.013886 
L 415.674545 289.747066 
L 415.805862 286.511644 
L 415.937178 286.262765 
L 416.19981 281.78295 
L 416.331127 287.507158 
L 416.462443 284.769493 
L 416.593759 290.74258 
L 416.725075 283.773979 
L 416.856392 287.009401 
L 416.987708 280.538557 
L 417.381656 290.991459 
L 417.512973 282.031828 
L 417.644289 291.240337 
L 417.775605 288.253794 
L 417.906921 289.498187 
L 418.038238 281.534071 
L 418.432186 292.235852 
L 418.957451 282.031828 
L 419.220084 287.258279 
L 419.3514 290.74258 
L 419.614032 283.276222 
L 419.745349 289.249308 
L 419.876665 284.022857 
L 420.007981 285.765008 
L 420.139297 285.765008 
L 420.270613 286.511644 
L 420.40193 282.280707 
L 420.533246 287.507158 
L 420.664562 283.773979 
L 420.795878 292.48473 
L 421.058511 288.751551 
L 421.189827 286.760522 
L 421.321143 281.285193 
L 421.583776 286.760522 
L 421.715092 285.516129 
L 421.846408 289.498187 
L 422.240357 282.031828 
L 422.371673 291.489216 
L 422.634306 280.538557 
L 422.896938 288.004915 
L 423.028254 287.756037 
L 423.159571 288.253794 
L 423.290887 289.249308 
L 423.422203 284.271736 
L 423.553519 285.018372 
L 423.684835 283.5251 
L 423.816152 292.982488 
L 424.078784 284.271736 
L 424.2101 286.511644 
L 424.341417 281.036314 
L 424.604049 289.995944 
L 424.735365 285.018372 
L 424.866682 287.507158 
L 424.997998 283.5251 
L 425.129314 284.520615 
L 425.26063 287.258279 
L 425.391946 285.516129 
L 425.523263 289.249308 
L 425.654579 288.751551 
L 425.785895 289.00043 
L 425.917211 287.009401 
L 426.179844 286.511644 
L 426.31116 286.511644 
L 426.705109 290.244823 
L 426.836425 290.244823 
L 426.967741 285.516129 
L 427.099057 287.507158 
L 427.230374 283.027343 
L 427.36169 286.511644 
L 427.493006 285.26725 
L 427.624322 287.009401 
L 427.755639 286.013886 
L 427.886955 282.529586 
L 428.018271 288.502672 
L 428.149587 282.529586 
L 428.543536 291.986973 
L 428.674852 289.747066 
L 428.806168 285.26725 
L 429.068801 291.240337 
L 429.331433 286.013886 
L 429.594066 289.498187 
L 429.725382 285.018372 
L 429.856698 285.516129 
L 429.988015 287.009401 
L 430.119331 285.765008 
L 430.250647 293.729123 
L 430.381963 286.511644 
L 430.644596 290.74258 
L 430.907228 282.529586 
L 431.038544 290.493701 
L 431.301177 286.511644 
L 431.432493 288.751551 
L 431.563809 287.258279 
L 431.695125 284.022857 
L 431.826442 285.26725 
L 431.957758 280.538557 
L 432.089074 285.765008 
L 432.22039 280.289678 
L 432.351707 281.534071 
L 432.614339 287.507158 
L 432.745655 284.022857 
L 432.876972 288.502672 
L 433.008288 288.004915 
L 433.139604 284.022857 
L 433.27092 291.240337 
L 433.402236 291.489216 
L 433.533553 286.760522 
L 433.664869 293.480245 
L 433.796185 284.022857 
L 433.927501 288.502672 
L 434.058818 280.787435 
L 434.190134 291.240337 
L 434.32145 284.520615 
L 434.584083 287.507158 
L 434.715399 283.276222 
L 434.846715 285.516129 
L 434.978031 281.285193 
L 435.109347 283.027343 
L 435.240664 286.760522 
L 435.37198 285.018372 
L 435.503296 289.00043 
L 435.634612 284.022857 
L 435.765929 284.022857 
L 435.897245 291.489216 
L 436.028561 285.018372 
L 436.159877 288.751551 
L 436.291194 286.760522 
L 436.42251 287.507158 
L 436.553826 286.262765 
L 436.685142 291.240337 
L 436.816458 283.276222 
L 437.079091 288.502672 
L 437.079091 288.502672 
" style="fill:none;stroke:#4c72b0;stroke-linecap:round;stroke-width:1.5;"/>
   </g>
   <g id="line2d_32">
    <path clip-path="url(#p8fbad638c9)" d="M 351.460909 32.655455 
L 351.723542 80.545654 
L 352.774071 149.074841 
L 352.905388 147.292239 
L 353.16802 161.89414 
L 354.21855 193.030969 
L 354.481182 203.30001 
L 354.612499 203.414639 
L 354.743815 210.291835 
L 354.875131 211.339062 
L 355.137764 220.108279 
L 355.531712 229.283054 
L 355.794345 237.368601 
L 355.925661 238.581293 
L 356.582242 252.113825 
L 356.713558 252.937756 
L 356.976191 258.842264 
L 357.238823 262.836739 
L 358.551985 276.904032 
L 359.602515 282.414189 
L 359.996464 283.671735 
L 360.12778 283.805732 
L 360.390413 284.725051 
L 360.784361 285.614495 
L 360.915678 285.722936 
L 361.046994 285.63898 
L 361.17831 285.981784 
L 361.309626 285.973386 
L 361.572259 286.240545 
L 361.703575 286.267832 
L 361.834891 286.152475 
L 362.097524 286.392194 
L 364.461216 286.175415 
L 365.117797 286.118774 
L 366.037011 286.130766 
L 366.430959 286.112056 
L 367.08754 286.167594 
L 375.491779 286.734207 
L 377.724155 286.552455 
L 381.926274 286.2015 
L 384.15865 286.274968 
L 387.047607 286.606656 
L 393.876051 287.562701 
L 395.451846 287.438171 
L 397.290273 287.052239 
L 400.704495 286.276434 
L 402.411606 286.161951 
L 404.118717 286.258648 
L 407.007674 286.705403 
L 410.159264 287.08844 
L 412.129007 287.110199 
L 414.755332 286.868384 
L 420.007981 286.375073 
L 422.634306 286.364052 
L 425.129314 286.594351 
L 428.41222 286.911745 
L 430.644596 286.828391 
L 434.452766 286.668118 
L 437.079091 286.698964 
L 437.079091 286.698964 
" style="fill:none;stroke:#dd8452;stroke-linecap:round;stroke-width:1.5;"/>
   </g>
   <g id="patch_13">
    <path d="M 347.18 310.18 
L 347.18 19.44 
" style="fill:none;stroke:#ffffff;stroke-linecap:square;stroke-linejoin:miter;stroke-width:1.25;"/>
   </g>
   <g id="patch_14">
    <path d="M 441.36 310.18 
L 441.36 19.44 
" style="fill:none;stroke:#ffffff;stroke-linecap:square;stroke-linejoin:miter;stroke-width:1.25;"/>
   </g>
   <g id="patch_15">
    <path d="M 347.18 310.18 
L 441.36 310.18 
" style="fill:none;stroke:#ffffff;stroke-linecap:square;stroke-linejoin:miter;stroke-width:1.25;"/>
   </g>
   <g id="patch_16">
    <path d="M 347.18 19.44 
L 441.36 19.44 
" style="fill:none;stroke:#ffffff;stroke-linecap:square;stroke-linejoin:miter;stroke-width:1.25;"/>
   </g>
  </g>
 </g>
 <defs>
  <clipPath id="pb9d0098588">
   <rect height="290.74" width="94.18" x="45.5" y="19.44"/>
  </clipPath>
  <clipPath id="p8e02d20e0f">
   <rect height="290.74" width="94.18" x="196.34" y="19.44"/>
  </clipPath>
  <clipPath id="p8fbad638c9">
   <rect height="290.74" width="94.18" x="347.18" y="19.44"/>
  </clipPath>
 </defs>
</svg>
