<?xml version="1.0" encoding="utf-8" standalone="no"?>
<!DOCTYPE svg PUBLIC "-//W3C//DTD SVG 1.1//EN"
  "http://www.w3.org/Graphics/SVG/1.1/DTD/svg11.dtd">
<!-- Created with matplotlib (https://matplotlib.org/) -->
<svg height="345.6pt" version="1.1" viewBox="0 0 460.8 345.6" width="460.8pt" xmlns="http://www.w3.org/2000/svg" xmlns:xlink="http://www.w3.org/1999/xlink">
 <defs>
  <style type="text/css">
*{stroke-linecap:butt;stroke-linejoin:round;}
  </style>
 </defs>
 <g id="figure_1">
  <g id="patch_1">
   <path d="M 0 345.6 
L 460.8 345.6 
L 460.8 0 
L 0 0 
z
" style="fill:#ffffff;"/>
  </g>
  <g id="axes_1">
   <g id="patch_2">
    <path d="M 45.5 310.18 
L 144.24 310.18 
L 144.24 19.44 
L 45.5 19.44 
z
" style="fill:#eaeaf2;"/>
   </g>
   <g id="matplotlib.axis_1">
    <g id="xtick_1">
     <g id="line2d_1">
      <path clip-path="url(#p11728f7fbe)" d="M 49.43579 310.18 
L 49.43579 19.44 
" style="fill:none;stroke:#ffffff;stroke-linecap:round;"/>
     </g>
     <g id="text_1">
      <!-- 0.000175 -->
      <defs>
       <path d="M 31.78125 66.40625 
Q 24.171875 66.40625 20.328125 58.90625 
Q 16.5 51.421875 16.5 36.375 
Q 16.5 21.390625 20.328125 13.890625 
Q 24.171875 6.390625 31.78125 6.390625 
Q 39.453125 6.390625 43.28125 13.890625 
Q 47.125 21.390625 47.125 36.375 
Q 47.125 51.421875 43.28125 58.90625 
Q 39.453125 66.40625 31.78125 66.40625 
z
M 31.78125 74.21875 
Q 44.046875 74.21875 50.515625 64.515625 
Q 56.984375 54.828125 56.984375 36.375 
Q 56.984375 17.96875 50.515625 8.265625 
Q 44.046875 -1.421875 31.78125 -1.421875 
Q 19.53125 -1.421875 13.0625 8.265625 
Q 6.59375 17.96875 6.59375 36.375 
Q 6.59375 54.828125 13.0625 64.515625 
Q 19.53125 74.21875 31.78125 74.21875 
z
" id="DejaVuSans-48"/>
       <path d="M 10.6875 12.40625 
L 21 12.40625 
L 21 0 
L 10.6875 0 
z
" id="DejaVuSans-46"/>
       <path d="M 12.40625 8.296875 
L 28.515625 8.296875 
L 28.515625 63.921875 
L 10.984375 60.40625 
L 10.984375 69.390625 
L 28.421875 72.90625 
L 38.28125 72.90625 
L 38.28125 8.296875 
L 54.390625 8.296875 
L 54.390625 0 
L 12.40625 0 
z
" id="DejaVuSans-49"/>
       <path d="M 8.203125 72.90625 
L 55.078125 72.90625 
L 55.078125 68.703125 
L 28.609375 0 
L 18.3125 0 
L 43.21875 64.59375 
L 8.203125 64.59375 
z
" id="DejaVuSans-55"/>
       <path d="M 10.796875 72.90625 
L 49.515625 72.90625 
L 49.515625 64.59375 
L 19.828125 64.59375 
L 19.828125 46.734375 
Q 21.96875 47.46875 24.109375 47.828125 
Q 26.265625 48.1875 28.421875 48.1875 
Q 40.625 48.1875 47.75 41.5 
Q 54.890625 34.8125 54.890625 23.390625 
Q 54.890625 11.625 47.5625 5.09375 
Q 40.234375 -1.421875 26.90625 -1.421875 
Q 22.3125 -1.421875 17.546875 -0.640625 
Q 12.796875 0.140625 7.71875 1.703125 
L 7.71875 11.625 
Q 12.109375 9.234375 16.796875 8.0625 
Q 21.484375 6.890625 26.703125 6.890625 
Q 35.15625 6.890625 40.078125 11.328125 
Q 45.015625 15.765625 45.015625 23.390625 
Q 45.015625 31 40.078125 35.4375 
Q 35.15625 39.890625 26.703125 39.890625 
Q 22.75 39.890625 18.8125 39.015625 
Q 14.890625 38.140625 10.796875 36.28125 
z
" id="DejaVuSans-53"/>
      </defs>
      <g style="fill:#262626;" transform="translate(23.192196 328.038281)scale(0.11 -0.11)">
       <use xlink:href="#DejaVuSans-48"/>
       <use x="63.623047" xlink:href="#DejaVuSans-46"/>
       <use x="95.410156" xlink:href="#DejaVuSans-48"/>
       <use x="159.033203" xlink:href="#DejaVuSans-48"/>
       <use x="222.65625" xlink:href="#DejaVuSans-48"/>
       <use x="286.279297" xlink:href="#DejaVuSans-49"/>
       <use x="349.902344" xlink:href="#DejaVuSans-55"/>
       <use x="413.525391" xlink:href="#DejaVuSans-53"/>
      </g>
     </g>
    </g>
    <g id="xtick_2">
     <g id="line2d_2">
      <path clip-path="url(#p11728f7fbe)" d="M 83.960266 310.18 
L 83.960266 19.44 
" style="fill:none;stroke:#ffffff;stroke-linecap:round;"/>
     </g>
     <g id="text_2">
      <!-- 0.000200 -->
      <defs>
       <path d="M 19.1875 8.296875 
L 53.609375 8.296875 
L 53.609375 0 
L 7.328125 0 
L 7.328125 8.296875 
Q 12.9375 14.109375 22.625 23.890625 
Q 32.328125 33.6875 34.8125 36.53125 
Q 39.546875 41.84375 41.421875 45.53125 
Q 43.3125 49.21875 43.3125 52.78125 
Q 43.3125 58.59375 39.234375 62.25 
Q 35.15625 65.921875 28.609375 65.921875 
Q 23.96875 65.921875 18.8125 64.3125 
Q 13.671875 62.703125 7.8125 59.421875 
L 7.8125 69.390625 
Q 13.765625 71.78125 18.9375 73 
Q 24.125 74.21875 28.421875 74.21875 
Q 39.75 74.21875 46.484375 68.546875 
Q 53.21875 62.890625 53.21875 53.421875 
Q 53.21875 48.921875 51.53125 44.890625 
Q 49.859375 40.875 45.40625 35.40625 
Q 44.1875 33.984375 37.640625 27.21875 
Q 31.109375 20.453125 19.1875 8.296875 
z
" id="DejaVuSans-50"/>
      </defs>
      <g style="fill:#262626;" transform="translate(57.716672 328.038281)scale(0.11 -0.11)">
       <use xlink:href="#DejaVuSans-48"/>
       <use x="63.623047" xlink:href="#DejaVuSans-46"/>
       <use x="95.410156" xlink:href="#DejaVuSans-48"/>
       <use x="159.033203" xlink:href="#DejaVuSans-48"/>
       <use x="222.65625" xlink:href="#DejaVuSans-48"/>
       <use x="286.279297" xlink:href="#DejaVuSans-50"/>
       <use x="349.902344" xlink:href="#DejaVuSans-48"/>
       <use x="413.525391" xlink:href="#DejaVuSans-48"/>
      </g>
     </g>
    </g>
    <g id="xtick_3">
     <g id="line2d_3">
      <path clip-path="url(#p11728f7fbe)" d="M 118.484741 310.18 
L 118.484741 19.44 
" style="fill:none;stroke:#ffffff;stroke-linecap:round;"/>
     </g>
     <g id="text_3">
      <!-- 0.000225 -->
      <g style="fill:#262626;" transform="translate(92.241148 328.038281)scale(0.11 -0.11)">
       <use xlink:href="#DejaVuSans-48"/>
       <use x="63.623047" xlink:href="#DejaVuSans-46"/>
       <use x="95.410156" xlink:href="#DejaVuSans-48"/>
       <use x="159.033203" xlink:href="#DejaVuSans-48"/>
       <use x="222.65625" xlink:href="#DejaVuSans-48"/>
       <use x="286.279297" xlink:href="#DejaVuSans-50"/>
       <use x="349.902344" xlink:href="#DejaVuSans-50"/>
       <use x="413.525391" xlink:href="#DejaVuSans-53"/>
      </g>
     </g>
    </g>
   </g>
   <g id="matplotlib.axis_2">
    <g id="ytick_1">
     <g id="line2d_4">
      <path clip-path="url(#p11728f7fbe)" d="M 45.5 293.597551 
L 144.24 293.597551 
" style="fill:none;stroke:#ffffff;stroke-linecap:round;"/>
     </g>
     <g id="text_4">
      <!-- 80 -->
      <defs>
       <path d="M 31.78125 34.625 
Q 24.75 34.625 20.71875 30.859375 
Q 16.703125 27.09375 16.703125 20.515625 
Q 16.703125 13.921875 20.71875 10.15625 
Q 24.75 6.390625 31.78125 6.390625 
Q 38.8125 6.390625 42.859375 10.171875 
Q 46.921875 13.96875 46.921875 20.515625 
Q 46.921875 27.09375 42.890625 30.859375 
Q 38.875 34.625 31.78125 34.625 
z
M 21.921875 38.8125 
Q 15.578125 40.375 12.03125 44.71875 
Q 8.5 49.078125 8.5 55.328125 
Q 8.5 64.0625 14.71875 69.140625 
Q 20.953125 74.21875 31.78125 74.21875 
Q 42.671875 74.21875 48.875 69.140625 
Q 55.078125 64.0625 55.078125 55.328125 
Q 55.078125 49.078125 51.53125 44.71875 
Q 48 40.375 41.703125 38.8125 
Q 48.828125 37.15625 52.796875 32.3125 
Q 56.78125 27.484375 56.78125 20.515625 
Q 56.78125 9.90625 50.3125 4.234375 
Q 43.84375 -1.421875 31.78125 -1.421875 
Q 19.734375 -1.421875 13.25 4.234375 
Q 6.78125 9.90625 6.78125 20.515625 
Q 6.78125 27.484375 10.78125 32.3125 
Q 14.796875 37.15625 21.921875 38.8125 
z
M 18.3125 54.390625 
Q 18.3125 48.734375 21.84375 45.5625 
Q 25.390625 42.390625 31.78125 42.390625 
Q 38.140625 42.390625 41.71875 45.5625 
Q 45.3125 48.734375 45.3125 54.390625 
Q 45.3125 60.0625 41.71875 63.234375 
Q 38.140625 66.40625 31.78125 66.40625 
Q 25.390625 66.40625 21.84375 63.234375 
Q 18.3125 60.0625 18.3125 54.390625 
z
" id="DejaVuSans-56"/>
      </defs>
      <g style="fill:#262626;" transform="translate(22.0025 297.776691)scale(0.11 -0.11)">
       <use xlink:href="#DejaVuSans-56"/>
       <use x="63.623047" xlink:href="#DejaVuSans-48"/>
      </g>
     </g>
    </g>
    <g id="ytick_2">
     <g id="line2d_5">
      <path clip-path="url(#p11728f7fbe)" d="M 45.5 259.927603 
L 144.24 259.927603 
" style="fill:none;stroke:#ffffff;stroke-linecap:round;"/>
     </g>
     <g id="text_5">
      <!-- 100 -->
      <g style="fill:#262626;" transform="translate(15.00375 264.106743)scale(0.11 -0.11)">
       <use xlink:href="#DejaVuSans-49"/>
       <use x="63.623047" xlink:href="#DejaVuSans-48"/>
       <use x="127.246094" xlink:href="#DejaVuSans-48"/>
      </g>
     </g>
    </g>
    <g id="ytick_3">
     <g id="line2d_6">
      <path clip-path="url(#p11728f7fbe)" d="M 45.5 226.257655 
L 144.24 226.257655 
" style="fill:none;stroke:#ffffff;stroke-linecap:round;"/>
     </g>
     <g id="text_6">
      <!-- 120 -->
      <g style="fill:#262626;" transform="translate(15.00375 230.436796)scale(0.11 -0.11)">
       <use xlink:href="#DejaVuSans-49"/>
       <use x="63.623047" xlink:href="#DejaVuSans-50"/>
       <use x="127.246094" xlink:href="#DejaVuSans-48"/>
      </g>
     </g>
    </g>
    <g id="ytick_4">
     <g id="line2d_7">
      <path clip-path="url(#p11728f7fbe)" d="M 45.5 192.587707 
L 144.24 192.587707 
" style="fill:none;stroke:#ffffff;stroke-linecap:round;"/>
     </g>
     <g id="text_7">
      <!-- 140 -->
      <defs>
       <path d="M 37.796875 64.3125 
L 12.890625 25.390625 
L 37.796875 25.390625 
z
M 35.203125 72.90625 
L 47.609375 72.90625 
L 47.609375 25.390625 
L 58.015625 25.390625 
L 58.015625 17.1875 
L 47.609375 17.1875 
L 47.609375 0 
L 37.796875 0 
L 37.796875 17.1875 
L 4.890625 17.1875 
L 4.890625 26.703125 
z
" id="DejaVuSans-52"/>
      </defs>
      <g style="fill:#262626;" transform="translate(15.00375 196.766848)scale(0.11 -0.11)">
       <use xlink:href="#DejaVuSans-49"/>
       <use x="63.623047" xlink:href="#DejaVuSans-52"/>
       <use x="127.246094" xlink:href="#DejaVuSans-48"/>
      </g>
     </g>
    </g>
    <g id="ytick_5">
     <g id="line2d_8">
      <path clip-path="url(#p11728f7fbe)" d="M 45.5 158.917759 
L 144.24 158.917759 
" style="fill:none;stroke:#ffffff;stroke-linecap:round;"/>
     </g>
     <g id="text_8">
      <!-- 160 -->
      <defs>
       <path d="M 33.015625 40.375 
Q 26.375 40.375 22.484375 35.828125 
Q 18.609375 31.296875 18.609375 23.390625 
Q 18.609375 15.53125 22.484375 10.953125 
Q 26.375 6.390625 33.015625 6.390625 
Q 39.65625 6.390625 43.53125 10.953125 
Q 47.40625 15.53125 47.40625 23.390625 
Q 47.40625 31.296875 43.53125 35.828125 
Q 39.65625 40.375 33.015625 40.375 
z
M 52.59375 71.296875 
L 52.59375 62.3125 
Q 48.875 64.0625 45.09375 64.984375 
Q 41.3125 65.921875 37.59375 65.921875 
Q 27.828125 65.921875 22.671875 59.328125 
Q 17.53125 52.734375 16.796875 39.40625 
Q 19.671875 43.65625 24.015625 45.921875 
Q 28.375 48.1875 33.59375 48.1875 
Q 44.578125 48.1875 50.953125 41.515625 
Q 57.328125 34.859375 57.328125 23.390625 
Q 57.328125 12.15625 50.6875 5.359375 
Q 44.046875 -1.421875 33.015625 -1.421875 
Q 20.359375 -1.421875 13.671875 8.265625 
Q 6.984375 17.96875 6.984375 36.375 
Q 6.984375 53.65625 15.1875 63.9375 
Q 23.390625 74.21875 37.203125 74.21875 
Q 40.921875 74.21875 44.703125 73.484375 
Q 48.484375 72.75 52.59375 71.296875 
z
" id="DejaVuSans-54"/>
      </defs>
      <g style="fill:#262626;" transform="translate(15.00375 163.0969)scale(0.11 -0.11)">
       <use xlink:href="#DejaVuSans-49"/>
       <use x="63.623047" xlink:href="#DejaVuSans-54"/>
       <use x="127.246094" xlink:href="#DejaVuSans-48"/>
      </g>
     </g>
    </g>
    <g id="ytick_6">
     <g id="line2d_9">
      <path clip-path="url(#p11728f7fbe)" d="M 45.5 125.247811 
L 144.24 125.247811 
" style="fill:none;stroke:#ffffff;stroke-linecap:round;"/>
     </g>
     <g id="text_9">
      <!-- 180 -->
      <g style="fill:#262626;" transform="translate(15.00375 129.426952)scale(0.11 -0.11)">
       <use xlink:href="#DejaVuSans-49"/>
       <use x="63.623047" xlink:href="#DejaVuSans-56"/>
       <use x="127.246094" xlink:href="#DejaVuSans-48"/>
      </g>
     </g>
    </g>
    <g id="ytick_7">
     <g id="line2d_10">
      <path clip-path="url(#p11728f7fbe)" d="M 45.5 91.577863 
L 144.24 91.577863 
" style="fill:none;stroke:#ffffff;stroke-linecap:round;"/>
     </g>
     <g id="text_10">
      <!-- 200 -->
      <g style="fill:#262626;" transform="translate(15.00375 95.757004)scale(0.11 -0.11)">
       <use xlink:href="#DejaVuSans-50"/>
       <use x="63.623047" xlink:href="#DejaVuSans-48"/>
       <use x="127.246094" xlink:href="#DejaVuSans-48"/>
      </g>
     </g>
    </g>
    <g id="ytick_8">
     <g id="line2d_11">
      <path clip-path="url(#p11728f7fbe)" d="M 45.5 57.907915 
L 144.24 57.907915 
" style="fill:none;stroke:#ffffff;stroke-linecap:round;"/>
     </g>
     <g id="text_11">
      <!-- 220 -->
      <g style="fill:#262626;" transform="translate(15.00375 62.087056)scale(0.11 -0.11)">
       <use xlink:href="#DejaVuSans-50"/>
       <use x="63.623047" xlink:href="#DejaVuSans-50"/>
       <use x="127.246094" xlink:href="#DejaVuSans-48"/>
      </g>
     </g>
    </g>
    <g id="ytick_9">
     <g id="line2d_12">
      <path clip-path="url(#p11728f7fbe)" d="M 45.5 24.237968 
L 144.24 24.237968 
" style="fill:none;stroke:#ffffff;stroke-linecap:round;"/>
     </g>
     <g id="text_12">
      <!-- 240 -->
      <g style="fill:#262626;" transform="translate(15.00375 28.417108)scale(0.11 -0.11)">
       <use xlink:href="#DejaVuSans-50"/>
       <use x="63.623047" xlink:href="#DejaVuSans-52"/>
       <use x="127.246094" xlink:href="#DejaVuSans-48"/>
      </g>
     </g>
    </g>
   </g>
   <g id="line2d_13">
    <path clip-path="url(#p11728f7fbe)" d="M 49.988182 32.655455 
L 50.12628 98.311853 
L 50.402476 111.779832 
L 50.540573 98.311853 
L 50.678671 103.362345 
L 50.816769 125.247811 
L 50.954867 113.463329 
L 51.092965 121.880816 
L 51.231063 111.779832 
L 51.369161 111.779832 
L 51.507259 56.224418 
L 51.783455 123.564314 
L 51.921552 111.779832 
L 52.05965 120.197319 
L 52.197748 118.513822 
L 52.335846 125.247811 
L 52.473944 142.082785 
L 52.75014 96.628356 
L 53.164434 120.197319 
L 53.302531 125.247811 
L 53.440629 135.348796 
L 53.578727 137.032293 
L 53.716825 123.564314 
L 53.854923 163.968251 
L 53.993021 118.513822 
L 54.269217 162.284754 
L 54.407315 137.032293 
L 54.545413 189.220712 
L 54.68351 131.981801 
L 54.821608 160.601257 
L 54.959706 162.284754 
L 55.097804 137.032293 
L 55.235902 137.032293 
L 55.374 185.853717 
L 55.650196 130.298303 
L 55.926392 160.601257 
L 56.06449 143.766283 
L 56.202587 108.412837 
L 56.340685 167.335246 
L 56.478783 163.968251 
L 56.616881 143.766283 
L 56.754979 174.069236 
L 56.893077 153.867267 
L 57.031175 157.234262 
L 57.169273 182.486723 
L 57.307371 174.069236 
L 57.445469 177.43623 
L 57.721664 153.867267 
L 57.859762 211.106178 
L 58.274056 162.284754 
L 58.550252 199.321697 
L 58.68835 175.752733 
L 58.826448 185.853717 
L 58.964545 157.234262 
L 59.102643 201.005194 
L 59.240741 194.271204 
L 59.378839 217.840168 
L 59.516937 195.954702 
L 59.655035 194.271204 
L 59.793133 207.739184 
L 59.931231 157.234262 
L 60.069329 195.954702 
L 60.207427 167.335246 
L 60.345524 199.321697 
L 60.483622 170.702241 
L 60.759818 221.207163 
L 60.897916 184.17022 
L 61.174112 206.055686 
L 61.31221 184.17022 
L 61.450308 217.840168 
L 61.588406 219.523665 
L 61.726503 142.082785 
L 62.002699 214.473173 
L 62.140797 226.257655 
L 62.416993 197.638199 
L 62.555091 204.372189 
L 62.693189 204.372189 
L 62.831287 177.43623 
L 62.969385 216.156671 
L 63.107483 214.473173 
L 63.24558 211.106178 
L 63.383678 232.991644 
L 63.659874 190.90421 
L 63.797972 212.789676 
L 63.93607 175.752733 
L 64.074168 253.193613 
L 64.212266 175.752733 
L 64.350364 172.385738 
L 64.488462 214.473173 
L 64.626559 201.005194 
L 64.764657 226.257655 
L 64.902755 204.372189 
L 65.040853 212.789676 
L 65.178951 209.422681 
L 65.317049 160.601257 
L 65.455147 231.308147 
L 65.593245 224.574157 
L 65.731343 182.486723 
L 65.869441 227.941152 
L 66.007538 236.358639 
L 66.145636 232.991644 
L 66.283734 207.739184 
L 66.421832 224.574157 
L 66.55993 209.422681 
L 66.698028 231.308147 
L 66.836126 199.321697 
L 66.974224 209.422681 
L 67.112322 175.752733 
L 67.388517 222.89066 
L 67.526615 174.069236 
L 67.802811 243.092629 
L 67.940909 241.409131 
L 68.079007 199.321697 
L 68.217105 201.005194 
L 68.355203 226.257655 
L 68.631399 190.90421 
L 68.769497 231.308147 
L 68.907594 238.042137 
L 69.18379 212.789676 
L 69.321888 243.092629 
L 69.459986 185.853717 
L 69.598084 197.638199 
L 69.736182 229.62465 
L 69.87428 229.62465 
L 70.012378 227.941152 
L 70.150476 254.877111 
L 70.426671 232.991644 
L 70.564769 231.308147 
L 70.702867 254.877111 
L 70.979063 241.409131 
L 71.117161 248.143121 
L 71.255259 199.321697 
L 71.531455 258.244105 
L 71.669552 258.244105 
L 71.80765 197.638199 
L 71.945748 192.587707 
L 72.083846 202.688691 
L 72.221944 222.89066 
L 72.360042 209.422681 
L 72.49814 254.877111 
L 72.636238 217.840168 
L 72.774336 236.358639 
L 73.050531 236.358639 
L 73.188629 224.574157 
L 73.326727 229.62465 
L 73.464825 227.941152 
L 73.602923 249.826618 
L 73.879119 190.90421 
L 74.155315 243.092629 
L 74.293413 254.877111 
L 74.43151 232.991644 
L 74.569608 239.725634 
L 74.707706 254.877111 
L 74.845804 226.257655 
L 74.983902 246.459624 
L 75.122 249.826618 
L 75.260098 241.409131 
L 75.398196 251.510116 
L 75.536294 219.523665 
L 75.674392 224.574157 
L 75.81249 270.028587 
L 76.364881 226.257655 
L 76.502979 254.877111 
L 76.641077 238.042137 
L 76.779175 202.688691 
L 76.917273 261.6111 
L 77.055371 212.789676 
L 77.331566 259.927603 
L 77.469664 222.89066 
L 77.74586 246.459624 
L 77.883958 209.422681 
L 78.022056 249.826618 
L 78.160154 246.459624 
L 78.298252 202.688691 
L 78.43635 254.877111 
L 78.712545 214.473173 
L 79.126839 259.927603 
L 79.403035 207.739184 
L 79.679231 266.661592 
L 79.817329 238.042137 
L 79.955427 251.510116 
L 80.093524 219.523665 
L 80.231622 258.244105 
L 80.507818 239.725634 
L 80.645916 263.294598 
L 80.922112 239.725634 
L 81.06021 270.028587 
L 81.336406 217.840168 
L 81.474503 275.079079 
L 81.750699 229.62465 
L 81.888797 266.661592 
L 82.026895 219.523665 
L 82.164993 229.62465 
L 82.303091 201.005194 
L 82.441189 254.877111 
L 82.579287 224.574157 
L 82.717385 253.193613 
L 82.855483 224.574157 
L 83.131678 259.927603 
L 83.269776 217.840168 
L 83.407874 259.927603 
L 83.545972 259.927603 
L 83.68407 234.675142 
L 83.822168 239.725634 
L 83.960266 232.991644 
L 84.098364 232.991644 
L 84.236462 231.308147 
L 84.374559 259.927603 
L 84.512657 238.042137 
L 84.650755 236.358639 
L 84.926951 264.978095 
L 85.203147 229.62465 
L 85.341245 214.473173 
L 85.479343 227.941152 
L 85.617441 217.840168 
L 86.031734 275.079079 
L 86.446028 219.523665 
L 86.584126 261.6111 
L 86.860322 216.156671 
L 86.99842 214.473173 
L 87.136517 227.941152 
L 87.274615 283.496566 
L 87.412713 290.230556 
L 87.550811 226.257655 
L 87.688909 248.143121 
L 87.965105 238.042137 
L 88.103203 194.271204 
L 88.379399 254.877111 
L 88.517497 243.092629 
L 88.655594 212.789676 
L 88.793692 239.725634 
L 88.93179 222.89066 
L 89.069888 221.207163 
L 89.207986 263.294598 
L 89.484182 229.62465 
L 89.62228 266.661592 
L 89.760378 221.207163 
L 89.898476 249.826618 
L 90.036573 244.776126 
L 90.174671 219.523665 
L 90.312769 217.840168 
L 90.450867 263.294598 
L 90.588965 270.028587 
L 91.003259 214.473173 
L 91.141357 254.877111 
L 91.279455 214.473173 
L 91.417552 264.978095 
L 91.55565 244.776126 
L 91.693748 243.092629 
L 91.831846 214.473173 
L 91.969944 241.409131 
L 92.108042 232.991644 
L 92.24614 246.459624 
L 92.384238 273.395582 
L 92.522336 231.308147 
L 92.798531 263.294598 
L 92.936629 241.409131 
L 93.074727 253.193613 
L 93.212825 254.877111 
L 93.350923 259.927603 
L 93.489021 258.244105 
L 93.627119 281.813069 
L 93.765217 258.244105 
L 93.903315 256.560608 
L 94.041413 249.826618 
L 94.17951 236.358639 
L 94.317608 234.675142 
L 94.455706 249.826618 
L 94.593804 238.042137 
L 94.731902 251.510116 
L 94.87 192.587707 
L 95.008098 258.244105 
L 95.146196 221.207163 
L 95.284294 217.840168 
L 95.56049 239.725634 
L 95.698587 261.6111 
L 95.836685 222.89066 
L 95.974783 244.776126 
L 96.112881 234.675142 
L 96.250979 259.927603 
L 96.389077 232.991644 
L 96.527175 234.675142 
L 96.665273 253.193613 
L 96.803371 251.510116 
L 97.079566 234.675142 
L 97.217664 296.964545 
L 97.355762 248.143121 
L 97.49386 258.244105 
L 97.631958 259.927603 
L 97.770056 201.005194 
L 98.046252 253.193613 
L 98.18435 256.560608 
L 98.322448 226.257655 
L 98.460545 281.813069 
L 98.736741 219.523665 
L 98.874839 243.092629 
L 99.012937 241.409131 
L 99.151035 244.776126 
L 99.289133 285.180064 
L 99.427231 236.358639 
L 99.565329 280.129572 
L 99.841524 226.257655 
L 99.979622 256.560608 
L 100.11772 232.991644 
L 100.255818 264.978095 
L 100.393916 227.941152 
L 100.532014 239.725634 
L 100.670112 268.34509 
L 100.946308 199.321697 
L 101.084406 244.776126 
L 101.360601 244.776126 
L 101.498699 264.978095 
L 101.636797 256.560608 
L 101.912993 226.257655 
L 102.189189 253.193613 
L 102.465385 238.042137 
L 102.603483 251.510116 
L 102.74158 229.62465 
L 102.879678 256.560608 
L 103.43207 236.358639 
L 103.570168 276.762577 
L 103.708266 270.028587 
L 103.846364 246.459624 
L 103.984462 256.560608 
L 104.122559 275.079079 
L 104.260657 232.991644 
L 104.398755 243.092629 
L 104.536853 243.092629 
L 104.813049 254.877111 
L 104.951147 271.712085 
L 105.089245 268.34509 
L 105.227343 232.991644 
L 105.365441 243.092629 
L 105.503538 264.978095 
L 105.641636 243.092629 
L 105.779734 241.409131 
L 105.917832 229.62465 
L 106.05593 258.244105 
L 106.470224 246.459624 
L 106.608322 268.34509 
L 106.74642 258.244105 
L 106.884517 239.725634 
L 107.022615 278.446074 
L 107.160713 248.143121 
L 107.298811 268.34509 
L 107.436909 209.422681 
L 107.575007 266.661592 
L 107.851203 238.042137 
L 107.989301 232.991644 
L 108.127399 239.725634 
L 108.403594 214.473173 
L 108.541692 271.712085 
L 108.67979 270.028587 
L 108.817888 244.776126 
L 108.955986 241.409131 
L 109.094084 285.180064 
L 109.232182 256.560608 
L 109.37028 254.877111 
L 109.508378 248.143121 
L 109.646476 251.510116 
L 109.784573 238.042137 
L 110.060769 253.193613 
L 110.198867 234.675142 
L 110.336965 239.725634 
L 110.475063 226.257655 
L 110.613161 246.459624 
L 110.751259 248.143121 
L 110.889357 227.941152 
L 111.027455 261.6111 
L 111.165552 221.207163 
L 111.30365 258.244105 
L 111.441748 241.409131 
L 111.579846 263.294598 
L 111.717944 227.941152 
L 111.99414 254.877111 
L 112.270336 229.62465 
L 112.408434 263.294598 
L 112.546531 209.422681 
L 112.684629 276.762577 
L 112.822727 234.675142 
L 112.960825 234.675142 
L 113.098923 224.574157 
L 113.237021 229.62465 
L 113.375119 278.446074 
L 113.651315 234.675142 
L 113.789413 241.409131 
L 113.92751 221.207163 
L 114.065608 271.712085 
L 114.203706 264.978095 
L 114.341804 286.863561 
L 114.479902 251.510116 
L 114.618 253.193613 
L 114.756098 281.813069 
L 114.894196 238.042137 
L 115.032294 246.459624 
L 115.170392 227.941152 
L 115.30849 246.459624 
L 115.446587 236.358639 
L 115.584685 251.510116 
L 115.722783 229.62465 
L 115.860881 264.978095 
L 115.998979 238.042137 
L 116.137077 259.927603 
L 116.275175 238.042137 
L 116.413273 239.725634 
L 116.551371 271.712085 
L 116.689469 195.954702 
L 116.965664 266.661592 
L 117.103762 209.422681 
L 117.379958 283.496566 
L 117.518056 256.560608 
L 117.656154 263.294598 
L 117.794252 244.776126 
L 117.93235 246.459624 
L 118.070448 256.560608 
L 118.208545 241.409131 
L 118.346643 268.34509 
L 118.484741 238.042137 
L 118.899035 253.193613 
L 119.175231 239.725634 
L 119.313329 244.776126 
L 119.451427 266.661592 
L 119.727622 246.459624 
L 119.86572 248.143121 
L 120.003818 253.193613 
L 120.141916 219.523665 
L 120.280014 261.6111 
L 120.418112 268.34509 
L 120.694308 216.156671 
L 120.832406 251.510116 
L 120.970503 256.560608 
L 121.108601 254.877111 
L 121.384797 275.079079 
L 121.522895 249.826618 
L 121.660993 256.560608 
L 121.799091 243.092629 
L 121.937189 251.510116 
L 122.213385 239.725634 
L 122.351483 258.244105 
L 122.48958 258.244105 
L 122.627678 236.358639 
L 122.903874 256.560608 
L 123.041972 234.675142 
L 123.318168 276.762577 
L 123.456266 266.661592 
L 123.594364 231.308147 
L 123.732462 248.143121 
L 123.870559 238.042137 
L 124.008657 264.978095 
L 124.146755 251.510116 
L 124.284853 253.193613 
L 124.422951 239.725634 
L 124.561049 256.560608 
L 124.699147 248.143121 
L 124.837245 258.244105 
L 124.975343 248.143121 
L 125.113441 229.62465 
L 125.251538 236.358639 
L 125.389636 256.560608 
L 125.527734 234.675142 
L 125.665832 239.725634 
L 125.942028 283.496566 
L 126.080126 207.739184 
L 126.356322 239.725634 
L 126.632517 251.510116 
L 126.770615 227.941152 
L 126.908713 276.762577 
L 127.046811 206.055686 
L 127.184909 268.34509 
L 127.323007 226.257655 
L 127.599203 264.978095 
L 127.737301 229.62465 
L 127.875399 227.941152 
L 128.013497 231.308147 
L 128.151594 226.257655 
L 128.565888 259.927603 
L 128.842084 229.62465 
L 128.980182 249.826618 
L 129.11828 243.092629 
L 129.256378 211.106178 
L 129.394476 222.89066 
L 129.532573 248.143121 
L 129.670671 224.574157 
L 129.808769 259.927603 
L 129.946867 248.143121 
L 130.084965 251.510116 
L 130.223063 268.34509 
L 130.499259 211.106178 
L 130.637357 261.6111 
L 130.775455 244.776126 
L 130.913552 256.560608 
L 131.05165 232.991644 
L 131.327846 251.510116 
L 131.465944 217.840168 
L 131.604042 268.34509 
L 132.018336 212.789676 
L 132.156434 249.826618 
L 132.432629 256.560608 
L 132.570727 256.560608 
L 132.708825 238.042137 
L 132.846923 264.978095 
L 132.985021 244.776126 
L 133.123119 263.294598 
L 133.261217 251.510116 
L 133.399315 254.877111 
L 133.537413 246.459624 
L 133.813608 268.34509 
L 133.951706 241.409131 
L 134.089804 270.028587 
L 134.366 222.89066 
L 134.642196 276.762577 
L 134.780294 246.459624 
L 134.918392 249.826618 
L 135.05649 221.207163 
L 135.194587 258.244105 
L 135.332685 256.560608 
L 135.470783 219.523665 
L 135.608881 212.789676 
L 135.746979 234.675142 
L 135.885077 207.739184 
L 136.023175 232.991644 
L 136.161273 224.574157 
L 136.299371 249.826618 
L 136.575566 231.308147 
L 136.713664 256.560608 
L 136.98986 248.143121 
L 137.127958 248.143121 
L 137.266056 261.6111 
L 137.542252 195.954702 
L 137.68035 248.143121 
L 137.818448 251.510116 
L 137.956545 236.358639 
L 138.094643 258.244105 
L 138.232741 238.042137 
L 138.370839 241.409131 
L 138.508937 231.308147 
L 138.647035 253.193613 
L 138.785133 244.776126 
L 138.923231 258.244105 
L 139.061329 254.877111 
L 139.199427 295.281048 
L 139.337524 238.042137 
L 139.475622 239.725634 
L 139.61372 275.079079 
L 139.751818 227.941152 
L 139.751818 227.941152 
" style="fill:none;stroke:#4c72b0;stroke-linecap:round;stroke-width:1.5;"/>
   </g>
   <g id="line2d_14">
    <path clip-path="url(#p11728f7fbe)" d="M 49.988182 32.655455 
L 50.12628 92.924632 
L 50.264378 96.634625 
L 50.402476 94.917497 
L 50.540573 83.444355 
L 50.678671 84.707031 
L 50.816769 93.951886 
L 50.954867 87.307322 
L 51.092965 89.911904 
L 51.231063 86.256372 
L 51.369161 86.734175 
L 51.507259 73.484093 
L 51.783455 92.399809 
L 51.921552 91.67182 
L 52.473944 102.849482 
L 52.612042 101.446851 
L 52.75014 103.023286 
L 53.578727 120.465777 
L 53.716825 122.485335 
L 53.993021 127.305567 
L 54.545413 137.784809 
L 54.68351 139.012334 
L 55.374 149.372138 
L 57.583566 172.567038 
L 58.826448 181.900744 
L 60.069329 189.498379 
L 61.31221 195.70253 
L 62.555091 200.78967 
L 64.074168 205.997152 
L 68.907594 221.040898 
L 71.393357 228.205124 
L 72.774336 231.592854 
L 73.879119 233.758958 
L 75.260098 235.924915 
L 76.917273 238.130234 
L 78.022056 239.288663 
L 78.988741 240.009654 
L 80.093524 240.553038 
L 81.198308 240.866801 
L 82.164993 240.942945 
L 83.131678 240.817652 
L 84.512657 240.374243 
L 86.031734 239.903693 
L 86.99842 239.829818 
L 87.827007 239.965168 
L 88.793692 240.371193 
L 90.036573 241.2042 
L 93.350923 243.57922 
L 94.731902 244.315811 
L 95.974783 244.714371 
L 99.012937 245.453997 
L 100.393916 246.226481 
L 104.122559 248.497718 
L 105.089245 248.803126 
L 105.917832 248.861801 
L 106.74642 248.695122 
L 107.713105 248.244499 
L 110.751259 246.577027 
L 111.717944 246.383788 
L 112.684629 246.3969 
L 113.651315 246.633049 
L 114.756098 247.17098 
L 116.965664 248.610128 
L 118.484741 249.461184 
L 119.589524 249.870065 
L 120.418112 249.979171 
L 121.246699 249.84516 
L 122.075287 249.438011 
L 122.903874 248.76981 
L 124.008657 247.549016 
L 127.046811 243.910842 
L 127.875399 243.363314 
L 128.565888 243.159035 
L 129.256378 243.182158 
L 130.084965 243.445973 
L 132.570727 244.42074 
L 133.399315 244.439128 
L 134.227902 244.220164 
L 135.05649 243.745544 
L 135.885077 243.011498 
L 136.713664 241.998766 
L 139.751818 237.918032 
L 139.751818 237.918032 
" style="fill:none;stroke:#dd8452;stroke-linecap:round;stroke-width:1.5;"/>
   </g>
   <g id="patch_3">
    <path d="M 45.5 310.18 
L 45.5 19.44 
" style="fill:none;stroke:#ffffff;stroke-linecap:square;stroke-linejoin:miter;stroke-width:1.25;"/>
   </g>
   <g id="patch_4">
    <path d="M 144.24 310.18 
L 144.24 19.44 
" style="fill:none;stroke:#ffffff;stroke-linecap:square;stroke-linejoin:miter;stroke-width:1.25;"/>
   </g>
   <g id="patch_5">
    <path d="M 45.5 310.18 
L 144.24 310.18 
" style="fill:none;stroke:#ffffff;stroke-linecap:square;stroke-linejoin:miter;stroke-width:1.25;"/>
   </g>
   <g id="patch_6">
    <path d="M 45.5 19.44 
L 144.24 19.44 
" style="fill:none;stroke:#ffffff;stroke-linecap:square;stroke-linejoin:miter;stroke-width:1.25;"/>
   </g>
  </g>
  <g id="axes_2">
   <g id="patch_7">
    <path d="M 194.06 310.18 
L 292.8 310.18 
L 292.8 19.44 
L 194.06 19.44 
z
" style="fill:#eaeaf2;"/>
   </g>
   <g id="matplotlib.axis_3">
    <g id="xtick_4">
     <g id="line2d_15">
      <path clip-path="url(#pa64037bd91)" d="M 198.824803 310.18 
L 198.824803 19.44 
" style="fill:none;stroke:#ffffff;stroke-linecap:round;"/>
     </g>
     <g id="text_13">
      <!-- 0.00035 -->
      <defs>
       <path d="M 40.578125 39.3125 
Q 47.65625 37.796875 51.625 33 
Q 55.609375 28.21875 55.609375 21.1875 
Q 55.609375 10.40625 48.1875 4.484375 
Q 40.765625 -1.421875 27.09375 -1.421875 
Q 22.515625 -1.421875 17.65625 -0.515625 
Q 12.796875 0.390625 7.625 2.203125 
L 7.625 11.71875 
Q 11.71875 9.328125 16.59375 8.109375 
Q 21.484375 6.890625 26.8125 6.890625 
Q 36.078125 6.890625 40.9375 10.546875 
Q 45.796875 14.203125 45.796875 21.1875 
Q 45.796875 27.640625 41.28125 31.265625 
Q 36.765625 34.90625 28.71875 34.90625 
L 20.21875 34.90625 
L 20.21875 43.015625 
L 29.109375 43.015625 
Q 36.375 43.015625 40.234375 45.921875 
Q 44.09375 48.828125 44.09375 54.296875 
Q 44.09375 59.90625 40.109375 62.90625 
Q 36.140625 65.921875 28.71875 65.921875 
Q 24.65625 65.921875 20.015625 65.03125 
Q 15.375 64.15625 9.8125 62.3125 
L 9.8125 71.09375 
Q 15.4375 72.65625 20.34375 73.4375 
Q 25.25 74.21875 29.59375 74.21875 
Q 40.828125 74.21875 47.359375 69.109375 
Q 53.90625 64.015625 53.90625 55.328125 
Q 53.90625 49.265625 50.4375 45.09375 
Q 46.96875 40.921875 40.578125 39.3125 
z
" id="DejaVuSans-51"/>
      </defs>
      <g style="fill:#262626;" transform="translate(176.080584 328.038281)scale(0.11 -0.11)">
       <use xlink:href="#DejaVuSans-48"/>
       <use x="63.623047" xlink:href="#DejaVuSans-46"/>
       <use x="95.410156" xlink:href="#DejaVuSans-48"/>
       <use x="159.033203" xlink:href="#DejaVuSans-48"/>
       <use x="222.65625" xlink:href="#DejaVuSans-48"/>
       <use x="286.279297" xlink:href="#DejaVuSans-51"/>
       <use x="349.902344" xlink:href="#DejaVuSans-53"/>
      </g>
     </g>
    </g>
    <g id="xtick_5">
     <g id="line2d_16">
      <path clip-path="url(#pa64037bd91)" d="M 267.980147 310.18 
L 267.980147 19.44 
" style="fill:none;stroke:#ffffff;stroke-linecap:round;"/>
     </g>
     <g id="text_14">
      <!-- 0.00040 -->
      <g style="fill:#262626;" transform="translate(245.235928 328.038281)scale(0.11 -0.11)">
       <use xlink:href="#DejaVuSans-48"/>
       <use x="63.623047" xlink:href="#DejaVuSans-46"/>
       <use x="95.410156" xlink:href="#DejaVuSans-48"/>
       <use x="159.033203" xlink:href="#DejaVuSans-48"/>
       <use x="222.65625" xlink:href="#DejaVuSans-48"/>
       <use x="286.279297" xlink:href="#DejaVuSans-52"/>
       <use x="349.902344" xlink:href="#DejaVuSans-48"/>
      </g>
     </g>
    </g>
   </g>
   <g id="matplotlib.axis_4">
    <g id="ytick_10">
     <g id="line2d_17">
      <path clip-path="url(#pa64037bd91)" d="M 194.06 295.705931 
L 292.8 295.705931 
" style="fill:none;stroke:#ffffff;stroke-linecap:round;"/>
     </g>
     <g id="text_15">
      <!-- 100 -->
      <g style="fill:#262626;" transform="translate(163.56375 299.885071)scale(0.11 -0.11)">
       <use xlink:href="#DejaVuSans-49"/>
       <use x="63.623047" xlink:href="#DejaVuSans-48"/>
       <use x="127.246094" xlink:href="#DejaVuSans-48"/>
      </g>
     </g>
    </g>
    <g id="ytick_11">
     <g id="line2d_18">
      <path clip-path="url(#pa64037bd91)" d="M 194.06 232.775195 
L 292.8 232.775195 
" style="fill:none;stroke:#ffffff;stroke-linecap:round;"/>
     </g>
     <g id="text_16">
      <!-- 150 -->
      <g style="fill:#262626;" transform="translate(163.56375 236.954335)scale(0.11 -0.11)">
       <use xlink:href="#DejaVuSans-49"/>
       <use x="63.623047" xlink:href="#DejaVuSans-53"/>
       <use x="127.246094" xlink:href="#DejaVuSans-48"/>
      </g>
     </g>
    </g>
    <g id="ytick_12">
     <g id="line2d_19">
      <path clip-path="url(#pa64037bd91)" d="M 194.06 169.844459 
L 292.8 169.844459 
" style="fill:none;stroke:#ffffff;stroke-linecap:round;"/>
     </g>
     <g id="text_17">
      <!-- 200 -->
      <g style="fill:#262626;" transform="translate(163.56375 174.023599)scale(0.11 -0.11)">
       <use xlink:href="#DejaVuSans-50"/>
       <use x="63.623047" xlink:href="#DejaVuSans-48"/>
       <use x="127.246094" xlink:href="#DejaVuSans-48"/>
      </g>
     </g>
    </g>
    <g id="ytick_13">
     <g id="line2d_20">
      <path clip-path="url(#pa64037bd91)" d="M 194.06 106.913723 
L 292.8 106.913723 
" style="fill:none;stroke:#ffffff;stroke-linecap:round;"/>
     </g>
     <g id="text_18">
      <!-- 250 -->
      <g style="fill:#262626;" transform="translate(163.56375 111.092864)scale(0.11 -0.11)">
       <use xlink:href="#DejaVuSans-50"/>
       <use x="63.623047" xlink:href="#DejaVuSans-53"/>
       <use x="127.246094" xlink:href="#DejaVuSans-48"/>
      </g>
     </g>
    </g>
    <g id="ytick_14">
     <g id="line2d_21">
      <path clip-path="url(#pa64037bd91)" d="M 194.06 43.982987 
L 292.8 43.982987 
" style="fill:none;stroke:#ffffff;stroke-linecap:round;"/>
     </g>
     <g id="text_19">
      <!-- 300 -->
      <g style="fill:#262626;" transform="translate(163.56375 48.162128)scale(0.11 -0.11)">
       <use xlink:href="#DejaVuSans-51"/>
       <use x="63.623047" xlink:href="#DejaVuSans-48"/>
       <use x="127.246094" xlink:href="#DejaVuSans-48"/>
      </g>
     </g>
    </g>
   </g>
   <g id="line2d_22">
    <path clip-path="url(#pa64037bd91)" d="M 198.548182 32.655455 
L 198.824803 86.775887 
L 198.963114 96.844805 
L 199.101425 72.931126 
L 199.378046 113.206797 
L 199.516357 81.741429 
L 199.654667 86.775887 
L 199.792978 33.914069 
L 199.931289 111.948182 
L 200.069599 86.775887 
L 200.346221 116.982641 
L 200.484531 110.689567 
L 200.622842 111.948182 
L 200.899464 132.086017 
L 201.037774 80.482814 
L 201.176085 123.275714 
L 201.452706 109.430952 
L 201.591017 142.154935 
L 201.729328 129.568788 
L 201.867638 128.310173 
L 202.005949 140.89632 
L 202.14426 135.861861 
L 202.28257 145.930779 
L 202.420881 142.154935 
L 202.559192 158.516926 
L 202.697502 127.051558 
L 202.835813 128.310173 
L 202.974124 114.465411 
L 203.112435 162.292771 
L 203.250745 167.327229 
L 203.389056 205.085671 
L 203.665677 148.448009 
L 203.803988 135.861861 
L 203.942299 150.965238 
L 204.080609 143.41355 
L 204.21892 193.758139 
L 204.357231 182.430606 
L 204.495541 205.085671 
L 204.633852 158.516926 
L 204.910473 181.171991 
L 205.048784 203.827056 
L 205.187095 171.103074 
L 205.325406 174.878918 
L 205.463716 203.827056 
L 205.602027 195.016753 
L 205.878648 205.085671 
L 206.016959 203.827056 
L 206.15527 191.240909 
L 206.29358 189.982294 
L 206.431891 216.413203 
L 206.570202 178.654762 
L 206.708512 220.189048 
L 206.846823 193.758139 
L 206.985134 226.482121 
L 207.123444 178.654762 
L 207.676687 193.758139 
L 207.814998 193.758139 
L 207.953309 205.085671 
L 208.091619 201.309827 
L 208.22993 191.240909 
L 208.368241 205.085671 
L 208.506551 189.982294 
L 208.644862 220.189048 
L 208.783173 201.309827 
L 208.921483 208.861515 
L 209.059794 259.206104 
L 209.198105 207.6029 
L 209.336415 249.137186 
L 209.474726 203.827056 
L 209.613037 217.671818 
L 209.751348 193.758139 
L 209.889658 218.930433 
L 210.027969 208.861515 
L 210.30459 226.482121 
L 210.442901 188.72368 
L 210.581212 235.292424 
L 210.719522 221.447662 
L 210.857833 235.292424 
L 210.996144 200.051212 
L 211.272765 230.257965 
L 211.411076 228.999351 
L 211.549386 237.809654 
L 211.826008 226.482121 
L 211.964319 196.275368 
L 212.24094 225.223506 
L 212.379251 222.706277 
L 212.517561 241.585498 
L 212.794183 208.861515 
L 212.932493 228.999351 
L 213.070804 216.413203 
L 213.209115 246.619957 
L 213.347425 235.292424 
L 213.485736 260.464719 
L 213.624047 255.43026 
L 213.762357 222.706277 
L 214.038979 237.809654 
L 214.17729 261.723333 
L 214.3156 227.740736 
L 214.453911 222.706277 
L 214.592222 254.171645 
L 214.868843 222.706277 
L 215.007154 240.326883 
L 215.560396 245.361342 
L 215.837018 225.223506 
L 215.975328 246.619957 
L 216.113639 249.137186 
L 216.25195 225.223506 
L 216.390261 274.309481 
L 216.528571 208.861515 
L 216.666882 257.947489 
L 216.943503 203.827056 
L 217.220125 245.361342 
L 217.358435 255.43026 
L 217.635057 226.482121 
L 217.911678 250.395801 
L 218.049989 249.137186 
L 218.188299 252.91303 
L 218.32661 261.723333 
L 218.741542 217.671818 
L 218.879853 235.292424 
L 219.018164 236.551039 
L 219.156474 265.499177 
L 219.294785 232.775195 
L 219.433096 230.257965 
L 219.848028 261.723333 
L 220.124649 223.964892 
L 220.26296 242.844113 
L 220.40127 245.361342 
L 220.539581 257.947489 
L 220.677892 239.068268 
L 221.092824 278.085325 
L 221.369445 223.964892 
L 221.784377 264.240563 
L 221.922688 251.654416 
L 222.060999 251.654416 
L 222.199309 259.206104 
L 222.33762 255.43026 
L 222.475931 259.206104 
L 222.614241 245.361342 
L 222.752552 255.43026 
L 222.890863 246.619957 
L 223.029174 247.878571 
L 223.305795 252.91303 
L 223.582416 230.257965 
L 223.859038 271.792251 
L 223.997348 234.03381 
L 224.27397 251.654416 
L 224.41228 236.551039 
L 224.550591 262.981948 
L 224.688902 234.03381 
L 224.827212 262.981948 
L 224.965523 246.619957 
L 225.103834 260.464719 
L 225.242145 259.206104 
L 225.380455 269.275022 
L 225.518766 262.981948 
L 225.657077 234.03381 
L 225.795387 259.206104 
L 226.072009 242.844113 
L 226.34863 262.981948 
L 226.486941 276.82671 
L 226.625251 225.223506 
L 226.901873 271.792251 
L 227.040183 274.309481 
L 227.178494 236.551039 
L 227.316805 261.723333 
L 227.455116 256.688874 
L 227.593426 244.102727 
L 227.870048 290.671472 
L 228.008358 255.43026 
L 228.146669 255.43026 
L 228.42329 264.240563 
L 228.699912 274.309481 
L 228.838222 226.482121 
L 228.976533 281.861169 
L 229.253155 244.102727 
L 229.391465 276.82671 
L 229.668087 241.585498 
L 229.806397 260.464719 
L 229.944708 261.723333 
L 230.083019 257.947489 
L 230.221329 237.809654 
L 230.35964 242.844113 
L 230.497951 236.551039 
L 230.636261 237.809654 
L 230.912883 261.723333 
L 231.051193 247.878571 
L 231.189504 268.016407 
L 231.327815 230.257965 
L 231.604436 283.119784 
L 231.742747 241.585498 
L 231.881058 240.326883 
L 232.019368 284.378398 
L 232.29599 241.585498 
L 232.4343 266.757792 
L 232.572611 255.43026 
L 232.710922 276.82671 
L 232.849232 246.619957 
L 232.987543 251.654416 
L 233.264164 294.447316 
L 233.540786 256.688874 
L 233.679097 273.050866 
L 233.817407 254.171645 
L 233.955718 254.171645 
L 234.094029 241.585498 
L 234.232339 266.757792 
L 234.508961 240.326883 
L 234.647271 274.309481 
L 234.785582 235.292424 
L 234.923893 252.91303 
L 235.062203 241.585498 
L 235.200514 246.619957 
L 235.338825 261.723333 
L 235.477135 256.688874 
L 235.615446 265.499177 
L 235.753757 249.137186 
L 235.892068 254.171645 
L 236.030378 254.171645 
L 236.168689 280.602554 
L 236.44531 234.03381 
L 236.721932 265.499177 
L 236.860242 262.981948 
L 236.998553 252.91303 
L 237.136864 252.91303 
L 237.275174 271.792251 
L 237.413485 260.464719 
L 237.551796 231.51658 
L 237.828417 269.275022 
L 237.966728 255.43026 
L 238.105039 270.533636 
L 238.243349 268.016407 
L 238.38166 278.085325 
L 238.519971 241.585498 
L 238.658281 268.016407 
L 238.796592 268.016407 
L 238.934903 271.792251 
L 239.211524 250.395801 
L 239.349835 280.602554 
L 239.488145 235.292424 
L 239.764767 286.895628 
L 240.041388 236.551039 
L 240.179699 261.723333 
L 240.31801 264.240563 
L 240.45632 270.533636 
L 240.732942 256.688874 
L 240.871252 268.016407 
L 241.009563 241.585498 
L 241.147874 246.619957 
L 241.286184 283.119784 
L 241.424495 250.395801 
L 241.562806 257.947489 
L 241.701116 246.619957 
L 241.839427 245.361342 
L 241.977738 264.240563 
L 242.116048 244.102727 
L 242.254359 265.499177 
L 242.39267 247.878571 
L 242.669291 261.723333 
L 242.807602 255.43026 
L 242.945913 259.206104 
L 243.084223 257.947489 
L 243.222534 241.585498 
L 243.499155 284.378398 
L 243.775777 246.619957 
L 243.914087 276.82671 
L 244.052398 256.688874 
L 244.190709 255.43026 
L 244.329019 239.068268 
L 244.46733 271.792251 
L 244.605641 261.723333 
L 244.743952 284.378398 
L 244.882262 271.792251 
L 245.020573 283.119784 
L 245.158884 251.654416 
L 245.297194 247.878571 
L 245.573816 280.602554 
L 245.712126 244.102727 
L 245.988748 276.82671 
L 246.127058 259.206104 
L 246.265369 278.085325 
L 246.40368 262.981948 
L 246.54199 270.533636 
L 246.680301 288.154242 
L 246.818612 266.757792 
L 247.095233 262.981948 
L 247.233544 288.154242 
L 247.371855 270.533636 
L 247.510165 283.119784 
L 247.648476 247.878571 
L 247.786787 262.981948 
L 247.925097 261.723333 
L 248.063408 265.499177 
L 248.201719 275.568095 
L 248.340029 257.947489 
L 248.47834 259.206104 
L 248.616651 239.068268 
L 248.893272 259.206104 
L 249.031583 250.395801 
L 249.169894 249.137186 
L 249.308204 255.43026 
L 249.446515 242.844113 
L 249.584826 250.395801 
L 249.723136 265.499177 
L 249.861447 255.43026 
L 249.999758 274.309481 
L 250.138068 262.981948 
L 250.276379 275.568095 
L 250.41469 251.654416 
L 250.553 286.895628 
L 250.829622 250.395801 
L 250.967932 260.464719 
L 251.106243 245.361342 
L 251.244554 273.050866 
L 251.382865 239.068268 
L 251.521175 274.309481 
L 251.797797 255.43026 
L 251.936107 250.395801 
L 252.074418 264.240563 
L 252.212729 257.947489 
L 252.351039 281.861169 
L 252.48935 244.102727 
L 252.627661 259.206104 
L 252.765971 255.43026 
L 253.042593 275.568095 
L 253.180903 269.275022 
L 253.319214 223.964892 
L 253.595836 273.050866 
L 253.734146 241.585498 
L 253.872457 257.947489 
L 254.010768 257.947489 
L 254.149078 234.03381 
L 254.287389 241.585498 
L 254.4257 265.499177 
L 254.56401 250.395801 
L 254.702321 262.981948 
L 254.840632 252.91303 
L 255.117253 269.275022 
L 255.532185 241.585498 
L 255.808807 269.275022 
L 255.947117 259.206104 
L 256.223739 222.706277 
L 256.638671 261.723333 
L 256.776981 240.326883 
L 256.915292 266.757792 
L 257.191913 242.844113 
L 257.468535 283.119784 
L 257.606845 239.068268 
L 257.745156 259.206104 
L 257.883467 252.91303 
L 258.021778 280.602554 
L 258.160088 250.395801 
L 258.298399 245.361342 
L 258.43671 284.378398 
L 258.57502 222.706277 
L 258.713331 251.654416 
L 258.851642 249.137186 
L 258.989952 276.82671 
L 259.128263 246.619957 
L 259.266574 252.91303 
L 259.404884 240.326883 
L 259.681506 259.206104 
L 259.958127 265.499177 
L 260.096438 260.464719 
L 260.234749 264.240563 
L 260.373059 273.050866 
L 260.51137 271.792251 
L 260.649681 262.981948 
L 260.787991 236.551039 
L 260.926302 265.499177 
L 261.064613 250.395801 
L 261.479545 281.861169 
L 261.617855 259.206104 
L 261.756166 278.085325 
L 262.032788 237.809654 
L 262.171098 274.309481 
L 262.44772 255.43026 
L 262.58603 254.171645 
L 262.724341 247.878571 
L 262.862652 273.050866 
L 263.000962 242.844113 
L 263.139273 260.464719 
L 263.277584 261.723333 
L 263.415894 269.275022 
L 263.554205 259.206104 
L 264.107448 273.050866 
L 264.245759 241.585498 
L 264.384069 279.343939 
L 264.660691 255.43026 
L 264.799001 262.981948 
L 265.213933 234.03381 
L 265.352244 256.688874 
L 265.490555 259.206104 
L 265.628865 266.757792 
L 265.767176 259.206104 
L 266.043797 284.378398 
L 266.182108 245.361342 
L 266.320419 268.016407 
L 266.45873 227.740736 
L 266.59704 264.240563 
L 266.735351 259.206104 
L 266.873662 276.82671 
L 267.011972 275.568095 
L 267.150283 246.619957 
L 267.288594 260.464719 
L 267.426904 252.91303 
L 267.565215 296.964545 
L 267.703526 281.861169 
L 267.841836 237.809654 
L 267.980147 271.792251 
L 268.118458 261.723333 
L 268.256768 276.82671 
L 268.53339 250.395801 
L 268.671701 273.050866 
L 268.810011 271.792251 
L 268.948322 281.861169 
L 269.086633 246.619957 
L 269.224943 254.171645 
L 269.363254 239.068268 
L 269.501565 254.171645 
L 269.639875 252.91303 
L 269.778186 274.309481 
L 270.054807 246.619957 
L 270.193118 265.499177 
L 270.331429 256.688874 
L 270.469739 227.740736 
L 270.60805 235.292424 
L 270.746361 257.947489 
L 270.884672 251.654416 
L 271.022982 273.050866 
L 271.161293 273.050866 
L 271.299604 235.292424 
L 271.437914 274.309481 
L 271.576225 252.91303 
L 271.714536 268.016407 
L 271.852846 249.137186 
L 272.129468 281.861169 
L 272.267778 271.792251 
L 272.406089 270.533636 
L 272.5444 256.688874 
L 272.821021 276.82671 
L 273.235953 242.844113 
L 273.374264 289.412857 
L 273.512575 280.602554 
L 273.789196 251.654416 
L 273.927507 256.688874 
L 274.204128 278.085325 
L 274.480749 237.809654 
L 274.61906 278.085325 
L 274.757371 276.82671 
L 274.895681 273.050866 
L 275.172303 280.602554 
L 275.310614 262.981948 
L 275.448924 270.533636 
L 275.587235 262.981948 
L 275.725546 262.981948 
L 275.863856 265.499177 
L 276.002167 261.723333 
L 276.140478 239.068268 
L 276.278788 286.895628 
L 276.55541 246.619957 
L 276.69372 249.137186 
L 276.832031 256.688874 
L 276.970342 275.568095 
L 277.246963 235.292424 
L 277.385274 252.91303 
L 277.523585 241.585498 
L 277.661895 265.499177 
L 277.938517 249.137186 
L 278.076827 281.861169 
L 278.215138 250.395801 
L 278.353449 261.723333 
L 278.491759 241.585498 
L 278.63007 264.240563 
L 278.768381 223.964892 
L 278.906691 265.499177 
L 279.183313 260.464719 
L 279.321623 285.637013 
L 279.459934 278.085325 
L 279.598245 280.602554 
L 279.736556 254.171645 
L 280.013177 293.188701 
L 280.289798 252.91303 
L 280.428109 249.137186 
L 280.56642 251.654416 
L 280.70473 269.275022 
L 280.843041 225.223506 
L 280.981352 239.068268 
L 281.119662 230.257965 
L 281.257973 262.981948 
L 281.396284 245.361342 
L 281.534594 249.137186 
L 281.672905 247.878571 
L 281.949527 266.757792 
L 282.226148 250.395801 
L 282.364459 249.137186 
L 282.502769 250.395801 
L 282.64108 249.137186 
L 282.779391 280.602554 
L 282.917701 269.275022 
L 283.056012 239.068268 
L 283.332633 269.275022 
L 283.470944 266.757792 
L 283.609255 266.757792 
L 283.747565 255.43026 
L 283.885876 262.981948 
L 284.024187 257.947489 
L 284.162498 260.464719 
L 284.439119 234.03381 
L 284.71574 261.723333 
L 284.854051 232.775195 
L 284.992362 256.688874 
L 285.130672 257.947489 
L 285.268983 269.275022 
L 285.407294 266.757792 
L 285.545604 280.602554 
L 285.683915 260.464719 
L 285.822226 274.309481 
L 285.960536 270.533636 
L 286.098847 260.464719 
L 286.237158 265.499177 
L 286.375469 264.240563 
L 286.513779 265.499177 
L 286.65209 218.930433 
L 286.790401 264.240563 
L 286.928711 259.206104 
L 287.067022 232.775195 
L 287.205333 240.326883 
L 287.343643 254.171645 
L 287.481954 250.395801 
L 287.620265 275.568095 
L 287.896886 244.102727 
L 288.035197 278.085325 
L 288.173507 261.723333 
L 288.311818 268.016407 
L 288.311818 268.016407 
" style="fill:none;stroke:#4c72b0;stroke-linecap:round;stroke-width:1.5;"/>
   </g>
   <g id="line2d_23">
    <path clip-path="url(#pa64037bd91)" d="M 198.548182 32.655455 
L 198.824803 83.384357 
L 198.963114 90.506703 
L 199.101425 71.469803 
L 199.378046 98.919718 
L 199.516357 79.218112 
L 199.654667 82.985454 
L 199.792978 56.401262 
L 199.931289 97.385694 
L 200.069599 86.583297 
L 200.346221 101.71928 
L 200.484531 100.507876 
L 200.622842 102.354372 
L 200.899464 111.486404 
L 201.037774 98.867495 
L 201.176085 112.23273 
L 201.314396 112.007971 
L 201.452706 113.007897 
L 201.591017 121.937876 
L 201.729328 121.429278 
L 201.867638 123.347303 
L 202.14426 128.933248 
L 202.559192 138.286423 
L 202.697502 136.73677 
L 202.974124 140.123031 
L 203.250745 149.406833 
L 203.389056 154.443432 
L 203.527367 153.84341 
L 203.665677 154.192058 
L 203.803988 155.482992 
L 204.495541 168.884998 
L 204.633852 168.696377 
L 205.187095 176.292832 
L 206.15527 187.717432 
L 207.400066 199.178596 
L 208.368241 206.601952 
L 210.30459 218.039908 
L 212.794183 228.792547 
L 213.900668 232.467992 
L 215.145464 235.927051 
L 216.528571 239.121141 
L 218.049989 242.117891 
L 220.677892 246.741922 
L 224.27397 252.700169 
L 225.518766 254.310785 
L 226.625251 255.392531 
L 227.731737 256.18077 
L 228.838222 256.723565 
L 229.944708 257.028102 
L 231.051193 257.097512 
L 233.402475 257.116471 
L 234.647271 257.428041 
L 238.38166 258.761967 
L 239.903077 259.520625 
L 241.562806 260.616665 
L 244.605641 262.687024 
L 245.573816 263.029558 
L 246.40368 263.101314 
L 247.233544 262.937824 
L 248.063408 262.515708 
L 248.893272 261.838958 
L 249.999758 260.612 
L 253.042593 256.988186 
L 254.149078 256.115841 
L 254.978942 255.718274 
L 255.808807 255.574601 
L 256.50036 255.665446 
L 257.330224 256.021951 
L 258.298399 256.711743 
L 259.958127 258.236846 
L 261.617855 259.671413 
L 262.862652 260.464463 
L 263.969137 260.918955 
L 265.075623 261.128981 
L 266.45873 261.133128 
L 268.256768 261.142915 
L 269.501565 261.400078 
L 273.235953 262.368862 
L 274.204128 262.332303 
L 275.172303 262.063311 
L 276.140478 261.536335 
L 277.246963 260.630805 
L 280.151488 258.00074 
L 281.119662 257.519815 
L 282.087837 257.293605 
L 283.056012 257.29449 
L 284.024187 257.524048 
L 284.992362 258.002387 
L 288.311818 260.141994 
L 288.311818 260.141994 
" style="fill:none;stroke:#dd8452;stroke-linecap:round;stroke-width:1.5;"/>
   </g>
   <g id="patch_8">
    <path d="M 194.06 310.18 
L 194.06 19.44 
" style="fill:none;stroke:#ffffff;stroke-linecap:square;stroke-linejoin:miter;stroke-width:1.25;"/>
   </g>
   <g id="patch_9">
    <path d="M 292.8 310.18 
L 292.8 19.44 
" style="fill:none;stroke:#ffffff;stroke-linecap:square;stroke-linejoin:miter;stroke-width:1.25;"/>
   </g>
   <g id="patch_10">
    <path d="M 194.06 310.18 
L 292.8 310.18 
" style="fill:none;stroke:#ffffff;stroke-linecap:square;stroke-linejoin:miter;stroke-width:1.25;"/>
   </g>
   <g id="patch_11">
    <path d="M 194.06 19.44 
L 292.8 19.44 
" style="fill:none;stroke:#ffffff;stroke-linecap:square;stroke-linejoin:miter;stroke-width:1.25;"/>
   </g>
  </g>
  <g id="axes_3">
   <g id="patch_12">
    <path d="M 342.62 310.18 
L 441.36 310.18 
L 441.36 19.44 
L 342.62 19.44 
z
" style="fill:#eaeaf2;"/>
   </g>
   <g id="matplotlib.axis_5">
    <g id="xtick_6">
     <g id="line2d_24">
      <path clip-path="url(#p82a8f9aad7)" d="M 348.895207 310.18 
L 348.895207 19.44 
" style="fill:none;stroke:#ffffff;stroke-linecap:round;"/>
     </g>
     <g id="text_20">
      <!-- 0.000525 -->
      <g style="fill:#262626;" transform="translate(322.651613 328.038281)scale(0.11 -0.11)">
       <use xlink:href="#DejaVuSans-48"/>
       <use x="63.623047" xlink:href="#DejaVuSans-46"/>
       <use x="95.410156" xlink:href="#DejaVuSans-48"/>
       <use x="159.033203" xlink:href="#DejaVuSans-48"/>
       <use x="222.65625" xlink:href="#DejaVuSans-48"/>
       <use x="286.279297" xlink:href="#DejaVuSans-53"/>
       <use x="349.902344" xlink:href="#DejaVuSans-50"/>
       <use x="413.525391" xlink:href="#DejaVuSans-53"/>
      </g>
     </g>
    </g>
    <g id="xtick_7">
     <g id="line2d_25">
      <path clip-path="url(#p82a8f9aad7)" d="M 383.261071 310.18 
L 383.261071 19.44 
" style="fill:none;stroke:#ffffff;stroke-linecap:round;"/>
     </g>
     <g id="text_21">
      <!-- 0.000550 -->
      <g style="fill:#262626;" transform="translate(357.017477 328.038281)scale(0.11 -0.11)">
       <use xlink:href="#DejaVuSans-48"/>
       <use x="63.623047" xlink:href="#DejaVuSans-46"/>
       <use x="95.410156" xlink:href="#DejaVuSans-48"/>
       <use x="159.033203" xlink:href="#DejaVuSans-48"/>
       <use x="222.65625" xlink:href="#DejaVuSans-48"/>
       <use x="286.279297" xlink:href="#DejaVuSans-53"/>
       <use x="349.902344" xlink:href="#DejaVuSans-53"/>
       <use x="413.525391" xlink:href="#DejaVuSans-48"/>
      </g>
     </g>
    </g>
    <g id="xtick_8">
     <g id="line2d_26">
      <path clip-path="url(#p82a8f9aad7)" d="M 417.626934 310.18 
L 417.626934 19.44 
" style="fill:none;stroke:#ffffff;stroke-linecap:round;"/>
     </g>
     <g id="text_22">
      <!-- 0.000575 -->
      <g style="fill:#262626;" transform="translate(391.383341 328.038281)scale(0.11 -0.11)">
       <use xlink:href="#DejaVuSans-48"/>
       <use x="63.623047" xlink:href="#DejaVuSans-46"/>
       <use x="95.410156" xlink:href="#DejaVuSans-48"/>
       <use x="159.033203" xlink:href="#DejaVuSans-48"/>
       <use x="222.65625" xlink:href="#DejaVuSans-48"/>
       <use x="286.279297" xlink:href="#DejaVuSans-53"/>
       <use x="349.902344" xlink:href="#DejaVuSans-55"/>
       <use x="413.525391" xlink:href="#DejaVuSans-53"/>
      </g>
     </g>
    </g>
   </g>
   <g id="matplotlib.axis_6">
    <g id="ytick_15">
     <g id="line2d_27">
      <path clip-path="url(#p82a8f9aad7)" d="M 342.62 304.653537 
L 441.36 304.653537 
" style="fill:none;stroke:#ffffff;stroke-linecap:round;"/>
     </g>
     <g id="text_23">
      <!-- 100 -->
      <g style="fill:#262626;" transform="translate(312.12375 308.832678)scale(0.11 -0.11)">
       <use xlink:href="#DejaVuSans-49"/>
       <use x="63.623047" xlink:href="#DejaVuSans-48"/>
       <use x="127.246094" xlink:href="#DejaVuSans-48"/>
      </g>
     </g>
    </g>
    <g id="ytick_16">
     <g id="line2d_28">
      <path clip-path="url(#p82a8f9aad7)" d="M 342.62 256.597339 
L 441.36 256.597339 
" style="fill:none;stroke:#ffffff;stroke-linecap:round;"/>
     </g>
     <g id="text_24">
      <!-- 150 -->
      <g style="fill:#262626;" transform="translate(312.12375 260.776479)scale(0.11 -0.11)">
       <use xlink:href="#DejaVuSans-49"/>
       <use x="63.623047" xlink:href="#DejaVuSans-53"/>
       <use x="127.246094" xlink:href="#DejaVuSans-48"/>
      </g>
     </g>
    </g>
    <g id="ytick_17">
     <g id="line2d_29">
      <path clip-path="url(#p82a8f9aad7)" d="M 342.62 208.54114 
L 441.36 208.54114 
" style="fill:none;stroke:#ffffff;stroke-linecap:round;"/>
     </g>
     <g id="text_25">
      <!-- 200 -->
      <g style="fill:#262626;" transform="translate(312.12375 212.720281)scale(0.11 -0.11)">
       <use xlink:href="#DejaVuSans-50"/>
       <use x="63.623047" xlink:href="#DejaVuSans-48"/>
       <use x="127.246094" xlink:href="#DejaVuSans-48"/>
      </g>
     </g>
    </g>
    <g id="ytick_18">
     <g id="line2d_30">
      <path clip-path="url(#p82a8f9aad7)" d="M 342.62 160.484942 
L 441.36 160.484942 
" style="fill:none;stroke:#ffffff;stroke-linecap:round;"/>
     </g>
     <g id="text_26">
      <!-- 250 -->
      <g style="fill:#262626;" transform="translate(312.12375 164.664083)scale(0.11 -0.11)">
       <use xlink:href="#DejaVuSans-50"/>
       <use x="63.623047" xlink:href="#DejaVuSans-53"/>
       <use x="127.246094" xlink:href="#DejaVuSans-48"/>
      </g>
     </g>
    </g>
    <g id="ytick_19">
     <g id="line2d_31">
      <path clip-path="url(#p82a8f9aad7)" d="M 342.62 112.428744 
L 441.36 112.428744 
" style="fill:none;stroke:#ffffff;stroke-linecap:round;"/>
     </g>
     <g id="text_27">
      <!-- 300 -->
      <g style="fill:#262626;" transform="translate(312.12375 116.607884)scale(0.11 -0.11)">
       <use xlink:href="#DejaVuSans-51"/>
       <use x="63.623047" xlink:href="#DejaVuSans-48"/>
       <use x="127.246094" xlink:href="#DejaVuSans-48"/>
      </g>
     </g>
    </g>
    <g id="ytick_20">
     <g id="line2d_32">
      <path clip-path="url(#p82a8f9aad7)" d="M 342.62 64.372545 
L 441.36 64.372545 
" style="fill:none;stroke:#ffffff;stroke-linecap:round;"/>
     </g>
     <g id="text_28">
      <!-- 350 -->
      <g style="fill:#262626;" transform="translate(312.12375 68.551686)scale(0.11 -0.11)">
       <use xlink:href="#DejaVuSans-51"/>
       <use x="63.623047" xlink:href="#DejaVuSans-53"/>
       <use x="127.246094" xlink:href="#DejaVuSans-48"/>
      </g>
     </g>
    </g>
   </g>
   <g id="line2d_33">
    <path clip-path="url(#p82a8f9aad7)" d="M 347.108182 32.655455 
L 347.245645 67.255917 
L 347.383109 36.49995 
L 347.520572 53.800182 
L 347.658036 46.11119 
L 347.932963 95.128512 
L 348.070426 96.089636 
L 348.207889 88.400645 
L 348.345353 73.983785 
L 348.62028 77.828281 
L 348.757743 97.05076 
L 348.895207 89.361769 
L 349.03267 94.167388 
L 349.170134 63.411421 
L 349.307597 89.361769 
L 349.445061 89.361769 
L 349.582524 143.184711 
L 349.857451 102.817504 
L 349.994914 98.011884 
L 350.132378 86.478397 
L 350.269841 123.962231 
L 350.407305 123.962231 
L 350.544768 98.973008 
L 350.682232 102.817504 
L 350.957159 143.184711 
L 351.094622 142.223587 
L 351.232085 146.068083 
L 351.369549 156.640446 
L 351.507012 124.923355 
L 351.919403 190.279785 
L 352.19433 147.990331 
L 352.331793 161.446066 
L 352.469257 148.951455 
L 352.60672 174.901802 
L 352.744183 166.251686 
L 352.881647 165.290562 
L 353.01911 180.668545 
L 353.156574 146.068083 
L 353.568964 189.318661 
L 353.706428 175.862926 
L 353.843891 210.463388 
L 354.118818 158.562694 
L 354.256281 211.424512 
L 354.531208 174.901802 
L 354.668672 176.82405 
L 354.806135 205.657769 
L 354.943599 195.085405 
L 355.081062 214.307884 
L 355.218526 200.852149 
L 355.355989 215.269008 
L 355.493453 208.54114 
L 355.630916 169.135058 
L 355.76838 194.124281 
L 355.905843 175.862926 
L 356.043306 235.452612 
L 356.18077 203.735521 
L 356.318233 203.735521 
L 356.455697 193.163157 
L 356.59316 210.463388 
L 356.730624 210.463388 
L 356.868087 199.891025 
L 357.005551 219.113504 
L 357.143014 201.813273 
L 357.280478 221.035752 
L 357.417941 223.919124 
L 357.555404 204.696645 
L 357.692868 212.385636 
L 357.830331 203.735521 
L 357.967795 211.424512 
L 358.105258 193.163157 
L 358.242722 238.335983 
L 358.517649 212.385636 
L 358.655112 236.413736 
L 358.792576 212.385636 
L 359.204966 246.024975 
L 359.342429 219.113504 
L 359.479893 217.191256 
L 359.617356 198.929901 
L 359.75482 214.307884 
L 359.892283 208.54114 
L 360.029747 221.035752 
L 360.16721 205.657769 
L 360.304674 253.713967 
L 360.717064 209.502264 
L 360.991991 234.491488 
L 361.129454 241.219355 
L 361.266918 229.685868 
L 361.404381 234.491488 
L 361.541845 229.685868 
L 361.679308 242.180479 
L 361.816772 222.958 
L 361.954235 250.830595 
L 362.091698 228.724744 
L 362.366625 248.908347 
L 362.504089 248.908347 
L 362.779016 215.269008 
L 362.916479 246.986099 
L 363.053943 227.76362 
L 363.191406 234.491488 
L 363.466333 259.480711 
L 363.74126 244.102727 
L 363.878723 234.491488 
L 364.016187 259.480711 
L 364.291114 251.791719 
L 364.428577 255.636215 
L 364.566041 236.413736 
L 364.703504 235.452612 
L 364.840968 247.947223 
L 364.978431 239.297107 
L 365.115894 245.063851 
L 365.253358 245.063851 
L 365.390821 247.947223 
L 365.528285 270.053074 
L 365.803212 241.219355 
L 365.940675 247.947223 
L 366.353066 239.297107 
L 366.490529 257.558463 
L 366.627992 232.56924 
L 366.765456 229.685868 
L 367.040383 259.480711 
L 367.452773 242.180479 
L 367.590237 248.908347 
L 367.7277 261.402959 
L 368.002627 226.802496 
L 368.277554 263.325207 
L 368.415017 235.452612 
L 368.552481 253.713967 
L 368.689944 239.297107 
L 368.827408 259.480711 
L 368.964871 255.636215 
L 369.239798 268.130826 
L 369.377262 233.530364 
L 369.514725 267.169702 
L 369.789652 226.802496 
L 369.927115 259.480711 
L 370.064579 256.597339 
L 370.202042 260.441835 
L 370.339506 268.130826 
L 370.476969 269.09195 
L 370.751896 246.986099 
L 370.88936 226.802496 
L 371.164287 269.09195 
L 371.30175 255.636215 
L 371.439213 256.597339 
L 371.576677 235.452612 
L 371.71414 238.335983 
L 371.989067 268.130826 
L 372.126531 256.597339 
L 372.263994 271.975322 
L 372.401458 230.646992 
L 372.538921 268.130826 
L 372.676385 246.986099 
L 372.813848 272.936446 
L 373.088775 249.869471 
L 373.226238 248.908347 
L 373.363702 249.869471 
L 373.501165 262.364083 
L 373.638629 239.297107 
L 373.913556 276.780942 
L 374.051019 257.558463 
L 374.325946 268.130826 
L 374.463409 265.247455 
L 374.600873 253.713967 
L 374.738336 261.402959 
L 374.8758 285.431058 
L 375.013263 268.130826 
L 375.150727 266.208579 
L 375.425654 279.664314 
L 375.563117 259.480711 
L 375.700581 273.89757 
L 375.975507 246.024975 
L 376.112971 265.247455 
L 376.250434 262.364083 
L 376.387898 270.053074 
L 376.525361 259.480711 
L 376.662825 257.558463 
L 376.800288 258.519587 
L 376.937752 274.858694 
L 377.075215 246.986099 
L 377.212679 253.713967 
L 377.350142 276.780942 
L 377.487605 246.024975 
L 377.899996 273.89757 
L 378.037459 265.247455 
L 378.174923 289.275554 
L 378.312386 246.024975 
L 378.44985 276.780942 
L 378.587313 259.480711 
L 378.724777 264.286331 
L 378.86224 242.180479 
L 378.999703 240.258231 
L 379.137167 272.936446 
L 379.27463 255.636215 
L 379.412094 258.519587 
L 379.549557 274.858694 
L 379.687021 271.975322 
L 379.824484 253.713967 
L 380.099411 281.586562 
L 380.236875 277.742066 
L 380.511801 256.597339 
L 380.649265 268.130826 
L 380.924192 244.102727 
L 381.061655 267.169702 
L 381.199119 250.830595 
L 381.336582 271.975322 
L 381.474046 272.936446 
L 381.611509 246.986099 
L 381.748973 250.830595 
L 381.886436 250.830595 
L 382.161363 266.208579 
L 382.43629 257.558463 
L 382.573753 255.636215 
L 382.84868 279.664314 
L 382.986144 270.053074 
L 383.123607 243.141603 
L 383.261071 269.09195 
L 383.398534 260.441835 
L 383.535997 281.586562 
L 383.673461 241.219355 
L 383.810924 277.742066 
L 383.948388 246.024975 
L 384.085851 243.141603 
L 384.360778 277.742066 
L 384.498242 273.89757 
L 384.635705 243.141603 
L 384.773169 265.247455 
L 384.910632 248.908347 
L 385.048096 269.09195 
L 385.185559 256.597339 
L 385.323022 296.964545 
L 385.460486 262.364083 
L 385.597949 267.169702 
L 386.01034 246.986099 
L 386.285267 266.208579 
L 386.42273 258.519587 
L 386.560194 266.208579 
L 386.697657 257.558463 
L 386.83512 257.558463 
L 386.972584 245.063851 
L 387.110047 248.908347 
L 387.522438 275.819818 
L 387.659901 269.09195 
L 387.797365 270.053074 
L 387.934828 269.09195 
L 388.072292 250.830595 
L 388.209755 263.325207 
L 388.484682 266.208579 
L 388.622145 254.675091 
L 388.759609 271.014198 
L 389.034536 246.024975 
L 389.171999 262.364083 
L 389.58439 246.986099 
L 389.721853 260.441835 
L 389.859316 251.791719 
L 389.99678 253.713967 
L 390.134243 274.858694 
L 390.271707 252.752843 
L 390.40917 262.364083 
L 390.546634 246.024975 
L 390.821561 265.247455 
L 390.959024 264.286331 
L 391.096488 275.819818 
L 391.233951 263.325207 
L 391.371414 269.09195 
L 391.646341 258.519587 
L 391.783805 267.169702 
L 391.921268 261.402959 
L 392.196195 273.89757 
L 392.333659 272.936446 
L 392.471122 253.713967 
L 392.608586 273.89757 
L 392.883512 244.102727 
L 393.020976 259.480711 
L 393.158439 259.480711 
L 393.433366 270.053074 
L 393.57083 259.480711 
L 393.708293 265.247455 
L 393.845757 285.431058 
L 393.98322 248.908347 
L 394.120684 282.547686 
L 394.258147 251.791719 
L 394.39561 254.675091 
L 394.533074 281.586562 
L 394.808001 259.480711 
L 394.945464 265.247455 
L 395.082928 258.519587 
L 395.220391 274.858694 
L 395.495318 257.558463 
L 395.632782 253.713967 
L 395.770245 277.742066 
L 395.907708 265.247455 
L 396.045172 276.780942 
L 396.182635 258.519587 
L 396.320099 262.364083 
L 396.457562 252.752843 
L 396.732489 275.819818 
L 397.007416 259.480711 
L 397.419806 279.664314 
L 397.55727 266.208579 
L 397.694733 268.130826 
L 397.832197 251.791719 
L 397.96966 249.869471 
L 398.107124 268.130826 
L 398.244587 264.286331 
L 398.382051 271.014198 
L 398.519514 284.469934 
L 398.794441 258.519587 
L 398.931904 271.975322 
L 399.069368 255.636215 
L 399.206831 275.819818 
L 399.344295 271.975322 
L 399.481758 255.636215 
L 399.619222 259.480711 
L 399.756685 275.819818 
L 399.894149 259.480711 
L 400.031612 267.169702 
L 400.169076 249.869471 
L 400.306539 256.597339 
L 400.444003 257.558463 
L 400.581466 282.547686 
L 400.856393 253.713967 
L 400.993856 272.936446 
L 401.13132 248.908347 
L 401.268783 246.024975 
L 401.54371 266.208579 
L 401.681174 264.286331 
L 401.818637 249.869471 
L 401.956101 257.558463 
L 402.093564 285.431058 
L 402.231027 246.986099 
L 402.368491 247.947223 
L 402.505954 242.180479 
L 402.780881 275.819818 
L 403.055808 255.636215 
L 403.193272 273.89757 
L 403.468199 266.208579 
L 403.605662 248.908347 
L 403.743125 250.830595 
L 403.880589 245.063851 
L 404.018052 249.869471 
L 404.155516 272.936446 
L 404.430443 262.364083 
L 404.567906 243.141603 
L 404.70537 260.441835 
L 404.842833 262.364083 
L 404.980297 257.558463 
L 405.11776 267.169702 
L 405.255223 262.364083 
L 405.392687 268.130826 
L 405.53015 264.286331 
L 405.805077 232.56924 
L 405.942541 268.130826 
L 406.080004 271.975322 
L 406.217468 241.219355 
L 406.354931 278.70319 
L 406.492395 247.947223 
L 406.629858 271.014198 
L 406.767321 273.89757 
L 406.904785 240.258231 
L 407.042248 272.936446 
L 407.179712 258.519587 
L 407.317175 261.402959 
L 407.454639 292.158926 
L 407.592102 258.519587 
L 407.867029 280.625438 
L 408.004493 252.752843 
L 408.141956 251.791719 
L 408.279419 247.947223 
L 408.416883 248.908347 
L 408.554346 251.791719 
L 408.829273 268.130826 
L 408.966737 291.197802 
L 409.241664 247.947223 
L 409.379127 259.480711 
L 409.516591 259.480711 
L 409.654054 265.247455 
L 409.791517 264.286331 
L 409.928981 264.286331 
L 410.066444 260.441835 
L 410.203908 265.247455 
L 410.341371 264.286331 
L 410.478835 274.858694 
L 410.616298 248.908347 
L 410.753762 264.286331 
L 410.891225 262.364083 
L 411.028689 256.597339 
L 411.166152 291.197802 
L 411.441079 246.024975 
L 411.578542 254.675091 
L 411.716006 250.830595 
L 411.853469 269.09195 
L 412.128396 243.141603 
L 412.403323 278.70319 
L 412.540787 268.130826 
L 412.67825 268.130826 
L 412.953177 260.441835 
L 413.09064 282.547686 
L 413.228104 268.130826 
L 413.365567 273.89757 
L 413.503031 257.558463 
L 413.640494 258.519587 
L 413.777958 276.780942 
L 413.915421 253.713967 
L 414.052885 253.713967 
L 414.327811 271.014198 
L 414.465275 278.70319 
L 414.602738 269.09195 
L 414.740202 279.664314 
L 414.877665 264.286331 
L 415.015129 270.053074 
L 415.152592 242.180479 
L 415.564983 266.208579 
L 415.702446 269.09195 
L 415.83991 265.247455 
L 415.977373 245.063851 
L 416.114836 270.053074 
L 416.2523 268.130826 
L 416.527227 249.869471 
L 416.802154 261.402959 
L 416.939617 254.675091 
L 417.077081 272.936446 
L 417.626934 246.024975 
L 417.764398 256.597339 
L 417.901861 277.742066 
L 418.039325 267.169702 
L 418.176788 268.130826 
L 418.314252 243.141603 
L 418.589179 271.975322 
L 418.726642 268.130826 
L 418.864106 279.664314 
L 419.139032 254.675091 
L 419.276496 258.519587 
L 419.413959 272.936446 
L 419.551423 265.247455 
L 419.688886 274.858694 
L 419.82635 255.636215 
L 419.963813 267.169702 
L 420.101277 245.063851 
L 420.23874 243.141603 
L 420.376204 264.286331 
L 420.513667 262.364083 
L 420.65113 265.247455 
L 420.788594 271.014198 
L 421.063521 250.830595 
L 421.200984 279.664314 
L 421.338448 259.480711 
L 421.475911 266.208579 
L 421.613375 261.402959 
L 421.750838 262.364083 
L 421.888302 268.130826 
L 422.025765 268.130826 
L 422.163228 244.102727 
L 422.438155 266.208579 
L 422.713082 251.791719 
L 422.850546 254.675091 
L 422.988009 266.208579 
L 423.125473 252.752843 
L 423.262936 265.247455 
L 423.4004 266.208579 
L 423.537863 284.469934 
L 423.675326 277.742066 
L 423.81279 244.102727 
L 424.22518 270.053074 
L 424.362644 265.247455 
L 424.500107 287.353306 
L 424.912498 253.713967 
L 425.049961 265.247455 
L 425.187424 267.169702 
L 425.324888 228.724744 
L 425.462351 266.208579 
L 425.599815 259.480711 
L 425.737278 262.364083 
L 425.874742 261.402959 
L 426.012205 246.986099 
L 426.287132 274.858694 
L 426.424596 262.364083 
L 426.562059 260.441835 
L 426.699522 271.014198 
L 426.836986 249.869471 
L 426.974449 261.402959 
L 427.111913 261.402959 
L 427.249376 250.830595 
L 427.38684 265.247455 
L 427.524303 248.908347 
L 427.661767 261.402959 
L 427.79923 255.636215 
L 427.936694 261.402959 
L 428.074157 258.519587 
L 428.21162 263.325207 
L 428.349084 248.908347 
L 428.624011 269.09195 
L 428.761474 266.208579 
L 428.898938 278.70319 
L 429.036401 251.791719 
L 429.173865 280.625438 
L 429.311328 245.063851 
L 429.448792 252.752843 
L 429.586255 270.053074 
L 429.723719 252.752843 
L 429.861182 287.353306 
L 429.998645 241.219355 
L 430.136109 284.469934 
L 430.411036 226.802496 
L 430.548499 269.09195 
L 430.685963 271.014198 
L 430.823426 257.558463 
L 430.96089 268.130826 
L 431.098353 261.402959 
L 431.37328 276.780942 
L 431.78567 255.636215 
L 431.923134 266.208579 
L 432.060597 244.102727 
L 432.198061 266.208579 
L 432.335524 266.208579 
L 432.472988 245.063851 
L 432.747915 276.780942 
L 433.022841 256.597339 
L 433.160305 274.858694 
L 433.297768 261.402959 
L 433.435232 276.780942 
L 433.572695 271.975322 
L 433.710159 254.675091 
L 433.847622 266.208579 
L 434.122549 235.452612 
L 434.260013 265.247455 
L 434.397476 269.09195 
L 434.534939 255.636215 
L 434.672403 287.353306 
L 434.809866 270.053074 
L 434.94733 275.819818 
L 435.084793 246.024975 
L 435.222257 269.09195 
L 435.35972 257.558463 
L 435.497184 273.89757 
L 435.634647 250.830595 
L 435.909574 265.247455 
L 436.047037 267.169702 
L 436.321964 247.947223 
L 436.459428 273.89757 
L 436.596891 278.70319 
L 436.871818 266.208579 
L 436.871818 266.208579 
" style="fill:none;stroke:#4c72b0;stroke-linecap:round;stroke-width:1.5;"/>
   </g>
   <g id="line2d_34">
    <path clip-path="url(#p82a8f9aad7)" d="M 347.108182 32.655455 
L 347.245645 66.137832 
L 347.383109 37.586403 
L 347.520572 53.360193 
L 347.658036 47.504897 
L 347.932963 85.780278 
L 348.070426 86.047358 
L 348.345353 71.989153 
L 348.62028 76.406639 
L 348.757743 88.106181 
L 348.895207 85.055291 
L 349.03267 88.700988 
L 349.170134 75.70454 
L 349.307597 89.383539 
L 349.445061 91.109233 
L 349.582524 114.477322 
L 349.719987 102.592979 
L 349.857451 101.8545 
L 349.994914 102.134166 
L 350.132378 100.486442 
L 350.269841 114.494279 
L 350.407305 116.383609 
L 350.544768 111.376183 
L 350.682232 114.750938 
L 350.957159 129.17339 
L 351.232085 133.704133 
L 351.369549 137.86794 
L 351.507012 133.561918 
L 351.919403 151.328636 
L 352.056866 147.671099 
L 352.19433 148.366084 
L 352.331793 152.386653 
L 352.469257 152.650676 
L 352.60672 158.094451 
L 352.744183 158.904521 
L 352.881647 160.72074 
L 353.01911 164.364857 
L 353.156574 162.508305 
L 353.843891 177.509882 
L 354.118818 176.798946 
L 354.256281 182.276539 
L 354.393745 182.891402 
L 354.531208 182.958391 
L 354.668672 184.662528 
L 354.943599 188.733932 
L 355.218526 191.866912 
L 355.493453 194.914026 
L 355.630916 194.530576 
L 356.043306 200.900733 
L 356.18077 200.936409 
L 357.417941 211.005751 
L 357.555404 211.541536 
L 357.967795 214.418895 
L 358.105258 214.985601 
L 358.380185 217.266777 
L 358.517649 217.844578 
L 358.930039 220.377122 
L 359.75482 224.720753 
L 362.091698 235.320167 
L 362.916479 238.382151 
L 365.115894 244.659229 
L 366.215602 246.957566 
L 367.590237 249.284885 
L 372.126531 256.626988 
L 373.776092 259.259447 
L 375.013263 260.859032 
L 376.112971 261.913225 
L 376.937752 262.437701 
L 377.762532 262.719407 
L 378.724777 262.788582 
L 380.099411 262.617817 
L 382.711217 262.014677 
L 386.560194 261.106971 
L 387.797365 261.021773 
L 389.034536 261.175717 
L 390.271707 261.581896 
L 391.646341 262.283711 
L 394.945464 264.116163 
L 395.907708 264.31746 
L 396.732489 264.285363 
L 397.694733 264.001965 
L 398.794441 263.410902 
L 400.718929 262.047631 
L 402.231027 261.081461 
L 403.193272 260.701214 
L 404.155516 260.579065 
L 405.11776 260.705567 
L 406.217468 261.093689 
L 407.729566 261.884287 
L 410.341371 263.272464 
L 411.441079 263.601865 
L 412.540787 263.70566 
L 413.777958 263.596288 
L 415.83991 263.148782 
L 419.413959 262.296353 
L 424.637571 261.552648 
L 426.287132 261.405694 
L 427.79923 261.476964 
L 429.173865 261.758302 
L 430.96089 262.381549 
L 434.397476 263.6219 
L 436.871818 264.41319 
L 436.871818 264.41319 
" style="fill:none;stroke:#dd8452;stroke-linecap:round;stroke-width:1.5;"/>
   </g>
   <g id="patch_13">
    <path d="M 342.62 310.18 
L 342.62 19.44 
" style="fill:none;stroke:#ffffff;stroke-linecap:square;stroke-linejoin:miter;stroke-width:1.25;"/>
   </g>
   <g id="patch_14">
    <path d="M 441.36 310.18 
L 441.36 19.44 
" style="fill:none;stroke:#ffffff;stroke-linecap:square;stroke-linejoin:miter;stroke-width:1.25;"/>
   </g>
   <g id="patch_15">
    <path d="M 342.62 310.18 
L 441.36 310.18 
" style="fill:none;stroke:#ffffff;stroke-linecap:square;stroke-linejoin:miter;stroke-width:1.25;"/>
   </g>
   <g id="patch_16">
    <path d="M 342.62 19.44 
L 441.36 19.44 
" style="fill:none;stroke:#ffffff;stroke-linecap:square;stroke-linejoin:miter;stroke-width:1.25;"/>
   </g>
  </g>
 </g>
 <defs>
  <clipPath id="p11728f7fbe">
   <rect height="290.74" width="98.74" x="45.5" y="19.44"/>
  </clipPath>
  <clipPath id="pa64037bd91">
   <rect height="290.74" width="98.74" x="194.06" y="19.44"/>
  </clipPath>
  <clipPath id="p82a8f9aad7">
   <rect height="290.74" width="98.74" x="342.62" y="19.44"/>
  </clipPath>
 </defs>
</svg>
