<?xml version="1.0" encoding="utf-8" standalone="no"?>
<!DOCTYPE svg PUBLIC "-//W3C//DTD SVG 1.1//EN"
  "http://www.w3.org/Graphics/SVG/1.1/DTD/svg11.dtd">
<!-- Created with matplotlib (https://matplotlib.org/) -->
<svg height="345.6pt" version="1.1" viewBox="0 0 460.8 345.6" width="460.8pt" xmlns="http://www.w3.org/2000/svg" xmlns:xlink="http://www.w3.org/1999/xlink">
 <defs>
  <style type="text/css">
*{stroke-linecap:butt;stroke-linejoin:round;}
  </style>
 </defs>
 <g id="figure_1">
  <g id="patch_1">
   <path d="M 0 345.6 
L 460.8 345.6 
L 460.8 0 
L 0 0 
z
" style="fill:#ffffff;"/>
  </g>
  <g id="axes_1">
   <g id="patch_2">
    <path d="M 45.5 310.18 
L 144.24 310.18 
L 144.24 19.44 
L 45.5 19.44 
z
" style="fill:#eaeaf2;"/>
   </g>
   <g id="matplotlib.axis_1">
    <g id="xtick_1">
     <g id="line2d_1">
      <path clip-path="url(#pba3e4f8114)" d="M 49.157037 310.18 
L 49.157037 19.44 
" style="fill:none;stroke:#ffffff;stroke-linecap:round;"/>
     </g>
     <g id="text_1">
      <!-- 0.000175 -->
      <defs>
       <path d="M 31.78125 66.40625 
Q 24.171875 66.40625 20.328125 58.90625 
Q 16.5 51.421875 16.5 36.375 
Q 16.5 21.390625 20.328125 13.890625 
Q 24.171875 6.390625 31.78125 6.390625 
Q 39.453125 6.390625 43.28125 13.890625 
Q 47.125 21.390625 47.125 36.375 
Q 47.125 51.421875 43.28125 58.90625 
Q 39.453125 66.40625 31.78125 66.40625 
z
M 31.78125 74.21875 
Q 44.046875 74.21875 50.515625 64.515625 
Q 56.984375 54.828125 56.984375 36.375 
Q 56.984375 17.96875 50.515625 8.265625 
Q 44.046875 -1.421875 31.78125 -1.421875 
Q 19.53125 -1.421875 13.0625 8.265625 
Q 6.59375 17.96875 6.59375 36.375 
Q 6.59375 54.828125 13.0625 64.515625 
Q 19.53125 74.21875 31.78125 74.21875 
z
" id="DejaVuSans-48"/>
       <path d="M 10.6875 12.40625 
L 21 12.40625 
L 21 0 
L 10.6875 0 
z
" id="DejaVuSans-46"/>
       <path d="M 12.40625 8.296875 
L 28.515625 8.296875 
L 28.515625 63.921875 
L 10.984375 60.40625 
L 10.984375 69.390625 
L 28.421875 72.90625 
L 38.28125 72.90625 
L 38.28125 8.296875 
L 54.390625 8.296875 
L 54.390625 0 
L 12.40625 0 
z
" id="DejaVuSans-49"/>
       <path d="M 8.203125 72.90625 
L 55.078125 72.90625 
L 55.078125 68.703125 
L 28.609375 0 
L 18.3125 0 
L 43.21875 64.59375 
L 8.203125 64.59375 
z
" id="DejaVuSans-55"/>
       <path d="M 10.796875 72.90625 
L 49.515625 72.90625 
L 49.515625 64.59375 
L 19.828125 64.59375 
L 19.828125 46.734375 
Q 21.96875 47.46875 24.109375 47.828125 
Q 26.265625 48.1875 28.421875 48.1875 
Q 40.625 48.1875 47.75 41.5 
Q 54.890625 34.8125 54.890625 23.390625 
Q 54.890625 11.625 47.5625 5.09375 
Q 40.234375 -1.421875 26.90625 -1.421875 
Q 22.3125 -1.421875 17.546875 -0.640625 
Q 12.796875 0.140625 7.71875 1.703125 
L 7.71875 11.625 
Q 12.109375 9.234375 16.796875 8.0625 
Q 21.484375 6.890625 26.703125 6.890625 
Q 35.15625 6.890625 40.078125 11.328125 
Q 45.015625 15.765625 45.015625 23.390625 
Q 45.015625 31 40.078125 35.4375 
Q 35.15625 39.890625 26.703125 39.890625 
Q 22.75 39.890625 18.8125 39.015625 
Q 14.890625 38.140625 10.796875 36.28125 
z
" id="DejaVuSans-53"/>
      </defs>
      <g style="fill:#262626;" transform="translate(22.913443 328.038281)scale(0.11 -0.11)">
       <use xlink:href="#DejaVuSans-48"/>
       <use x="63.623047" xlink:href="#DejaVuSans-46"/>
       <use x="95.410156" xlink:href="#DejaVuSans-48"/>
       <use x="159.033203" xlink:href="#DejaVuSans-48"/>
       <use x="222.65625" xlink:href="#DejaVuSans-48"/>
       <use x="286.279297" xlink:href="#DejaVuSans-49"/>
       <use x="349.902344" xlink:href="#DejaVuSans-55"/>
       <use x="413.525391" xlink:href="#DejaVuSans-53"/>
      </g>
     </g>
    </g>
    <g id="xtick_2">
     <g id="line2d_2">
      <path clip-path="url(#pba3e4f8114)" d="M 83.78807 310.18 
L 83.78807 19.44 
" style="fill:none;stroke:#ffffff;stroke-linecap:round;"/>
     </g>
     <g id="text_2">
      <!-- 0.000200 -->
      <defs>
       <path d="M 19.1875 8.296875 
L 53.609375 8.296875 
L 53.609375 0 
L 7.328125 0 
L 7.328125 8.296875 
Q 12.9375 14.109375 22.625 23.890625 
Q 32.328125 33.6875 34.8125 36.53125 
Q 39.546875 41.84375 41.421875 45.53125 
Q 43.3125 49.21875 43.3125 52.78125 
Q 43.3125 58.59375 39.234375 62.25 
Q 35.15625 65.921875 28.609375 65.921875 
Q 23.96875 65.921875 18.8125 64.3125 
Q 13.671875 62.703125 7.8125 59.421875 
L 7.8125 69.390625 
Q 13.765625 71.78125 18.9375 73 
Q 24.125 74.21875 28.421875 74.21875 
Q 39.75 74.21875 46.484375 68.546875 
Q 53.21875 62.890625 53.21875 53.421875 
Q 53.21875 48.921875 51.53125 44.890625 
Q 49.859375 40.875 45.40625 35.40625 
Q 44.1875 33.984375 37.640625 27.21875 
Q 31.109375 20.453125 19.1875 8.296875 
z
" id="DejaVuSans-50"/>
      </defs>
      <g style="fill:#262626;" transform="translate(57.544476 328.038281)scale(0.11 -0.11)">
       <use xlink:href="#DejaVuSans-48"/>
       <use x="63.623047" xlink:href="#DejaVuSans-46"/>
       <use x="95.410156" xlink:href="#DejaVuSans-48"/>
       <use x="159.033203" xlink:href="#DejaVuSans-48"/>
       <use x="222.65625" xlink:href="#DejaVuSans-48"/>
       <use x="286.279297" xlink:href="#DejaVuSans-50"/>
       <use x="349.902344" xlink:href="#DejaVuSans-48"/>
       <use x="413.525391" xlink:href="#DejaVuSans-48"/>
      </g>
     </g>
    </g>
    <g id="xtick_3">
     <g id="line2d_3">
      <path clip-path="url(#pba3e4f8114)" d="M 118.419102 310.18 
L 118.419102 19.44 
" style="fill:none;stroke:#ffffff;stroke-linecap:round;"/>
     </g>
     <g id="text_3">
      <!-- 0.000225 -->
      <g style="fill:#262626;" transform="translate(92.175508 328.038281)scale(0.11 -0.11)">
       <use xlink:href="#DejaVuSans-48"/>
       <use x="63.623047" xlink:href="#DejaVuSans-46"/>
       <use x="95.410156" xlink:href="#DejaVuSans-48"/>
       <use x="159.033203" xlink:href="#DejaVuSans-48"/>
       <use x="222.65625" xlink:href="#DejaVuSans-48"/>
       <use x="286.279297" xlink:href="#DejaVuSans-50"/>
       <use x="349.902344" xlink:href="#DejaVuSans-50"/>
       <use x="413.525391" xlink:href="#DejaVuSans-53"/>
      </g>
     </g>
    </g>
   </g>
   <g id="matplotlib.axis_2">
    <g id="ytick_1">
     <g id="line2d_4">
      <path clip-path="url(#pba3e4f8114)" d="M 45.5 307.607865 
L 144.24 307.607865 
" style="fill:none;stroke:#ffffff;stroke-linecap:round;"/>
     </g>
     <g id="text_4">
      <!-- 100 -->
      <g style="fill:#262626;" transform="translate(15.00375 311.787005)scale(0.11 -0.11)">
       <use xlink:href="#DejaVuSans-49"/>
       <use x="63.623047" xlink:href="#DejaVuSans-48"/>
       <use x="127.246094" xlink:href="#DejaVuSans-48"/>
      </g>
     </g>
    </g>
    <g id="ytick_2">
     <g id="line2d_5">
      <path clip-path="url(#pba3e4f8114)" d="M 45.5 272.130134 
L 144.24 272.130134 
" style="fill:none;stroke:#ffffff;stroke-linecap:round;"/>
     </g>
     <g id="text_5">
      <!-- 120 -->
      <g style="fill:#262626;" transform="translate(15.00375 276.309275)scale(0.11 -0.11)">
       <use xlink:href="#DejaVuSans-49"/>
       <use x="63.623047" xlink:href="#DejaVuSans-50"/>
       <use x="127.246094" xlink:href="#DejaVuSans-48"/>
      </g>
     </g>
    </g>
    <g id="ytick_3">
     <g id="line2d_6">
      <path clip-path="url(#pba3e4f8114)" d="M 45.5 236.652404 
L 144.24 236.652404 
" style="fill:none;stroke:#ffffff;stroke-linecap:round;"/>
     </g>
     <g id="text_6">
      <!-- 140 -->
      <defs>
       <path d="M 37.796875 64.3125 
L 12.890625 25.390625 
L 37.796875 25.390625 
z
M 35.203125 72.90625 
L 47.609375 72.90625 
L 47.609375 25.390625 
L 58.015625 25.390625 
L 58.015625 17.1875 
L 47.609375 17.1875 
L 47.609375 0 
L 37.796875 0 
L 37.796875 17.1875 
L 4.890625 17.1875 
L 4.890625 26.703125 
z
" id="DejaVuSans-52"/>
      </defs>
      <g style="fill:#262626;" transform="translate(15.00375 240.831545)scale(0.11 -0.11)">
       <use xlink:href="#DejaVuSans-49"/>
       <use x="63.623047" xlink:href="#DejaVuSans-52"/>
       <use x="127.246094" xlink:href="#DejaVuSans-48"/>
      </g>
     </g>
    </g>
    <g id="ytick_4">
     <g id="line2d_7">
      <path clip-path="url(#pba3e4f8114)" d="M 45.5 201.174674 
L 144.24 201.174674 
" style="fill:none;stroke:#ffffff;stroke-linecap:round;"/>
     </g>
     <g id="text_7">
      <!-- 160 -->
      <defs>
       <path d="M 33.015625 40.375 
Q 26.375 40.375 22.484375 35.828125 
Q 18.609375 31.296875 18.609375 23.390625 
Q 18.609375 15.53125 22.484375 10.953125 
Q 26.375 6.390625 33.015625 6.390625 
Q 39.65625 6.390625 43.53125 10.953125 
Q 47.40625 15.53125 47.40625 23.390625 
Q 47.40625 31.296875 43.53125 35.828125 
Q 39.65625 40.375 33.015625 40.375 
z
M 52.59375 71.296875 
L 52.59375 62.3125 
Q 48.875 64.0625 45.09375 64.984375 
Q 41.3125 65.921875 37.59375 65.921875 
Q 27.828125 65.921875 22.671875 59.328125 
Q 17.53125 52.734375 16.796875 39.40625 
Q 19.671875 43.65625 24.015625 45.921875 
Q 28.375 48.1875 33.59375 48.1875 
Q 44.578125 48.1875 50.953125 41.515625 
Q 57.328125 34.859375 57.328125 23.390625 
Q 57.328125 12.15625 50.6875 5.359375 
Q 44.046875 -1.421875 33.015625 -1.421875 
Q 20.359375 -1.421875 13.671875 8.265625 
Q 6.984375 17.96875 6.984375 36.375 
Q 6.984375 53.65625 15.1875 63.9375 
Q 23.390625 74.21875 37.203125 74.21875 
Q 40.921875 74.21875 44.703125 73.484375 
Q 48.484375 72.75 52.59375 71.296875 
z
" id="DejaVuSans-54"/>
      </defs>
      <g style="fill:#262626;" transform="translate(15.00375 205.353814)scale(0.11 -0.11)">
       <use xlink:href="#DejaVuSans-49"/>
       <use x="63.623047" xlink:href="#DejaVuSans-54"/>
       <use x="127.246094" xlink:href="#DejaVuSans-48"/>
      </g>
     </g>
    </g>
    <g id="ytick_5">
     <g id="line2d_8">
      <path clip-path="url(#pba3e4f8114)" d="M 45.5 165.696943 
L 144.24 165.696943 
" style="fill:none;stroke:#ffffff;stroke-linecap:round;"/>
     </g>
     <g id="text_8">
      <!-- 180 -->
      <defs>
       <path d="M 31.78125 34.625 
Q 24.75 34.625 20.71875 30.859375 
Q 16.703125 27.09375 16.703125 20.515625 
Q 16.703125 13.921875 20.71875 10.15625 
Q 24.75 6.390625 31.78125 6.390625 
Q 38.8125 6.390625 42.859375 10.171875 
Q 46.921875 13.96875 46.921875 20.515625 
Q 46.921875 27.09375 42.890625 30.859375 
Q 38.875 34.625 31.78125 34.625 
z
M 21.921875 38.8125 
Q 15.578125 40.375 12.03125 44.71875 
Q 8.5 49.078125 8.5 55.328125 
Q 8.5 64.0625 14.71875 69.140625 
Q 20.953125 74.21875 31.78125 74.21875 
Q 42.671875 74.21875 48.875 69.140625 
Q 55.078125 64.0625 55.078125 55.328125 
Q 55.078125 49.078125 51.53125 44.71875 
Q 48 40.375 41.703125 38.8125 
Q 48.828125 37.15625 52.796875 32.3125 
Q 56.78125 27.484375 56.78125 20.515625 
Q 56.78125 9.90625 50.3125 4.234375 
Q 43.84375 -1.421875 31.78125 -1.421875 
Q 19.734375 -1.421875 13.25 4.234375 
Q 6.78125 9.90625 6.78125 20.515625 
Q 6.78125 27.484375 10.78125 32.3125 
Q 14.796875 37.15625 21.921875 38.8125 
z
M 18.3125 54.390625 
Q 18.3125 48.734375 21.84375 45.5625 
Q 25.390625 42.390625 31.78125 42.390625 
Q 38.140625 42.390625 41.71875 45.5625 
Q 45.3125 48.734375 45.3125 54.390625 
Q 45.3125 60.0625 41.71875 63.234375 
Q 38.140625 66.40625 31.78125 66.40625 
Q 25.390625 66.40625 21.84375 63.234375 
Q 18.3125 60.0625 18.3125 54.390625 
z
" id="DejaVuSans-56"/>
      </defs>
      <g style="fill:#262626;" transform="translate(15.00375 169.876084)scale(0.11 -0.11)">
       <use xlink:href="#DejaVuSans-49"/>
       <use x="63.623047" xlink:href="#DejaVuSans-56"/>
       <use x="127.246094" xlink:href="#DejaVuSans-48"/>
      </g>
     </g>
    </g>
    <g id="ytick_6">
     <g id="line2d_9">
      <path clip-path="url(#pba3e4f8114)" d="M 45.5 130.219213 
L 144.24 130.219213 
" style="fill:none;stroke:#ffffff;stroke-linecap:round;"/>
     </g>
     <g id="text_9">
      <!-- 200 -->
      <g style="fill:#262626;" transform="translate(15.00375 134.398354)scale(0.11 -0.11)">
       <use xlink:href="#DejaVuSans-50"/>
       <use x="63.623047" xlink:href="#DejaVuSans-48"/>
       <use x="127.246094" xlink:href="#DejaVuSans-48"/>
      </g>
     </g>
    </g>
    <g id="ytick_7">
     <g id="line2d_10">
      <path clip-path="url(#pba3e4f8114)" d="M 45.5 94.741483 
L 144.24 94.741483 
" style="fill:none;stroke:#ffffff;stroke-linecap:round;"/>
     </g>
     <g id="text_10">
      <!-- 220 -->
      <g style="fill:#262626;" transform="translate(15.00375 98.920623)scale(0.11 -0.11)">
       <use xlink:href="#DejaVuSans-50"/>
       <use x="63.623047" xlink:href="#DejaVuSans-50"/>
       <use x="127.246094" xlink:href="#DejaVuSans-48"/>
      </g>
     </g>
    </g>
    <g id="ytick_8">
     <g id="line2d_11">
      <path clip-path="url(#pba3e4f8114)" d="M 45.5 59.263752 
L 144.24 59.263752 
" style="fill:none;stroke:#ffffff;stroke-linecap:round;"/>
     </g>
     <g id="text_11">
      <!-- 240 -->
      <g style="fill:#262626;" transform="translate(15.00375 63.442893)scale(0.11 -0.11)">
       <use xlink:href="#DejaVuSans-50"/>
       <use x="63.623047" xlink:href="#DejaVuSans-52"/>
       <use x="127.246094" xlink:href="#DejaVuSans-48"/>
      </g>
     </g>
    </g>
    <g id="ytick_9">
     <g id="line2d_12">
      <path clip-path="url(#pba3e4f8114)" d="M 45.5 23.786022 
L 144.24 23.786022 
" style="fill:none;stroke:#ffffff;stroke-linecap:round;"/>
     </g>
     <g id="text_12">
      <!-- 260 -->
      <g style="fill:#262626;" transform="translate(15.00375 27.965163)scale(0.11 -0.11)">
       <use xlink:href="#DejaVuSans-50"/>
       <use x="63.623047" xlink:href="#DejaVuSans-54"/>
       <use x="127.246094" xlink:href="#DejaVuSans-48"/>
      </g>
     </g>
    </g>
   </g>
   <g id="line2d_13">
    <path clip-path="url(#pba3e4f8114)" d="M 49.988182 32.655455 
L 50.403754 121.34978 
L 50.542278 89.419823 
L 50.680802 96.515369 
L 50.819327 87.645937 
L 50.957851 155.053624 
L 51.234899 135.540872 
L 51.373423 137.314759 
L 51.511947 114.254234 
L 51.650471 167.47083 
L 51.788996 171.018603 
L 51.92752 116.028121 
L 52.066044 130.219213 
L 52.343092 162.14917 
L 52.481616 186.983581 
L 52.62014 185.209695 
L 52.758664 210.044106 
L 52.897189 146.184192 
L 53.035713 211.817993 
L 53.174237 208.27022 
L 53.312761 218.913539 
L 53.589809 165.696943 
L 53.728333 210.044106 
L 53.866857 206.496333 
L 54.005382 172.792489 
L 54.143906 215.365766 
L 54.28243 222.461312 
L 54.420954 236.652404 
L 54.559478 174.566376 
L 54.836526 220.687425 
L 54.975051 206.496333 
L 55.113575 220.687425 
L 55.252099 222.461312 
L 55.390623 250.843496 
L 55.529147 194.079128 
L 55.667671 238.42629 
L 55.806195 160.375284 
L 55.944719 261.486815 
L 56.221768 204.722447 
L 56.360292 272.130134 
L 56.498816 202.94856 
L 56.63734 201.174674 
L 56.775864 250.843496 
L 56.914388 210.044106 
L 57.052912 256.165156 
L 57.191437 224.235198 
L 57.329961 229.556858 
L 57.468485 210.044106 
L 57.884057 270.356248 
L 58.161105 226.009085 
L 58.29963 213.591879 
L 58.576678 243.74795 
L 58.715202 241.974063 
L 58.853726 245.521836 
L 58.99225 181.661922 
L 59.269299 222.461312 
L 59.546347 249.06961 
L 59.684871 238.42629 
L 59.823395 243.74795 
L 59.961919 227.782971 
L 60.100443 227.782971 
L 60.238967 233.104631 
L 60.516016 259.712929 
L 60.65454 226.009085 
L 60.931588 266.808475 
L 61.070112 231.330744 
L 61.208636 256.165156 
L 61.34716 220.687425 
L 61.485685 224.235198 
L 61.624209 261.486815 
L 61.762733 247.295723 
L 61.901257 282.773453 
L 62.039781 206.496333 
L 62.178305 247.295723 
L 62.316829 234.878517 
L 62.593878 234.878517 
L 62.732402 229.556858 
L 62.870926 249.06961 
L 63.00945 240.200177 
L 63.147974 279.22568 
L 63.286498 241.974063 
L 63.425022 241.974063 
L 63.563547 224.235198 
L 63.840595 259.712929 
L 64.117643 220.687425 
L 64.256167 229.556858 
L 64.394691 256.165156 
L 64.533215 252.617383 
L 64.67174 245.521836 
L 64.810264 224.235198 
L 64.948788 183.435808 
L 65.36436 272.130134 
L 65.502884 236.652404 
L 65.641409 261.486815 
L 65.918457 181.661922 
L 66.056981 286.321226 
L 66.195505 277.451794 
L 66.334029 197.626901 
L 66.472553 233.104631 
L 66.611077 234.878517 
L 66.888126 288.095113 
L 67.02665 286.321226 
L 67.165174 227.782971 
L 67.303698 243.74795 
L 67.442222 241.974063 
L 67.580746 226.009085 
L 67.71927 286.321226 
L 67.857795 220.687425 
L 67.996319 259.712929 
L 68.134843 252.617383 
L 68.273367 268.582361 
L 68.411891 218.913539 
L 68.688939 270.356248 
L 68.827464 215.365766 
L 69.104512 293.416772 
L 69.38156 199.400787 
L 69.520084 256.165156 
L 69.658608 241.974063 
L 69.797132 263.260702 
L 69.935657 249.06961 
L 70.074181 277.451794 
L 70.212705 211.817993 
L 70.351229 254.391269 
L 70.766801 218.913539 
L 70.905325 241.974063 
L 71.04385 211.817993 
L 71.182374 249.06961 
L 71.459422 241.974063 
L 71.597946 215.365766 
L 71.874994 241.974063 
L 72.013519 238.42629 
L 72.152043 231.330744 
L 72.290567 252.617383 
L 72.429091 204.722447 
L 72.567615 277.451794 
L 72.706139 218.913539 
L 72.983187 261.486815 
L 73.121712 259.712929 
L 73.39876 273.904021 
L 73.537284 217.139652 
L 73.675808 265.034588 
L 73.814332 256.165156 
L 73.952856 236.652404 
L 74.09138 266.808475 
L 74.368429 213.591879 
L 74.506953 286.321226 
L 74.645477 240.200177 
L 74.784001 296.964545 
L 74.922525 241.974063 
L 75.061049 282.773453 
L 75.199574 250.843496 
L 75.338098 268.582361 
L 75.615146 234.878517 
L 75.75367 259.712929 
L 75.892194 247.295723 
L 76.030718 245.521836 
L 76.169242 238.42629 
L 76.307767 215.365766 
L 76.446291 234.878517 
L 76.584815 236.652404 
L 76.723339 220.687425 
L 76.861863 222.461312 
L 77.000387 231.330744 
L 77.138911 261.486815 
L 77.277435 217.139652 
L 77.41596 245.521836 
L 77.554484 234.878517 
L 77.693008 233.104631 
L 77.831532 217.139652 
L 78.10858 256.165156 
L 78.247104 249.06961 
L 78.385629 277.451794 
L 78.524153 220.687425 
L 78.662677 245.521836 
L 78.801201 222.461312 
L 79.216773 266.808475 
L 79.355297 190.531354 
L 79.493822 243.74795 
L 79.632346 215.365766 
L 79.77087 224.235198 
L 80.047918 288.095113 
L 80.324966 224.235198 
L 80.46349 256.165156 
L 80.602015 233.104631 
L 80.740539 233.104631 
L 80.879063 229.556858 
L 81.017587 238.42629 
L 81.156111 256.165156 
L 81.294635 250.843496 
L 81.571684 234.878517 
L 81.710208 266.808475 
L 81.848732 270.356248 
L 81.987256 238.42629 
L 82.12578 243.74795 
L 82.264304 254.391269 
L 82.402828 252.617383 
L 82.541352 272.130134 
L 82.679877 211.817993 
L 82.818401 240.200177 
L 82.956925 224.235198 
L 83.095449 257.939042 
L 83.233973 249.06961 
L 83.511021 195.853014 
L 83.78807 266.808475 
L 84.065118 243.74795 
L 84.203642 243.74795 
L 84.342166 259.712929 
L 84.619214 194.079128 
L 84.757738 266.808475 
L 84.896263 256.165156 
L 85.311835 197.626901 
L 85.450359 245.521836 
L 85.588883 254.391269 
L 85.727407 204.722447 
L 85.865932 217.139652 
L 86.004456 245.521836 
L 86.14298 249.06961 
L 86.420028 202.94856 
L 86.558552 240.200177 
L 86.697076 240.200177 
L 86.8356 263.260702 
L 86.974125 227.782971 
L 87.112649 266.808475 
L 87.251173 236.652404 
L 87.389697 254.391269 
L 87.666745 222.461312 
L 87.805269 266.808475 
L 87.943793 204.722447 
L 88.082318 210.044106 
L 88.220842 277.451794 
L 88.359366 247.295723 
L 88.49789 257.939042 
L 88.636414 224.235198 
L 88.913462 220.687425 
L 89.051987 249.06961 
L 89.190511 215.365766 
L 89.467559 247.295723 
L 89.606083 243.74795 
L 89.744607 229.556858 
L 89.883131 238.42629 
L 90.021655 268.582361 
L 90.16018 259.712929 
L 90.298704 240.200177 
L 90.437228 240.200177 
L 90.575752 197.626901 
L 90.714276 234.878517 
L 90.8528 238.42629 
L 90.991324 227.782971 
L 91.129848 272.130134 
L 91.268373 270.356248 
L 91.406897 257.939042 
L 91.545421 261.486815 
L 91.822469 204.722447 
L 91.960993 273.904021 
L 92.099517 257.939042 
L 92.238042 220.687425 
L 92.376566 256.165156 
L 92.51509 247.295723 
L 92.792138 202.94856 
L 92.930662 272.130134 
L 93.069186 194.079128 
L 93.20771 208.27022 
L 93.346235 272.130134 
L 93.484759 224.235198 
L 93.623283 218.913539 
L 93.761807 265.034588 
L 93.900331 227.782971 
L 94.177379 245.521836 
L 94.315903 231.330744 
L 94.592952 254.391269 
L 94.731476 210.044106 
L 94.87 247.295723 
L 95.008524 208.27022 
L 95.147048 261.486815 
L 95.285572 243.74795 
L 95.424097 243.74795 
L 95.562621 247.295723 
L 95.701145 265.034588 
L 95.839669 231.330744 
L 95.978193 250.843496 
L 96.116717 252.617383 
L 96.255241 282.773453 
L 96.393765 234.878517 
L 96.53229 270.356248 
L 96.670814 245.521836 
L 96.809338 268.582361 
L 97.363434 222.461312 
L 97.640483 272.130134 
L 97.779007 275.677907 
L 97.917531 224.235198 
L 98.056055 252.617383 
L 98.194579 247.295723 
L 98.333103 229.556858 
L 98.610152 259.712929 
L 98.748676 234.878517 
L 98.8872 250.843496 
L 99.025724 284.54734 
L 99.164248 229.556858 
L 99.302772 250.843496 
L 99.441296 245.521836 
L 99.57982 265.034588 
L 99.718345 226.009085 
L 99.995393 229.556858 
L 100.272441 259.712929 
L 100.549489 224.235198 
L 100.688013 261.486815 
L 100.826538 241.974063 
L 100.965062 238.42629 
L 101.103586 270.356248 
L 101.380634 217.139652 
L 101.657682 250.843496 
L 101.796207 289.868999 
L 101.934731 236.652404 
L 102.073255 263.260702 
L 102.350303 254.391269 
L 102.488827 289.868999 
L 102.627351 185.209695 
L 102.765875 250.843496 
L 102.9044 236.652404 
L 103.042924 252.617383 
L 103.181448 241.974063 
L 103.319972 252.617383 
L 103.458496 272.130134 
L 103.59702 272.130134 
L 104.012593 210.044106 
L 104.289641 252.617383 
L 104.428165 231.330744 
L 104.705213 259.712929 
L 104.843737 241.974063 
L 105.120786 256.165156 
L 105.25931 241.974063 
L 105.397834 279.22568 
L 105.674882 206.496333 
L 105.95193 263.260702 
L 106.228979 236.652404 
L 106.367503 241.974063 
L 106.506027 217.139652 
L 106.644551 231.330744 
L 106.783075 215.365766 
L 106.921599 249.06961 
L 107.060123 243.74795 
L 107.198648 243.74795 
L 107.337172 249.06961 
L 107.61422 226.009085 
L 107.752744 233.104631 
L 107.891268 224.235198 
L 108.029792 263.260702 
L 108.168316 241.974063 
L 108.306841 250.843496 
L 108.583889 227.782971 
L 108.722413 226.009085 
L 108.999461 282.773453 
L 109.137985 250.843496 
L 109.27651 270.356248 
L 109.415034 224.235198 
L 109.553558 284.54734 
L 109.830606 210.044106 
L 109.96913 224.235198 
L 110.107654 284.54734 
L 110.384703 243.74795 
L 110.523227 265.034588 
L 110.800275 227.782971 
L 110.938799 224.235198 
L 111.354371 277.451794 
L 111.63142 240.200177 
L 111.769944 257.939042 
L 111.908468 226.009085 
L 112.185516 254.391269 
L 112.32404 266.808475 
L 112.462565 211.817993 
L 112.601089 243.74795 
L 112.739613 241.974063 
L 112.878137 227.782971 
L 113.016661 226.009085 
L 113.155185 218.913539 
L 113.293709 231.330744 
L 113.432233 272.130134 
L 113.709282 252.617383 
L 113.847806 245.521836 
L 113.98633 259.712929 
L 114.124854 247.295723 
L 114.263378 286.321226 
L 114.401902 245.521836 
L 114.540426 238.42629 
L 114.678951 270.356248 
L 114.955999 227.782971 
L 115.094523 229.556858 
L 115.233047 222.461312 
L 115.371571 233.104631 
L 115.510095 257.939042 
L 115.787144 233.104631 
L 115.925668 247.295723 
L 116.064192 226.009085 
L 116.202716 252.617383 
L 116.34124 243.74795 
L 116.479764 211.817993 
L 116.618288 215.365766 
L 116.756813 263.260702 
L 116.895337 222.461312 
L 117.033861 275.677907 
L 117.449433 215.365766 
L 117.726481 263.260702 
L 117.865006 238.42629 
L 118.00353 261.486815 
L 118.142054 247.295723 
L 118.280578 215.365766 
L 118.419102 224.235198 
L 118.557626 266.808475 
L 118.69615 257.939042 
L 118.973199 275.677907 
L 119.111723 259.712929 
L 119.250247 279.22568 
L 119.527295 250.843496 
L 119.665819 229.556858 
L 119.804343 245.521836 
L 119.942868 288.095113 
L 120.081392 213.591879 
L 120.35844 256.165156 
L 120.496964 231.330744 
L 120.635488 229.556858 
L 120.774012 233.104631 
L 120.912536 231.330744 
L 121.051061 236.652404 
L 121.189585 259.712929 
L 121.328109 234.878517 
L 121.605157 259.712929 
L 121.743681 252.617383 
L 121.882205 233.104631 
L 122.02073 257.939042 
L 122.159254 243.74795 
L 122.297778 272.130134 
L 122.436302 256.165156 
L 122.574826 282.773453 
L 122.71335 277.451794 
L 122.851874 226.009085 
L 123.128923 243.74795 
L 123.267447 268.582361 
L 123.405971 211.817993 
L 123.544495 266.808475 
L 123.683019 229.556858 
L 123.960067 245.521836 
L 124.098591 220.687425 
L 124.37564 265.034588 
L 124.514164 231.330744 
L 124.652688 233.104631 
L 124.791212 243.74795 
L 124.929736 220.687425 
L 125.06826 224.235198 
L 125.206785 252.617383 
L 125.345309 247.295723 
L 125.483833 220.687425 
L 125.622357 243.74795 
L 125.899405 249.06961 
L 126.037929 238.42629 
L 126.176453 254.391269 
L 126.314978 249.06961 
L 126.453502 257.939042 
L 126.592026 277.451794 
L 126.73055 238.42629 
L 126.869074 265.034588 
L 127.146122 213.591879 
L 127.423171 245.521836 
L 127.561695 241.974063 
L 127.700219 288.095113 
L 127.838743 252.617383 
L 127.977267 252.617383 
L 128.115791 215.365766 
L 128.254315 233.104631 
L 128.39284 234.878517 
L 128.531364 249.06961 
L 128.669888 241.974063 
L 128.808412 250.843496 
L 128.946936 270.356248 
L 129.08546 266.808475 
L 129.362508 238.42629 
L 129.501033 259.712929 
L 129.639557 257.939042 
L 129.778081 213.591879 
L 129.916605 272.130134 
L 130.193653 202.94856 
L 130.332177 240.200177 
L 130.609226 229.556858 
L 130.74775 227.782971 
L 130.886274 231.330744 
L 131.163322 252.617383 
L 131.301846 286.321226 
L 131.44037 217.139652 
L 131.578895 263.260702 
L 131.855943 210.044106 
L 131.994467 263.260702 
L 132.132991 272.130134 
L 132.271515 265.034588 
L 132.548563 233.104631 
L 132.687088 266.808475 
L 133.241184 208.27022 
L 133.518232 254.391269 
L 133.656756 245.521836 
L 133.795281 270.356248 
L 133.933805 210.044106 
L 134.072329 256.165156 
L 134.210853 210.044106 
L 134.626425 272.130134 
L 134.764949 226.009085 
L 134.903474 261.486815 
L 135.180522 233.104631 
L 135.319046 224.235198 
L 135.45757 275.677907 
L 135.596094 234.878517 
L 135.734618 252.617383 
L 135.873143 211.817993 
L 136.011667 234.878517 
L 136.150191 217.139652 
L 136.427239 243.74795 
L 136.565763 229.556858 
L 136.704287 241.974063 
L 136.842811 273.904021 
L 137.11986 217.139652 
L 137.396908 265.034588 
L 137.535432 275.677907 
L 137.673956 240.200177 
L 137.81248 240.200177 
L 137.951004 233.104631 
L 138.089529 245.521836 
L 138.228053 273.904021 
L 138.366577 226.009085 
L 138.643625 279.22568 
L 138.782149 210.044106 
L 138.920673 226.009085 
L 139.197722 277.451794 
L 139.336246 208.27022 
L 139.47477 202.94856 
L 139.613294 254.391269 
L 139.751818 252.617383 
L 139.751818 252.617383 
" style="fill:none;stroke:#4c72b0;stroke-linecap:round;stroke-width:1.5;"/>
   </g>
   <g id="line2d_14">
    <path clip-path="url(#pba3e4f8114)" d="M 49.988182 32.655455 
L 50.403754 107.991522 
L 50.542278 86.676559 
L 50.680802 91.775567 
L 50.819327 88.976057 
L 50.957851 119.508451 
L 51.234899 112.751556 
L 51.373423 114.727645 
L 51.511947 110.70233 
L 51.650471 125.465541 
L 51.788996 127.848254 
L 51.92752 120.210186 
L 52.758664 149.705587 
L 52.897189 148.007598 
L 53.174237 158.851216 
L 53.866857 175.618075 
L 54.005382 177.953532 
L 54.420954 188.615188 
L 54.698002 193.559919 
L 55.390623 206.375479 
L 57.052912 225.812918 
L 57.884057 231.485632 
L 58.715202 235.238272 
L 59.407823 237.326218 
L 60.100443 238.732871 
L 60.793064 239.678479 
L 61.624209 240.445372 
L 63.425022 241.673202 
L 65.641409 242.980497 
L 67.442222 243.756199 
L 71.182374 245.084264 
L 72.152043 245.164211 
L 73.121712 245.03217 
L 74.506953 244.581691 
L 75.892194 243.898627 
L 77.277435 242.945132 
L 80.46349 240.652105 
L 84.48069 238.264033 
L 85.727407 237.762603 
L 86.697076 237.618862 
L 87.528221 237.713041 
L 88.49789 238.043137 
L 89.883131 238.765006 
L 91.268373 239.712269 
L 92.51509 240.849788 
L 97.640483 245.994075 
L 98.610152 246.51149 
L 99.441296 246.678828 
L 100.272441 246.580633 
L 101.24211 246.203426 
L 102.765875 245.316601 
L 104.289641 244.481673 
L 105.397834 244.137024 
L 106.367503 244.070657 
L 107.475696 244.234603 
L 109.27651 244.796886 
L 111.077323 245.317084 
L 112.046992 245.367407 
L 113.432233 245.171623 
L 114.678951 245.062726 
L 115.64862 245.188535 
L 117.033861 245.632963 
L 120.496964 246.839949 
L 121.328109 246.810391 
L 122.297778 246.553237 
L 123.960067 245.825699 
L 127.700219 244.17049 
L 131.301846 243.238004 
L 132.687088 242.985547 
L 133.656756 243.023957 
L 134.764949 243.325744 
L 136.011667 243.908057 
L 137.11986 244.662525 
L 139.751818 246.542617 
L 139.751818 246.542617 
" style="fill:none;stroke:#dd8452;stroke-linecap:round;stroke-width:1.5;"/>
   </g>
   <g id="patch_3">
    <path d="M 45.5 310.18 
L 45.5 19.44 
" style="fill:none;stroke:#ffffff;stroke-linecap:square;stroke-linejoin:miter;stroke-width:1.25;"/>
   </g>
   <g id="patch_4">
    <path d="M 144.24 310.18 
L 144.24 19.44 
" style="fill:none;stroke:#ffffff;stroke-linecap:square;stroke-linejoin:miter;stroke-width:1.25;"/>
   </g>
   <g id="patch_5">
    <path d="M 45.5 310.18 
L 144.24 310.18 
" style="fill:none;stroke:#ffffff;stroke-linecap:square;stroke-linejoin:miter;stroke-width:1.25;"/>
   </g>
   <g id="patch_6">
    <path d="M 45.5 19.44 
L 144.24 19.44 
" style="fill:none;stroke:#ffffff;stroke-linecap:square;stroke-linejoin:miter;stroke-width:1.25;"/>
   </g>
  </g>
  <g id="axes_2">
   <g id="patch_7">
    <path d="M 194.06 310.18 
L 292.8 310.18 
L 292.8 19.44 
L 194.06 19.44 
z
" style="fill:#eaeaf2;"/>
   </g>
   <g id="matplotlib.axis_3">
    <g id="xtick_4">
     <g id="line2d_15">
      <path clip-path="url(#pdf88767050)" d="M 199.372963 310.18 
L 199.372963 19.44 
" style="fill:none;stroke:#ffffff;stroke-linecap:round;"/>
     </g>
     <g id="text_13">
      <!-- 0.00035 -->
      <defs>
       <path d="M 40.578125 39.3125 
Q 47.65625 37.796875 51.625 33 
Q 55.609375 28.21875 55.609375 21.1875 
Q 55.609375 10.40625 48.1875 4.484375 
Q 40.765625 -1.421875 27.09375 -1.421875 
Q 22.515625 -1.421875 17.65625 -0.515625 
Q 12.796875 0.390625 7.625 2.203125 
L 7.625 11.71875 
Q 11.71875 9.328125 16.59375 8.109375 
Q 21.484375 6.890625 26.8125 6.890625 
Q 36.078125 6.890625 40.9375 10.546875 
Q 45.796875 14.203125 45.796875 21.1875 
Q 45.796875 27.640625 41.28125 31.265625 
Q 36.765625 34.90625 28.71875 34.90625 
L 20.21875 34.90625 
L 20.21875 43.015625 
L 29.109375 43.015625 
Q 36.375 43.015625 40.234375 45.921875 
Q 44.09375 48.828125 44.09375 54.296875 
Q 44.09375 59.90625 40.109375 62.90625 
Q 36.140625 65.921875 28.71875 65.921875 
Q 24.65625 65.921875 20.015625 65.03125 
Q 15.375 64.15625 9.8125 62.3125 
L 9.8125 71.09375 
Q 15.4375 72.65625 20.34375 73.4375 
Q 25.25 74.21875 29.59375 74.21875 
Q 40.828125 74.21875 47.359375 69.109375 
Q 53.90625 64.015625 53.90625 55.328125 
Q 53.90625 49.265625 50.4375 45.09375 
Q 46.96875 40.921875 40.578125 39.3125 
z
" id="DejaVuSans-51"/>
      </defs>
      <g style="fill:#262626;" transform="translate(176.628744 328.038281)scale(0.11 -0.11)">
       <use xlink:href="#DejaVuSans-48"/>
       <use x="63.623047" xlink:href="#DejaVuSans-46"/>
       <use x="95.410156" xlink:href="#DejaVuSans-48"/>
       <use x="159.033203" xlink:href="#DejaVuSans-48"/>
       <use x="222.65625" xlink:href="#DejaVuSans-48"/>
       <use x="286.279297" xlink:href="#DejaVuSans-51"/>
       <use x="349.902344" xlink:href="#DejaVuSans-53"/>
      </g>
     </g>
    </g>
    <g id="xtick_5">
     <g id="line2d_16">
      <path clip-path="url(#pdf88767050)" d="M 268.10469 310.18 
L 268.10469 19.44 
" style="fill:none;stroke:#ffffff;stroke-linecap:round;"/>
     </g>
     <g id="text_14">
      <!-- 0.00040 -->
      <g style="fill:#262626;" transform="translate(245.360471 328.038281)scale(0.11 -0.11)">
       <use xlink:href="#DejaVuSans-48"/>
       <use x="63.623047" xlink:href="#DejaVuSans-46"/>
       <use x="95.410156" xlink:href="#DejaVuSans-48"/>
       <use x="159.033203" xlink:href="#DejaVuSans-48"/>
       <use x="222.65625" xlink:href="#DejaVuSans-48"/>
       <use x="286.279297" xlink:href="#DejaVuSans-52"/>
       <use x="349.902344" xlink:href="#DejaVuSans-48"/>
      </g>
     </g>
    </g>
   </g>
   <g id="matplotlib.axis_4">
    <g id="ytick_10">
     <g id="line2d_17">
      <path clip-path="url(#pdf88767050)" d="M 194.06 266.148239 
L 292.8 266.148239 
" style="fill:none;stroke:#ffffff;stroke-linecap:round;"/>
     </g>
     <g id="text_15">
      <!-- 150 -->
      <g style="fill:#262626;" transform="translate(163.56375 270.32738)scale(0.11 -0.11)">
       <use xlink:href="#DejaVuSans-49"/>
       <use x="63.623047" xlink:href="#DejaVuSans-53"/>
       <use x="127.246094" xlink:href="#DejaVuSans-48"/>
      </g>
     </g>
    </g>
    <g id="ytick_11">
     <g id="line2d_18">
      <path clip-path="url(#pdf88767050)" d="M 194.06 206.886111 
L 292.8 206.886111 
" style="fill:none;stroke:#ffffff;stroke-linecap:round;"/>
     </g>
     <g id="text_16">
      <!-- 200 -->
      <g style="fill:#262626;" transform="translate(163.56375 211.065252)scale(0.11 -0.11)">
       <use xlink:href="#DejaVuSans-50"/>
       <use x="63.623047" xlink:href="#DejaVuSans-48"/>
       <use x="127.246094" xlink:href="#DejaVuSans-48"/>
      </g>
     </g>
    </g>
    <g id="ytick_12">
     <g id="line2d_19">
      <path clip-path="url(#pdf88767050)" d="M 194.06 147.623983 
L 292.8 147.623983 
" style="fill:none;stroke:#ffffff;stroke-linecap:round;"/>
     </g>
     <g id="text_17">
      <!-- 250 -->
      <g style="fill:#262626;" transform="translate(163.56375 151.803124)scale(0.11 -0.11)">
       <use xlink:href="#DejaVuSans-50"/>
       <use x="63.623047" xlink:href="#DejaVuSans-53"/>
       <use x="127.246094" xlink:href="#DejaVuSans-48"/>
      </g>
     </g>
    </g>
    <g id="ytick_13">
     <g id="line2d_20">
      <path clip-path="url(#pdf88767050)" d="M 194.06 88.361855 
L 292.8 88.361855 
" style="fill:none;stroke:#ffffff;stroke-linecap:round;"/>
     </g>
     <g id="text_18">
      <!-- 300 -->
      <g style="fill:#262626;" transform="translate(163.56375 92.540995)scale(0.11 -0.11)">
       <use xlink:href="#DejaVuSans-51"/>
       <use x="63.623047" xlink:href="#DejaVuSans-48"/>
       <use x="127.246094" xlink:href="#DejaVuSans-48"/>
      </g>
     </g>
    </g>
    <g id="ytick_14">
     <g id="line2d_21">
      <path clip-path="url(#pdf88767050)" d="M 194.06 29.099727 
L 292.8 29.099727 
" style="fill:none;stroke:#ffffff;stroke-linecap:round;"/>
     </g>
     <g id="text_19">
      <!-- 350 -->
      <g style="fill:#262626;" transform="translate(163.56375 33.278867)scale(0.11 -0.11)">
       <use xlink:href="#DejaVuSans-51"/>
       <use x="63.623047" xlink:href="#DejaVuSans-53"/>
       <use x="127.246094" xlink:href="#DejaVuSans-48"/>
      </g>
     </g>
    </g>
   </g>
   <g id="line2d_22">
    <path clip-path="url(#pdf88767050)" d="M 198.548182 32.655455 
L 198.823109 87.176612 
L 198.960572 58.730791 
L 199.098036 65.842246 
L 199.372963 116.807676 
L 199.510426 96.658553 
L 199.647889 121.548647 
L 199.785353 115.622434 
L 199.922816 100.21428 
L 200.06028 103.770008 
L 200.335207 154.735438 
L 200.47267 152.364953 
L 200.747597 173.699319 
L 200.885061 167.773106 
L 201.022524 196.218928 
L 201.159987 192.6632 
L 201.297451 147.623983 
L 201.572378 216.368051 
L 201.709841 210.441839 
L 201.847305 186.736987 
L 201.984768 234.14669 
L 202.122232 203.330383 
L 202.259695 231.776205 
L 202.534622 212.812324 
L 202.672085 228.220477 
L 202.809549 208.071353 
L 202.947012 212.812324 
L 203.084476 238.88766 
L 203.221939 235.331932 
L 203.359403 255.481056 
L 203.496866 199.774656 
L 203.63433 257.851541 
L 203.909257 235.331932 
L 204.04672 254.295813 
L 204.184183 241.258145 
L 204.321647 256.666298 
L 204.45911 222.294264 
L 204.596574 237.702417 
L 204.734037 238.88766 
L 204.871501 221.109022 
L 205.008964 254.295813 
L 205.283891 230.590962 
L 205.421355 256.666298 
L 205.558818 236.517175 
L 205.696281 250.740086 
L 205.833745 285.11212 
L 205.971208 245.999115 
L 206.108672 241.258145 
L 206.246135 249.554843 
L 206.383599 270.889209 
L 206.521062 237.702417 
L 206.658526 244.813873 
L 206.795989 262.592511 
L 206.933453 264.962996 
L 207.070916 243.62863 
L 207.20838 243.62863 
L 207.345843 235.331932 
L 207.62077 272.074452 
L 208.03316 229.40572 
L 208.170624 253.110571 
L 208.308087 229.40572 
L 208.445551 274.444937 
L 208.583014 250.740086 
L 208.720478 250.740086 
L 208.995404 285.11212 
L 209.132868 250.740086 
L 209.270331 256.666298 
L 209.545258 243.62863 
L 209.682722 248.3696 
L 209.820185 232.961447 
L 210.095112 259.036784 
L 210.232576 261.407269 
L 210.370039 274.444937 
L 210.507502 260.222026 
L 210.644966 278.000664 
L 210.782429 255.481056 
L 210.919893 262.592511 
L 211.057356 227.035234 
L 211.19482 231.776205 
L 211.332283 244.813873 
L 211.469747 244.813873 
L 211.60721 270.889209 
L 211.744674 255.481056 
L 211.882137 268.518724 
L 212.0196 259.036784 
L 212.157064 275.630179 
L 212.431991 255.481056 
L 212.569454 251.925328 
L 212.706918 243.62863 
L 212.844381 276.815422 
L 213.256772 242.443388 
L 213.394235 270.889209 
L 213.531698 225.849992 
L 213.669162 254.295813 
L 213.806625 242.443388 
L 213.944089 275.630179 
L 214.081552 243.62863 
L 214.219016 269.703967 
L 214.356479 243.62863 
L 214.493943 250.740086 
L 214.631406 250.740086 
L 214.76887 283.926877 
L 215.043796 255.481056 
L 215.18126 242.443388 
L 215.318723 242.443388 
L 215.456187 225.849992 
L 215.59365 283.926877 
L 215.731114 245.999115 
L 215.868577 279.185907 
L 216.006041 263.777754 
L 216.143504 276.815422 
L 216.418431 244.813873 
L 216.555894 262.592511 
L 216.693358 249.554843 
L 216.830821 251.925328 
L 216.968285 263.777754 
L 217.105748 237.702417 
L 217.243212 269.703967 
L 217.518139 234.14669 
L 217.793066 260.222026 
L 217.930529 264.962996 
L 218.067992 254.295813 
L 218.342919 282.741635 
L 218.617846 232.961447 
L 218.75531 283.926877 
L 219.030237 238.88766 
L 219.1677 262.592511 
L 219.305164 266.148239 
L 219.442627 260.222026 
L 219.58009 219.923779 
L 219.992481 275.630179 
L 220.129944 231.776205 
L 220.404871 268.518724 
L 220.542335 263.777754 
L 220.817262 235.331932 
L 221.092189 259.036784 
L 221.229652 243.62863 
L 221.367115 241.258145 
L 221.504579 247.184358 
L 221.642042 240.072903 
L 221.916969 261.407269 
L 222.054433 255.481056 
L 222.191896 259.036784 
L 222.32936 247.184358 
L 222.466823 283.926877 
L 222.604287 248.3696 
L 222.879213 257.851541 
L 223.016677 228.220477 
L 223.291604 260.222026 
L 223.429067 236.517175 
L 223.566531 255.481056 
L 223.703994 296.964545 
L 223.841458 260.222026 
L 224.116385 260.222026 
L 224.253848 223.479507 
L 224.391311 245.999115 
L 224.528775 222.294264 
L 224.666238 243.62863 
L 224.803702 229.40572 
L 224.941165 241.258145 
L 225.078629 289.85309 
L 225.216092 278.000664 
L 225.353556 249.554843 
L 225.765946 264.962996 
L 225.903409 240.072903 
L 226.040873 262.592511 
L 226.178336 225.849992 
L 226.453263 266.148239 
L 226.590727 279.185907 
L 226.72819 249.554843 
L 226.865654 249.554843 
L 227.003117 274.444937 
L 227.140581 254.295813 
L 227.278044 262.592511 
L 227.552971 249.554843 
L 227.690434 234.14669 
L 227.827898 238.88766 
L 228.102825 231.776205 
L 228.240288 251.925328 
L 228.377752 251.925328 
L 228.515215 253.110571 
L 228.652679 256.666298 
L 228.790142 225.849992 
L 228.927605 257.851541 
L 229.065069 237.702417 
L 229.339996 247.184358 
L 229.477459 243.62863 
L 229.614923 248.3696 
L 229.752386 276.815422 
L 230.164777 240.072903 
L 230.30224 240.072903 
L 230.439703 261.407269 
L 230.71463 244.813873 
L 230.852094 245.999115 
L 230.989557 250.740086 
L 231.127021 230.590962 
L 231.401948 278.000664 
L 231.539411 237.702417 
L 231.814338 264.962996 
L 231.951801 264.962996 
L 232.089265 283.926877 
L 232.226728 254.295813 
L 232.364192 260.222026 
L 232.501655 224.664749 
L 232.639119 264.962996 
L 232.776582 248.3696 
L 232.914046 249.554843 
L 233.051509 245.999115 
L 233.188973 259.036784 
L 233.326436 260.222026 
L 233.463899 266.148239 
L 233.601363 241.258145 
L 233.738826 257.851541 
L 233.87629 254.295813 
L 234.013753 263.777754 
L 234.28868 240.072903 
L 234.563607 262.592511 
L 234.701071 219.923779 
L 234.838534 267.333481 
L 234.975997 250.740086 
L 235.250924 281.556392 
L 235.525851 255.481056 
L 235.663315 247.184358 
L 235.800778 227.035234 
L 235.938242 231.776205 
L 236.075705 266.148239 
L 236.350632 211.627081 
L 236.488096 280.37115 
L 236.763022 225.849992 
L 236.900486 242.443388 
L 237.037949 241.258145 
L 237.175413 261.407269 
L 237.312876 242.443388 
L 237.45034 240.072903 
L 237.587803 219.923779 
L 237.725267 247.184358 
L 237.86273 247.184358 
L 238.000194 268.518724 
L 238.137657 264.962996 
L 238.27512 269.703967 
L 238.550047 257.851541 
L 238.824974 260.222026 
L 238.962438 267.333481 
L 239.099901 267.333481 
L 239.374828 257.851541 
L 239.512292 232.961447 
L 239.787218 267.333481 
L 239.924682 261.407269 
L 240.062145 244.813873 
L 240.199609 247.184358 
L 240.337072 268.518724 
L 240.474536 248.3696 
L 240.611999 275.630179 
L 240.749463 248.3696 
L 240.886926 249.554843 
L 241.02439 254.295813 
L 241.161853 269.703967 
L 241.299316 268.518724 
L 241.43678 243.62863 
L 241.574243 263.777754 
L 241.84917 251.925328 
L 241.986634 268.518724 
L 242.124097 238.88766 
L 242.261561 235.331932 
L 242.399024 238.88766 
L 242.536488 249.554843 
L 242.673951 282.741635 
L 242.948878 247.184358 
L 243.086341 257.851541 
L 243.223805 291.038333 
L 243.636195 240.072903 
L 243.773659 263.777754 
L 243.911122 241.258145 
L 244.048586 257.851541 
L 244.186049 253.110571 
L 244.323512 268.518724 
L 244.460976 223.479507 
L 244.735903 259.036784 
L 244.873366 272.074452 
L 245.01083 264.962996 
L 245.148293 238.88766 
L 245.42322 266.148239 
L 245.698147 230.590962 
L 246.385464 253.110571 
L 246.522928 254.295813 
L 246.797855 286.297362 
L 246.935318 236.517175 
L 247.072782 259.036784 
L 247.210245 255.481056 
L 247.347708 262.592511 
L 247.485172 240.072903 
L 247.622635 254.295813 
L 247.760099 244.813873 
L 247.897562 266.148239 
L 248.035026 267.333481 
L 248.309953 240.072903 
L 248.447416 280.37115 
L 248.58488 251.925328 
L 248.722343 261.407269 
L 248.859806 257.851541 
L 248.99727 275.630179 
L 249.134733 242.443388 
L 249.272197 247.184358 
L 249.40966 244.813873 
L 249.547124 273.259694 
L 249.684587 264.962996 
L 249.822051 240.072903 
L 249.959514 282.741635 
L 250.096978 279.185907 
L 250.234441 251.925328 
L 250.371904 282.741635 
L 250.646831 235.331932 
L 250.784295 270.889209 
L 250.921758 224.664749 
L 251.059222 270.889209 
L 251.196685 245.999115 
L 251.334149 283.926877 
L 251.471612 256.666298 
L 251.609076 280.37115 
L 251.746539 237.702417 
L 251.884003 261.407269 
L 252.021466 261.407269 
L 252.158929 237.702417 
L 252.433856 262.592511 
L 252.57132 230.590962 
L 252.708783 266.148239 
L 252.846247 225.849992 
L 252.98371 223.479507 
L 253.121174 279.185907 
L 253.258637 255.481056 
L 253.396101 268.518724 
L 253.533564 212.812324 
L 253.671027 247.184358 
L 253.808491 249.554843 
L 254.083418 256.666298 
L 254.220881 247.184358 
L 254.358345 253.110571 
L 254.495808 244.813873 
L 254.770735 255.481056 
L 254.908199 243.62863 
L 255.183125 260.222026 
L 255.320589 248.3696 
L 255.458052 268.518724 
L 255.595516 270.889209 
L 255.732979 256.666298 
L 255.870443 269.703967 
L 256.007906 236.517175 
L 256.14537 272.074452 
L 256.282833 264.962996 
L 256.420297 238.88766 
L 256.55776 253.110571 
L 256.695223 250.740086 
L 256.832687 245.999115 
L 256.97015 261.407269 
L 257.107614 255.481056 
L 257.245077 264.962996 
L 257.382541 259.036784 
L 257.520004 268.518724 
L 257.657468 242.443388 
L 257.794931 275.630179 
L 258.069858 236.517175 
L 258.207321 275.630179 
L 258.482248 266.148239 
L 258.619712 243.62863 
L 258.757175 249.554843 
L 258.894639 249.554843 
L 259.032102 235.331932 
L 259.169566 254.295813 
L 259.307029 255.481056 
L 259.444493 250.740086 
L 259.581956 213.997566 
L 259.719419 248.3696 
L 259.856883 245.999115 
L 259.994346 281.556392 
L 260.13181 244.813873 
L 260.269273 264.962996 
L 260.406737 238.88766 
L 260.5442 259.036784 
L 260.681664 218.738536 
L 260.819127 251.925328 
L 260.956591 244.813873 
L 261.094054 222.294264 
L 261.231517 268.518724 
L 261.368981 249.554843 
L 261.506444 245.999115 
L 261.643908 267.333481 
L 261.781371 257.851541 
L 261.918835 256.666298 
L 262.056298 256.666298 
L 262.193762 267.333481 
L 262.468689 231.776205 
L 262.743615 270.889209 
L 262.881079 242.443388 
L 263.018542 240.072903 
L 263.156006 260.222026 
L 263.293469 241.258145 
L 263.430933 249.554843 
L 263.568396 241.258145 
L 263.70586 269.703967 
L 263.843323 266.148239 
L 264.11825 270.889209 
L 264.255713 228.220477 
L 264.393177 281.556392 
L 264.53064 254.295813 
L 264.805567 254.295813 
L 264.943031 228.220477 
L 265.080494 274.444937 
L 265.217958 264.962996 
L 265.355421 276.815422 
L 265.492885 261.407269 
L 265.630348 267.333481 
L 265.767811 257.851541 
L 265.905275 285.11212 
L 266.180202 231.776205 
L 266.317665 254.295813 
L 266.455129 245.999115 
L 266.592592 247.184358 
L 266.730056 241.258145 
L 266.867519 259.036784 
L 267.004983 256.666298 
L 267.142446 232.961447 
L 267.27991 231.776205 
L 267.417373 228.220477 
L 267.554836 269.703967 
L 267.6923 273.259694 
L 267.829763 266.148239 
L 267.967227 212.812324 
L 268.10469 287.482605 
L 268.242154 245.999115 
L 268.379617 260.222026 
L 268.517081 235.331932 
L 268.654544 240.072903 
L 268.792008 268.518724 
L 268.929471 247.184358 
L 269.066934 245.999115 
L 269.204398 238.88766 
L 269.341861 281.556392 
L 269.479325 249.554843 
L 269.616788 274.444937 
L 269.754252 254.295813 
L 269.891715 256.666298 
L 270.029179 244.813873 
L 270.304106 270.889209 
L 270.579032 241.258145 
L 270.853959 251.925328 
L 270.991423 243.62863 
L 271.128886 270.889209 
L 271.26635 250.740086 
L 271.403813 264.962996 
L 271.67874 241.258145 
L 271.816204 223.479507 
L 271.953667 263.777754 
L 272.09113 241.258145 
L 272.228594 244.813873 
L 272.366057 241.258145 
L 272.503521 263.777754 
L 272.640984 255.481056 
L 272.778448 228.220477 
L 273.053375 256.666298 
L 273.190838 257.851541 
L 273.328302 249.554843 
L 273.465765 261.407269 
L 273.603228 250.740086 
L 273.740692 249.554843 
L 273.878155 234.14669 
L 274.015619 267.333481 
L 274.153082 243.62863 
L 274.290546 279.185907 
L 274.428009 223.479507 
L 274.702936 235.331932 
L 274.977863 278.000664 
L 275.25279 234.14669 
L 275.527717 286.297362 
L 275.66518 234.14669 
L 275.802644 262.592511 
L 276.077571 240.072903 
L 276.215034 250.740086 
L 276.352498 248.3696 
L 276.627424 272.074452 
L 276.902351 247.184358 
L 277.039815 250.740086 
L 277.177278 244.813873 
L 277.314742 269.703967 
L 277.452205 247.184358 
L 277.727132 264.962996 
L 277.864596 232.961447 
L 278.139522 257.851541 
L 278.276986 223.479507 
L 278.414449 244.813873 
L 278.551913 236.517175 
L 278.689376 261.407269 
L 278.82684 238.88766 
L 278.964303 243.62863 
L 279.101767 289.85309 
L 279.23923 269.703967 
L 279.376694 268.518724 
L 279.514157 273.259694 
L 279.65162 245.999115 
L 279.789084 275.630179 
L 279.926547 247.184358 
L 280.064011 261.407269 
L 280.338938 219.923779 
L 280.476401 261.407269 
L 280.613865 225.849992 
L 280.888792 250.740086 
L 281.026255 245.999115 
L 281.301182 274.444937 
L 281.438645 266.148239 
L 281.576109 268.518724 
L 281.713572 247.184358 
L 281.851036 260.222026 
L 281.988499 224.664749 
L 282.125963 262.592511 
L 282.263426 211.627081 
L 282.538353 269.703967 
L 282.675817 257.851541 
L 282.81328 266.148239 
L 282.950743 238.88766 
L 283.088207 253.110571 
L 283.22567 285.11212 
L 283.363134 276.815422 
L 283.500597 255.481056 
L 283.912988 249.554843 
L 284.050451 259.036784 
L 284.187915 250.740086 
L 284.325378 274.444937 
L 284.600305 248.3696 
L 284.737768 263.777754 
L 285.012695 251.925328 
L 285.150159 244.813873 
L 285.287622 259.036784 
L 285.425086 231.776205 
L 285.562549 234.14669 
L 285.700013 248.3696 
L 285.837476 234.14669 
L 285.974939 274.444937 
L 286.112403 250.740086 
L 286.249866 193.848443 
L 286.38733 262.592511 
L 286.524793 232.961447 
L 286.79972 273.259694 
L 286.937184 245.999115 
L 287.074647 245.999115 
L 287.349574 263.777754 
L 287.624501 249.554843 
L 288.174355 289.85309 
L 288.311818 245.999115 
L 288.311818 245.999115 
" style="fill:none;stroke:#4c72b0;stroke-linecap:round;stroke-width:1.5;"/>
   </g>
   <g id="line2d_23">
    <path clip-path="url(#pdf88767050)" d="M 198.548182 32.655455 
L 198.823109 85.734281 
L 198.960572 63.012928 
L 199.098036 70.628623 
L 199.372963 108.535126 
L 199.510426 97.002943 
L 199.647889 112.843384 
L 199.785353 110.99297 
L 199.922816 105.334886 
L 200.06028 109.586987 
L 200.335207 135.264945 
L 200.47267 136.215248 
L 200.747597 147.454899 
L 200.885061 147.863021 
L 201.022524 158.090765 
L 201.159987 159.343297 
L 201.297451 151.177726 
L 201.709841 173.530035 
L 201.847305 172.220832 
L 201.984768 183.295367 
L 202.122232 181.325424 
L 202.259695 188.46069 
L 202.534622 191.789601 
L 202.672085 196.537292 
L 202.809549 197.233451 
L 203.359403 212.458979 
L 203.496866 210.769534 
L 203.771793 218.876909 
L 203.909257 220.58991 
L 204.321647 228.072024 
L 204.45911 228.449519 
L 204.734037 232.866257 
L 204.871501 233.936901 
L 205.146428 237.698223 
L 205.696281 243.345654 
L 205.833745 245.209583 
L 205.971208 245.420425 
L 206.933453 251.255334 
L 207.20838 252.109736 
L 207.483306 253.140496 
L 207.758233 253.931455 
L 208.03316 254.361435 
L 208.445551 255.365549 
L 208.720478 255.600873 
L 208.995404 256.02582 
L 209.132868 256.000813 
L 209.545258 256.238307 
L 210.232576 256.497803 
L 210.644966 256.567007 
L 211.332283 256.514027 
L 213.669162 256.309944 
L 216.006041 255.841462 
L 217.518139 255.265392 
L 220.404871 253.882933 
L 222.604287 252.947015 
L 225.353556 252.083659 
L 227.003117 251.75064 
L 228.377752 251.722323 
L 230.71463 251.969031 
L 233.738826 252.276388 
L 235.388388 252.49288 
L 236.763022 252.895252 
L 238.27512 253.584309 
L 241.161853 255.00555 
L 242.261561 255.203749 
L 244.323512 255.231857 
L 246.248001 255.389125 
L 248.58488 255.593044 
L 249.822051 255.47318 
L 251.334149 255.08628 
L 258.207321 253.063531 
L 259.856883 252.885749 
L 261.094054 252.97378 
L 262.606152 253.340352 
L 264.943031 253.932435 
L 266.042738 253.990311 
L 267.004983 253.842958 
L 268.10469 253.432015 
L 271.26635 252.048191 
L 272.503521 251.829057 
L 273.878155 251.810322 
L 275.25279 252.025954 
L 277.314742 252.650991 
L 279.65162 253.269519 
L 280.888792 253.391764 
L 281.988499 253.281651 
L 283.22567 252.899885 
L 284.737768 252.199067 
L 285.700013 251.554151 
L 288.311818 249.75173 
L 288.311818 249.75173 
" style="fill:none;stroke:#dd8452;stroke-linecap:round;stroke-width:1.5;"/>
   </g>
   <g id="patch_8">
    <path d="M 194.06 310.18 
L 194.06 19.44 
" style="fill:none;stroke:#ffffff;stroke-linecap:square;stroke-linejoin:miter;stroke-width:1.25;"/>
   </g>
   <g id="patch_9">
    <path d="M 292.8 310.18 
L 292.8 19.44 
" style="fill:none;stroke:#ffffff;stroke-linecap:square;stroke-linejoin:miter;stroke-width:1.25;"/>
   </g>
   <g id="patch_10">
    <path d="M 194.06 310.18 
L 292.8 310.18 
" style="fill:none;stroke:#ffffff;stroke-linecap:square;stroke-linejoin:miter;stroke-width:1.25;"/>
   </g>
   <g id="patch_11">
    <path d="M 194.06 19.44 
L 292.8 19.44 
" style="fill:none;stroke:#ffffff;stroke-linecap:square;stroke-linejoin:miter;stroke-width:1.25;"/>
   </g>
  </g>
  <g id="axes_3">
   <g id="patch_12">
    <path d="M 342.62 310.18 
L 441.36 310.18 
L 441.36 19.44 
L 342.62 19.44 
z
" style="fill:#eaeaf2;"/>
   </g>
   <g id="matplotlib.axis_5">
    <g id="xtick_6">
     <g id="line2d_24">
      <path clip-path="url(#p962d3240fb)" d="M 348.895207 310.18 
L 348.895207 19.44 
" style="fill:none;stroke:#ffffff;stroke-linecap:round;"/>
     </g>
     <g id="text_20">
      <!-- 0.000525 -->
      <g style="fill:#262626;" transform="translate(322.651613 328.038281)scale(0.11 -0.11)">
       <use xlink:href="#DejaVuSans-48"/>
       <use x="63.623047" xlink:href="#DejaVuSans-46"/>
       <use x="95.410156" xlink:href="#DejaVuSans-48"/>
       <use x="159.033203" xlink:href="#DejaVuSans-48"/>
       <use x="222.65625" xlink:href="#DejaVuSans-48"/>
       <use x="286.279297" xlink:href="#DejaVuSans-53"/>
       <use x="349.902344" xlink:href="#DejaVuSans-50"/>
       <use x="413.525391" xlink:href="#DejaVuSans-53"/>
      </g>
     </g>
    </g>
    <g id="xtick_7">
     <g id="line2d_25">
      <path clip-path="url(#p962d3240fb)" d="M 383.261071 310.18 
L 383.261071 19.44 
" style="fill:none;stroke:#ffffff;stroke-linecap:round;"/>
     </g>
     <g id="text_21">
      <!-- 0.000550 -->
      <g style="fill:#262626;" transform="translate(357.017477 328.038281)scale(0.11 -0.11)">
       <use xlink:href="#DejaVuSans-48"/>
       <use x="63.623047" xlink:href="#DejaVuSans-46"/>
       <use x="95.410156" xlink:href="#DejaVuSans-48"/>
       <use x="159.033203" xlink:href="#DejaVuSans-48"/>
       <use x="222.65625" xlink:href="#DejaVuSans-48"/>
       <use x="286.279297" xlink:href="#DejaVuSans-53"/>
       <use x="349.902344" xlink:href="#DejaVuSans-53"/>
       <use x="413.525391" xlink:href="#DejaVuSans-48"/>
      </g>
     </g>
    </g>
    <g id="xtick_8">
     <g id="line2d_26">
      <path clip-path="url(#p962d3240fb)" d="M 417.626934 310.18 
L 417.626934 19.44 
" style="fill:none;stroke:#ffffff;stroke-linecap:round;"/>
     </g>
     <g id="text_22">
      <!-- 0.000575 -->
      <g style="fill:#262626;" transform="translate(391.383341 328.038281)scale(0.11 -0.11)">
       <use xlink:href="#DejaVuSans-48"/>
       <use x="63.623047" xlink:href="#DejaVuSans-46"/>
       <use x="95.410156" xlink:href="#DejaVuSans-48"/>
       <use x="159.033203" xlink:href="#DejaVuSans-48"/>
       <use x="222.65625" xlink:href="#DejaVuSans-48"/>
       <use x="286.279297" xlink:href="#DejaVuSans-53"/>
       <use x="349.902344" xlink:href="#DejaVuSans-55"/>
       <use x="413.525391" xlink:href="#DejaVuSans-53"/>
      </g>
     </g>
    </g>
   </g>
   <g id="matplotlib.axis_6">
    <g id="ytick_15">
     <g id="line2d_27">
      <path clip-path="url(#p962d3240fb)" d="M 342.62 289.577024 
L 441.36 289.577024 
" style="fill:none;stroke:#ffffff;stroke-linecap:round;"/>
     </g>
     <g id="text_23">
      <!-- 150 -->
      <g style="fill:#262626;" transform="translate(312.12375 293.756165)scale(0.11 -0.11)">
       <use xlink:href="#DejaVuSans-49"/>
       <use x="63.623047" xlink:href="#DejaVuSans-53"/>
       <use x="127.246094" xlink:href="#DejaVuSans-48"/>
      </g>
     </g>
    </g>
    <g id="ytick_16">
     <g id="line2d_28">
      <path clip-path="url(#p962d3240fb)" d="M 342.62 248.53524 
L 441.36 248.53524 
" style="fill:none;stroke:#ffffff;stroke-linecap:round;"/>
     </g>
     <g id="text_24">
      <!-- 200 -->
      <g style="fill:#262626;" transform="translate(312.12375 252.714381)scale(0.11 -0.11)">
       <use xlink:href="#DejaVuSans-50"/>
       <use x="63.623047" xlink:href="#DejaVuSans-48"/>
       <use x="127.246094" xlink:href="#DejaVuSans-48"/>
      </g>
     </g>
    </g>
    <g id="ytick_17">
     <g id="line2d_29">
      <path clip-path="url(#p962d3240fb)" d="M 342.62 207.493456 
L 441.36 207.493456 
" style="fill:none;stroke:#ffffff;stroke-linecap:round;"/>
     </g>
     <g id="text_25">
      <!-- 250 -->
      <g style="fill:#262626;" transform="translate(312.12375 211.672596)scale(0.11 -0.11)">
       <use xlink:href="#DejaVuSans-50"/>
       <use x="63.623047" xlink:href="#DejaVuSans-53"/>
       <use x="127.246094" xlink:href="#DejaVuSans-48"/>
      </g>
     </g>
    </g>
    <g id="ytick_18">
     <g id="line2d_30">
      <path clip-path="url(#p962d3240fb)" d="M 342.62 166.451671 
L 441.36 166.451671 
" style="fill:none;stroke:#ffffff;stroke-linecap:round;"/>
     </g>
     <g id="text_26">
      <!-- 300 -->
      <g style="fill:#262626;" transform="translate(312.12375 170.630812)scale(0.11 -0.11)">
       <use xlink:href="#DejaVuSans-51"/>
       <use x="63.623047" xlink:href="#DejaVuSans-48"/>
       <use x="127.246094" xlink:href="#DejaVuSans-48"/>
      </g>
     </g>
    </g>
    <g id="ytick_19">
     <g id="line2d_31">
      <path clip-path="url(#p962d3240fb)" d="M 342.62 125.409887 
L 441.36 125.409887 
" style="fill:none;stroke:#ffffff;stroke-linecap:round;"/>
     </g>
     <g id="text_27">
      <!-- 350 -->
      <g style="fill:#262626;" transform="translate(312.12375 129.589028)scale(0.11 -0.11)">
       <use xlink:href="#DejaVuSans-51"/>
       <use x="63.623047" xlink:href="#DejaVuSans-53"/>
       <use x="127.246094" xlink:href="#DejaVuSans-48"/>
      </g>
     </g>
    </g>
    <g id="ytick_20">
     <g id="line2d_32">
      <path clip-path="url(#p962d3240fb)" d="M 342.62 84.368103 
L 441.36 84.368103 
" style="fill:none;stroke:#ffffff;stroke-linecap:round;"/>
     </g>
     <g id="text_28">
      <!-- 400 -->
      <g style="fill:#262626;" transform="translate(312.12375 88.547243)scale(0.11 -0.11)">
       <use xlink:href="#DejaVuSans-52"/>
       <use x="63.623047" xlink:href="#DejaVuSans-48"/>
       <use x="127.246094" xlink:href="#DejaVuSans-48"/>
      </g>
     </g>
    </g>
    <g id="ytick_21">
     <g id="line2d_33">
      <path clip-path="url(#p962d3240fb)" d="M 342.62 43.326318 
L 441.36 43.326318 
" style="fill:none;stroke:#ffffff;stroke-linecap:round;"/>
     </g>
     <g id="text_29">
      <!-- 450 -->
      <g style="fill:#262626;" transform="translate(312.12375 47.505459)scale(0.11 -0.11)">
       <use xlink:href="#DejaVuSans-52"/>
       <use x="63.623047" xlink:href="#DejaVuSans-53"/>
       <use x="127.246094" xlink:href="#DejaVuSans-48"/>
      </g>
     </g>
    </g>
   </g>
   <g id="line2d_34">
    <path clip-path="url(#p962d3240fb)" d="M 347.108182 32.655455 
L 347.383109 88.472281 
L 347.520572 116.380695 
L 347.658036 83.547267 
L 347.932963 108.993173 
L 348.070426 159.06415 
L 348.345353 145.109944 
L 348.62028 183.689221 
L 348.757743 158.243315 
L 348.895207 213.239305 
L 349.307597 178.764207 
L 349.445061 209.135127 
L 349.582524 202.568442 
L 349.719987 201.747606 
L 349.857451 219.805991 
L 349.994914 200.105935 
L 350.132378 224.731005 
L 350.269841 221.447662 
L 350.407305 231.297691 
L 350.544768 231.297691 
L 350.682232 242.78939 
L 350.819695 237.864376 
L 350.957159 227.193512 
L 351.094622 246.072733 
L 351.232085 226.372676 
L 351.369549 237.04354 
L 351.507012 237.04354 
L 351.644476 228.835184 
L 352.056866 242.78939 
L 352.19433 263.310282 
L 352.469257 246.893569 
L 352.744183 276.443653 
L 352.881647 244.431062 
L 353.01911 266.593625 
L 353.431501 235.401869 
L 353.568964 250.997747 
L 353.706428 240.326883 
L 353.843891 276.443653 
L 354.118818 255.922761 
L 354.256281 259.206104 
L 354.393745 255.101925 
L 354.531208 273.160311 
L 354.668672 254.28109 
L 354.806135 255.922761 
L 354.943599 255.922761 
L 355.081062 274.801982 
L 355.218526 246.072733 
L 355.493453 266.593625 
L 355.630916 250.997747 
L 355.905843 267.414461 
L 356.043306 258.385268 
L 356.318233 265.772789 
L 356.455697 263.310282 
L 356.59316 250.997747 
L 356.730624 289.577024 
L 356.868087 265.772789 
L 357.005551 262.489447 
L 357.143014 279.726996 
L 357.280478 245.251897 
L 357.417941 273.160311 
L 357.555404 241.968554 
L 357.830331 265.772789 
L 357.967795 264.951954 
L 358.105258 283.010339 
L 358.380185 261.668611 
L 358.517649 258.385268 
L 358.930039 273.160311 
L 359.067502 241.968554 
L 359.204966 280.547832 
L 359.342429 278.085325 
L 359.479893 272.339475 
L 359.617356 260.02694 
L 359.75482 259.206104 
L 359.892283 282.189503 
L 360.029747 248.53524 
L 360.16721 272.339475 
L 360.304674 273.981146 
L 360.5796 260.02694 
L 360.717064 280.547832 
L 360.854527 249.356076 
L 360.991991 253.460254 
L 361.266918 283.831174 
L 361.541845 254.28109 
L 361.679308 255.101925 
L 361.816772 277.264489 
L 361.954235 278.90616 
L 362.091698 260.02694 
L 362.229162 272.339475 
L 362.366625 267.414461 
L 362.641552 251.818583 
L 362.779016 252.639418 
L 362.916479 267.414461 
L 363.053943 247.714404 
L 363.466333 278.90616 
L 363.603796 263.310282 
L 363.74126 279.726996 
L 363.878723 268.235296 
L 364.016187 279.726996 
L 364.15365 256.743597 
L 364.291114 263.310282 
L 364.428577 260.02694 
L 364.566041 283.010339 
L 364.703504 280.547832 
L 364.840968 270.697804 
L 364.978431 250.997747 
L 365.115894 258.385268 
L 365.253358 245.251897 
L 365.390821 273.981146 
L 365.528285 263.310282 
L 365.665748 264.131118 
L 365.803212 264.131118 
L 365.940675 259.206104 
L 366.078139 276.443653 
L 366.215602 263.310282 
L 366.353066 283.831174 
L 366.490529 278.90616 
L 366.627992 254.28109 
L 366.765456 272.339475 
L 366.902919 242.78939 
L 367.31531 269.056132 
L 367.452773 253.460254 
L 367.7277 289.577024 
L 367.865164 254.28109 
L 368.002627 262.489447 
L 368.14009 263.310282 
L 368.277554 266.593625 
L 368.415017 260.02694 
L 368.552481 275.622818 
L 368.689944 265.772789 
L 368.827408 271.518639 
L 368.964871 269.876968 
L 369.102335 272.339475 
L 369.239798 264.951954 
L 369.377262 282.189503 
L 369.514725 258.385268 
L 369.789652 287.935353 
L 369.927115 246.893569 
L 370.064579 258.385268 
L 370.202042 255.101925 
L 370.339506 273.160311 
L 370.476969 255.922761 
L 370.614433 255.922761 
L 370.88936 280.547832 
L 371.164287 248.53524 
L 371.30175 258.385268 
L 371.439213 277.264489 
L 371.71414 256.743597 
L 371.851604 274.801982 
L 371.989067 247.714404 
L 372.126531 274.801982 
L 372.263994 258.385268 
L 372.401458 273.160311 
L 372.538921 254.28109 
L 372.676385 256.743597 
L 372.813848 273.981146 
L 372.951311 264.131118 
L 373.088775 274.801982 
L 373.226238 259.206104 
L 373.363702 257.564433 
L 373.501165 269.056132 
L 373.776092 237.04354 
L 373.913556 263.310282 
L 374.051019 264.951954 
L 374.188483 258.385268 
L 374.325946 279.726996 
L 374.463409 278.085325 
L 374.600873 279.726996 
L 374.8758 257.564433 
L 375.013263 248.53524 
L 375.150727 258.385268 
L 375.28819 257.564433 
L 375.563117 283.831174 
L 375.700581 271.518639 
L 375.838044 283.831174 
L 375.975507 271.518639 
L 376.112971 278.085325 
L 376.250434 270.697804 
L 376.387898 272.339475 
L 376.525361 255.922761 
L 376.800288 275.622818 
L 376.937752 256.743597 
L 377.075215 266.593625 
L 377.350142 250.997747 
L 377.487605 261.668611 
L 377.625069 248.53524 
L 377.762532 276.443653 
L 378.037459 250.997747 
L 378.174923 281.368667 
L 378.312386 269.056132 
L 378.44985 275.622818 
L 378.587313 273.981146 
L 378.724777 273.981146 
L 378.86224 278.90616 
L 378.999703 296.964545 
L 379.137167 264.951954 
L 379.412094 274.801982 
L 379.549557 278.085325 
L 379.824484 267.414461 
L 379.961948 269.056132 
L 380.099411 246.072733 
L 380.374338 291.218696 
L 380.511801 258.385268 
L 380.649265 279.726996 
L 380.786728 260.847775 
L 380.924192 266.593625 
L 381.061655 265.772789 
L 381.199119 251.818583 
L 381.336582 272.339475 
L 381.474046 264.131118 
L 381.611509 279.726996 
L 381.748973 278.085325 
L 381.886436 264.951954 
L 382.023899 278.90616 
L 382.161363 258.385268 
L 382.298826 260.847775 
L 382.43629 256.743597 
L 382.573753 267.414461 
L 382.84868 254.28109 
L 382.986144 272.339475 
L 383.123607 266.593625 
L 383.261071 273.160311 
L 383.398534 271.518639 
L 383.673461 257.564433 
L 383.810924 270.697804 
L 384.085851 250.176911 
L 384.223315 274.801982 
L 384.360778 276.443653 
L 384.498242 273.981146 
L 384.635705 261.668611 
L 384.773169 264.131118 
L 384.910632 243.610226 
L 385.185559 286.293682 
L 385.323022 283.831174 
L 385.460486 260.847775 
L 385.597949 271.518639 
L 385.872876 257.564433 
L 386.01034 276.443653 
L 386.147803 259.206104 
L 386.285267 263.310282 
L 386.42273 256.743597 
L 386.560194 270.697804 
L 386.697657 262.489447 
L 386.83512 265.772789 
L 386.972584 248.53524 
L 387.110047 267.414461 
L 387.247511 269.876968 
L 387.384974 277.264489 
L 387.522438 251.818583 
L 387.659901 282.189503 
L 387.797365 254.28109 
L 387.934828 280.547832 
L 388.072292 278.085325 
L 388.209755 284.65201 
L 388.484682 264.131118 
L 388.622145 254.28109 
L 388.759609 260.02694 
L 388.897072 278.90616 
L 389.034536 254.28109 
L 389.309463 277.264489 
L 389.446926 260.02694 
L 389.58439 268.235296 
L 389.721853 264.131118 
L 389.859316 267.414461 
L 389.99678 242.78939 
L 390.271707 259.206104 
L 390.40917 255.922761 
L 390.546634 265.772789 
L 390.684097 254.28109 
L 390.821561 258.385268 
L 390.959024 285.472846 
L 391.096488 250.176911 
L 391.233951 273.160311 
L 391.371414 250.997747 
L 391.508878 278.90616 
L 391.783805 266.593625 
L 391.921268 239.506047 
L 392.058732 255.101925 
L 392.196195 257.564433 
L 392.333659 262.489447 
L 392.608586 279.726996 
L 392.883512 260.847775 
L 393.020976 273.160311 
L 393.158439 274.801982 
L 393.295903 260.02694 
L 393.433366 278.085325 
L 393.57083 264.131118 
L 393.708293 269.056132 
L 393.845757 267.414461 
L 393.98322 250.997747 
L 394.258147 274.801982 
L 394.39561 258.385268 
L 394.533074 260.847775 
L 394.670537 277.264489 
L 394.808001 276.443653 
L 394.945464 271.518639 
L 395.082928 259.206104 
L 395.220391 259.206104 
L 395.357855 254.28109 
L 395.495318 263.310282 
L 395.632782 281.368667 
L 395.907708 265.772789 
L 396.045172 273.981146 
L 396.182635 262.489447 
L 396.320099 269.876968 
L 396.457562 270.697804 
L 396.595026 260.02694 
L 396.869953 278.90616 
L 397.007416 267.414461 
L 397.14488 269.056132 
L 397.282343 269.056132 
L 397.419806 240.326883 
L 397.55727 245.251897 
L 397.694733 272.339475 
L 397.832197 257.564433 
L 397.96966 285.472846 
L 398.107124 267.414461 
L 398.382051 263.310282 
L 398.519514 253.460254 
L 398.794441 266.593625 
L 398.931904 265.772789 
L 399.069368 280.547832 
L 399.206831 282.189503 
L 399.481758 244.431062 
L 399.619222 277.264489 
L 399.756685 245.251897 
L 399.894149 262.489447 
L 400.031612 251.818583 
L 400.169076 279.726996 
L 400.306539 275.622818 
L 400.444003 262.489447 
L 400.718929 279.726996 
L 400.856393 271.518639 
L 400.993856 273.160311 
L 401.13132 266.593625 
L 401.268783 270.697804 
L 401.54371 251.818583 
L 401.681174 256.743597 
L 401.956101 281.368667 
L 402.093564 265.772789 
L 402.231027 273.160311 
L 402.368491 255.101925 
L 402.505954 261.668611 
L 402.643418 275.622818 
L 402.780881 259.206104 
L 402.918345 258.385268 
L 403.193272 263.310282 
L 403.330735 270.697804 
L 403.468199 264.131118 
L 403.880589 278.90616 
L 404.018052 279.726996 
L 404.155516 260.847775 
L 404.292979 269.056132 
L 404.430443 264.951954 
L 404.70537 269.056132 
L 404.842833 268.235296 
L 404.980297 251.818583 
L 405.11776 250.176911 
L 405.255223 255.922761 
L 405.392687 276.443653 
L 405.667614 261.668611 
L 405.805077 260.02694 
L 405.942541 269.056132 
L 406.080004 287.114517 
L 406.354931 264.131118 
L 406.492395 256.743597 
L 406.629858 263.310282 
L 406.767321 244.431062 
L 406.904785 275.622818 
L 407.042248 243.610226 
L 407.179712 280.547832 
L 407.317175 261.668611 
L 407.454639 270.697804 
L 407.592102 250.176911 
L 407.729566 257.564433 
L 407.867029 281.368667 
L 408.004493 250.176911 
L 408.279419 286.293682 
L 408.416883 273.160311 
L 408.554346 283.831174 
L 408.69181 275.622818 
L 408.829273 280.547832 
L 409.1042 273.160311 
L 409.241664 248.53524 
L 409.379127 258.385268 
L 409.516591 277.264489 
L 409.654054 273.981146 
L 409.928981 252.639418 
L 410.066444 252.639418 
L 410.203908 269.056132 
L 410.341371 246.072733 
L 410.478835 273.981146 
L 410.616298 269.876968 
L 410.753762 261.668611 
L 410.891225 278.085325 
L 411.166152 260.847775 
L 411.303615 276.443653 
L 411.578542 256.743597 
L 411.716006 264.951954 
L 411.853469 258.385268 
L 411.990933 240.326883 
L 412.128396 273.981146 
L 412.403323 260.847775 
L 412.540787 251.818583 
L 412.67825 264.951954 
L 412.815713 261.668611 
L 412.953177 255.101925 
L 413.09064 260.847775 
L 413.228104 278.90616 
L 413.365567 256.743597 
L 413.503031 263.310282 
L 413.640494 277.264489 
L 413.777958 273.981146 
L 413.915421 276.443653 
L 414.052885 270.697804 
L 414.190348 249.356076 
L 414.327811 261.668611 
L 414.465275 263.310282 
L 414.602738 259.206104 
L 414.740202 262.489447 
L 414.877665 271.518639 
L 415.015129 255.922761 
L 415.152592 269.056132 
L 415.427519 252.639418 
L 415.702446 270.697804 
L 415.83991 235.401869 
L 415.977373 264.951954 
L 416.114836 255.101925 
L 416.2523 268.235296 
L 416.389763 269.876968 
L 416.66469 252.639418 
L 416.802154 270.697804 
L 416.939617 242.78939 
L 417.077081 246.893569 
L 417.214544 283.010339 
L 417.352008 254.28109 
L 417.489471 258.385268 
L 417.626934 270.697804 
L 417.764398 269.056132 
L 417.901861 258.385268 
L 418.039325 273.160311 
L 418.176788 252.639418 
L 418.314252 270.697804 
L 418.451715 250.997747 
L 418.589179 250.176911 
L 418.864106 280.547832 
L 419.001569 273.981146 
L 419.139032 257.564433 
L 419.276496 255.101925 
L 419.413959 269.876968 
L 419.551423 259.206104 
L 419.688886 277.264489 
L 419.82635 254.28109 
L 419.963813 275.622818 
L 420.101277 255.922761 
L 420.376204 288.756189 
L 420.513667 259.206104 
L 420.65113 280.547832 
L 420.788594 258.385268 
L 420.926057 258.385268 
L 421.063521 255.922761 
L 421.200984 260.02694 
L 421.338448 278.085325 
L 421.475911 237.864376 
L 421.613375 246.072733 
L 421.750838 270.697804 
L 421.888302 251.818583 
L 422.025765 264.951954 
L 422.163228 241.968554 
L 422.575619 273.981146 
L 422.713082 264.951954 
L 422.850546 263.310282 
L 422.988009 274.801982 
L 423.125473 247.714404 
L 423.262936 270.697804 
L 423.4004 261.668611 
L 423.675326 276.443653 
L 423.81279 271.518639 
L 423.950253 272.339475 
L 424.087717 269.056132 
L 424.22518 246.893569 
L 424.362644 282.189503 
L 424.500107 265.772789 
L 424.637571 274.801982 
L 424.775034 270.697804 
L 424.912498 278.90616 
L 425.187424 244.431062 
L 425.462351 287.114517 
L 425.599815 276.443653 
L 425.737278 274.801982 
L 426.012205 260.847775 
L 426.149669 260.02694 
L 426.287132 286.293682 
L 426.424596 260.02694 
L 426.562059 258.385268 
L 426.699522 260.02694 
L 426.836986 274.801982 
L 427.111913 251.818583 
L 427.249376 269.876968 
L 427.38684 253.460254 
L 427.524303 255.101925 
L 427.661767 273.160311 
L 427.79923 260.847775 
L 427.936694 268.235296 
L 428.074157 258.385268 
L 428.21162 268.235296 
L 428.624011 251.818583 
L 428.761474 268.235296 
L 428.898938 261.668611 
L 429.036401 261.668611 
L 429.173865 253.460254 
L 429.448792 270.697804 
L 429.723719 239.506047 
L 429.998645 272.339475 
L 430.136109 269.056132 
L 430.411036 250.176911 
L 430.548499 275.622818 
L 430.96089 256.743597 
L 431.235817 264.131118 
L 431.37328 245.251897 
L 431.510743 271.518639 
L 431.648207 249.356076 
L 431.923134 283.010339 
L 432.335524 259.206104 
L 432.472988 280.547832 
L 432.610451 250.176911 
L 432.747915 272.339475 
L 432.885378 268.235296 
L 433.022841 278.90616 
L 433.160305 253.460254 
L 433.297768 250.176911 
L 433.435232 264.131118 
L 433.572695 236.222705 
L 433.710159 264.131118 
L 433.847622 268.235296 
L 433.985086 250.176911 
L 434.122549 266.593625 
L 434.260013 258.385268 
L 434.397476 267.414461 
L 434.534939 250.997747 
L 434.809866 264.951954 
L 434.94733 247.714404 
L 435.084793 257.564433 
L 435.222257 241.968554 
L 435.35972 268.235296 
L 435.497184 240.326883 
L 435.634647 272.339475 
L 435.909574 253.460254 
L 436.047037 273.160311 
L 436.184501 267.414461 
L 436.321964 269.056132 
L 436.459428 282.189503 
L 436.734355 252.639418 
L 436.871818 263.310282 
L 436.871818 263.310282 
" style="fill:none;stroke:#4c72b0;stroke-linecap:round;stroke-width:1.5;"/>
   </g>
   <g id="line2d_35">
    <path clip-path="url(#p962d3240fb)" d="M 347.108182 32.655455 
L 347.383109 88.491626 
L 347.520572 113.072418 
L 347.658036 86.099742 
L 347.932963 108.236183 
L 348.070426 144.493608 
L 348.345353 135.583811 
L 348.62028 159.769954 
L 348.757743 146.373825 
L 348.895207 176.150466 
L 349.307597 162.584844 
L 349.445061 177.249996 
L 349.582524 176.092742 
L 349.719987 177.609584 
L 349.857451 186.182242 
L 349.994914 181.343672 
L 350.132378 191.826514 
L 350.269841 193.028179 
L 350.682232 206.439025 
L 350.819695 207.632526 
L 350.957159 207.598574 
L 351.094622 214.575959 
L 351.232085 212.744704 
L 351.507012 220.087922 
L 351.644476 221.020453 
L 352.331793 236.136632 
L 352.469257 237.436418 
L 352.744183 244.891253 
L 352.881647 242.718909 
L 353.01911 246.911893 
L 353.431501 248.215643 
L 353.568964 251.07143 
L 353.706428 251.426532 
L 353.843891 255.654774 
L 354.118818 256.114219 
L 354.531208 259.933381 
L 354.668672 259.511999 
L 355.081062 262.592915 
L 355.218526 261.681409 
L 355.493453 263.625439 
L 355.630916 263.362173 
L 355.905843 264.740834 
L 356.043306 264.698911 
L 356.455697 265.579111 
L 356.59316 265.391572 
L 356.730624 266.656151 
L 356.868087 266.112521 
L 357.005551 266.138397 
L 357.143014 266.652557 
L 357.280478 265.915133 
L 357.417941 266.610303 
L 357.555404 265.99831 
L 357.830331 266.550773 
L 357.967795 266.548967 
L 358.105258 266.860804 
L 358.380185 266.491092 
L 358.517649 266.430281 
L 358.930039 266.555298 
L 359.067502 266.147721 
L 359.204966 266.563945 
L 359.75482 266.187081 
L 359.892283 266.353296 
L 360.029747 266.027811 
L 360.16721 266.186003 
L 360.442137 266.061713 
L 360.5796 265.988088 
L 360.717064 266.089174 
L 360.854527 265.860916 
L 361.129454 265.910637 
L 361.266918 265.968658 
L 361.541845 265.767034 
L 363.32887 265.638949 
L 364.016187 265.659083 
L 364.428577 265.637848 
L 364.840968 265.677485 
L 365.390821 265.717562 
L 368.689944 265.554871 
L 371.71414 265.191634 
L 372.951311 265.354548 
L 374.051019 265.723713 
L 375.28819 266.382093 
L 377.487605 267.631275 
L 378.44985 267.929626 
L 379.412094 268.000569 
L 380.511801 267.846018 
L 381.886436 267.404051 
L 387.110047 265.38727 
L 388.759609 265.035556 
L 390.134243 264.956476 
L 391.783805 265.098321 
L 393.57083 265.488075 
L 395.907708 265.98207 
L 397.832197 266.13925 
L 406.217468 266.291642 
L 407.592102 266.075973 
L 409.1042 265.614346 
L 410.753762 264.878448 
L 414.740202 262.863171 
L 415.83991 262.723681 
L 417.077081 262.799318 
L 418.451715 263.10322 
L 419.688886 263.59871 
L 422.575619 264.886636 
L 423.537863 265.028524 
L 424.637571 264.94686 
L 425.737278 264.641079 
L 426.974449 264.065552 
L 431.37328 261.755838 
L 432.610451 261.467276 
L 436.871818 260.861493 
L 436.871818 260.861493 
" style="fill:none;stroke:#dd8452;stroke-linecap:round;stroke-width:1.5;"/>
   </g>
   <g id="patch_13">
    <path d="M 342.62 310.18 
L 342.62 19.44 
" style="fill:none;stroke:#ffffff;stroke-linecap:square;stroke-linejoin:miter;stroke-width:1.25;"/>
   </g>
   <g id="patch_14">
    <path d="M 441.36 310.18 
L 441.36 19.44 
" style="fill:none;stroke:#ffffff;stroke-linecap:square;stroke-linejoin:miter;stroke-width:1.25;"/>
   </g>
   <g id="patch_15">
    <path d="M 342.62 310.18 
L 441.36 310.18 
" style="fill:none;stroke:#ffffff;stroke-linecap:square;stroke-linejoin:miter;stroke-width:1.25;"/>
   </g>
   <g id="patch_16">
    <path d="M 342.62 19.44 
L 441.36 19.44 
" style="fill:none;stroke:#ffffff;stroke-linecap:square;stroke-linejoin:miter;stroke-width:1.25;"/>
   </g>
  </g>
 </g>
 <defs>
  <clipPath id="pba3e4f8114">
   <rect height="290.74" width="98.74" x="45.5" y="19.44"/>
  </clipPath>
  <clipPath id="pdf88767050">
   <rect height="290.74" width="98.74" x="194.06" y="19.44"/>
  </clipPath>
  <clipPath id="p962d3240fb">
   <rect height="290.74" width="98.74" x="342.62" y="19.44"/>
  </clipPath>
 </defs>
</svg>
