<?xml version="1.0" encoding="utf-8" standalone="no"?>
<!DOCTYPE svg PUBLIC "-//W3C//DTD SVG 1.1//EN"
  "http://www.w3.org/Graphics/SVG/1.1/DTD/svg11.dtd">
<!-- Created with matplotlib (https://matplotlib.org/) -->
<svg height="345.6pt" version="1.1" viewBox="0 0 460.8 345.6" width="460.8pt" xmlns="http://www.w3.org/2000/svg" xmlns:xlink="http://www.w3.org/1999/xlink">
 <defs>
  <style type="text/css">
*{stroke-linecap:butt;stroke-linejoin:round;}
  </style>
 </defs>
 <g id="figure_1">
  <g id="patch_1">
   <path d="M 0 345.6 
L 460.8 345.6 
L 460.8 0 
L 0 0 
z
" style="fill:#ffffff;"/>
  </g>
  <g id="axes_1">
   <g id="patch_2">
    <path d="M 45.5 310.18 
L 139.68 310.18 
L 139.68 19.44 
L 45.5 19.44 
z
" style="fill:#eaeaf2;"/>
   </g>
   <g id="matplotlib.axis_1">
    <g id="xtick_1">
     <g id="line2d_1">
      <path clip-path="url(#pe0f28964aa)" d="M 49.649794 310.18 
L 49.649794 19.44 
" style="fill:none;stroke:#ffffff;stroke-linecap:round;"/>
     </g>
     <g id="text_1">
      <!-- 0.000175 -->
      <defs>
       <path d="M 31.78125 66.40625 
Q 24.171875 66.40625 20.328125 58.90625 
Q 16.5 51.421875 16.5 36.375 
Q 16.5 21.390625 20.328125 13.890625 
Q 24.171875 6.390625 31.78125 6.390625 
Q 39.453125 6.390625 43.28125 13.890625 
Q 47.125 21.390625 47.125 36.375 
Q 47.125 51.421875 43.28125 58.90625 
Q 39.453125 66.40625 31.78125 66.40625 
z
M 31.78125 74.21875 
Q 44.046875 74.21875 50.515625 64.515625 
Q 56.984375 54.828125 56.984375 36.375 
Q 56.984375 17.96875 50.515625 8.265625 
Q 44.046875 -1.421875 31.78125 -1.421875 
Q 19.53125 -1.421875 13.0625 8.265625 
Q 6.59375 17.96875 6.59375 36.375 
Q 6.59375 54.828125 13.0625 64.515625 
Q 19.53125 74.21875 31.78125 74.21875 
z
" id="DejaVuSans-48"/>
       <path d="M 10.6875 12.40625 
L 21 12.40625 
L 21 0 
L 10.6875 0 
z
" id="DejaVuSans-46"/>
       <path d="M 12.40625 8.296875 
L 28.515625 8.296875 
L 28.515625 63.921875 
L 10.984375 60.40625 
L 10.984375 69.390625 
L 28.421875 72.90625 
L 38.28125 72.90625 
L 38.28125 8.296875 
L 54.390625 8.296875 
L 54.390625 0 
L 12.40625 0 
z
" id="DejaVuSans-49"/>
       <path d="M 8.203125 72.90625 
L 55.078125 72.90625 
L 55.078125 68.703125 
L 28.609375 0 
L 18.3125 0 
L 43.21875 64.59375 
L 8.203125 64.59375 
z
" id="DejaVuSans-55"/>
       <path d="M 10.796875 72.90625 
L 49.515625 72.90625 
L 49.515625 64.59375 
L 19.828125 64.59375 
L 19.828125 46.734375 
Q 21.96875 47.46875 24.109375 47.828125 
Q 26.265625 48.1875 28.421875 48.1875 
Q 40.625 48.1875 47.75 41.5 
Q 54.890625 34.8125 54.890625 23.390625 
Q 54.890625 11.625 47.5625 5.09375 
Q 40.234375 -1.421875 26.90625 -1.421875 
Q 22.3125 -1.421875 17.546875 -0.640625 
Q 12.796875 0.140625 7.71875 1.703125 
L 7.71875 11.625 
Q 12.109375 9.234375 16.796875 8.0625 
Q 21.484375 6.890625 26.703125 6.890625 
Q 35.15625 6.890625 40.078125 11.328125 
Q 45.015625 15.765625 45.015625 23.390625 
Q 45.015625 31 40.078125 35.4375 
Q 35.15625 39.890625 26.703125 39.890625 
Q 22.75 39.890625 18.8125 39.015625 
Q 14.890625 38.140625 10.796875 36.28125 
z
" id="DejaVuSans-53"/>
      </defs>
      <g style="fill:#262626;" transform="translate(23.4062 328.038281)scale(0.11 -0.11)">
       <use xlink:href="#DejaVuSans-48"/>
       <use x="63.623047" xlink:href="#DejaVuSans-46"/>
       <use x="95.410156" xlink:href="#DejaVuSans-48"/>
       <use x="159.033203" xlink:href="#DejaVuSans-48"/>
       <use x="222.65625" xlink:href="#DejaVuSans-48"/>
       <use x="286.279297" xlink:href="#DejaVuSans-49"/>
       <use x="349.902344" xlink:href="#DejaVuSans-55"/>
       <use x="413.525391" xlink:href="#DejaVuSans-53"/>
      </g>
     </g>
    </g>
    <g id="xtick_2">
     <g id="line2d_2">
      <path clip-path="url(#pe0f28964aa)" d="M 82.428577 310.18 
L 82.428577 19.44 
" style="fill:none;stroke:#ffffff;stroke-linecap:round;"/>
     </g>
     <g id="text_2">
      <!-- 0.000200 -->
      <defs>
       <path d="M 19.1875 8.296875 
L 53.609375 8.296875 
L 53.609375 0 
L 7.328125 0 
L 7.328125 8.296875 
Q 12.9375 14.109375 22.625 23.890625 
Q 32.328125 33.6875 34.8125 36.53125 
Q 39.546875 41.84375 41.421875 45.53125 
Q 43.3125 49.21875 43.3125 52.78125 
Q 43.3125 58.59375 39.234375 62.25 
Q 35.15625 65.921875 28.609375 65.921875 
Q 23.96875 65.921875 18.8125 64.3125 
Q 13.671875 62.703125 7.8125 59.421875 
L 7.8125 69.390625 
Q 13.765625 71.78125 18.9375 73 
Q 24.125 74.21875 28.421875 74.21875 
Q 39.75 74.21875 46.484375 68.546875 
Q 53.21875 62.890625 53.21875 53.421875 
Q 53.21875 48.921875 51.53125 44.890625 
Q 49.859375 40.875 45.40625 35.40625 
Q 44.1875 33.984375 37.640625 27.21875 
Q 31.109375 20.453125 19.1875 8.296875 
z
" id="DejaVuSans-50"/>
      </defs>
      <g style="fill:#262626;" transform="translate(56.184983 328.038281)scale(0.11 -0.11)">
       <use xlink:href="#DejaVuSans-48"/>
       <use x="63.623047" xlink:href="#DejaVuSans-46"/>
       <use x="95.410156" xlink:href="#DejaVuSans-48"/>
       <use x="159.033203" xlink:href="#DejaVuSans-48"/>
       <use x="222.65625" xlink:href="#DejaVuSans-48"/>
       <use x="286.279297" xlink:href="#DejaVuSans-50"/>
       <use x="349.902344" xlink:href="#DejaVuSans-48"/>
       <use x="413.525391" xlink:href="#DejaVuSans-48"/>
      </g>
     </g>
    </g>
    <g id="xtick_3">
     <g id="line2d_3">
      <path clip-path="url(#pe0f28964aa)" d="M 115.20736 310.18 
L 115.20736 19.44 
" style="fill:none;stroke:#ffffff;stroke-linecap:round;"/>
     </g>
     <g id="text_3">
      <!-- 0.000225 -->
      <g style="fill:#262626;" transform="translate(88.963767 328.038281)scale(0.11 -0.11)">
       <use xlink:href="#DejaVuSans-48"/>
       <use x="63.623047" xlink:href="#DejaVuSans-46"/>
       <use x="95.410156" xlink:href="#DejaVuSans-48"/>
       <use x="159.033203" xlink:href="#DejaVuSans-48"/>
       <use x="222.65625" xlink:href="#DejaVuSans-48"/>
       <use x="286.279297" xlink:href="#DejaVuSans-50"/>
       <use x="349.902344" xlink:href="#DejaVuSans-50"/>
       <use x="413.525391" xlink:href="#DejaVuSans-53"/>
      </g>
     </g>
    </g>
   </g>
   <g id="matplotlib.axis_2">
    <g id="ytick_1">
     <g id="line2d_4">
      <path clip-path="url(#pe0f28964aa)" d="M 45.5 260.707434 
L 139.68 260.707434 
" style="fill:none;stroke:#ffffff;stroke-linecap:round;"/>
     </g>
     <g id="text_4">
      <!-- 200 -->
      <g style="fill:#262626;" transform="translate(15.00375 264.886574)scale(0.11 -0.11)">
       <use xlink:href="#DejaVuSans-50"/>
       <use x="63.623047" xlink:href="#DejaVuSans-48"/>
       <use x="127.246094" xlink:href="#DejaVuSans-48"/>
      </g>
     </g>
    </g>
    <g id="ytick_2">
     <g id="line2d_5">
      <path clip-path="url(#pe0f28964aa)" d="M 45.5 208.160895 
L 139.68 208.160895 
" style="fill:none;stroke:#ffffff;stroke-linecap:round;"/>
     </g>
     <g id="text_5">
      <!-- 300 -->
      <defs>
       <path d="M 40.578125 39.3125 
Q 47.65625 37.796875 51.625 33 
Q 55.609375 28.21875 55.609375 21.1875 
Q 55.609375 10.40625 48.1875 4.484375 
Q 40.765625 -1.421875 27.09375 -1.421875 
Q 22.515625 -1.421875 17.65625 -0.515625 
Q 12.796875 0.390625 7.625 2.203125 
L 7.625 11.71875 
Q 11.71875 9.328125 16.59375 8.109375 
Q 21.484375 6.890625 26.8125 6.890625 
Q 36.078125 6.890625 40.9375 10.546875 
Q 45.796875 14.203125 45.796875 21.1875 
Q 45.796875 27.640625 41.28125 31.265625 
Q 36.765625 34.90625 28.71875 34.90625 
L 20.21875 34.90625 
L 20.21875 43.015625 
L 29.109375 43.015625 
Q 36.375 43.015625 40.234375 45.921875 
Q 44.09375 48.828125 44.09375 54.296875 
Q 44.09375 59.90625 40.109375 62.90625 
Q 36.140625 65.921875 28.71875 65.921875 
Q 24.65625 65.921875 20.015625 65.03125 
Q 15.375 64.15625 9.8125 62.3125 
L 9.8125 71.09375 
Q 15.4375 72.65625 20.34375 73.4375 
Q 25.25 74.21875 29.59375 74.21875 
Q 40.828125 74.21875 47.359375 69.109375 
Q 53.90625 64.015625 53.90625 55.328125 
Q 53.90625 49.265625 50.4375 45.09375 
Q 46.96875 40.921875 40.578125 39.3125 
z
" id="DejaVuSans-51"/>
      </defs>
      <g style="fill:#262626;" transform="translate(15.00375 212.340035)scale(0.11 -0.11)">
       <use xlink:href="#DejaVuSans-51"/>
       <use x="63.623047" xlink:href="#DejaVuSans-48"/>
       <use x="127.246094" xlink:href="#DejaVuSans-48"/>
      </g>
     </g>
    </g>
    <g id="ytick_3">
     <g id="line2d_6">
      <path clip-path="url(#pe0f28964aa)" d="M 45.5 155.614356 
L 139.68 155.614356 
" style="fill:none;stroke:#ffffff;stroke-linecap:round;"/>
     </g>
     <g id="text_6">
      <!-- 400 -->
      <defs>
       <path d="M 37.796875 64.3125 
L 12.890625 25.390625 
L 37.796875 25.390625 
z
M 35.203125 72.90625 
L 47.609375 72.90625 
L 47.609375 25.390625 
L 58.015625 25.390625 
L 58.015625 17.1875 
L 47.609375 17.1875 
L 47.609375 0 
L 37.796875 0 
L 37.796875 17.1875 
L 4.890625 17.1875 
L 4.890625 26.703125 
z
" id="DejaVuSans-52"/>
      </defs>
      <g style="fill:#262626;" transform="translate(15.00375 159.793496)scale(0.11 -0.11)">
       <use xlink:href="#DejaVuSans-52"/>
       <use x="63.623047" xlink:href="#DejaVuSans-48"/>
       <use x="127.246094" xlink:href="#DejaVuSans-48"/>
      </g>
     </g>
    </g>
    <g id="ytick_4">
     <g id="line2d_7">
      <path clip-path="url(#pe0f28964aa)" d="M 45.5 103.067817 
L 139.68 103.067817 
" style="fill:none;stroke:#ffffff;stroke-linecap:round;"/>
     </g>
     <g id="text_7">
      <!-- 500 -->
      <g style="fill:#262626;" transform="translate(15.00375 107.246957)scale(0.11 -0.11)">
       <use xlink:href="#DejaVuSans-53"/>
       <use x="63.623047" xlink:href="#DejaVuSans-48"/>
       <use x="127.246094" xlink:href="#DejaVuSans-48"/>
      </g>
     </g>
    </g>
    <g id="ytick_5">
     <g id="line2d_8">
      <path clip-path="url(#pe0f28964aa)" d="M 45.5 50.521278 
L 139.68 50.521278 
" style="fill:none;stroke:#ffffff;stroke-linecap:round;"/>
     </g>
     <g id="text_8">
      <!-- 600 -->
      <defs>
       <path d="M 33.015625 40.375 
Q 26.375 40.375 22.484375 35.828125 
Q 18.609375 31.296875 18.609375 23.390625 
Q 18.609375 15.53125 22.484375 10.953125 
Q 26.375 6.390625 33.015625 6.390625 
Q 39.65625 6.390625 43.53125 10.953125 
Q 47.40625 15.53125 47.40625 23.390625 
Q 47.40625 31.296875 43.53125 35.828125 
Q 39.65625 40.375 33.015625 40.375 
z
M 52.59375 71.296875 
L 52.59375 62.3125 
Q 48.875 64.0625 45.09375 64.984375 
Q 41.3125 65.921875 37.59375 65.921875 
Q 27.828125 65.921875 22.671875 59.328125 
Q 17.53125 52.734375 16.796875 39.40625 
Q 19.671875 43.65625 24.015625 45.921875 
Q 28.375 48.1875 33.59375 48.1875 
Q 44.578125 48.1875 50.953125 41.515625 
Q 57.328125 34.859375 57.328125 23.390625 
Q 57.328125 12.15625 50.6875 5.359375 
Q 44.046875 -1.421875 33.015625 -1.421875 
Q 20.359375 -1.421875 13.671875 8.265625 
Q 6.984375 17.96875 6.984375 36.375 
Q 6.984375 53.65625 15.1875 63.9375 
Q 23.390625 74.21875 37.203125 74.21875 
Q 40.921875 74.21875 44.703125 73.484375 
Q 48.484375 72.75 52.59375 71.296875 
z
" id="DejaVuSans-54"/>
      </defs>
      <g style="fill:#262626;" transform="translate(15.00375 54.700418)scale(0.11 -0.11)">
       <use xlink:href="#DejaVuSans-54"/>
       <use x="63.623047" xlink:href="#DejaVuSans-48"/>
       <use x="127.246094" xlink:href="#DejaVuSans-48"/>
      </g>
     </g>
    </g>
   </g>
   <g id="line2d_9">
    <path clip-path="url(#pe0f28964aa)" d="M 49.780909 32.655455 
L 49.912024 49.995812 
L 50.174254 46.317555 
L 50.30537 47.368485 
L 50.436485 43.164762 
L 50.698715 87.303855 
L 50.960945 91.507578 
L 51.09206 113.051659 
L 51.223176 112.526194 
L 51.354291 105.169678 
L 51.485406 123.560967 
L 51.616521 108.322471 
L 51.747636 129.341086 
L 51.878751 113.051659 
L 52.009866 116.729917 
L 52.140981 141.42679 
L 52.403212 120.408175 
L 52.534327 130.917482 
L 52.665442 156.139821 
L 52.796557 148.783306 
L 52.927672 167.70006 
L 53.058787 164.021802 
L 53.189903 148.25784 
L 53.452133 180.836694 
L 53.583248 181.887625 
L 53.714363 157.716217 
L 53.845478 178.734833 
L 53.976593 160.343544 
L 54.238824 198.702518 
L 54.501054 182.938556 
L 54.632169 176.632971 
L 54.894399 203.957172 
L 55.15663 186.091348 
L 55.287745 191.871468 
L 55.549975 216.042875 
L 55.68109 208.68636 
L 55.812205 208.160895 
L 56.074435 230.230441 
L 56.205551 226.026718 
L 56.336666 214.466479 
L 56.467781 224.450322 
L 56.598896 215.51741 
L 56.861126 236.536026 
L 56.992241 231.806837 
L 57.123357 239.688818 
L 57.254472 228.654045 
L 57.385587 240.214283 
L 57.516702 238.637887 
L 57.647817 239.688818 
L 57.910047 230.230441 
L 58.172278 240.739749 
L 58.303393 228.654045 
L 58.565623 255.45278 
L 58.696738 234.959629 
L 58.958968 241.79068 
L 59.090084 260.181968 
L 59.221199 224.450322 
L 59.352314 255.45278 
L 59.483429 237.061491 
L 59.614544 257.554641 
L 59.876774 234.959629 
L 60.139005 249.67266 
L 60.27012 243.367076 
L 60.401235 258.605572 
L 60.53235 250.723591 
L 60.663465 256.50371 
L 60.925695 242.316145 
L 61.056811 257.029176 
L 61.187926 252.299987 
L 61.319041 264.911157 
L 61.581271 253.876384 
L 61.712386 256.50371 
L 61.843501 264.911157 
L 61.974616 250.723591 
L 62.236847 274.894999 
L 62.367962 249.67266 
L 62.630192 264.385691 
L 62.892422 258.080107 
L 63.023538 263.334761 
L 63.154653 273.844068 
L 63.285768 268.063949 
L 63.547998 274.369534 
L 63.679113 268.589414 
L 63.810228 257.554641 
L 63.941343 265.436622 
L 64.072459 263.334761 
L 64.334689 265.962087 
L 64.465804 276.471395 
L 64.596919 267.538484 
L 64.728034 270.691276 
L 64.990265 261.758364 
L 65.12138 264.911157 
L 65.252495 278.573257 
L 65.38361 272.793138 
L 65.514725 261.758364 
L 65.90807 267.538484 
L 66.039186 279.098722 
L 66.170301 268.589414 
L 66.301416 280.675118 
L 66.563646 272.793138 
L 66.694761 273.844068 
L 66.825876 272.267672 
L 66.956992 272.267672 
L 67.088107 270.165811 
L 67.219222 273.844068 
L 67.481452 260.181968 
L 67.612567 281.200584 
L 67.743682 270.691276 
L 67.874797 286.980703 
L 68.268143 258.080107 
L 68.399258 270.165811 
L 68.530373 271.742207 
L 68.661488 281.726049 
L 68.792603 279.098722 
L 68.923719 270.165811 
L 69.054834 278.573257 
L 69.448179 265.436622 
L 69.579294 282.251515 
L 69.710409 269.11488 
L 69.841524 281.726049 
L 69.97264 250.723591 
L 70.23487 282.251515 
L 70.365985 270.165811 
L 70.4971 270.691276 
L 70.628215 263.334761 
L 70.75933 275.420464 
L 70.890445 269.11488 
L 71.021561 271.742207 
L 71.152676 280.149653 
L 71.283791 260.707434 
L 71.414906 274.369534 
L 71.546021 270.691276 
L 71.677136 281.726049 
L 71.939367 271.742207 
L 72.070482 270.691276 
L 72.201597 285.929772 
L 72.332712 275.94593 
L 72.463827 276.996861 
L 72.594942 287.506168 
L 72.857172 261.232899 
L 72.988288 290.133495 
L 73.119403 267.538484 
L 73.512748 274.894999 
L 73.643863 260.181968 
L 73.774978 280.675118 
L 73.906094 281.200584 
L 74.037209 271.216741 
L 74.168324 280.149653 
L 74.299439 276.996861 
L 74.430554 279.098722 
L 74.561669 290.658961 
L 74.692784 271.742207 
L 74.823899 285.404307 
L 75.08613 262.28383 
L 75.217245 283.302445 
L 75.34836 271.216741 
L 75.479475 282.77698 
L 75.741705 275.94593 
L 76.003936 278.047791 
L 76.135051 276.471395 
L 76.266166 287.506168 
L 76.397281 270.165811 
L 76.528396 272.267672 
L 76.659511 276.996861 
L 76.790626 275.94593 
L 76.921742 272.267672 
L 77.052857 285.929772 
L 77.183972 284.353376 
L 77.315087 274.369534 
L 77.446202 280.149653 
L 77.577317 263.860226 
L 77.839548 271.742207 
L 77.970663 269.640345 
L 78.101778 264.911157 
L 78.232893 278.047791 
L 78.364008 279.624188 
L 78.626238 274.369534 
L 78.757353 284.878841 
L 78.888469 280.149653 
L 79.019584 285.929772 
L 79.281814 274.369534 
L 79.412929 269.11488 
L 79.544044 281.200584 
L 79.675159 271.216741 
L 79.806275 275.94593 
L 79.93739 274.369534 
L 80.19962 291.709892 
L 80.330735 265.962087 
L 80.46185 276.996861 
L 80.592965 269.640345 
L 80.855196 285.404307 
L 80.986311 268.589414 
L 81.248541 274.894999 
L 81.379656 270.165811 
L 81.510771 275.420464 
L 81.641886 272.267672 
L 81.773002 287.506168 
L 81.904117 280.149653 
L 82.035232 296.964545 
L 82.166347 274.369534 
L 82.297462 272.267672 
L 82.428577 284.353376 
L 82.690807 267.538484 
L 82.821923 290.133495 
L 83.084153 275.94593 
L 83.215268 285.404307 
L 83.346383 282.77698 
L 83.477498 267.538484 
L 83.608613 269.11488 
L 83.739729 281.726049 
L 83.870844 280.675118 
L 84.001959 271.742207 
L 84.133074 280.149653 
L 84.395304 273.318603 
L 84.526419 274.894999 
L 84.657534 267.538484 
L 84.78865 286.980703 
L 84.919765 263.334761 
L 85.181995 274.369534 
L 85.31311 261.758364 
L 85.444225 277.522326 
L 85.837571 260.181968 
L 85.968686 280.149653 
L 86.099801 272.267672 
L 86.230916 273.844068 
L 86.362031 270.691276 
L 86.493146 282.77698 
L 86.624261 270.691276 
L 86.755377 271.742207 
L 86.886492 274.894999 
L 87.017607 269.640345 
L 87.148722 273.318603 
L 87.410952 268.589414 
L 87.542067 274.894999 
L 87.673183 264.911157 
L 87.804298 273.844068 
L 87.935413 272.267672 
L 88.066528 286.980703 
L 88.197643 273.844068 
L 88.328758 273.844068 
L 88.459873 269.640345 
L 88.590988 289.60803 
L 88.722104 285.404307 
L 88.853219 270.691276 
L 89.115449 277.522326 
L 89.246564 262.809295 
L 89.377679 274.894999 
L 89.508794 273.318603 
L 89.63991 276.996861 
L 89.771025 271.742207 
L 89.90214 273.844068 
L 90.033255 281.200584 
L 90.16437 278.573257 
L 90.295485 282.77698 
L 90.4266 270.691276 
L 90.688831 280.675118 
L 90.819946 270.691276 
L 90.951061 276.996861 
L 91.082176 275.420464 
L 91.213291 277.522326 
L 91.344406 275.420464 
L 91.606637 285.404307 
L 91.737752 262.809295 
L 91.868867 273.318603 
L 92.131097 268.063949 
L 92.262212 271.742207 
L 92.393327 271.742207 
L 92.524442 283.302445 
L 92.655558 280.149653 
L 92.786673 270.691276 
L 92.917788 275.94593 
L 93.048903 270.165811 
L 93.311133 280.149653 
L 93.442248 275.94593 
L 93.835594 292.235357 
L 93.966709 272.267672 
L 94.097824 276.471395 
L 94.228939 270.691276 
L 94.360054 276.996861 
L 94.622285 269.11488 
L 94.7534 280.149653 
L 94.884515 280.149653 
L 95.01563 269.640345 
L 95.27786 271.216741 
L 95.408975 279.098722 
L 95.54009 264.385691 
L 95.671206 281.200584 
L 95.802321 282.251515 
L 95.933436 272.267672 
L 96.064551 273.318603 
L 96.457896 281.726049 
L 96.589012 269.11488 
L 96.851242 293.286288 
L 96.982357 273.844068 
L 97.113472 272.267672 
L 97.375702 284.353376 
L 97.506817 264.385691 
L 97.900163 279.624188 
L 98.031278 282.77698 
L 98.162393 280.675118 
L 98.424623 260.707434 
L 98.555739 281.200584 
L 98.686854 270.691276 
L 98.949084 287.506168 
L 99.080199 276.471395 
L 99.211314 274.894999 
L 99.342429 281.200584 
L 99.473544 273.318603 
L 99.735775 276.996861 
L 99.998005 290.658961 
L 100.12912 277.522326 
L 100.260235 282.251515 
L 100.39135 282.77698 
L 100.522466 274.894999 
L 100.653581 273.844068 
L 100.784696 279.624188 
L 100.915811 273.318603 
L 101.046926 283.827911 
L 101.178041 271.742207 
L 101.309156 272.793138 
L 101.440271 268.589414 
L 101.571387 284.353376 
L 101.833617 265.962087 
L 101.964732 267.013018 
L 102.095847 277.522326 
L 102.358077 269.11488 
L 102.489193 285.404307 
L 102.751423 265.436622 
L 102.882538 279.098722 
L 103.275883 259.656503 
L 103.406998 279.098722 
L 103.538114 268.063949 
L 103.669229 279.624188 
L 103.800344 278.047791 
L 104.062574 284.878841 
L 104.193689 269.11488 
L 104.324804 269.640345 
L 104.45592 279.624188 
L 104.71815 268.063949 
L 104.849265 280.675118 
L 104.98038 270.165811 
L 105.111495 278.573257 
L 105.24261 267.538484 
L 105.373725 281.200584 
L 105.635956 276.471395 
L 105.767071 281.726049 
L 106.029301 269.11488 
L 106.160416 279.624188 
L 106.291531 275.94593 
L 106.422647 282.251515 
L 106.553762 281.726049 
L 106.684877 273.844068 
L 106.815992 280.675118 
L 106.947107 272.793138 
L 107.078222 282.77698 
L 107.209337 281.200584 
L 107.340452 274.894999 
L 107.471568 277.522326 
L 107.602683 268.589414 
L 107.733798 287.506168 
L 107.996028 269.640345 
L 108.127143 273.844068 
L 108.258258 271.742207 
L 108.651604 283.302445 
L 108.782719 276.471395 
L 108.913834 278.047791 
L 109.044949 274.369534 
L 109.176064 296.43908 
L 109.307179 270.691276 
L 109.56941 279.624188 
L 109.83164 268.589414 
L 109.962755 278.047791 
L 110.09387 274.894999 
L 110.224985 280.675118 
L 110.487216 277.522326 
L 110.618331 278.573257 
L 110.749446 271.216741 
L 110.880561 281.726049 
L 111.011676 272.267672 
L 111.142791 281.726049 
L 111.273906 271.216741 
L 111.405022 273.318603 
L 111.536137 273.318603 
L 111.798367 286.980703 
L 112.060597 263.860226 
L 112.322828 283.827911 
L 112.453943 280.149653 
L 112.585058 270.691276 
L 112.716173 287.506168 
L 112.847288 286.455238 
L 112.978403 282.77698 
L 113.109518 274.369534 
L 113.240633 273.844068 
L 113.371749 272.793138 
L 113.502864 287.506168 
L 113.633979 274.369534 
L 113.765094 275.420464 
L 113.896209 269.11488 
L 114.027324 273.318603 
L 114.158439 282.251515 
L 114.289555 279.624188 
L 114.42067 286.980703 
L 114.814015 259.656503 
L 114.94513 286.455238 
L 115.076245 273.318603 
L 115.20736 273.844068 
L 115.338476 270.691276 
L 115.469591 279.624188 
L 115.731821 273.318603 
L 115.862936 283.302445 
L 115.994051 280.149653 
L 116.125166 281.200584 
L 116.256281 280.675118 
L 116.387397 285.404307 
L 116.518512 281.200584 
L 116.649627 269.640345 
L 116.780742 270.165811 
L 116.911857 284.878841 
L 117.174087 267.013018 
L 117.305203 273.844068 
L 117.436318 274.369534 
L 117.567433 276.471395 
L 117.698548 269.11488 
L 117.829663 275.420464 
L 117.960778 268.589414 
L 118.091893 268.063949 
L 118.223008 278.573257 
L 118.616354 272.793138 
L 118.747469 281.726049 
L 118.878584 273.844068 
L 119.009699 276.996861 
L 119.140814 284.878841 
L 119.403045 274.369534 
L 119.53416 287.506168 
L 119.665275 269.640345 
L 119.79639 283.302445 
L 119.927505 283.827911 
L 120.05862 291.184426 
L 120.189735 265.962087 
L 120.320851 290.658961 
L 120.451966 285.929772 
L 120.583081 275.420464 
L 120.714196 284.353376 
L 120.845311 281.200584 
L 120.976426 272.267672 
L 121.107541 280.149653 
L 121.238657 277.522326 
L 121.369772 270.165811 
L 121.632002 282.77698 
L 121.894232 267.013018 
L 122.025347 280.149653 
L 122.156462 276.471395 
L 122.287578 290.658961 
L 122.418693 277.522326 
L 122.549808 280.149653 
L 122.680923 279.624188 
L 122.812038 291.709892 
L 122.943153 262.28383 
L 123.205384 275.94593 
L 123.336499 263.860226 
L 123.598729 281.200584 
L 123.729844 281.726049 
L 123.992074 265.436622 
L 124.254305 268.063949 
L 124.516535 289.082565 
L 124.64765 284.878841 
L 124.778765 284.353376 
L 124.90988 270.691276 
L 125.040995 280.675118 
L 125.172111 281.200584 
L 125.434341 264.385691 
L 125.696571 282.251515 
L 125.827686 289.082565 
L 125.958801 284.878841 
L 126.089916 275.420464 
L 126.221032 285.404307 
L 126.352147 283.827911 
L 126.483262 276.996861 
L 126.614377 276.471395 
L 126.745492 282.251515 
L 126.876607 282.251515 
L 127.007722 288.031634 
L 127.269953 273.318603 
L 127.663298 286.980703 
L 127.925528 268.589414 
L 128.056643 276.471395 
L 128.318874 263.860226 
L 128.581104 283.302445 
L 128.712219 285.929772 
L 128.843334 266.487553 
L 128.974449 272.267672 
L 129.105565 269.640345 
L 129.23668 288.557099 
L 129.630025 269.11488 
L 129.76114 265.962087 
L 129.892255 276.471395 
L 130.02337 268.589414 
L 130.285601 280.149653 
L 130.416716 281.726049 
L 130.547831 276.471395 
L 130.678946 260.707434 
L 130.810061 273.318603 
L 130.941176 263.860226 
L 131.072292 279.098722 
L 131.203407 278.047791 
L 131.334522 273.318603 
L 131.465637 286.455238 
L 131.596752 285.404307 
L 131.727867 273.844068 
L 131.858982 272.793138 
L 131.990097 275.420464 
L 132.121213 267.538484 
L 132.252328 272.793138 
L 132.383443 263.334761 
L 132.514558 278.573257 
L 132.645673 269.11488 
L 132.776788 269.11488 
L 133.039019 277.522326 
L 133.170134 270.165811 
L 133.301249 279.098722 
L 133.432364 278.047791 
L 133.694594 272.267672 
L 133.825709 277.522326 
L 133.956824 277.522326 
L 134.35017 282.77698 
L 134.6124 268.063949 
L 134.743515 262.28383 
L 134.87463 290.133495 
L 135.005746 276.996861 
L 135.136861 277.522326 
L 135.267976 288.031634 
L 135.399091 285.929772 
L 135.399091 285.929772 
" style="fill:none;stroke:#4c72b0;stroke-linecap:round;stroke-width:1.5;"/>
   </g>
   <g id="line2d_10">
    <path clip-path="url(#pe0f28964aa)" d="M 49.780909 32.655455 
L 49.912024 50.390825 
L 50.043139 49.503499 
L 50.174254 50.810953 
L 50.436485 54.716107 
L 50.698715 80.365907 
L 50.960945 85.590078 
L 51.223176 95.769185 
L 51.354291 96.306806 
L 51.485406 102.58532 
L 51.616521 102.356034 
L 51.747636 108.54866 
L 51.878751 109.066554 
L 54.369939 174.65676 
L 55.68109 201.16155 
L 56.730011 217.748572 
L 57.647817 229.244913 
L 58.696738 239.529095 
L 59.614544 246.533993 
L 60.663465 252.804295 
L 61.712386 257.733891 
L 62.892422 262.150136 
L 63.941343 265.297011 
L 64.990265 267.787573 
L 65.90807 269.46611 
L 66.825876 270.733053 
L 67.874797 271.791746 
L 69.054834 272.66082 
L 70.75933 273.605269 
L 74.692784 275.479567 
L 76.790626 276.217728 
L 78.495123 276.594343 
L 79.806275 276.68245 
L 80.986311 276.53475 
L 82.166347 276.138467 
L 84.133074 275.159748 
L 85.706456 274.494262 
L 86.755377 274.265254 
L 87.804298 274.267573 
L 88.984334 274.522732 
L 91.213291 275.331943 
L 93.311133 275.953368 
L 95.671206 276.431999 
L 97.244587 276.561726 
L 98.555739 276.457862 
L 100.260235 276.07923 
L 102.489193 275.615633 
L 103.800344 275.559736 
L 105.111495 275.736492 
L 107.209337 276.317412 
L 109.176064 276.749809 
L 110.880561 276.879272 
L 113.240633 276.788203 
L 115.731821 276.745174 
L 117.567433 276.979781 
L 122.549808 277.714475 
L 123.992074 277.722365 
L 125.434341 277.497895 
L 127.007722 277.013146 
L 130.547831 275.80516 
L 131.465637 275.847262 
L 132.383443 276.142327 
L 135.399091 277.471253 
L 135.399091 277.471253 
" style="fill:none;stroke:#dd8452;stroke-linecap:round;stroke-width:1.5;"/>
   </g>
   <g id="patch_3">
    <path d="M 45.5 310.18 
L 45.5 19.44 
" style="fill:none;stroke:#ffffff;stroke-linecap:square;stroke-linejoin:miter;stroke-width:1.25;"/>
   </g>
   <g id="patch_4">
    <path d="M 139.68 310.18 
L 139.68 19.44 
" style="fill:none;stroke:#ffffff;stroke-linecap:square;stroke-linejoin:miter;stroke-width:1.25;"/>
   </g>
   <g id="patch_5">
    <path d="M 45.5 310.18 
L 139.68 310.18 
" style="fill:none;stroke:#ffffff;stroke-linecap:square;stroke-linejoin:miter;stroke-width:1.25;"/>
   </g>
   <g id="patch_6">
    <path d="M 45.5 19.44 
L 139.68 19.44 
" style="fill:none;stroke:#ffffff;stroke-linecap:square;stroke-linejoin:miter;stroke-width:1.25;"/>
   </g>
  </g>
  <g id="axes_2">
   <g id="patch_7">
    <path d="M 196.34 310.18 
L 290.52 310.18 
L 290.52 19.44 
L 196.34 19.44 
z
" style="fill:#eaeaf2;"/>
   </g>
   <g id="matplotlib.axis_3">
    <g id="xtick_4">
     <g id="line2d_11">
      <path clip-path="url(#p74016cc6a6)" d="M 201.4076 310.18 
L 201.4076 19.44 
" style="fill:none;stroke:#ffffff;stroke-linecap:round;"/>
     </g>
     <g id="text_9">
      <!-- 0.00035 -->
      <g style="fill:#262626;" transform="translate(178.663381 328.038281)scale(0.11 -0.11)">
       <use xlink:href="#DejaVuSans-48"/>
       <use x="63.623047" xlink:href="#DejaVuSans-46"/>
       <use x="95.410156" xlink:href="#DejaVuSans-48"/>
       <use x="159.033203" xlink:href="#DejaVuSans-48"/>
       <use x="222.65625" xlink:href="#DejaVuSans-48"/>
       <use x="286.279297" xlink:href="#DejaVuSans-51"/>
       <use x="349.902344" xlink:href="#DejaVuSans-53"/>
      </g>
     </g>
    </g>
    <g id="xtick_5">
     <g id="line2d_12">
      <path clip-path="url(#p74016cc6a6)" d="M 266.965166 310.18 
L 266.965166 19.44 
" style="fill:none;stroke:#ffffff;stroke-linecap:round;"/>
     </g>
     <g id="text_10">
      <!-- 0.00040 -->
      <g style="fill:#262626;" transform="translate(244.220948 328.038281)scale(0.11 -0.11)">
       <use xlink:href="#DejaVuSans-48"/>
       <use x="63.623047" xlink:href="#DejaVuSans-46"/>
       <use x="95.410156" xlink:href="#DejaVuSans-48"/>
       <use x="159.033203" xlink:href="#DejaVuSans-48"/>
       <use x="222.65625" xlink:href="#DejaVuSans-48"/>
       <use x="286.279297" xlink:href="#DejaVuSans-52"/>
       <use x="349.902344" xlink:href="#DejaVuSans-48"/>
      </g>
     </g>
    </g>
   </g>
   <g id="matplotlib.axis_4">
    <g id="ytick_6">
     <g id="line2d_13">
      <path clip-path="url(#p74016cc6a6)" d="M 196.34 280.64479 
L 290.52 280.64479 
" style="fill:none;stroke:#ffffff;stroke-linecap:round;"/>
     </g>
     <g id="text_11">
      <!-- 200 -->
      <g style="fill:#262626;" transform="translate(165.84375 284.82393)scale(0.11 -0.11)">
       <use xlink:href="#DejaVuSans-50"/>
       <use x="63.623047" xlink:href="#DejaVuSans-48"/>
       <use x="127.246094" xlink:href="#DejaVuSans-48"/>
      </g>
     </g>
    </g>
    <g id="ytick_7">
     <g id="line2d_14">
      <path clip-path="url(#p74016cc6a6)" d="M 196.34 245.167059 
L 290.52 245.167059 
" style="fill:none;stroke:#ffffff;stroke-linecap:round;"/>
     </g>
     <g id="text_12">
      <!-- 300 -->
      <g style="fill:#262626;" transform="translate(165.84375 249.3462)scale(0.11 -0.11)">
       <use xlink:href="#DejaVuSans-51"/>
       <use x="63.623047" xlink:href="#DejaVuSans-48"/>
       <use x="127.246094" xlink:href="#DejaVuSans-48"/>
      </g>
     </g>
    </g>
    <g id="ytick_8">
     <g id="line2d_15">
      <path clip-path="url(#p74016cc6a6)" d="M 196.34 209.689329 
L 290.52 209.689329 
" style="fill:none;stroke:#ffffff;stroke-linecap:round;"/>
     </g>
     <g id="text_13">
      <!-- 400 -->
      <g style="fill:#262626;" transform="translate(165.84375 213.868469)scale(0.11 -0.11)">
       <use xlink:href="#DejaVuSans-52"/>
       <use x="63.623047" xlink:href="#DejaVuSans-48"/>
       <use x="127.246094" xlink:href="#DejaVuSans-48"/>
      </g>
     </g>
    </g>
    <g id="ytick_9">
     <g id="line2d_16">
      <path clip-path="url(#p74016cc6a6)" d="M 196.34 174.211599 
L 290.52 174.211599 
" style="fill:none;stroke:#ffffff;stroke-linecap:round;"/>
     </g>
     <g id="text_14">
      <!-- 500 -->
      <g style="fill:#262626;" transform="translate(165.84375 178.390739)scale(0.11 -0.11)">
       <use xlink:href="#DejaVuSans-53"/>
       <use x="63.623047" xlink:href="#DejaVuSans-48"/>
       <use x="127.246094" xlink:href="#DejaVuSans-48"/>
      </g>
     </g>
    </g>
    <g id="ytick_10">
     <g id="line2d_17">
      <path clip-path="url(#p74016cc6a6)" d="M 196.34 138.733868 
L 290.52 138.733868 
" style="fill:none;stroke:#ffffff;stroke-linecap:round;"/>
     </g>
     <g id="text_15">
      <!-- 600 -->
      <g style="fill:#262626;" transform="translate(165.84375 142.913009)scale(0.11 -0.11)">
       <use xlink:href="#DejaVuSans-54"/>
       <use x="63.623047" xlink:href="#DejaVuSans-48"/>
       <use x="127.246094" xlink:href="#DejaVuSans-48"/>
      </g>
     </g>
    </g>
    <g id="ytick_11">
     <g id="line2d_18">
      <path clip-path="url(#p74016cc6a6)" d="M 196.34 103.256138 
L 290.52 103.256138 
" style="fill:none;stroke:#ffffff;stroke-linecap:round;"/>
     </g>
     <g id="text_16">
      <!-- 700 -->
      <g style="fill:#262626;" transform="translate(165.84375 107.435279)scale(0.11 -0.11)">
       <use xlink:href="#DejaVuSans-55"/>
       <use x="63.623047" xlink:href="#DejaVuSans-48"/>
       <use x="127.246094" xlink:href="#DejaVuSans-48"/>
      </g>
     </g>
    </g>
    <g id="ytick_12">
     <g id="line2d_19">
      <path clip-path="url(#p74016cc6a6)" d="M 196.34 67.778408 
L 290.52 67.778408 
" style="fill:none;stroke:#ffffff;stroke-linecap:round;"/>
     </g>
     <g id="text_17">
      <!-- 800 -->
      <defs>
       <path d="M 31.78125 34.625 
Q 24.75 34.625 20.71875 30.859375 
Q 16.703125 27.09375 16.703125 20.515625 
Q 16.703125 13.921875 20.71875 10.15625 
Q 24.75 6.390625 31.78125 6.390625 
Q 38.8125 6.390625 42.859375 10.171875 
Q 46.921875 13.96875 46.921875 20.515625 
Q 46.921875 27.09375 42.890625 30.859375 
Q 38.875 34.625 31.78125 34.625 
z
M 21.921875 38.8125 
Q 15.578125 40.375 12.03125 44.71875 
Q 8.5 49.078125 8.5 55.328125 
Q 8.5 64.0625 14.71875 69.140625 
Q 20.953125 74.21875 31.78125 74.21875 
Q 42.671875 74.21875 48.875 69.140625 
Q 55.078125 64.0625 55.078125 55.328125 
Q 55.078125 49.078125 51.53125 44.71875 
Q 48 40.375 41.703125 38.8125 
Q 48.828125 37.15625 52.796875 32.3125 
Q 56.78125 27.484375 56.78125 20.515625 
Q 56.78125 9.90625 50.3125 4.234375 
Q 43.84375 -1.421875 31.78125 -1.421875 
Q 19.734375 -1.421875 13.25 4.234375 
Q 6.78125 9.90625 6.78125 20.515625 
Q 6.78125 27.484375 10.78125 32.3125 
Q 14.796875 37.15625 21.921875 38.8125 
z
M 18.3125 54.390625 
Q 18.3125 48.734375 21.84375 45.5625 
Q 25.390625 42.390625 31.78125 42.390625 
Q 38.140625 42.390625 41.71875 45.5625 
Q 45.3125 48.734375 45.3125 54.390625 
Q 45.3125 60.0625 41.71875 63.234375 
Q 38.140625 66.40625 31.78125 66.40625 
Q 25.390625 66.40625 21.84375 63.234375 
Q 18.3125 60.0625 18.3125 54.390625 
z
" id="DejaVuSans-56"/>
      </defs>
      <g style="fill:#262626;" transform="translate(165.84375 71.957548)scale(0.11 -0.11)">
       <use xlink:href="#DejaVuSans-56"/>
       <use x="63.623047" xlink:href="#DejaVuSans-48"/>
       <use x="127.246094" xlink:href="#DejaVuSans-48"/>
      </g>
     </g>
    </g>
    <g id="ytick_13">
     <g id="line2d_20">
      <path clip-path="url(#p74016cc6a6)" d="M 196.34 32.300677 
L 290.52 32.300677 
" style="fill:none;stroke:#ffffff;stroke-linecap:round;"/>
     </g>
     <g id="text_18">
      <!-- 900 -->
      <defs>
       <path d="M 10.984375 1.515625 
L 10.984375 10.5 
Q 14.703125 8.734375 18.5 7.8125 
Q 22.3125 6.890625 25.984375 6.890625 
Q 35.75 6.890625 40.890625 13.453125 
Q 46.046875 20.015625 46.78125 33.40625 
Q 43.953125 29.203125 39.59375 26.953125 
Q 35.25 24.703125 29.984375 24.703125 
Q 19.046875 24.703125 12.671875 31.3125 
Q 6.296875 37.9375 6.296875 49.421875 
Q 6.296875 60.640625 12.9375 67.421875 
Q 19.578125 74.21875 30.609375 74.21875 
Q 43.265625 74.21875 49.921875 64.515625 
Q 56.59375 54.828125 56.59375 36.375 
Q 56.59375 19.140625 48.40625 8.859375 
Q 40.234375 -1.421875 26.421875 -1.421875 
Q 22.703125 -1.421875 18.890625 -0.6875 
Q 15.09375 0.046875 10.984375 1.515625 
z
M 30.609375 32.421875 
Q 37.25 32.421875 41.125 36.953125 
Q 45.015625 41.5 45.015625 49.421875 
Q 45.015625 57.28125 41.125 61.84375 
Q 37.25 66.40625 30.609375 66.40625 
Q 23.96875 66.40625 20.09375 61.84375 
Q 16.21875 57.28125 16.21875 49.421875 
Q 16.21875 41.5 20.09375 36.953125 
Q 23.96875 32.421875 30.609375 32.421875 
z
" id="DejaVuSans-57"/>
      </defs>
      <g style="fill:#262626;" transform="translate(165.84375 36.479818)scale(0.11 -0.11)">
       <use xlink:href="#DejaVuSans-57"/>
       <use x="63.623047" xlink:href="#DejaVuSans-48"/>
       <use x="127.246094" xlink:href="#DejaVuSans-48"/>
      </g>
     </g>
    </g>
   </g>
   <g id="line2d_21">
    <path clip-path="url(#p74016cc6a6)" d="M 200.620909 32.655455 
L 200.752024 65.294966 
L 200.883139 64.585412 
L 201.014254 70.616626 
L 201.14537 63.875857 
L 201.276485 85.87205 
L 201.4076 74.519176 
L 201.538715 80.55039 
L 202.063176 142.281641 
L 202.194291 136.959982 
L 202.325406 146.893746 
L 202.456521 144.410305 
L 202.587636 128.445326 
L 202.849866 169.954271 
L 202.980981 174.921153 
L 203.112097 144.410305 
L 203.374327 179.533258 
L 203.767672 195.853014 
L 203.898787 191.240909 
L 204.029903 181.307145 
L 204.161018 194.433905 
L 204.292133 185.91925 
L 204.554363 208.27022 
L 204.685478 207.915442 
L 204.947708 220.332648 
L 205.209939 217.49443 
L 205.472169 231.330744 
L 205.603284 227.782971 
L 205.734399 242.683618 
L 205.865514 227.428194 
L 205.99663 243.038395 
L 206.127745 225.654308 
L 206.25886 228.847303 
L 206.389975 249.779164 
L 206.652205 239.135845 
L 206.78332 249.424387 
L 206.914435 245.876614 
L 207.045551 248.005278 
L 207.176666 246.231391 
L 207.307781 254.036492 
L 207.438896 255.100824 
L 207.570011 237.361959 
L 207.701126 251.553051 
L 207.832241 250.488719 
L 207.963357 247.6505 
L 208.094472 252.262605 
L 208.225587 248.005278 
L 208.487817 259.712929 
L 208.618932 260.777261 
L 208.750047 259.358151 
L 208.881162 266.808475 
L 209.012278 259.712929 
L 209.143393 259.358151 
L 209.274508 270.356248 
L 209.536738 260.422483 
L 209.798968 269.646693 
L 209.930084 265.744143 
L 210.061199 268.937138 
L 210.192314 268.227584 
L 210.323429 264.325034 
L 210.454544 280.64479 
L 210.716774 271.065802 
L 210.847889 272.839689 
L 210.979005 271.065802 
L 211.241235 280.999567 
L 211.503465 266.453697 
L 211.765695 276.032685 
L 211.896811 276.032685 
L 212.027926 272.484912 
L 212.159041 273.194466 
L 212.290156 272.839689 
L 212.552386 277.806571 
L 212.683501 271.065802 
L 212.945732 282.063899 
L 213.076847 281.709121 
L 213.207962 274.613575 
L 213.339077 280.999567 
L 213.470192 270.711025 
L 213.732422 284.902117 
L 213.863538 272.839689 
L 214.125768 274.613575 
L 214.256883 280.290012 
L 214.387998 277.806571 
L 214.519113 287.385558 
L 214.781343 268.937138 
L 214.912459 284.902117 
L 215.043574 284.902117 
L 215.174689 280.999567 
L 215.568034 289.159445 
L 215.699149 287.740336 
L 215.830265 280.64479 
L 215.96138 281.709121 
L 216.22361 288.804667 
L 216.354725 280.290012 
L 216.616955 285.966449 
L 216.74807 294.481104 
L 217.010301 275.677907 
L 217.141416 282.773453 
L 217.272531 277.097016 
L 217.403646 284.192563 
L 217.534761 281.354344 
L 217.796992 284.902117 
L 217.928107 284.192563 
L 218.059222 286.676004 
L 218.190337 274.258798 
L 218.452567 290.223777 
L 218.583682 279.935235 
L 218.845913 289.514222 
L 218.977028 275.677907 
L 219.108143 277.097016 
L 219.239258 281.709121 
L 219.370373 281.354344 
L 219.501488 282.773453 
L 219.632603 281.709121 
L 219.763719 281.709121 
L 219.894834 288.804667 
L 220.157064 283.837785 
L 220.419294 286.676004 
L 220.550409 275.677907 
L 220.681524 278.161348 
L 220.81264 277.806571 
L 220.943755 287.740336 
L 221.07487 278.870903 
L 221.205985 287.030781 
L 221.3371 280.290012 
L 221.468215 290.933331 
L 221.730445 284.192563 
L 221.992676 288.44989 
L 222.123791 288.44989 
L 222.517136 280.290012 
L 222.648251 280.290012 
L 222.779367 287.030781 
L 222.910482 286.321226 
L 223.041597 278.161348 
L 223.172712 285.611672 
L 223.303827 283.483008 
L 223.434942 290.223777 
L 223.697172 279.580458 
L 223.828288 278.161348 
L 223.959403 290.578554 
L 224.090518 286.321226 
L 224.221633 286.676004 
L 224.352748 276.742239 
L 224.483863 286.676004 
L 224.614978 284.902117 
L 224.746094 280.999567 
L 224.877209 289.868999 
L 225.139439 272.130134 
L 225.401669 288.095113 
L 225.532784 287.385558 
L 225.663899 278.516126 
L 225.92613 290.578554 
L 226.057245 283.483008 
L 226.319475 288.44989 
L 226.45059 286.676004 
L 226.581705 289.514222 
L 226.843936 275.32313 
L 226.975051 280.290012 
L 227.106166 278.516126 
L 227.237281 285.611672 
L 227.368396 282.063899 
L 227.499511 289.868999 
L 227.630626 280.999567 
L 228.023972 289.514222 
L 228.155087 284.54734 
L 228.286202 284.54734 
L 228.417317 287.030781 
L 228.679548 280.64479 
L 228.810663 289.514222 
L 228.941778 286.676004 
L 229.072893 287.740336 
L 229.204008 282.063899 
L 229.335123 290.933331 
L 229.597353 282.063899 
L 229.728469 282.773453 
L 229.859584 278.870903 
L 229.990699 289.159445 
L 230.121814 280.64479 
L 230.252929 282.063899 
L 230.384044 287.030781 
L 230.515159 271.42058 
L 230.77739 285.966449 
L 230.908505 285.611672 
L 231.03962 283.483008 
L 231.170735 296.254991 
L 231.30185 295.900214 
L 231.56408 280.999567 
L 231.695196 287.030781 
L 231.826311 285.611672 
L 231.957426 280.290012 
L 232.088541 290.933331 
L 232.350771 287.385558 
L 232.481886 278.516126 
L 232.875232 281.709121 
L 233.006347 279.580458 
L 233.137462 280.999567 
L 233.399692 287.740336 
L 233.530807 277.451794 
L 233.661923 288.804667 
L 233.793038 284.192563 
L 233.924153 284.902117 
L 234.055268 283.837785 
L 234.186383 284.192563 
L 234.317498 288.095113 
L 234.579729 282.773453 
L 234.710844 269.646693 
L 234.841959 291.997663 
L 234.973074 282.418676 
L 235.104189 282.418676 
L 235.235304 287.385558 
L 235.366419 277.451794 
L 235.497534 279.935235 
L 235.62865 287.385558 
L 235.89088 276.032685 
L 236.021995 287.385558 
L 236.15311 288.804667 
L 236.284225 287.740336 
L 236.41534 282.418676 
L 236.546456 286.321226 
L 236.677571 280.999567 
L 236.808686 283.483008 
L 236.939801 293.77155 
L 237.070916 284.54734 
L 237.202031 288.804667 
L 237.333146 282.418676 
L 237.464261 286.321226 
L 237.595377 282.063899 
L 237.726492 287.030781 
L 237.857607 283.128231 
L 237.988722 290.933331 
L 238.119837 289.159445 
L 238.250952 291.642886 
L 238.382067 287.385558 
L 238.513183 288.44989 
L 238.644298 281.709121 
L 238.906528 282.773453 
L 239.037643 282.773453 
L 239.299873 289.159445 
L 239.562104 279.580458 
L 239.693219 280.290012 
L 239.824334 291.288109 
L 239.955449 284.902117 
L 240.086564 289.159445 
L 240.348794 284.54734 
L 240.47991 292.352441 
L 240.74214 287.030781 
L 240.873255 283.483008 
L 241.135485 290.933331 
L 241.2666 294.481104 
L 241.397715 288.804667 
L 241.528831 277.806571 
L 241.659946 278.516126 
L 241.791061 282.063899 
L 241.922176 282.418676 
L 242.053291 273.904021 
L 242.184406 290.933331 
L 242.315521 286.676004 
L 242.446637 287.030781 
L 242.577752 284.54734 
L 242.708867 288.095113 
L 242.839982 283.128231 
L 242.971097 283.837785 
L 243.233327 290.933331 
L 243.495558 284.54734 
L 243.626673 288.804667 
L 243.888903 277.097016 
L 244.020018 291.997663 
L 244.282248 277.451794 
L 244.413363 280.290012 
L 244.806709 294.835882 
L 244.937824 287.030781 
L 245.200054 292.352441 
L 245.331169 292.707218 
L 245.5934 280.999567 
L 245.724515 278.516126 
L 245.85563 285.256894 
L 245.986745 279.22568 
L 246.38009 293.061995 
L 246.642321 283.837785 
L 246.773436 285.966449 
L 247.035666 280.290012 
L 247.166781 288.095113 
L 247.297896 285.611672 
L 247.429012 293.77155 
L 247.560127 280.290012 
L 247.691242 290.933331 
L 247.822357 277.097016 
L 247.953472 287.030781 
L 248.084587 287.385558 
L 248.215702 285.966449 
L 248.346817 281.709121 
L 248.477933 290.223777 
L 248.609048 288.095113 
L 248.740163 288.44989 
L 248.871278 280.290012 
L 249.002393 283.128231 
L 249.133508 282.773453 
L 249.264623 282.773453 
L 249.395739 288.44989 
L 249.526854 282.773453 
L 249.657969 285.256894 
L 249.789084 279.935235 
L 249.920199 285.611672 
L 250.051314 278.516126 
L 250.182429 284.902117 
L 250.313544 284.192563 
L 250.44466 295.545436 
L 250.575775 284.54734 
L 250.838005 285.966449 
L 250.96912 278.516126 
L 251.100235 277.806571 
L 251.362466 285.966449 
L 251.493581 284.54734 
L 251.624696 286.676004 
L 251.886926 275.32313 
L 252.149156 288.095113 
L 252.280271 286.676004 
L 252.411387 287.740336 
L 252.673617 279.935235 
L 252.804732 289.159445 
L 252.935847 289.159445 
L 253.066962 283.483008 
L 253.198077 294.835882 
L 253.329193 282.773453 
L 253.722538 286.676004 
L 253.984768 281.354344 
L 254.115883 282.773453 
L 254.378114 292.707218 
L 254.509229 286.321226 
L 254.640344 290.933331 
L 254.902574 283.837785 
L 255.033689 289.159445 
L 255.164804 289.868999 
L 255.29592 294.481104 
L 255.55815 284.54734 
L 255.689265 292.352441 
L 255.82038 291.997663 
L 255.951495 285.966449 
L 256.08261 287.385558 
L 256.213725 267.872807 
L 256.475956 284.902117 
L 256.607071 275.677907 
L 256.738186 287.385558 
L 256.869301 280.999567 
L 257.000416 289.514222 
L 257.131531 289.159445 
L 257.262647 277.806571 
L 257.393762 280.290012 
L 257.524877 289.514222 
L 257.655992 286.676004 
L 257.787107 288.095113 
L 257.918222 287.740336 
L 258.049337 279.22568 
L 258.180452 282.418676 
L 258.311568 282.418676 
L 258.442683 284.54734 
L 258.573798 291.288109 
L 258.704913 291.288109 
L 258.836028 274.968353 
L 258.967143 284.902117 
L 259.098258 282.063899 
L 259.229374 287.030781 
L 259.360489 282.063899 
L 259.491604 283.483008 
L 259.622719 290.223777 
L 259.753834 277.097016 
L 259.884949 289.868999 
L 260.016064 283.837785 
L 260.147179 290.578554 
L 260.40941 287.030781 
L 260.540525 281.709121 
L 260.802755 295.545436 
L 260.93387 282.063899 
L 261.064985 282.773453 
L 261.196101 296.609768 
L 261.327216 288.44989 
L 261.458331 287.740336 
L 261.589446 288.44989 
L 261.720561 287.385558 
L 261.851676 281.709121 
L 261.982791 282.418676 
L 262.113906 273.904021 
L 262.245022 278.161348 
L 262.507252 294.835882 
L 262.638367 291.997663 
L 262.769482 295.545436 
L 262.900597 287.385558 
L 263.031712 288.804667 
L 263.162828 278.516126 
L 263.293943 287.030781 
L 263.425058 279.935235 
L 263.556173 281.709121 
L 263.687288 289.868999 
L 263.818403 287.030781 
L 263.949518 278.870903 
L 264.080633 296.254991 
L 264.342864 277.097016 
L 264.473979 279.580458 
L 264.605094 287.740336 
L 264.736209 284.902117 
L 264.867324 291.288109 
L 264.998439 284.54734 
L 265.129555 286.676004 
L 265.26067 290.933331 
L 265.5229 282.063899 
L 265.78513 291.997663 
L 265.916245 281.709121 
L 266.04736 283.837785 
L 266.178476 280.64479 
L 266.440706 293.416772 
L 266.571821 291.288109 
L 266.702936 279.22568 
L 266.834051 287.740336 
L 266.965166 282.063899 
L 267.096281 290.223777 
L 267.358512 275.32313 
L 267.489627 288.095113 
L 267.620742 283.837785 
L 267.751857 290.223777 
L 268.014087 281.354344 
L 268.276318 293.416772 
L 268.407433 291.288109 
L 268.669663 283.837785 
L 268.800778 282.773453 
L 268.931893 287.740336 
L 269.063008 280.64479 
L 269.194124 295.900214 
L 269.456354 285.256894 
L 269.587469 292.707218 
L 269.718584 291.997663 
L 269.980814 289.159445 
L 270.11193 296.609768 
L 270.243045 282.063899 
L 270.37416 294.126327 
L 270.505275 287.030781 
L 270.63639 289.868999 
L 270.767505 288.095113 
L 270.89862 279.22568 
L 271.029735 283.483008 
L 271.160851 296.254991 
L 271.291966 280.64479 
L 271.423081 284.54734 
L 271.554196 281.354344 
L 271.685311 283.483008 
L 271.816426 280.64479 
L 272.209772 288.44989 
L 272.340887 286.321226 
L 272.472002 277.451794 
L 272.865347 293.77155 
L 272.996462 293.77155 
L 273.127578 282.418676 
L 273.389808 287.385558 
L 273.520923 280.290012 
L 273.652038 284.902117 
L 273.783153 284.54734 
L 273.914268 290.223777 
L 274.045384 274.613575 
L 274.176499 289.159445 
L 274.307614 278.870903 
L 274.438729 293.77155 
L 274.569844 275.32313 
L 274.700959 288.095113 
L 274.832074 279.580458 
L 275.094305 292.707218 
L 275.22542 294.481104 
L 275.48765 278.161348 
L 275.74988 287.740336 
L 275.880995 288.804667 
L 276.012111 285.256894 
L 276.143226 293.77155 
L 276.274341 287.030781 
L 276.405456 292.707218 
L 276.536571 288.44989 
L 276.667686 279.935235 
L 276.798801 280.999567 
L 276.929916 293.416772 
L 277.061032 280.999567 
L 277.192147 287.385558 
L 277.323262 281.709121 
L 277.454377 281.354344 
L 277.585492 284.902117 
L 277.716607 281.709121 
L 277.847722 292.352441 
L 277.978838 288.095113 
L 278.109953 296.964545 
L 278.241068 282.418676 
L 278.372183 284.192563 
L 278.634413 279.22568 
L 278.765528 291.642886 
L 278.896643 283.483008 
L 279.027759 282.773453 
L 279.158874 282.773453 
L 279.289989 282.063899 
L 279.552219 287.740336 
L 279.683334 275.32313 
L 279.945565 285.966449 
L 280.07668 286.676004 
L 280.207795 281.709121 
L 280.33891 285.256894 
L 280.470025 284.902117 
L 280.60114 285.611672 
L 280.732255 291.642886 
L 280.86337 284.902117 
L 281.125601 289.159445 
L 281.387831 277.806571 
L 281.518946 274.968353 
L 281.650061 284.902117 
L 281.781176 278.161348 
L 282.043407 290.578554 
L 282.174522 289.159445 
L 282.305637 290.933331 
L 282.436752 282.773453 
L 282.698982 283.483008 
L 282.830097 287.740336 
L 282.961213 282.418676 
L 283.092328 284.192563 
L 283.223443 290.578554 
L 283.354558 281.709121 
L 283.485673 284.54734 
L 283.616788 291.642886 
L 283.747903 286.321226 
L 283.879019 276.032685 
L 284.010134 277.097016 
L 284.141249 294.835882 
L 284.272364 287.030781 
L 284.403479 290.933331 
L 284.534594 281.354344 
L 284.665709 281.354344 
L 284.796824 290.578554 
L 285.059055 282.773453 
L 285.19017 292.352441 
L 285.321285 288.095113 
L 285.4524 290.223777 
L 285.583515 286.321226 
L 285.71463 287.385558 
L 285.845746 283.837785 
L 286.239091 289.159445 
L 286.239091 289.159445 
" style="fill:none;stroke:#4c72b0;stroke-linecap:round;stroke-width:1.5;"/>
   </g>
   <g id="line2d_22">
    <path clip-path="url(#p74016cc6a6)" d="M 200.620909 32.655455 
L 200.752024 65.289773 
L 200.883139 65.234736 
L 201.014254 71.19691 
L 201.14537 67.368516 
L 201.276485 84.685175 
L 201.4076 78.61351 
L 201.538715 84.436996 
L 202.063176 122.960645 
L 202.194291 122.046648 
L 202.456521 128.629741 
L 202.587636 125.378896 
L 202.849866 143.226662 
L 202.980981 146.853905 
L 203.112097 141.530484 
L 203.505442 159.357958 
L 204.423248 183.483807 
L 204.947708 197.866155 
L 206.652205 232.18626 
L 207.307781 242.291375 
L 208.094472 251.633546 
L 209.143393 261.051843 
L 209.798968 265.464501 
L 210.716774 270.117781 
L 211.63458 273.576334 
L 212.552386 276.191798 
L 213.601307 278.420013 
L 214.519113 279.889079 
L 215.699149 281.283652 
L 216.879186 282.268792 
L 218.059222 282.936544 
L 219.370373 283.37851 
L 221.07487 283.678769 
L 226.581705 284.30522 
L 229.335123 284.401692 
L 234.186383 284.344128 
L 235.89088 284.688745 
L 240.348794 285.762891 
L 242.184406 285.844813 
L 244.151133 285.709164 
L 247.166781 285.248213 
L 249.395739 284.96343 
L 250.96912 285.000212 
L 258.311568 285.53688 
L 261.064985 285.731355 
L 265.916245 286.341972 
L 268.407433 286.671253 
L 270.11193 286.629628 
L 272.078657 286.335303 
L 279.158874 285.036878 
L 280.60114 285.023445 
L 281.912292 285.234225 
L 283.354558 285.704779 
L 286.239091 286.865831 
L 286.239091 286.865831 
" style="fill:none;stroke:#dd8452;stroke-linecap:round;stroke-width:1.5;"/>
   </g>
   <g id="patch_8">
    <path d="M 196.34 310.18 
L 196.34 19.44 
" style="fill:none;stroke:#ffffff;stroke-linecap:square;stroke-linejoin:miter;stroke-width:1.25;"/>
   </g>
   <g id="patch_9">
    <path d="M 290.52 310.18 
L 290.52 19.44 
" style="fill:none;stroke:#ffffff;stroke-linecap:square;stroke-linejoin:miter;stroke-width:1.25;"/>
   </g>
   <g id="patch_10">
    <path d="M 196.34 310.18 
L 290.52 310.18 
" style="fill:none;stroke:#ffffff;stroke-linecap:square;stroke-linejoin:miter;stroke-width:1.25;"/>
   </g>
   <g id="patch_11">
    <path d="M 196.34 19.44 
L 290.52 19.44 
" style="fill:none;stroke:#ffffff;stroke-linecap:square;stroke-linejoin:miter;stroke-width:1.25;"/>
   </g>
  </g>
  <g id="axes_3">
   <g id="patch_12">
    <path d="M 347.18 310.18 
L 441.36 310.18 
L 441.36 19.44 
L 347.18 19.44 
z
" style="fill:#eaeaf2;"/>
   </g>
   <g id="matplotlib.axis_5">
    <g id="xtick_6">
     <g id="line2d_23">
      <path clip-path="url(#pc971c0401e)" d="M 353.165406 310.18 
L 353.165406 19.44 
" style="fill:none;stroke:#ffffff;stroke-linecap:round;"/>
     </g>
     <g id="text_19">
      <!-- 0.000525 -->
      <g style="fill:#262626;" transform="translate(326.921812 328.038281)scale(0.11 -0.11)">
       <use xlink:href="#DejaVuSans-48"/>
       <use x="63.623047" xlink:href="#DejaVuSans-46"/>
       <use x="95.410156" xlink:href="#DejaVuSans-48"/>
       <use x="159.033203" xlink:href="#DejaVuSans-48"/>
       <use x="222.65625" xlink:href="#DejaVuSans-48"/>
       <use x="286.279297" xlink:href="#DejaVuSans-53"/>
       <use x="349.902344" xlink:href="#DejaVuSans-50"/>
       <use x="413.525391" xlink:href="#DejaVuSans-53"/>
      </g>
     </g>
    </g>
    <g id="xtick_7">
     <g id="line2d_24">
      <path clip-path="url(#pc971c0401e)" d="M 385.944189 310.18 
L 385.944189 19.44 
" style="fill:none;stroke:#ffffff;stroke-linecap:round;"/>
     </g>
     <g id="text_20">
      <!-- 0.000550 -->
      <g style="fill:#262626;" transform="translate(359.700595 328.038281)scale(0.11 -0.11)">
       <use xlink:href="#DejaVuSans-48"/>
       <use x="63.623047" xlink:href="#DejaVuSans-46"/>
       <use x="95.410156" xlink:href="#DejaVuSans-48"/>
       <use x="159.033203" xlink:href="#DejaVuSans-48"/>
       <use x="222.65625" xlink:href="#DejaVuSans-48"/>
       <use x="286.279297" xlink:href="#DejaVuSans-53"/>
       <use x="349.902344" xlink:href="#DejaVuSans-53"/>
       <use x="413.525391" xlink:href="#DejaVuSans-48"/>
      </g>
     </g>
    </g>
    <g id="xtick_8">
     <g id="line2d_25">
      <path clip-path="url(#pc971c0401e)" d="M 418.722972 310.18 
L 418.722972 19.44 
" style="fill:none;stroke:#ffffff;stroke-linecap:round;"/>
     </g>
     <g id="text_21">
      <!-- 0.000575 -->
      <g style="fill:#262626;" transform="translate(392.479379 328.038281)scale(0.11 -0.11)">
       <use xlink:href="#DejaVuSans-48"/>
       <use x="63.623047" xlink:href="#DejaVuSans-46"/>
       <use x="95.410156" xlink:href="#DejaVuSans-48"/>
       <use x="159.033203" xlink:href="#DejaVuSans-48"/>
       <use x="222.65625" xlink:href="#DejaVuSans-48"/>
       <use x="286.279297" xlink:href="#DejaVuSans-53"/>
       <use x="349.902344" xlink:href="#DejaVuSans-55"/>
       <use x="413.525391" xlink:href="#DejaVuSans-53"/>
      </g>
     </g>
    </g>
   </g>
   <g id="matplotlib.axis_6">
    <g id="ytick_14">
     <g id="line2d_26">
      <path clip-path="url(#pc971c0401e)" d="M 347.18 287.112769 
L 441.36 287.112769 
" style="fill:none;stroke:#ffffff;stroke-linecap:round;"/>
     </g>
     <g id="text_22">
      <!-- 200 -->
      <g style="fill:#262626;" transform="translate(316.68375 291.29191)scale(0.11 -0.11)">
       <use xlink:href="#DejaVuSans-50"/>
       <use x="63.623047" xlink:href="#DejaVuSans-48"/>
       <use x="127.246094" xlink:href="#DejaVuSans-48"/>
      </g>
     </g>
    </g>
    <g id="ytick_15">
     <g id="line2d_27">
      <path clip-path="url(#pc971c0401e)" d="M 347.18 230.816903 
L 441.36 230.816903 
" style="fill:none;stroke:#ffffff;stroke-linecap:round;"/>
     </g>
     <g id="text_23">
      <!-- 400 -->
      <g style="fill:#262626;" transform="translate(316.68375 234.996044)scale(0.11 -0.11)">
       <use xlink:href="#DejaVuSans-52"/>
       <use x="63.623047" xlink:href="#DejaVuSans-48"/>
       <use x="127.246094" xlink:href="#DejaVuSans-48"/>
      </g>
     </g>
    </g>
    <g id="ytick_16">
     <g id="line2d_28">
      <path clip-path="url(#pc971c0401e)" d="M 347.18 174.521037 
L 441.36 174.521037 
" style="fill:none;stroke:#ffffff;stroke-linecap:round;"/>
     </g>
     <g id="text_24">
      <!-- 600 -->
      <g style="fill:#262626;" transform="translate(316.68375 178.700178)scale(0.11 -0.11)">
       <use xlink:href="#DejaVuSans-54"/>
       <use x="63.623047" xlink:href="#DejaVuSans-48"/>
       <use x="127.246094" xlink:href="#DejaVuSans-48"/>
      </g>
     </g>
    </g>
    <g id="ytick_17">
     <g id="line2d_29">
      <path clip-path="url(#pc971c0401e)" d="M 347.18 118.225171 
L 441.36 118.225171 
" style="fill:none;stroke:#ffffff;stroke-linecap:round;"/>
     </g>
     <g id="text_25">
      <!-- 800 -->
      <g style="fill:#262626;" transform="translate(316.68375 122.404312)scale(0.11 -0.11)">
       <use xlink:href="#DejaVuSans-56"/>
       <use x="63.623047" xlink:href="#DejaVuSans-48"/>
       <use x="127.246094" xlink:href="#DejaVuSans-48"/>
      </g>
     </g>
    </g>
    <g id="ytick_18">
     <g id="line2d_30">
      <path clip-path="url(#pc971c0401e)" d="M 347.18 61.929305 
L 441.36 61.929305 
" style="fill:none;stroke:#ffffff;stroke-linecap:round;"/>
     </g>
     <g id="text_26">
      <!-- 1000 -->
      <g style="fill:#262626;" transform="translate(309.685 66.108445)scale(0.11 -0.11)">
       <use xlink:href="#DejaVuSans-49"/>
       <use x="63.623047" xlink:href="#DejaVuSans-48"/>
       <use x="127.246094" xlink:href="#DejaVuSans-48"/>
       <use x="190.869141" xlink:href="#DejaVuSans-48"/>
      </g>
     </g>
    </g>
   </g>
   <g id="line2d_31">
    <path clip-path="url(#pc971c0401e)" d="M 351.460909 32.655455 
L 351.723139 44.196107 
L 351.98537 72.906999 
L 352.116485 72.062561 
L 352.2476 73.188478 
L 352.378715 99.084576 
L 352.50983 100.491973 
L 352.640945 126.106592 
L 352.77206 112.595584 
L 353.689866 179.869144 
L 353.820981 179.024706 
L 353.952097 180.995061 
L 354.214327 195.631987 
L 354.345442 184.654293 
L 354.607672 205.483763 
L 354.738787 211.676308 
L 354.869903 204.076367 
L 355.132133 223.77992 
L 355.263248 221.528085 
L 355.394363 217.868854 
L 355.787708 234.194655 
L 355.918824 230.816903 
L 356.049939 231.94282 
L 356.181054 237.853886 
L 356.312169 230.816903 
L 356.574399 249.113059 
L 356.705514 250.238977 
L 356.83663 253.335249 
L 356.967745 245.453828 
L 357.09886 244.60939 
L 357.229975 254.461167 
L 357.36109 253.335249 
L 357.492205 255.587084 
L 357.62332 261.49815 
L 357.754435 257.557439 
L 358.016666 262.342588 
L 358.147781 260.653712 
L 358.278896 267.409216 
L 358.410011 266.001819 
L 358.541126 272.194364 
L 358.803357 258.964836 
L 358.934472 271.349926 
L 359.065587 271.631406 
L 359.327817 278.668389 
L 359.458932 267.972174 
L 359.590047 267.972174 
L 359.721162 267.409216 
L 359.852278 282.32762 
L 359.983393 276.979513 
L 360.114508 287.112769 
L 360.245623 275.853596 
L 360.376738 282.890579 
L 360.507853 269.66105 
L 360.770084 279.794306 
L 360.901199 281.201703 
L 361.032314 278.10543 
L 361.163429 280.357265 
L 361.294544 279.794306 
L 361.556774 282.046141 
L 361.687889 280.638744 
L 361.819005 286.54981 
L 361.95012 274.16472 
L 362.081235 275.853596 
L 362.21235 284.860934 
L 362.47458 280.075786 
L 362.605695 285.986852 
L 362.736811 281.764662 
L 362.867926 289.083124 
L 362.999041 278.949868 
L 363.130156 287.957207 
L 363.261271 281.201703 
L 363.392386 280.638744 
L 363.523501 278.668389 
L 363.785732 286.83129 
L 364.047962 281.764662 
L 364.179077 285.423893 
L 364.310192 279.512827 
L 364.441307 284.579455 
L 364.703538 285.423893 
L 364.834653 281.764662 
L 364.965768 288.801645 
L 365.096883 279.231348 
L 365.359113 285.986852 
L 365.490228 285.423893 
L 365.621343 286.54981 
L 365.752459 276.979513 
L 365.883574 281.764662 
L 366.014689 292.460876 
L 366.145804 285.423893 
L 366.276919 284.860934 
L 366.408034 286.54981 
L 366.539149 286.54981 
L 366.670265 277.823951 
L 366.80138 289.083124 
L 367.06361 280.075786 
L 367.194725 287.112769 
L 367.32584 287.957207 
L 367.456955 283.735017 
L 367.58807 284.297976 
L 367.719186 289.927562 
L 367.850301 286.268331 
L 367.981416 287.675728 
L 368.112531 293.868273 
L 368.243646 285.705372 
L 368.374761 284.860934 
L 368.636992 290.490521 
L 368.768107 284.016496 
L 368.899222 284.860934 
L 369.030337 286.83129 
L 369.161452 291.334959 
L 369.292567 291.897918 
L 369.423682 289.646083 
L 369.554797 282.890579 
L 369.685913 287.957207 
L 369.817028 285.986852 
L 369.948143 287.394248 
L 370.079258 284.579455 
L 370.210373 289.646083 
L 370.341488 283.735017 
L 370.603719 289.364604 
L 370.865949 280.638744 
L 371.128179 281.483182 
L 371.259294 294.712711 
L 371.390409 281.201703 
L 371.521524 281.764662 
L 371.65264 285.705372 
L 371.783755 280.357265 
L 371.91487 291.616438 
L 372.045985 282.890579 
L 372.43933 288.520166 
L 372.570445 286.54981 
L 372.832676 291.897918 
L 372.963791 291.616438 
L 373.094906 289.646083 
L 373.357136 277.260992 
L 373.619367 291.05348 
L 373.750482 289.364604 
L 373.881597 294.149752 
L 374.143827 287.957207 
L 374.274942 277.542472 
L 374.537172 290.772 
L 374.668288 286.54981 
L 374.799403 286.268331 
L 374.930518 289.083124 
L 375.061633 294.431231 
L 375.192748 286.83129 
L 375.454978 296.401587 
L 375.586094 288.238686 
L 375.848324 293.023835 
L 376.110554 284.579455 
L 376.372784 292.742356 
L 376.635015 287.112769 
L 376.76613 283.735017 
L 376.897245 284.860934 
L 377.02836 284.860934 
L 377.159475 287.675728 
L 377.29059 286.83129 
L 377.552821 291.897918 
L 377.683936 291.05348 
L 377.815051 279.231348 
L 377.946166 296.964545 
L 378.077281 284.297976 
L 378.208396 289.083124 
L 378.339511 282.890579 
L 378.601742 285.423893 
L 378.732857 280.920224 
L 378.863972 289.083124 
L 378.995087 285.705372 
L 379.126202 287.957207 
L 379.257317 292.179397 
L 379.388432 291.897918 
L 379.650663 282.32762 
L 379.781778 287.394248 
L 379.912893 286.54981 
L 380.044008 278.949868 
L 380.175123 285.986852 
L 380.306238 285.986852 
L 380.437353 284.860934 
L 380.568469 293.023835 
L 380.699584 291.334959 
L 380.830699 287.112769 
L 380.961814 291.05348 
L 381.092929 284.860934 
L 381.224044 290.490521 
L 381.486275 285.705372 
L 381.61739 280.638744 
L 381.748505 290.490521 
L 381.87962 284.579455 
L 382.14185 290.490521 
L 382.272965 289.364604 
L 382.40408 282.6091 
L 382.535196 286.54981 
L 382.666311 286.54981 
L 382.797426 284.860934 
L 383.059656 290.490521 
L 383.321886 284.579455 
L 383.453002 285.986852 
L 383.584117 285.986852 
L 383.715232 291.897918 
L 384.239692 285.142414 
L 384.370807 291.05348 
L 384.501923 286.268331 
L 384.633038 287.394248 
L 384.764153 287.394248 
L 384.895268 281.764662 
L 385.157498 289.927562 
L 385.288613 287.112769 
L 385.419729 287.957207 
L 385.550844 287.675728 
L 385.813074 288.238686 
L 385.944189 286.54981 
L 386.075304 293.305314 
L 386.206419 284.297976 
L 386.337534 293.586793 
L 386.46865 288.520166 
L 386.599765 291.334959 
L 386.861995 282.046141 
L 386.99311 287.675728 
L 387.124225 287.394248 
L 387.25534 289.364604 
L 387.386456 287.112769 
L 387.517571 288.520166 
L 387.779801 283.735017 
L 387.910916 287.112769 
L 388.042031 284.016496 
L 388.173146 289.927562 
L 388.304261 286.268331 
L 388.435377 286.83129 
L 388.566492 283.172058 
L 388.697607 290.209042 
L 388.959837 283.453538 
L 389.353183 290.772 
L 389.484298 282.890579 
L 389.615413 283.735017 
L 389.746528 280.638744 
L 390.008758 286.83129 
L 390.139873 283.172058 
L 390.270988 285.986852 
L 390.402104 283.735017 
L 390.926564 288.520166 
L 391.057679 291.897918 
L 391.188794 289.646083 
L 391.31991 284.297976 
L 391.58214 288.520166 
L 391.713255 284.016496 
L 391.975485 287.957207 
L 392.1066 279.794306 
L 392.237715 288.801645 
L 392.368831 284.297976 
L 392.631061 293.305314 
L 392.762176 285.986852 
L 392.893291 287.957207 
L 393.024406 286.268331 
L 393.155521 286.268331 
L 393.286637 289.364604 
L 393.417752 284.297976 
L 393.548867 292.742356 
L 393.679982 284.016496 
L 393.811097 284.016496 
L 393.942212 282.32762 
L 394.204442 287.675728 
L 394.466673 284.297976 
L 394.597788 279.512827 
L 394.728903 293.586793 
L 394.860018 279.794306 
L 394.991133 291.334959 
L 395.122248 286.268331 
L 395.253363 288.520166 
L 395.384479 286.54981 
L 395.515594 290.209042 
L 395.777824 287.675728 
L 395.908939 291.05348 
L 396.040054 283.172058 
L 396.171169 291.616438 
L 396.302285 290.490521 
L 396.4334 284.860934 
L 396.564515 286.54981 
L 396.69563 285.142414 
L 396.826745 285.423893 
L 396.95786 292.742356 
L 397.088975 286.83129 
L 397.22009 289.083124 
L 397.351206 276.979513 
L 397.482321 289.364604 
L 397.613436 288.801645 
L 397.744551 292.460876 
L 397.875666 290.772 
L 398.006781 291.616438 
L 398.137896 294.99419 
L 398.269012 286.268331 
L 398.531242 287.675728 
L 398.662357 278.38691 
L 398.924587 292.460876 
L 399.055702 283.453538 
L 399.186817 286.54981 
L 399.317933 285.986852 
L 399.449048 283.735017 
L 399.842393 291.616438 
L 399.973508 285.142414 
L 400.104623 284.860934 
L 400.235739 283.453538 
L 400.366854 290.209042 
L 400.497969 285.142414 
L 400.629084 286.54981 
L 400.760199 284.860934 
L 400.891314 290.772 
L 401.022429 283.453538 
L 401.28466 284.297976 
L 401.415775 289.083124 
L 401.54689 280.920224 
L 401.678005 287.675728 
L 401.80912 281.764662 
L 401.940235 286.268331 
L 402.07135 284.016496 
L 402.202466 290.490521 
L 402.333581 286.54981 
L 402.464696 278.949868 
L 402.595811 288.520166 
L 402.726926 282.046141 
L 402.858041 285.142414 
L 402.989156 283.453538 
L 403.120271 291.334959 
L 403.251387 292.460876 
L 403.382502 286.268331 
L 403.644732 292.179397 
L 403.775847 287.112769 
L 403.906962 289.083124 
L 404.038077 288.801645 
L 404.169193 284.860934 
L 404.300308 285.423893 
L 404.431423 294.712711 
L 404.562538 285.705372 
L 404.693653 285.423893 
L 404.824768 289.646083 
L 404.955883 285.705372 
L 405.218114 292.460876 
L 405.349229 276.416554 
L 405.611459 290.772 
L 405.742574 293.586793 
L 406.004804 284.860934 
L 406.13592 291.334959 
L 406.39815 285.705372 
L 406.529265 286.54981 
L 406.66038 281.201703 
L 406.791495 292.179397 
L 406.92261 286.83129 
L 407.053725 287.675728 
L 407.184841 290.209042 
L 407.315956 289.927562 
L 407.447071 285.986852 
L 407.578186 287.675728 
L 407.709301 282.6091 
L 407.840416 283.735017 
L 407.971531 291.334959 
L 408.233762 280.357265 
L 408.495992 295.557149 
L 408.889337 280.357265 
L 409.151568 285.986852 
L 409.282683 285.142414 
L 409.413798 285.705372 
L 409.544913 287.394248 
L 409.676028 283.735017 
L 409.807143 285.705372 
L 409.938258 278.949868 
L 410.331604 289.927562 
L 410.462719 280.075786 
L 410.724949 289.083124 
L 410.856064 286.268331 
L 411.118295 286.83129 
L 411.24941 292.460876 
L 411.380525 283.735017 
L 411.51164 287.957207 
L 411.642755 283.735017 
L 411.77387 286.268331 
L 412.036101 282.32762 
L 412.167216 287.957207 
L 412.298331 282.32762 
L 412.429446 281.483182 
L 412.560561 277.260992 
L 412.691676 284.579455 
L 412.822791 284.579455 
L 412.953906 294.712711 
L 413.085022 286.54981 
L 413.216137 287.675728 
L 413.347252 290.209042 
L 413.478367 279.512827 
L 413.609482 291.897918 
L 413.871712 284.297976 
L 414.002828 288.801645 
L 414.133943 284.297976 
L 414.265058 284.579455 
L 414.396173 289.646083 
L 414.658403 283.735017 
L 414.789518 289.927562 
L 414.920633 280.075786 
L 415.051749 294.99419 
L 415.313979 284.860934 
L 415.445094 284.860934 
L 415.576209 288.238686 
L 415.707324 286.268331 
L 415.838439 291.334959 
L 415.969555 286.268331 
L 416.10067 291.05348 
L 416.231785 290.209042 
L 416.3629 286.54981 
L 416.62513 289.646083 
L 416.756245 284.860934 
L 416.88736 288.238686 
L 417.018476 288.238686 
L 417.149591 294.712711 
L 417.280706 282.046141 
L 417.411821 280.638744 
L 417.674051 293.023835 
L 417.805166 288.520166 
L 417.936281 288.520166 
L 418.198512 282.32762 
L 418.460742 290.209042 
L 418.591857 286.83129 
L 418.854087 287.394248 
L 418.985203 289.646083 
L 419.116318 289.927562 
L 419.247433 289.083124 
L 419.378548 275.853596 
L 419.509663 284.297976 
L 419.640778 281.483182 
L 419.771893 284.016496 
L 419.903008 291.616438 
L 420.034124 276.416554 
L 420.165239 285.986852 
L 420.296354 284.016496 
L 420.427469 291.897918 
L 420.558584 291.05348 
L 420.689699 285.986852 
L 421.083045 289.083124 
L 421.21416 288.520166 
L 421.345275 285.142414 
L 421.47639 290.772 
L 421.607505 275.572116 
L 421.869735 288.238686 
L 422.000851 286.83129 
L 422.131966 289.364604 
L 422.263081 288.238686 
L 422.394196 289.364604 
L 422.525311 280.638744 
L 422.656426 290.772 
L 422.787541 286.54981 
L 422.918657 287.957207 
L 423.049772 291.616438 
L 423.180887 279.512827 
L 423.312002 282.046141 
L 423.443117 288.520166 
L 423.574232 286.268331 
L 423.705347 290.490521 
L 423.836462 286.83129 
L 423.967578 291.334959 
L 424.098693 288.520166 
L 424.229808 288.520166 
L 424.360923 291.897918 
L 424.492038 291.05348 
L 424.623153 280.638744 
L 425.016499 291.897918 
L 425.147614 281.764662 
L 425.278729 291.05348 
L 425.409844 278.668389 
L 425.540959 291.05348 
L 425.672074 291.334959 
L 425.803189 282.890579 
L 425.934305 288.801645 
L 426.06542 287.394248 
L 426.196535 281.764662 
L 426.32765 281.201703 
L 426.58988 288.801645 
L 426.720995 285.986852 
L 426.852111 290.209042 
L 427.114341 283.735017 
L 427.376571 290.772 
L 427.507686 283.453538 
L 427.638801 282.6091 
L 427.769916 287.675728 
L 427.901032 287.957207 
L 428.032147 287.675728 
L 428.163262 284.579455 
L 428.294377 285.705372 
L 428.425492 279.794306 
L 428.556607 291.05348 
L 428.818838 281.764662 
L 428.949953 282.32762 
L 429.081068 289.364604 
L 429.212183 283.735017 
L 429.343298 287.112769 
L 429.736643 283.172058 
L 429.867759 293.586793 
L 429.998874 285.142414 
L 430.129989 289.083124 
L 430.261104 288.520166 
L 430.392219 287.394248 
L 430.523334 282.6091 
L 430.654449 286.54981 
L 430.785565 285.705372 
L 430.91668 291.616438 
L 431.047795 291.334959 
L 431.17891 285.423893 
L 431.310025 287.112769 
L 431.44114 293.868273 
L 431.572255 289.646083 
L 431.70337 277.823951 
L 431.834486 288.238686 
L 431.965601 284.016496 
L 432.096716 290.772 
L 432.358946 278.949868 
L 432.490061 284.579455 
L 432.621176 285.142414 
L 432.752292 290.772 
L 432.883407 282.6091 
L 433.014522 290.209042 
L 433.276752 282.32762 
L 433.407867 286.83129 
L 433.538982 285.705372 
L 433.801213 291.897918 
L 433.932328 293.586793 
L 434.063443 283.172058 
L 434.194558 288.520166 
L 434.456788 284.860934 
L 434.587903 288.520166 
L 434.719019 287.675728 
L 434.850134 278.668389 
L 434.981249 291.05348 
L 435.112364 280.638744 
L 435.374594 289.083124 
L 435.505709 279.512827 
L 435.636824 287.112769 
L 435.76794 286.54981 
L 435.899055 289.364604 
L 436.03017 286.268331 
L 436.2924 289.083124 
L 436.423515 281.483182 
L 436.685746 291.05348 
L 436.947976 286.83129 
L 437.079091 291.334959 
L 437.079091 291.334959 
" style="fill:none;stroke:#4c72b0;stroke-linecap:round;stroke-width:1.5;"/>
   </g>
   <g id="line2d_32">
    <path clip-path="url(#pc971c0401e)" d="M 351.460909 32.655455 
L 351.723139 46.774184 
L 351.98537 74.201725 
L 352.116485 74.856436 
L 352.2476 77.364464 
L 352.378715 97.441376 
L 352.50983 99.712718 
L 352.640945 117.507743 
L 352.77206 110.473966 
L 353.689866 156.300801 
L 353.820981 157.849095 
L 354.083212 165.55987 
L 354.214327 170.531093 
L 354.345442 169.371751 
L 354.607672 181.221443 
L 355.132133 197.008351 
L 355.525478 205.271754 
L 355.918824 214.979588 
L 357.36109 244.605027 
L 358.147781 256.230739 
L 358.541126 261.530809 
L 358.803357 263.419559 
L 359.196702 267.831686 
L 359.590047 270.581917 
L 360.507853 276.104602 
L 360.901199 278.127062 
L 361.95012 281.175419 
L 362.605695 282.620359 
L 364.179077 284.314488 
L 364.572422 284.573051 
L 365.621343 285.116807 
L 365.883574 285.208952 
L 366.276919 285.373526 
L 367.719186 285.857236 
L 371.128179 286.802708 
L 372.832676 287.229196 
L 374.930518 287.589077 
L 376.503899 287.651517 
L 378.470626 287.489655 
L 381.355159 287.24826 
L 386.075304 287.067166 
L 390.664334 286.555791 
L 392.368831 286.655247 
L 396.826745 287.103978 
L 399.580163 286.956939 
L 401.80912 286.95862 
L 406.13592 287.113894 
L 407.709301 286.829519 
L 410.593834 286.247636 
L 411.904985 286.238355 
L 413.478367 286.470265 
L 416.494015 286.972199 
L 418.329627 287.006438 
L 423.574232 286.701001 
L 429.867759 286.418853 
L 431.834486 286.639836 
L 434.063443 287.120802 
L 437.079091 287.866572 
L 437.079091 287.866572 
" style="fill:none;stroke:#dd8452;stroke-linecap:round;stroke-width:1.5;"/>
   </g>
   <g id="patch_13">
    <path d="M 347.18 310.18 
L 347.18 19.44 
" style="fill:none;stroke:#ffffff;stroke-linecap:square;stroke-linejoin:miter;stroke-width:1.25;"/>
   </g>
   <g id="patch_14">
    <path d="M 441.36 310.18 
L 441.36 19.44 
" style="fill:none;stroke:#ffffff;stroke-linecap:square;stroke-linejoin:miter;stroke-width:1.25;"/>
   </g>
   <g id="patch_15">
    <path d="M 347.18 310.18 
L 441.36 310.18 
" style="fill:none;stroke:#ffffff;stroke-linecap:square;stroke-linejoin:miter;stroke-width:1.25;"/>
   </g>
   <g id="patch_16">
    <path d="M 347.18 19.44 
L 441.36 19.44 
" style="fill:none;stroke:#ffffff;stroke-linecap:square;stroke-linejoin:miter;stroke-width:1.25;"/>
   </g>
  </g>
 </g>
 <defs>
  <clipPath id="pe0f28964aa">
   <rect height="290.74" width="94.18" x="45.5" y="19.44"/>
  </clipPath>
  <clipPath id="p74016cc6a6">
   <rect height="290.74" width="94.18" x="196.34" y="19.44"/>
  </clipPath>
  <clipPath id="pc971c0401e">
   <rect height="290.74" width="94.18" x="347.18" y="19.44"/>
  </clipPath>
 </defs>
</svg>
