<?xml version="1.0" encoding="utf-8" standalone="no"?>
<!DOCTYPE svg PUBLIC "-//W3C//DTD SVG 1.1//EN"
  "http://www.w3.org/Graphics/SVG/1.1/DTD/svg11.dtd">
<!-- Created with matplotlib (https://matplotlib.org/) -->
<svg height="345.6pt" version="1.1" viewBox="0 0 460.8 345.6" width="460.8pt" xmlns="http://www.w3.org/2000/svg" xmlns:xlink="http://www.w3.org/1999/xlink">
 <defs>
  <style type="text/css">
*{stroke-linecap:butt;stroke-linejoin:round;}
  </style>
 </defs>
 <g id="figure_1">
  <g id="patch_1">
   <path d="M 0 345.6 
L 460.8 345.6 
L 460.8 0 
L 0 0 
z
" style="fill:#ffffff;"/>
  </g>
  <g id="axes_1">
   <g id="patch_2">
    <path d="M 45.5 310.18 
L 144.3 310.18 
L 144.3 19.44 
L 45.5 19.44 
z
" style="fill:#eaeaf2;"/>
   </g>
   <g id="matplotlib.axis_1">
    <g id="xtick_1">
     <g id="line2d_1">
      <path clip-path="url(#pf093fb71a5)" d="M 49.990909 310.18 
L 49.990909 19.44 
" style="fill:none;stroke:#ffffff;stroke-linecap:round;"/>
     </g>
     <g id="text_1">
      <!-- 0.000175 -->
      <defs>
       <path d="M 31.78125 66.40625 
Q 24.171875 66.40625 20.328125 58.90625 
Q 16.5 51.421875 16.5 36.375 
Q 16.5 21.390625 20.328125 13.890625 
Q 24.171875 6.390625 31.78125 6.390625 
Q 39.453125 6.390625 43.28125 13.890625 
Q 47.125 21.390625 47.125 36.375 
Q 47.125 51.421875 43.28125 58.90625 
Q 39.453125 66.40625 31.78125 66.40625 
z
M 31.78125 74.21875 
Q 44.046875 74.21875 50.515625 64.515625 
Q 56.984375 54.828125 56.984375 36.375 
Q 56.984375 17.96875 50.515625 8.265625 
Q 44.046875 -1.421875 31.78125 -1.421875 
Q 19.53125 -1.421875 13.0625 8.265625 
Q 6.59375 17.96875 6.59375 36.375 
Q 6.59375 54.828125 13.0625 64.515625 
Q 19.53125 74.21875 31.78125 74.21875 
z
" id="DejaVuSans-48"/>
       <path d="M 10.6875 12.40625 
L 21 12.40625 
L 21 0 
L 10.6875 0 
z
" id="DejaVuSans-46"/>
       <path d="M 12.40625 8.296875 
L 28.515625 8.296875 
L 28.515625 63.921875 
L 10.984375 60.40625 
L 10.984375 69.390625 
L 28.421875 72.90625 
L 38.28125 72.90625 
L 38.28125 8.296875 
L 54.390625 8.296875 
L 54.390625 0 
L 12.40625 0 
z
" id="DejaVuSans-49"/>
       <path d="M 8.203125 72.90625 
L 55.078125 72.90625 
L 55.078125 68.703125 
L 28.609375 0 
L 18.3125 0 
L 43.21875 64.59375 
L 8.203125 64.59375 
z
" id="DejaVuSans-55"/>
       <path d="M 10.796875 72.90625 
L 49.515625 72.90625 
L 49.515625 64.59375 
L 19.828125 64.59375 
L 19.828125 46.734375 
Q 21.96875 47.46875 24.109375 47.828125 
Q 26.265625 48.1875 28.421875 48.1875 
Q 40.625 48.1875 47.75 41.5 
Q 54.890625 34.8125 54.890625 23.390625 
Q 54.890625 11.625 47.5625 5.09375 
Q 40.234375 -1.421875 26.90625 -1.421875 
Q 22.3125 -1.421875 17.546875 -0.640625 
Q 12.796875 0.140625 7.71875 1.703125 
L 7.71875 11.625 
Q 12.109375 9.234375 16.796875 8.0625 
Q 21.484375 6.890625 26.703125 6.890625 
Q 35.15625 6.890625 40.078125 11.328125 
Q 45.015625 15.765625 45.015625 23.390625 
Q 45.015625 31 40.078125 35.4375 
Q 35.15625 39.890625 26.703125 39.890625 
Q 22.75 39.890625 18.8125 39.015625 
Q 14.890625 38.140625 10.796875 36.28125 
z
" id="DejaVuSans-53"/>
      </defs>
      <g style="fill:#262626;" transform="translate(23.747315 328.038281)scale(0.11 -0.11)">
       <use xlink:href="#DejaVuSans-48"/>
       <use x="63.623047" xlink:href="#DejaVuSans-46"/>
       <use x="95.410156" xlink:href="#DejaVuSans-48"/>
       <use x="159.033203" xlink:href="#DejaVuSans-48"/>
       <use x="222.65625" xlink:href="#DejaVuSans-48"/>
       <use x="286.279297" xlink:href="#DejaVuSans-49"/>
       <use x="349.902344" xlink:href="#DejaVuSans-55"/>
       <use x="413.525391" xlink:href="#DejaVuSans-53"/>
      </g>
     </g>
    </g>
    <g id="xtick_2">
     <g id="line2d_2">
      <path clip-path="url(#pf093fb71a5)" d="M 84.325076 310.18 
L 84.325076 19.44 
" style="fill:none;stroke:#ffffff;stroke-linecap:round;"/>
     </g>
     <g id="text_2">
      <!-- 0.000200 -->
      <defs>
       <path d="M 19.1875 8.296875 
L 53.609375 8.296875 
L 53.609375 0 
L 7.328125 0 
L 7.328125 8.296875 
Q 12.9375 14.109375 22.625 23.890625 
Q 32.328125 33.6875 34.8125 36.53125 
Q 39.546875 41.84375 41.421875 45.53125 
Q 43.3125 49.21875 43.3125 52.78125 
Q 43.3125 58.59375 39.234375 62.25 
Q 35.15625 65.921875 28.609375 65.921875 
Q 23.96875 65.921875 18.8125 64.3125 
Q 13.671875 62.703125 7.8125 59.421875 
L 7.8125 69.390625 
Q 13.765625 71.78125 18.9375 73 
Q 24.125 74.21875 28.421875 74.21875 
Q 39.75 74.21875 46.484375 68.546875 
Q 53.21875 62.890625 53.21875 53.421875 
Q 53.21875 48.921875 51.53125 44.890625 
Q 49.859375 40.875 45.40625 35.40625 
Q 44.1875 33.984375 37.640625 27.21875 
Q 31.109375 20.453125 19.1875 8.296875 
z
" id="DejaVuSans-50"/>
      </defs>
      <g style="fill:#262626;" transform="translate(58.081483 328.038281)scale(0.11 -0.11)">
       <use xlink:href="#DejaVuSans-48"/>
       <use x="63.623047" xlink:href="#DejaVuSans-46"/>
       <use x="95.410156" xlink:href="#DejaVuSans-48"/>
       <use x="159.033203" xlink:href="#DejaVuSans-48"/>
       <use x="222.65625" xlink:href="#DejaVuSans-48"/>
       <use x="286.279297" xlink:href="#DejaVuSans-50"/>
       <use x="349.902344" xlink:href="#DejaVuSans-48"/>
       <use x="413.525391" xlink:href="#DejaVuSans-48"/>
      </g>
     </g>
    </g>
    <g id="xtick_3">
     <g id="line2d_3">
      <path clip-path="url(#pf093fb71a5)" d="M 118.659244 310.18 
L 118.659244 19.44 
" style="fill:none;stroke:#ffffff;stroke-linecap:round;"/>
     </g>
     <g id="text_3">
      <!-- 0.000225 -->
      <g style="fill:#262626;" transform="translate(92.41565 328.038281)scale(0.11 -0.11)">
       <use xlink:href="#DejaVuSans-48"/>
       <use x="63.623047" xlink:href="#DejaVuSans-46"/>
       <use x="95.410156" xlink:href="#DejaVuSans-48"/>
       <use x="159.033203" xlink:href="#DejaVuSans-48"/>
       <use x="222.65625" xlink:href="#DejaVuSans-48"/>
       <use x="286.279297" xlink:href="#DejaVuSans-50"/>
       <use x="349.902344" xlink:href="#DejaVuSans-50"/>
       <use x="413.525391" xlink:href="#DejaVuSans-53"/>
      </g>
     </g>
    </g>
   </g>
   <g id="matplotlib.axis_2">
    <g id="ytick_1">
     <g id="line2d_4">
      <path clip-path="url(#pf093fb71a5)" d="M 45.5 298.839078 
L 144.3 298.839078 
" style="fill:none;stroke:#ffffff;stroke-linecap:round;"/>
     </g>
     <g id="text_4">
      <!-- 20 -->
      <g style="fill:#262626;" transform="translate(22.0025 303.018219)scale(0.11 -0.11)">
       <use xlink:href="#DejaVuSans-50"/>
       <use x="63.623047" xlink:href="#DejaVuSans-48"/>
      </g>
     </g>
    </g>
    <g id="ytick_2">
     <g id="line2d_5">
      <path clip-path="url(#pf093fb71a5)" d="M 45.5 261.348427 
L 144.3 261.348427 
" style="fill:none;stroke:#ffffff;stroke-linecap:round;"/>
     </g>
     <g id="text_5">
      <!-- 40 -->
      <defs>
       <path d="M 37.796875 64.3125 
L 12.890625 25.390625 
L 37.796875 25.390625 
z
M 35.203125 72.90625 
L 47.609375 72.90625 
L 47.609375 25.390625 
L 58.015625 25.390625 
L 58.015625 17.1875 
L 47.609375 17.1875 
L 47.609375 0 
L 37.796875 0 
L 37.796875 17.1875 
L 4.890625 17.1875 
L 4.890625 26.703125 
z
" id="DejaVuSans-52"/>
      </defs>
      <g style="fill:#262626;" transform="translate(22.0025 265.527567)scale(0.11 -0.11)">
       <use xlink:href="#DejaVuSans-52"/>
       <use x="63.623047" xlink:href="#DejaVuSans-48"/>
      </g>
     </g>
    </g>
    <g id="ytick_3">
     <g id="line2d_6">
      <path clip-path="url(#pf093fb71a5)" d="M 45.5 223.857776 
L 144.3 223.857776 
" style="fill:none;stroke:#ffffff;stroke-linecap:round;"/>
     </g>
     <g id="text_6">
      <!-- 60 -->
      <defs>
       <path d="M 33.015625 40.375 
Q 26.375 40.375 22.484375 35.828125 
Q 18.609375 31.296875 18.609375 23.390625 
Q 18.609375 15.53125 22.484375 10.953125 
Q 26.375 6.390625 33.015625 6.390625 
Q 39.65625 6.390625 43.53125 10.953125 
Q 47.40625 15.53125 47.40625 23.390625 
Q 47.40625 31.296875 43.53125 35.828125 
Q 39.65625 40.375 33.015625 40.375 
z
M 52.59375 71.296875 
L 52.59375 62.3125 
Q 48.875 64.0625 45.09375 64.984375 
Q 41.3125 65.921875 37.59375 65.921875 
Q 27.828125 65.921875 22.671875 59.328125 
Q 17.53125 52.734375 16.796875 39.40625 
Q 19.671875 43.65625 24.015625 45.921875 
Q 28.375 48.1875 33.59375 48.1875 
Q 44.578125 48.1875 50.953125 41.515625 
Q 57.328125 34.859375 57.328125 23.390625 
Q 57.328125 12.15625 50.6875 5.359375 
Q 44.046875 -1.421875 33.015625 -1.421875 
Q 20.359375 -1.421875 13.671875 8.265625 
Q 6.984375 17.96875 6.984375 36.375 
Q 6.984375 53.65625 15.1875 63.9375 
Q 23.390625 74.21875 37.203125 74.21875 
Q 40.921875 74.21875 44.703125 73.484375 
Q 48.484375 72.75 52.59375 71.296875 
z
" id="DejaVuSans-54"/>
      </defs>
      <g style="fill:#262626;" transform="translate(22.0025 228.036916)scale(0.11 -0.11)">
       <use xlink:href="#DejaVuSans-54"/>
       <use x="63.623047" xlink:href="#DejaVuSans-48"/>
      </g>
     </g>
    </g>
    <g id="ytick_4">
     <g id="line2d_7">
      <path clip-path="url(#pf093fb71a5)" d="M 45.5 186.367124 
L 144.3 186.367124 
" style="fill:none;stroke:#ffffff;stroke-linecap:round;"/>
     </g>
     <g id="text_7">
      <!-- 80 -->
      <defs>
       <path d="M 31.78125 34.625 
Q 24.75 34.625 20.71875 30.859375 
Q 16.703125 27.09375 16.703125 20.515625 
Q 16.703125 13.921875 20.71875 10.15625 
Q 24.75 6.390625 31.78125 6.390625 
Q 38.8125 6.390625 42.859375 10.171875 
Q 46.921875 13.96875 46.921875 20.515625 
Q 46.921875 27.09375 42.890625 30.859375 
Q 38.875 34.625 31.78125 34.625 
z
M 21.921875 38.8125 
Q 15.578125 40.375 12.03125 44.71875 
Q 8.5 49.078125 8.5 55.328125 
Q 8.5 64.0625 14.71875 69.140625 
Q 20.953125 74.21875 31.78125 74.21875 
Q 42.671875 74.21875 48.875 69.140625 
Q 55.078125 64.0625 55.078125 55.328125 
Q 55.078125 49.078125 51.53125 44.71875 
Q 48 40.375 41.703125 38.8125 
Q 48.828125 37.15625 52.796875 32.3125 
Q 56.78125 27.484375 56.78125 20.515625 
Q 56.78125 9.90625 50.3125 4.234375 
Q 43.84375 -1.421875 31.78125 -1.421875 
Q 19.734375 -1.421875 13.25 4.234375 
Q 6.78125 9.90625 6.78125 20.515625 
Q 6.78125 27.484375 10.78125 32.3125 
Q 14.796875 37.15625 21.921875 38.8125 
z
M 18.3125 54.390625 
Q 18.3125 48.734375 21.84375 45.5625 
Q 25.390625 42.390625 31.78125 42.390625 
Q 38.140625 42.390625 41.71875 45.5625 
Q 45.3125 48.734375 45.3125 54.390625 
Q 45.3125 60.0625 41.71875 63.234375 
Q 38.140625 66.40625 31.78125 66.40625 
Q 25.390625 66.40625 21.84375 63.234375 
Q 18.3125 60.0625 18.3125 54.390625 
z
" id="DejaVuSans-56"/>
      </defs>
      <g style="fill:#262626;" transform="translate(22.0025 190.546265)scale(0.11 -0.11)">
       <use xlink:href="#DejaVuSans-56"/>
       <use x="63.623047" xlink:href="#DejaVuSans-48"/>
      </g>
     </g>
    </g>
    <g id="ytick_5">
     <g id="line2d_8">
      <path clip-path="url(#pf093fb71a5)" d="M 45.5 148.876473 
L 144.3 148.876473 
" style="fill:none;stroke:#ffffff;stroke-linecap:round;"/>
     </g>
     <g id="text_8">
      <!-- 100 -->
      <g style="fill:#262626;" transform="translate(15.00375 153.055614)scale(0.11 -0.11)">
       <use xlink:href="#DejaVuSans-49"/>
       <use x="63.623047" xlink:href="#DejaVuSans-48"/>
       <use x="127.246094" xlink:href="#DejaVuSans-48"/>
      </g>
     </g>
    </g>
    <g id="ytick_6">
     <g id="line2d_9">
      <path clip-path="url(#pf093fb71a5)" d="M 45.5 111.385822 
L 144.3 111.385822 
" style="fill:none;stroke:#ffffff;stroke-linecap:round;"/>
     </g>
     <g id="text_9">
      <!-- 120 -->
      <g style="fill:#262626;" transform="translate(15.00375 115.564963)scale(0.11 -0.11)">
       <use xlink:href="#DejaVuSans-49"/>
       <use x="63.623047" xlink:href="#DejaVuSans-50"/>
       <use x="127.246094" xlink:href="#DejaVuSans-48"/>
      </g>
     </g>
    </g>
    <g id="ytick_7">
     <g id="line2d_10">
      <path clip-path="url(#pf093fb71a5)" d="M 45.5 73.895171 
L 144.3 73.895171 
" style="fill:none;stroke:#ffffff;stroke-linecap:round;"/>
     </g>
     <g id="text_10">
      <!-- 140 -->
      <g style="fill:#262626;" transform="translate(15.00375 78.074311)scale(0.11 -0.11)">
       <use xlink:href="#DejaVuSans-49"/>
       <use x="63.623047" xlink:href="#DejaVuSans-52"/>
       <use x="127.246094" xlink:href="#DejaVuSans-48"/>
      </g>
     </g>
    </g>
    <g id="ytick_8">
     <g id="line2d_11">
      <path clip-path="url(#pf093fb71a5)" d="M 45.5 36.40452 
L 144.3 36.40452 
" style="fill:none;stroke:#ffffff;stroke-linecap:round;"/>
     </g>
     <g id="text_11">
      <!-- 160 -->
      <g style="fill:#262626;" transform="translate(15.00375 40.58366)scale(0.11 -0.11)">
       <use xlink:href="#DejaVuSans-49"/>
       <use x="63.623047" xlink:href="#DejaVuSans-54"/>
       <use x="127.246094" xlink:href="#DejaVuSans-48"/>
      </g>
     </g>
    </g>
   </g>
   <g id="line2d_12">
    <path clip-path="url(#pf093fb71a5)" d="M 49.990909 32.655455 
L 50.265582 55.149845 
L 50.402919 96.389562 
L 50.540256 96.389562 
L 50.677592 122.633017 
L 50.952266 199.488852 
L 51.089602 180.743527 
L 51.226939 191.990722 
L 51.364276 184.492592 
L 51.501612 186.367124 
L 51.638949 229.481373 
L 51.776286 201.363385 
L 51.913622 233.230438 
L 52.050959 216.359645 
L 52.325632 236.979504 
L 52.462969 233.230438 
L 52.600306 221.983243 
L 52.737642 231.355906 
L 52.874979 212.61058 
L 53.012316 251.975764 
L 53.149652 233.230438 
L 53.286989 244.477634 
L 53.424326 266.972025 
L 53.561662 246.352166 
L 53.698999 272.595622 
L 53.836336 246.352166 
L 53.973673 250.101231 
L 54.111009 242.603101 
L 54.248346 266.972025 
L 54.523019 235.104971 
L 54.797693 250.101231 
L 54.935029 251.975764 
L 55.209703 266.972025 
L 55.347039 244.477634 
L 55.484376 240.728569 
L 55.759049 261.348427 
L 55.896386 257.599362 
L 56.033723 233.230438 
L 56.171059 263.222959 
L 56.308396 265.097492 
L 56.445733 259.473894 
L 56.720406 276.344687 
L 56.857743 265.097492 
L 56.995079 272.595622 
L 57.132416 255.724829 
L 57.269753 263.222959 
L 57.544426 229.481373 
L 57.819099 263.222959 
L 57.956436 233.230438 
L 58.093773 261.348427 
L 58.231109 253.850297 
L 58.368446 268.846557 
L 58.505783 259.473894 
L 58.780456 270.72109 
L 58.917793 266.972025 
L 59.192466 246.352166 
L 59.329803 250.101231 
L 59.604476 278.21922 
L 59.741813 265.097492 
L 59.879149 272.595622 
L 60.016486 261.348427 
L 60.153823 263.222959 
L 60.291159 272.595622 
L 60.703169 251.975764 
L 60.840506 235.104971 
L 60.977843 268.846557 
L 61.252516 244.477634 
L 61.389853 263.222959 
L 61.527189 261.348427 
L 61.664526 257.599362 
L 61.801863 250.101231 
L 61.939199 235.104971 
L 62.213873 268.846557 
L 62.351209 253.850297 
L 62.625883 268.846557 
L 62.900556 255.724829 
L 63.037893 255.724829 
L 63.175229 270.72109 
L 63.312566 242.603101 
L 63.449903 265.097492 
L 63.587239 263.222959 
L 63.724576 265.097492 
L 63.861913 272.595622 
L 63.999249 246.352166 
L 64.136586 257.599362 
L 64.273923 257.599362 
L 64.411259 270.72109 
L 64.548596 238.854036 
L 64.685933 242.603101 
L 64.823269 270.72109 
L 64.960606 244.477634 
L 65.097943 266.972025 
L 65.235279 246.352166 
L 65.372616 246.352166 
L 65.509953 257.599362 
L 65.647289 287.591883 
L 65.784626 265.097492 
L 65.921963 266.972025 
L 66.059299 276.344687 
L 66.333973 251.975764 
L 66.471309 259.473894 
L 66.745983 285.71735 
L 66.883319 257.599362 
L 67.020656 274.470155 
L 67.157993 244.477634 
L 67.295329 283.842818 
L 67.432666 246.352166 
L 67.570003 274.470155 
L 67.707339 246.352166 
L 67.844676 255.724829 
L 67.982013 276.344687 
L 68.119349 270.72109 
L 68.394023 270.72109 
L 68.531359 289.466415 
L 68.668696 261.348427 
L 68.806033 270.72109 
L 69.080706 248.226699 
L 69.218043 251.975764 
L 69.492716 235.104971 
L 69.630053 265.097492 
L 69.767389 238.854036 
L 69.904726 272.595622 
L 70.042063 272.595622 
L 70.179399 238.854036 
L 70.454073 281.968285 
L 70.728746 250.101231 
L 71.00342 270.72109 
L 71.140756 272.595622 
L 71.278093 270.72109 
L 71.41543 261.348427 
L 71.552766 236.979504 
L 71.690103 263.222959 
L 71.82744 259.473894 
L 71.964776 289.466415 
L 72.102113 255.724829 
L 72.23945 274.470155 
L 72.376786 242.603101 
L 72.514123 289.466415 
L 72.788796 257.599362 
L 72.926133 242.603101 
L 73.200806 270.72109 
L 73.338143 229.481373 
L 73.612816 280.093752 
L 73.750153 261.348427 
L 73.88749 274.470155 
L 74.024826 274.470155 
L 74.162163 259.473894 
L 74.436836 283.842818 
L 74.71151 263.222959 
L 74.848846 278.21922 
L 74.986183 242.603101 
L 75.260856 272.595622 
L 75.398193 261.348427 
L 75.672866 274.470155 
L 75.94754 263.222959 
L 76.084876 268.846557 
L 76.222213 265.097492 
L 76.35955 265.097492 
L 76.496886 274.470155 
L 76.634223 270.72109 
L 76.77156 281.968285 
L 77.046233 246.352166 
L 77.320906 272.595622 
L 77.59558 248.226699 
L 77.870253 265.097492 
L 78.00759 238.854036 
L 78.282263 280.093752 
L 78.4196 261.348427 
L 78.556936 265.097492 
L 78.694273 259.473894 
L 78.83161 261.348427 
L 78.968946 257.599362 
L 79.106283 261.348427 
L 79.24362 259.473894 
L 79.380956 244.477634 
L 79.518293 276.344687 
L 79.65563 265.097492 
L 79.792966 263.222959 
L 79.930303 265.097492 
L 80.06764 280.093752 
L 80.204976 255.724829 
L 80.342313 253.850297 
L 80.47965 268.846557 
L 80.616986 261.348427 
L 80.754323 287.591883 
L 80.89166 265.097492 
L 81.028996 265.097492 
L 81.166333 266.972025 
L 81.30367 233.230438 
L 81.441006 270.72109 
L 81.578343 263.222959 
L 81.71568 287.591883 
L 81.990353 263.222959 
L 82.265026 278.21922 
L 82.5397 263.222959 
L 82.677036 272.595622 
L 82.814373 244.477634 
L 82.95171 266.972025 
L 83.089046 265.097492 
L 83.226383 272.595622 
L 83.36372 240.728569 
L 83.501056 255.724829 
L 83.638393 246.352166 
L 83.77573 265.097492 
L 83.913066 265.097492 
L 84.050403 255.724829 
L 84.18774 270.72109 
L 84.325076 268.846557 
L 84.462413 242.603101 
L 84.737086 270.72109 
L 84.874423 266.972025 
L 85.01176 287.591883 
L 85.149096 274.470155 
L 85.286433 240.728569 
L 85.561106 265.097492 
L 85.83578 251.975764 
L 85.973116 272.595622 
L 86.24779 268.846557 
L 86.385126 265.097492 
L 86.6598 281.968285 
L 86.934473 268.846557 
L 87.07181 283.842818 
L 87.346483 261.348427 
L 87.48382 259.473894 
L 87.621157 296.964545 
L 87.89583 257.599362 
L 88.033167 251.975764 
L 88.170503 238.854036 
L 88.30784 268.846557 
L 88.445177 257.599362 
L 88.582513 263.222959 
L 88.71985 280.093752 
L 88.994523 261.348427 
L 89.13186 270.72109 
L 89.269197 263.222959 
L 89.406533 265.097492 
L 89.54387 248.226699 
L 89.681207 266.972025 
L 89.818543 238.854036 
L 89.95588 238.854036 
L 90.093217 268.846557 
L 90.36789 242.603101 
L 90.505227 278.21922 
L 90.642563 266.972025 
L 90.7799 270.72109 
L 90.917237 248.226699 
L 91.054573 270.72109 
L 91.19191 255.724829 
L 91.329247 278.21922 
L 91.466583 248.226699 
L 91.60392 265.097492 
L 91.741257 263.222959 
L 91.878593 238.854036 
L 92.01593 287.591883 
L 92.153267 244.477634 
L 92.565277 281.968285 
L 92.702613 276.344687 
L 92.83995 259.473894 
L 92.977287 266.972025 
L 93.25196 255.724829 
L 93.66397 265.097492 
L 93.801307 238.854036 
L 93.938643 278.21922 
L 94.07598 272.595622 
L 94.213317 255.724829 
L 94.350653 255.724829 
L 94.48799 261.348427 
L 94.625327 272.595622 
L 94.762663 261.348427 
L 94.9 274.470155 
L 95.037337 263.222959 
L 95.174673 280.093752 
L 95.31201 253.850297 
L 95.449347 265.097492 
L 95.586683 261.348427 
L 95.72402 251.975764 
L 95.861357 278.21922 
L 95.998693 268.846557 
L 96.13603 270.72109 
L 96.273367 265.097492 
L 96.410703 281.968285 
L 96.54804 240.728569 
L 96.685377 261.348427 
L 96.822713 259.473894 
L 96.96005 253.850297 
L 97.097387 274.470155 
L 97.234723 253.850297 
L 97.37206 274.470155 
L 97.509397 274.470155 
L 97.646733 263.222959 
L 97.78407 281.968285 
L 97.921407 263.222959 
L 98.19608 270.72109 
L 98.470753 259.473894 
L 98.60809 278.21922 
L 98.745427 255.724829 
L 98.882763 281.968285 
L 99.157437 248.226699 
L 99.294773 266.972025 
L 99.569447 251.975764 
L 99.706783 259.473894 
L 99.84412 257.599362 
L 99.981457 250.101231 
L 100.118793 255.724829 
L 100.393467 281.968285 
L 100.530803 272.595622 
L 100.66814 276.344687 
L 100.942813 236.979504 
L 101.217487 278.21922 
L 101.49216 263.222959 
L 101.629497 265.097492 
L 101.766833 257.599362 
L 101.90417 285.71735 
L 102.041507 259.473894 
L 102.31618 283.842818 
L 102.590853 235.104971 
L 103.002863 274.470155 
L 103.1402 280.093752 
L 103.277537 268.846557 
L 103.414874 272.595622 
L 103.55221 257.599362 
L 103.689547 261.348427 
L 103.826884 283.842818 
L 104.101557 244.477634 
L 104.37623 285.71735 
L 104.650904 261.348427 
L 104.78824 281.968285 
L 105.062914 251.975764 
L 105.20025 251.975764 
L 105.474924 280.093752 
L 105.749597 268.846557 
L 105.886934 270.72109 
L 106.02427 255.724829 
L 106.161607 261.348427 
L 106.298944 255.724829 
L 106.43628 272.595622 
L 106.573617 259.473894 
L 106.710954 285.71735 
L 106.84829 261.348427 
L 106.985627 280.093752 
L 107.122964 255.724829 
L 107.2603 251.975764 
L 107.397637 265.097492 
L 107.534974 261.348427 
L 107.67231 261.348427 
L 107.809647 250.101231 
L 108.08432 278.21922 
L 108.221657 278.21922 
L 108.358994 248.226699 
L 108.49633 265.097492 
L 108.633667 261.348427 
L 108.90834 270.72109 
L 109.183014 242.603101 
L 109.32035 276.344687 
L 109.457687 240.728569 
L 109.595024 251.975764 
L 109.869697 280.093752 
L 110.007034 280.093752 
L 110.14437 253.850297 
L 110.55638 280.093752 
L 110.693717 261.348427 
L 110.831054 281.968285 
L 110.96839 266.972025 
L 111.105727 278.21922 
L 111.243064 274.470155 
L 111.3804 253.850297 
L 111.655074 291.340948 
L 111.929747 253.850297 
L 112.067084 261.348427 
L 112.20442 257.599362 
L 112.341757 221.983243 
L 112.61643 257.599362 
L 112.753767 253.850297 
L 113.02844 261.348427 
L 113.165777 265.097492 
L 113.303114 276.344687 
L 113.44045 255.724829 
L 113.577787 259.473894 
L 113.715124 266.972025 
L 113.85246 266.972025 
L 113.989797 263.222959 
L 114.127134 242.603101 
L 114.26447 253.850297 
L 114.401807 253.850297 
L 114.67648 280.093752 
L 114.813817 257.599362 
L 114.951154 263.222959 
L 115.08849 242.603101 
L 115.363164 270.72109 
L 115.5005 265.097492 
L 115.637837 265.097492 
L 115.775174 251.975764 
L 115.91251 266.972025 
L 116.049847 257.599362 
L 116.187184 268.846557 
L 116.32452 270.72109 
L 116.599194 266.972025 
L 116.73653 274.470155 
L 117.14854 255.724829 
L 117.285877 259.473894 
L 117.423214 259.473894 
L 117.56055 268.846557 
L 117.835224 261.348427 
L 117.97256 261.348427 
L 118.109897 276.344687 
L 118.247234 278.21922 
L 118.38457 257.599362 
L 118.659244 280.093752 
L 118.79658 255.724829 
L 118.933917 255.724829 
L 119.071254 272.595622 
L 119.20859 255.724829 
L 119.345927 268.846557 
L 119.483264 246.352166 
L 119.620601 265.097492 
L 119.757937 263.222959 
L 119.895274 248.226699 
L 120.032611 295.090013 
L 120.307284 244.477634 
L 120.581957 280.093752 
L 120.719294 278.21922 
L 120.856631 251.975764 
L 120.993967 272.595622 
L 121.131304 242.603101 
L 121.268641 246.352166 
L 121.543314 278.21922 
L 121.680651 259.473894 
L 121.817987 281.968285 
L 121.955324 281.968285 
L 122.092661 266.972025 
L 122.229997 266.972025 
L 122.367334 255.724829 
L 122.504671 265.097492 
L 122.642007 246.352166 
L 122.779344 253.850297 
L 122.916681 253.850297 
L 123.054017 280.093752 
L 123.191354 248.226699 
L 123.328691 270.72109 
L 123.466027 263.222959 
L 123.603364 266.972025 
L 123.740701 250.101231 
L 123.878037 272.595622 
L 124.015374 255.724829 
L 124.152711 255.724829 
L 124.290047 244.477634 
L 124.564721 272.595622 
L 124.839394 257.599362 
L 124.976731 285.71735 
L 125.114067 255.724829 
L 125.251404 280.093752 
L 125.388741 276.344687 
L 125.526077 244.477634 
L 125.663414 276.344687 
L 125.800751 265.097492 
L 125.938087 272.595622 
L 126.212761 244.477634 
L 126.350097 248.226699 
L 126.624771 274.470155 
L 126.762107 266.972025 
L 126.899444 248.226699 
L 127.036781 263.222959 
L 127.174117 263.222959 
L 127.311454 253.850297 
L 127.723464 281.968285 
L 127.860801 265.097492 
L 127.998137 274.470155 
L 128.135474 253.850297 
L 128.272811 268.846557 
L 128.410147 268.846557 
L 128.547484 289.466415 
L 128.684821 266.972025 
L 128.822157 268.846557 
L 128.959494 238.854036 
L 129.234167 270.72109 
L 129.371504 257.599362 
L 129.508841 233.230438 
L 129.783514 278.21922 
L 129.920851 263.222959 
L 130.058187 265.097492 
L 130.195524 265.097492 
L 130.332861 270.72109 
L 130.470197 283.842818 
L 130.607534 270.72109 
L 130.744871 280.093752 
L 131.019544 255.724829 
L 131.294217 265.097492 
L 131.431554 272.595622 
L 131.568891 261.348427 
L 131.706227 281.968285 
L 131.843564 251.975764 
L 131.980901 278.21922 
L 132.118237 265.097492 
L 132.255574 281.968285 
L 132.530247 274.470155 
L 132.667584 255.724829 
L 132.804921 263.222959 
L 132.942257 263.222959 
L 133.079594 261.348427 
L 133.216931 235.104971 
L 133.354267 280.093752 
L 133.491604 261.348427 
L 133.628941 270.72109 
L 133.903614 238.854036 
L 134.040951 246.352166 
L 134.178287 280.093752 
L 134.315624 246.352166 
L 134.452961 263.222959 
L 134.590297 265.097492 
L 134.727634 276.344687 
L 134.864971 265.097492 
L 135.002307 266.972025 
L 135.139644 276.344687 
L 135.276981 266.972025 
L 135.414317 266.972025 
L 135.551654 246.352166 
L 135.688991 266.972025 
L 135.826327 255.724829 
L 135.963664 283.842818 
L 136.101001 272.595622 
L 136.238338 270.72109 
L 136.375674 272.595622 
L 136.650348 251.975764 
L 136.787684 278.21922 
L 136.925021 248.226699 
L 137.199694 274.470155 
L 137.337031 276.344687 
L 137.474368 287.591883 
L 137.611704 283.842818 
L 137.749041 274.470155 
L 137.886378 233.230438 
L 138.023714 265.097492 
L 138.161051 261.348427 
L 138.435724 280.093752 
L 138.573061 238.854036 
L 138.710398 276.344687 
L 138.847734 274.470155 
L 138.985071 250.101231 
L 139.122408 283.842818 
L 139.259744 253.850297 
L 139.397081 280.093752 
L 139.534418 236.979504 
L 139.671754 272.595622 
L 139.809091 278.21922 
L 139.809091 278.21922 
" style="fill:none;stroke:#4c72b0;stroke-linecap:round;stroke-width:1.5;"/>
   </g>
   <g id="line2d_13">
    <path clip-path="url(#pf093fb71a5)" d="M 49.990909 32.655455 
L 50.540256 100.098635 
L 50.952266 152.66407 
L 51.089602 144.614938 
L 51.226939 148.786548 
L 51.364276 147.345951 
L 51.501612 149.370511 
L 51.638949 160.977529 
L 51.776286 156.662389 
L 51.913622 164.580885 
L 52.050959 164.031067 
L 52.737642 181.15852 
L 52.874979 183.369903 
L 53.149652 192.382792 
L 53.973673 216.352522 
L 54.935029 237.673493 
L 55.621713 248.29425 
L 56.308396 255.505554 
L 56.857743 259.217186 
L 57.407089 261.480647 
L 57.956436 262.716519 
L 58.368446 263.135948 
L 58.780456 263.206225 
L 59.192466 263.040007 
L 59.879149 262.473619 
L 61.801863 260.62466 
L 62.625883 260.188089 
L 63.449903 260.034658 
L 64.273923 260.12416 
L 65.372616 260.48995 
L 71.41543 262.835966 
L 74.574173 263.837581 
L 76.084876 264.009291 
L 78.00759 263.996002 
L 81.30367 263.907263 
L 82.95171 264.199013 
L 84.59975 264.44521 
L 85.83578 264.3974 
L 87.758493 264.047491 
L 91.741257 263.239967 
L 92.83995 263.345921 
L 94.350653 263.747707 
L 96.822713 264.387635 
L 99.981457 264.923407 
L 103.826884 265.394303 
L 105.337587 265.334413 
L 106.985627 265.058598 
L 108.358994 264.619337 
L 110.419044 263.645882 
L 111.929747 263.047578 
L 113.303114 262.753086 
L 114.539144 262.705828 
L 115.637837 262.867079 
L 117.423214 263.414488 
L 119.071254 263.835492 
L 120.444621 263.924178 
L 125.663414 263.950542 
L 127.311454 264.350279 
L 129.371504 264.836959 
L 131.431554 265.036032 
L 133.079594 265.282638 
L 134.452961 265.713472 
L 135.551654 266.269647 
L 136.650348 267.08174 
L 139.809091 269.870029 
L 139.809091 269.870029 
" style="fill:none;stroke:#dd8452;stroke-linecap:round;stroke-width:1.5;"/>
   </g>
   <g id="patch_3">
    <path d="M 45.5 310.18 
L 45.5 19.44 
" style="fill:none;stroke:#ffffff;stroke-linecap:square;stroke-linejoin:miter;stroke-width:1.25;"/>
   </g>
   <g id="patch_4">
    <path d="M 144.3 310.18 
L 144.3 19.44 
" style="fill:none;stroke:#ffffff;stroke-linecap:square;stroke-linejoin:miter;stroke-width:1.25;"/>
   </g>
   <g id="patch_5">
    <path d="M 45.5 310.18 
L 144.3 310.18 
" style="fill:none;stroke:#ffffff;stroke-linecap:square;stroke-linejoin:miter;stroke-width:1.25;"/>
   </g>
   <g id="patch_6">
    <path d="M 45.5 19.44 
L 144.3 19.44 
" style="fill:none;stroke:#ffffff;stroke-linecap:square;stroke-linejoin:miter;stroke-width:1.25;"/>
   </g>
  </g>
  <g id="axes_2">
   <g id="patch_7">
    <path d="M 194.03 310.18 
L 292.83 310.18 
L 292.83 19.44 
L 194.03 19.44 
z
" style="fill:#eaeaf2;"/>
   </g>
   <g id="matplotlib.axis_3">
    <g id="xtick_4">
     <g id="line2d_14">
      <path clip-path="url(#p6fb27c57e9)" d="M 199.482266 310.18 
L 199.482266 19.44 
" style="fill:none;stroke:#ffffff;stroke-linecap:round;"/>
     </g>
     <g id="text_12">
      <!-- 0.00035 -->
      <defs>
       <path d="M 40.578125 39.3125 
Q 47.65625 37.796875 51.625 33 
Q 55.609375 28.21875 55.609375 21.1875 
Q 55.609375 10.40625 48.1875 4.484375 
Q 40.765625 -1.421875 27.09375 -1.421875 
Q 22.515625 -1.421875 17.65625 -0.515625 
Q 12.796875 0.390625 7.625 2.203125 
L 7.625 11.71875 
Q 11.71875 9.328125 16.59375 8.109375 
Q 21.484375 6.890625 26.8125 6.890625 
Q 36.078125 6.890625 40.9375 10.546875 
Q 45.796875 14.203125 45.796875 21.1875 
Q 45.796875 27.640625 41.28125 31.265625 
Q 36.765625 34.90625 28.71875 34.90625 
L 20.21875 34.90625 
L 20.21875 43.015625 
L 29.109375 43.015625 
Q 36.375 43.015625 40.234375 45.921875 
Q 44.09375 48.828125 44.09375 54.296875 
Q 44.09375 59.90625 40.109375 62.90625 
Q 36.140625 65.921875 28.71875 65.921875 
Q 24.65625 65.921875 20.015625 65.03125 
Q 15.375 64.15625 9.8125 62.3125 
L 9.8125 71.09375 
Q 15.4375 72.65625 20.34375 73.4375 
Q 25.25 74.21875 29.59375 74.21875 
Q 40.828125 74.21875 47.359375 69.109375 
Q 53.90625 64.015625 53.90625 55.328125 
Q 53.90625 49.265625 50.4375 45.09375 
Q 46.96875 40.921875 40.578125 39.3125 
z
" id="DejaVuSans-51"/>
      </defs>
      <g style="fill:#262626;" transform="translate(176.738047 328.038281)scale(0.11 -0.11)">
       <use xlink:href="#DejaVuSans-48"/>
       <use x="63.623047" xlink:href="#DejaVuSans-46"/>
       <use x="95.410156" xlink:href="#DejaVuSans-48"/>
       <use x="159.033203" xlink:href="#DejaVuSans-48"/>
       <use x="222.65625" xlink:href="#DejaVuSans-48"/>
       <use x="286.279297" xlink:href="#DejaVuSans-51"/>
       <use x="349.902344" xlink:href="#DejaVuSans-53"/>
      </g>
     </g>
    </g>
    <g id="xtick_5">
     <g id="line2d_15">
      <path clip-path="url(#p6fb27c57e9)" d="M 268.150601 310.18 
L 268.150601 19.44 
" style="fill:none;stroke:#ffffff;stroke-linecap:round;"/>
     </g>
     <g id="text_13">
      <!-- 0.00040 -->
      <g style="fill:#262626;" transform="translate(245.406382 328.038281)scale(0.11 -0.11)">
       <use xlink:href="#DejaVuSans-48"/>
       <use x="63.623047" xlink:href="#DejaVuSans-46"/>
       <use x="95.410156" xlink:href="#DejaVuSans-48"/>
       <use x="159.033203" xlink:href="#DejaVuSans-48"/>
       <use x="222.65625" xlink:href="#DejaVuSans-48"/>
       <use x="286.279297" xlink:href="#DejaVuSans-52"/>
       <use x="349.902344" xlink:href="#DejaVuSans-48"/>
      </g>
     </g>
    </g>
   </g>
   <g id="matplotlib.axis_4">
    <g id="ytick_9">
     <g id="line2d_16">
      <path clip-path="url(#p6fb27c57e9)" d="M 194.03 299.806579 
L 292.83 299.806579 
" style="fill:none;stroke:#ffffff;stroke-linecap:round;"/>
     </g>
     <g id="text_14">
      <!-- 25 -->
      <g style="fill:#262626;" transform="translate(170.5325 303.985719)scale(0.11 -0.11)">
       <use xlink:href="#DejaVuSans-50"/>
       <use x="63.623047" xlink:href="#DejaVuSans-53"/>
      </g>
     </g>
    </g>
    <g id="ytick_10">
     <g id="line2d_17">
      <path clip-path="url(#p6fb27c57e9)" d="M 194.03 264.281163 
L 292.83 264.281163 
" style="fill:none;stroke:#ffffff;stroke-linecap:round;"/>
     </g>
     <g id="text_15">
      <!-- 50 -->
      <g style="fill:#262626;" transform="translate(170.5325 268.460304)scale(0.11 -0.11)">
       <use xlink:href="#DejaVuSans-53"/>
       <use x="63.623047" xlink:href="#DejaVuSans-48"/>
      </g>
     </g>
    </g>
    <g id="ytick_11">
     <g id="line2d_18">
      <path clip-path="url(#p6fb27c57e9)" d="M 194.03 228.755748 
L 292.83 228.755748 
" style="fill:none;stroke:#ffffff;stroke-linecap:round;"/>
     </g>
     <g id="text_16">
      <!-- 75 -->
      <g style="fill:#262626;" transform="translate(170.5325 232.934888)scale(0.11 -0.11)">
       <use xlink:href="#DejaVuSans-55"/>
       <use x="63.623047" xlink:href="#DejaVuSans-53"/>
      </g>
     </g>
    </g>
    <g id="ytick_12">
     <g id="line2d_19">
      <path clip-path="url(#p6fb27c57e9)" d="M 194.03 193.230332 
L 292.83 193.230332 
" style="fill:none;stroke:#ffffff;stroke-linecap:round;"/>
     </g>
     <g id="text_17">
      <!-- 100 -->
      <g style="fill:#262626;" transform="translate(163.53375 197.409473)scale(0.11 -0.11)">
       <use xlink:href="#DejaVuSans-49"/>
       <use x="63.623047" xlink:href="#DejaVuSans-48"/>
       <use x="127.246094" xlink:href="#DejaVuSans-48"/>
      </g>
     </g>
    </g>
    <g id="ytick_13">
     <g id="line2d_20">
      <path clip-path="url(#p6fb27c57e9)" d="M 194.03 157.704917 
L 292.83 157.704917 
" style="fill:none;stroke:#ffffff;stroke-linecap:round;"/>
     </g>
     <g id="text_18">
      <!-- 125 -->
      <g style="fill:#262626;" transform="translate(163.53375 161.884058)scale(0.11 -0.11)">
       <use xlink:href="#DejaVuSans-49"/>
       <use x="63.623047" xlink:href="#DejaVuSans-50"/>
       <use x="127.246094" xlink:href="#DejaVuSans-53"/>
      </g>
     </g>
    </g>
    <g id="ytick_14">
     <g id="line2d_21">
      <path clip-path="url(#p6fb27c57e9)" d="M 194.03 122.179501 
L 292.83 122.179501 
" style="fill:none;stroke:#ffffff;stroke-linecap:round;"/>
     </g>
     <g id="text_19">
      <!-- 150 -->
      <g style="fill:#262626;" transform="translate(163.53375 126.358642)scale(0.11 -0.11)">
       <use xlink:href="#DejaVuSans-49"/>
       <use x="63.623047" xlink:href="#DejaVuSans-53"/>
       <use x="127.246094" xlink:href="#DejaVuSans-48"/>
      </g>
     </g>
    </g>
    <g id="ytick_15">
     <g id="line2d_22">
      <path clip-path="url(#p6fb27c57e9)" d="M 194.03 86.654086 
L 292.83 86.654086 
" style="fill:none;stroke:#ffffff;stroke-linecap:round;"/>
     </g>
     <g id="text_20">
      <!-- 175 -->
      <g style="fill:#262626;" transform="translate(163.53375 90.833227)scale(0.11 -0.11)">
       <use xlink:href="#DejaVuSans-49"/>
       <use x="63.623047" xlink:href="#DejaVuSans-55"/>
       <use x="127.246094" xlink:href="#DejaVuSans-53"/>
      </g>
     </g>
    </g>
    <g id="ytick_16">
     <g id="line2d_23">
      <path clip-path="url(#p6fb27c57e9)" d="M 194.03 51.128671 
L 292.83 51.128671 
" style="fill:none;stroke:#ffffff;stroke-linecap:round;"/>
     </g>
     <g id="text_21">
      <!-- 200 -->
      <g style="fill:#262626;" transform="translate(163.53375 55.307811)scale(0.11 -0.11)">
       <use xlink:href="#DejaVuSans-50"/>
       <use x="63.623047" xlink:href="#DejaVuSans-48"/>
       <use x="127.246094" xlink:href="#DejaVuSans-48"/>
      </g>
     </g>
    </g>
   </g>
   <g id="line2d_24">
    <path clip-path="url(#p6fb27c57e9)" d="M 198.520909 32.655455 
L 198.658246 36.918504 
L 199.207592 177.59915 
L 199.344929 173.3361 
L 199.619602 224.492698 
L 199.756939 223.071681 
L 199.894276 233.018798 
L 200.031612 228.755748 
L 200.168949 211.703548 
L 200.306286 235.860831 
L 200.443622 240.123881 
L 200.580959 227.334731 
L 200.855632 250.070997 
L 200.992969 244.386931 
L 201.267642 264.281163 
L 201.404979 261.43913 
L 201.542316 250.070997 
L 201.679652 252.91303 
L 201.816989 241.544897 
L 202.228999 265.70218 
L 202.503673 242.965914 
L 202.641009 248.64998 
L 202.778346 242.965914 
L 203.053019 272.807263 
L 203.327693 242.965914 
L 203.465029 260.018113 
L 203.602366 261.43913 
L 203.739703 228.755748 
L 203.877039 255.755064 
L 204.289049 260.018113 
L 204.426386 248.64998 
L 204.563723 271.386246 
L 204.701059 248.64998 
L 204.838396 245.807947 
L 204.975733 257.17608 
L 205.113069 257.17608 
L 205.250406 260.018113 
L 205.525079 254.334047 
L 205.662416 254.334047 
L 205.799753 255.755064 
L 205.937089 242.965914 
L 206.074426 258.597097 
L 206.211763 255.755064 
L 206.349099 241.544897 
L 206.623773 268.544213 
L 206.761109 264.281163 
L 206.898446 264.281163 
L 207.035783 248.64998 
L 207.310456 275.649296 
L 207.447793 251.492014 
L 207.722466 277.070313 
L 207.859803 252.91303 
L 207.997139 254.334047 
L 208.134476 274.22828 
L 208.271813 260.018113 
L 208.409149 269.96523 
L 208.546486 250.070997 
L 208.683823 281.333363 
L 208.821159 271.386246 
L 208.958496 274.22828 
L 209.095833 254.334047 
L 209.370506 262.860147 
L 209.507843 245.807947 
L 209.645179 247.228964 
L 209.782516 251.492014 
L 209.919853 265.70218 
L 210.057189 262.860147 
L 210.331863 248.64998 
L 210.469199 275.649296 
L 210.606536 264.281163 
L 210.743873 264.281163 
L 210.881209 252.91303 
L 211.018546 268.544213 
L 211.155883 240.123881 
L 211.430556 285.596413 
L 211.705229 250.070997 
L 211.979903 275.649296 
L 212.117239 235.860831 
L 212.254576 261.43913 
L 212.391913 251.492014 
L 212.529249 264.281163 
L 212.666586 265.70218 
L 212.803923 254.334047 
L 212.941259 264.281163 
L 213.078596 260.018113 
L 213.215933 250.070997 
L 213.353269 260.018113 
L 213.490606 252.91303 
L 213.765279 262.860147 
L 213.902616 274.22828 
L 214.039953 254.334047 
L 214.177289 277.070313 
L 214.314626 272.807263 
L 214.451963 251.492014 
L 214.726636 262.860147 
L 214.863973 251.492014 
L 215.001309 264.281163 
L 215.275983 251.492014 
L 215.413319 282.754379 
L 215.550656 267.123196 
L 215.687993 279.912346 
L 215.825329 265.70218 
L 215.962666 265.70218 
L 216.100003 289.859462 
L 216.374676 260.018113 
L 216.512013 275.649296 
L 216.786686 260.018113 
L 216.924023 271.386246 
L 217.061359 269.96523 
L 217.198696 264.281163 
L 217.336033 277.070313 
L 217.748043 261.43913 
L 217.885379 268.544213 
L 218.022716 285.596413 
L 218.160053 268.544213 
L 218.297389 279.912346 
L 218.434726 261.43913 
L 218.572063 267.123196 
L 218.709399 257.17608 
L 218.846736 277.070313 
L 218.984073 275.649296 
L 219.12141 279.912346 
L 219.396083 260.018113 
L 219.670756 279.912346 
L 219.808093 251.492014 
L 220.082766 289.859462 
L 220.35744 262.860147 
L 220.494776 269.96523 
L 220.632113 269.96523 
L 220.76945 268.544213 
L 220.906786 272.807263 
L 221.044123 269.96523 
L 221.18146 264.281163 
L 221.318796 277.070313 
L 221.456133 267.123196 
L 221.59347 282.754379 
L 221.868143 242.965914 
L 222.00548 279.912346 
L 222.280153 265.70218 
L 222.41749 269.96523 
L 222.554826 267.123196 
L 222.692163 278.491329 
L 222.966836 255.755064 
L 223.104173 260.018113 
L 223.24151 277.070313 
L 223.378846 272.807263 
L 223.516183 261.43913 
L 223.790856 289.859462 
L 223.928193 252.91303 
L 224.06553 287.017429 
L 224.340203 265.70218 
L 224.47754 264.281163 
L 224.752213 282.754379 
L 224.88955 271.386246 
L 225.026886 247.228964 
L 225.164223 264.281163 
L 225.30156 262.860147 
L 225.438896 282.754379 
L 225.576233 267.123196 
L 225.850906 282.754379 
L 225.988243 271.386246 
L 226.12558 277.070313 
L 226.262916 258.597097 
L 226.400253 262.860147 
L 226.53759 275.649296 
L 226.674926 262.860147 
L 226.812263 277.070313 
L 226.9496 265.70218 
L 227.086936 267.123196 
L 227.224273 274.22828 
L 227.36161 294.122512 
L 227.498946 262.860147 
L 227.636283 258.597097 
L 227.77362 285.596413 
L 228.048293 247.228964 
L 228.18563 267.123196 
L 228.322966 261.43913 
L 228.460303 269.96523 
L 228.59764 258.597097 
L 228.734976 275.649296 
L 228.872313 264.281163 
L 229.00965 274.22828 
L 229.284323 268.544213 
L 229.42166 277.070313 
L 229.696333 268.544213 
L 229.83367 278.491329 
L 229.971006 278.491329 
L 230.108343 279.912346 
L 230.24568 284.175396 
L 230.383016 267.123196 
L 230.520353 265.70218 
L 230.65769 281.333363 
L 230.795026 262.860147 
L 231.0697 279.912346 
L 231.344373 252.91303 
L 231.48171 262.860147 
L 231.619046 281.333363 
L 231.756383 279.912346 
L 231.89372 252.91303 
L 232.031056 269.96523 
L 232.168393 255.755064 
L 232.580403 295.543529 
L 232.71774 261.43913 
L 232.855076 265.70218 
L 232.992413 248.64998 
L 233.12975 265.70218 
L 233.267086 265.70218 
L 233.404423 268.544213 
L 233.54176 282.754379 
L 233.679096 269.96523 
L 233.816433 240.123881 
L 233.95377 275.649296 
L 234.091106 272.807263 
L 234.228443 265.70218 
L 234.503116 279.912346 
L 234.640453 262.860147 
L 234.77779 265.70218 
L 234.915126 262.860147 
L 235.052463 278.491329 
L 235.1898 252.91303 
L 235.327137 285.596413 
L 235.464473 257.17608 
L 235.60181 255.755064 
L 235.876483 291.280479 
L 236.01382 271.386246 
L 236.151157 295.543529 
L 236.288493 268.544213 
L 236.42583 288.438446 
L 236.563167 262.860147 
L 236.700503 261.43913 
L 236.83784 261.43913 
L 236.975177 282.754379 
L 237.112513 281.333363 
L 237.24985 260.018113 
L 237.524523 278.491329 
L 237.66186 274.22828 
L 237.799197 265.70218 
L 238.07387 281.333363 
L 238.211207 275.649296 
L 238.348543 284.175396 
L 238.623217 261.43913 
L 238.760553 278.491329 
L 238.89789 271.386246 
L 239.035227 274.22828 
L 239.172563 264.281163 
L 239.3099 272.807263 
L 239.447237 272.807263 
L 239.584573 265.70218 
L 239.72191 277.070313 
L 239.859247 278.491329 
L 239.996583 265.70218 
L 240.13392 268.544213 
L 240.271257 277.070313 
L 240.408593 267.123196 
L 240.54593 274.22828 
L 240.820603 257.17608 
L 241.095277 281.333363 
L 241.36995 264.281163 
L 241.644623 282.754379 
L 241.919297 261.43913 
L 242.056633 271.386246 
L 242.19397 271.386246 
L 242.331307 287.017429 
L 242.60598 264.281163 
L 242.880653 272.807263 
L 243.01799 258.597097 
L 243.155327 277.070313 
L 243.292663 257.17608 
L 243.567337 272.807263 
L 243.704673 267.123196 
L 243.84201 251.492014 
L 243.979347 260.018113 
L 244.116683 275.649296 
L 244.25402 267.123196 
L 244.391357 268.544213 
L 244.528693 281.333363 
L 244.803367 275.649296 
L 244.940703 274.22828 
L 245.07804 265.70218 
L 245.352713 277.070313 
L 245.49005 262.860147 
L 245.627387 275.649296 
L 245.764723 272.807263 
L 245.90206 284.175396 
L 246.039397 261.43913 
L 246.176733 267.123196 
L 246.31407 265.70218 
L 246.451407 267.123196 
L 246.588743 284.175396 
L 246.72608 272.807263 
L 247.000753 284.175396 
L 247.13809 260.018113 
L 247.275427 279.912346 
L 247.412763 282.754379 
L 247.5501 248.64998 
L 247.687437 285.596413 
L 247.96211 255.755064 
L 248.099447 282.754379 
L 248.236783 262.860147 
L 248.37412 261.43913 
L 248.511457 274.22828 
L 248.648793 267.123196 
L 248.78613 271.386246 
L 248.923467 282.754379 
L 249.060803 268.544213 
L 249.19814 269.96523 
L 249.335477 272.807263 
L 249.61015 261.43913 
L 249.747487 264.281163 
L 249.884823 269.96523 
L 250.02216 261.43913 
L 250.159497 262.860147 
L 250.296833 258.597097 
L 250.571507 278.491329 
L 250.708843 269.96523 
L 250.84618 271.386246 
L 250.983517 287.017429 
L 251.120853 278.491329 
L 251.25819 278.491329 
L 251.395527 279.912346 
L 251.532863 285.596413 
L 251.807537 261.43913 
L 251.944874 284.175396 
L 252.08221 279.912346 
L 252.219547 264.281163 
L 252.356884 268.544213 
L 252.49422 279.912346 
L 252.631557 262.860147 
L 252.768894 267.123196 
L 252.90623 275.649296 
L 253.180904 261.43913 
L 253.31824 257.17608 
L 253.455577 274.22828 
L 253.592914 267.123196 
L 253.867587 271.386246 
L 254.004924 281.333363 
L 254.14226 257.17608 
L 254.279597 284.175396 
L 254.416934 261.43913 
L 254.55427 285.596413 
L 254.691607 264.281163 
L 254.828944 271.386246 
L 254.96628 269.96523 
L 255.103617 282.754379 
L 255.240954 279.912346 
L 255.37829 271.386246 
L 255.515627 272.807263 
L 255.652964 254.334047 
L 255.927637 275.649296 
L 256.064974 269.96523 
L 256.20231 248.64998 
L 256.339647 285.596413 
L 256.476984 251.492014 
L 256.61432 279.912346 
L 256.751657 268.544213 
L 256.888994 267.123196 
L 257.02633 274.22828 
L 257.301004 268.544213 
L 257.43834 247.228964 
L 257.575677 261.43913 
L 257.713014 288.438446 
L 257.987687 252.91303 
L 258.125024 258.597097 
L 258.26236 271.386246 
L 258.399697 261.43913 
L 258.537034 277.070313 
L 258.67437 277.070313 
L 258.811707 261.43913 
L 258.949044 265.70218 
L 259.08638 260.018113 
L 259.361054 287.017429 
L 259.49839 267.123196 
L 259.635727 281.333363 
L 259.773064 268.544213 
L 259.9104 271.386246 
L 260.047737 281.333363 
L 260.185074 262.860147 
L 260.32241 279.912346 
L 260.459747 277.070313 
L 260.597084 269.96523 
L 260.73442 272.807263 
L 260.871757 296.964545 
L 261.009094 268.544213 
L 261.14643 264.281163 
L 261.283767 271.386246 
L 261.421104 252.91303 
L 261.55844 268.544213 
L 261.695777 262.860147 
L 261.833114 281.333363 
L 261.97045 267.123196 
L 262.245124 275.649296 
L 262.38246 275.649296 
L 262.519797 258.597097 
L 262.657134 282.754379 
L 262.931807 271.386246 
L 263.069144 279.912346 
L 263.343817 240.123881 
L 263.481154 284.175396 
L 263.61849 287.017429 
L 263.755827 274.22828 
L 263.893164 274.22828 
L 264.0305 265.70218 
L 264.305174 292.701496 
L 264.44251 268.544213 
L 264.717184 258.597097 
L 264.85452 292.701496 
L 264.991857 282.754379 
L 265.129194 252.91303 
L 265.403867 269.96523 
L 265.541204 262.860147 
L 265.67854 272.807263 
L 265.815877 274.22828 
L 266.09055 247.228964 
L 266.227887 271.386246 
L 266.365224 261.43913 
L 266.50256 287.017429 
L 266.639897 287.017429 
L 267.051907 251.492014 
L 267.189244 281.333363 
L 267.32658 260.018113 
L 267.463917 279.912346 
L 267.601254 267.123196 
L 267.73859 279.912346 
L 267.875927 277.070313 
L 268.013264 267.123196 
L 268.287937 288.438446 
L 268.562611 267.123196 
L 268.699947 274.22828 
L 268.837284 274.22828 
L 269.111957 260.018113 
L 269.249294 281.333363 
L 269.523967 258.597097 
L 269.661304 269.96523 
L 269.798641 265.70218 
L 269.935977 267.123196 
L 270.073314 269.96523 
L 270.210651 261.43913 
L 270.347987 268.544213 
L 270.485324 267.123196 
L 270.759997 284.175396 
L 271.034671 264.281163 
L 271.172007 284.175396 
L 271.309344 269.96523 
L 271.446681 268.544213 
L 271.721354 279.912346 
L 271.858691 271.386246 
L 271.996027 277.070313 
L 272.133364 264.281163 
L 272.270701 272.807263 
L 272.408037 252.91303 
L 272.545374 274.22828 
L 272.682711 267.123196 
L 272.820047 281.333363 
L 272.957384 268.544213 
L 273.094721 278.491329 
L 273.232057 274.22828 
L 273.369394 262.860147 
L 273.506731 278.491329 
L 273.781404 264.281163 
L 273.918741 279.912346 
L 274.056077 274.22828 
L 274.193414 254.334047 
L 274.330751 254.334047 
L 274.468087 264.281163 
L 274.605424 265.70218 
L 274.742761 278.491329 
L 274.880097 279.912346 
L 275.017434 262.860147 
L 275.292107 257.17608 
L 275.429444 284.175396 
L 275.704117 271.386246 
L 275.841454 289.859462 
L 275.978791 265.70218 
L 276.116127 272.807263 
L 276.253464 264.281163 
L 276.528137 285.596413 
L 276.665474 245.807947 
L 276.802811 278.491329 
L 276.940147 278.491329 
L 277.077484 264.281163 
L 277.214821 262.860147 
L 277.352157 264.281163 
L 277.489494 278.491329 
L 277.764167 261.43913 
L 277.901504 275.649296 
L 278.176177 254.334047 
L 278.313514 272.807263 
L 278.588187 269.96523 
L 278.725524 264.281163 
L 278.862861 279.912346 
L 279.137534 267.123196 
L 279.274871 279.912346 
L 279.412207 264.281163 
L 279.549544 279.912346 
L 279.686881 269.96523 
L 279.824217 269.96523 
L 279.961554 277.070313 
L 280.098891 268.544213 
L 280.236227 271.386246 
L 280.373564 268.544213 
L 280.510901 250.070997 
L 280.922911 285.596413 
L 281.197584 275.649296 
L 281.334921 281.333363 
L 281.472257 269.96523 
L 281.609594 275.649296 
L 281.746931 269.96523 
L 281.884267 274.22828 
L 282.021604 282.754379 
L 282.158941 284.175396 
L 282.296277 271.386246 
L 282.433614 269.96523 
L 282.570951 261.43913 
L 282.708287 278.491329 
L 282.845624 258.597097 
L 282.982961 274.22828 
L 283.120297 268.544213 
L 283.394971 281.333363 
L 283.532307 251.492014 
L 283.806981 279.912346 
L 283.944317 272.807263 
L 284.081654 275.649296 
L 284.218991 261.43913 
L 284.356327 275.649296 
L 284.493664 277.070313 
L 284.631001 279.912346 
L 284.768338 271.386246 
L 284.905674 281.333363 
L 285.180348 265.70218 
L 285.317684 271.386246 
L 285.455021 282.754379 
L 285.729694 264.281163 
L 286.004368 272.807263 
L 286.141704 254.334047 
L 286.416378 275.649296 
L 286.553714 265.70218 
L 286.691051 277.070313 
L 286.828388 271.386246 
L 286.965724 272.807263 
L 287.103061 267.123196 
L 287.240398 282.754379 
L 287.377734 250.070997 
L 287.652408 281.333363 
L 287.789744 262.860147 
L 288.064418 287.017429 
L 288.339091 264.281163 
L 288.339091 264.281163 
" style="fill:none;stroke:#4c72b0;stroke-linecap:round;stroke-width:1.5;"/>
   </g>
   <g id="line2d_25">
    <path clip-path="url(#p6fb27c57e9)" d="M 198.520909 32.655455 
L 198.658246 41.218295 
L 199.207592 158.961404 
L 199.344929 154.769434 
L 199.619602 182.726588 
L 199.756939 180.379456 
L 199.894276 184.231244 
L 200.031612 181.522883 
L 200.168949 174.216698 
L 200.443622 186.509463 
L 200.580959 182.977903 
L 200.855632 192.824892 
L 200.992969 192.843169 
L 201.404979 203.165947 
L 201.542316 203.227753 
L 202.641009 227.723118 
L 202.778346 230.042136 
L 203.053019 238.348032 
L 203.190356 238.797778 
L 203.327693 240.637942 
L 203.602366 246.386415 
L 203.739703 246.236191 
L 204.014376 251.581823 
L 204.563723 257.717837 
L 204.701059 257.895849 
L 205.525079 262.675132 
L 205.799753 263.56965 
L 205.937089 263.643376 
L 206.211763 264.390858 
L 206.349099 264.329863 
L 206.623773 264.947831 
L 206.898446 264.936454 
L 207.035783 264.74076 
L 207.310456 264.91891 
L 207.447793 264.60858 
L 207.722466 264.614583 
L 207.997139 264.193937 
L 208.134476 264.187669 
L 208.546486 263.622276 
L 208.683823 263.630334 
L 209.233169 262.985413 
L 210.331863 262.147446 
L 210.743873 262.013071 
L 211.155883 261.904213 
L 212.391913 262.237626 
L 213.353269 263.004873 
L 214.314626 264.093761 
L 215.825329 266.109797 
L 217.473369 268.182905 
L 218.572063 269.19205 
L 219.53342 269.762539 
L 220.494776 270.081096 
L 221.59347 270.219101 
L 223.104173 270.170429 
L 226.9496 269.951818 
L 229.696333 269.779018 
L 231.344373 269.762405 
L 232.855076 269.992183 
L 234.77779 270.53813 
L 237.24985 271.250989 
L 238.48588 271.376516 
L 239.72191 271.273776 
L 243.84201 270.683148 
L 246.039397 270.761198 
L 250.296833 271.05643 
L 252.219547 270.815885 
L 254.279597 270.316629 
L 255.927637 269.967912 
L 257.163667 269.950512 
L 258.67437 270.182552 
L 260.73442 270.777842 
L 262.38246 271.161063 
L 263.893164 271.263899 
L 266.09055 271.171185 
L 272.682711 270.517612 
L 275.292107 270.260563 
L 276.665474 270.34993 
L 278.176177 270.699712 
L 281.197584 271.48478 
L 282.296277 271.551688 
L 283.394971 271.389298 
L 284.493664 270.998517 
L 285.729694 270.326682 
L 288.339091 268.81689 
L 288.339091 268.81689 
" style="fill:none;stroke:#dd8452;stroke-linecap:round;stroke-width:1.5;"/>
   </g>
   <g id="patch_8">
    <path d="M 194.03 310.18 
L 194.03 19.44 
" style="fill:none;stroke:#ffffff;stroke-linecap:square;stroke-linejoin:miter;stroke-width:1.25;"/>
   </g>
   <g id="patch_9">
    <path d="M 292.83 310.18 
L 292.83 19.44 
" style="fill:none;stroke:#ffffff;stroke-linecap:square;stroke-linejoin:miter;stroke-width:1.25;"/>
   </g>
   <g id="patch_10">
    <path d="M 194.03 310.18 
L 292.83 310.18 
" style="fill:none;stroke:#ffffff;stroke-linecap:square;stroke-linejoin:miter;stroke-width:1.25;"/>
   </g>
   <g id="patch_11">
    <path d="M 194.03 19.44 
L 292.83 19.44 
" style="fill:none;stroke:#ffffff;stroke-linecap:square;stroke-linejoin:miter;stroke-width:1.25;"/>
   </g>
  </g>
  <g id="axes_3">
   <g id="patch_12">
    <path d="M 342.56 310.18 
L 441.36 310.18 
L 441.36 19.44 
L 342.56 19.44 
z
" style="fill:#eaeaf2;"/>
   </g>
   <g id="matplotlib.axis_5">
    <g id="xtick_6">
     <g id="line2d_26">
      <path clip-path="url(#p7db4e540c9)" d="M 348.973622 310.18 
L 348.973622 19.44 
" style="fill:none;stroke:#ffffff;stroke-linecap:round;"/>
     </g>
     <g id="text_22">
      <!-- 0.000525 -->
      <g style="fill:#262626;" transform="translate(322.730029 328.038281)scale(0.11 -0.11)">
       <use xlink:href="#DejaVuSans-48"/>
       <use x="63.623047" xlink:href="#DejaVuSans-46"/>
       <use x="95.410156" xlink:href="#DejaVuSans-48"/>
       <use x="159.033203" xlink:href="#DejaVuSans-48"/>
       <use x="222.65625" xlink:href="#DejaVuSans-48"/>
       <use x="286.279297" xlink:href="#DejaVuSans-53"/>
       <use x="349.902344" xlink:href="#DejaVuSans-50"/>
       <use x="413.525391" xlink:href="#DejaVuSans-53"/>
      </g>
     </g>
    </g>
    <g id="xtick_7">
     <g id="line2d_27">
      <path clip-path="url(#p7db4e540c9)" d="M 383.30779 310.18 
L 383.30779 19.44 
" style="fill:none;stroke:#ffffff;stroke-linecap:round;"/>
     </g>
     <g id="text_23">
      <!-- 0.000550 -->
      <g style="fill:#262626;" transform="translate(357.064196 328.038281)scale(0.11 -0.11)">
       <use xlink:href="#DejaVuSans-48"/>
       <use x="63.623047" xlink:href="#DejaVuSans-46"/>
       <use x="95.410156" xlink:href="#DejaVuSans-48"/>
       <use x="159.033203" xlink:href="#DejaVuSans-48"/>
       <use x="222.65625" xlink:href="#DejaVuSans-48"/>
       <use x="286.279297" xlink:href="#DejaVuSans-53"/>
       <use x="349.902344" xlink:href="#DejaVuSans-53"/>
       <use x="413.525391" xlink:href="#DejaVuSans-48"/>
      </g>
     </g>
    </g>
    <g id="xtick_8">
     <g id="line2d_28">
      <path clip-path="url(#p7db4e540c9)" d="M 417.641957 310.18 
L 417.641957 19.44 
" style="fill:none;stroke:#ffffff;stroke-linecap:round;"/>
     </g>
     <g id="text_24">
      <!-- 0.000575 -->
      <g style="fill:#262626;" transform="translate(391.398363 328.038281)scale(0.11 -0.11)">
       <use xlink:href="#DejaVuSans-48"/>
       <use x="63.623047" xlink:href="#DejaVuSans-46"/>
       <use x="95.410156" xlink:href="#DejaVuSans-48"/>
       <use x="159.033203" xlink:href="#DejaVuSans-48"/>
       <use x="222.65625" xlink:href="#DejaVuSans-48"/>
       <use x="286.279297" xlink:href="#DejaVuSans-53"/>
       <use x="349.902344" xlink:href="#DejaVuSans-55"/>
       <use x="413.525391" xlink:href="#DejaVuSans-53"/>
      </g>
     </g>
    </g>
   </g>
   <g id="matplotlib.axis_6">
    <g id="ytick_17">
     <g id="line2d_29">
      <path clip-path="url(#p7db4e540c9)" d="M 342.56 274.841758 
L 441.36 274.841758 
" style="fill:none;stroke:#ffffff;stroke-linecap:round;"/>
     </g>
     <g id="text_25">
      <!-- 50 -->
      <g style="fill:#262626;" transform="translate(319.0625 279.020899)scale(0.11 -0.11)">
       <use xlink:href="#DejaVuSans-53"/>
       <use x="63.623047" xlink:href="#DejaVuSans-48"/>
      </g>
     </g>
    </g>
    <g id="ytick_18">
     <g id="line2d_30">
      <path clip-path="url(#p7db4e540c9)" d="M 342.56 216.623897 
L 441.36 216.623897 
" style="fill:none;stroke:#ffffff;stroke-linecap:round;"/>
     </g>
     <g id="text_26">
      <!-- 100 -->
      <g style="fill:#262626;" transform="translate(312.06375 220.803037)scale(0.11 -0.11)">
       <use xlink:href="#DejaVuSans-49"/>
       <use x="63.623047" xlink:href="#DejaVuSans-48"/>
       <use x="127.246094" xlink:href="#DejaVuSans-48"/>
      </g>
     </g>
    </g>
    <g id="ytick_19">
     <g id="line2d_31">
      <path clip-path="url(#p7db4e540c9)" d="M 342.56 158.406035 
L 441.36 158.406035 
" style="fill:none;stroke:#ffffff;stroke-linecap:round;"/>
     </g>
     <g id="text_27">
      <!-- 150 -->
      <g style="fill:#262626;" transform="translate(312.06375 162.585176)scale(0.11 -0.11)">
       <use xlink:href="#DejaVuSans-49"/>
       <use x="63.623047" xlink:href="#DejaVuSans-53"/>
       <use x="127.246094" xlink:href="#DejaVuSans-48"/>
      </g>
     </g>
    </g>
    <g id="ytick_20">
     <g id="line2d_32">
      <path clip-path="url(#p7db4e540c9)" d="M 342.56 100.188174 
L 441.36 100.188174 
" style="fill:none;stroke:#ffffff;stroke-linecap:round;"/>
     </g>
     <g id="text_28">
      <!-- 200 -->
      <g style="fill:#262626;" transform="translate(312.06375 104.367314)scale(0.11 -0.11)">
       <use xlink:href="#DejaVuSans-50"/>
       <use x="63.623047" xlink:href="#DejaVuSans-48"/>
       <use x="127.246094" xlink:href="#DejaVuSans-48"/>
      </g>
     </g>
    </g>
    <g id="ytick_21">
     <g id="line2d_33">
      <path clip-path="url(#p7db4e540c9)" d="M 342.56 41.970312 
L 441.36 41.970312 
" style="fill:none;stroke:#ffffff;stroke-linecap:round;"/>
     </g>
     <g id="text_29">
      <!-- 250 -->
      <g style="fill:#262626;" transform="translate(312.06375 46.149453)scale(0.11 -0.11)">
       <use xlink:href="#DejaVuSans-50"/>
       <use x="63.623047" xlink:href="#DejaVuSans-53"/>
       <use x="127.246094" xlink:href="#DejaVuSans-48"/>
      </g>
     </g>
    </g>
   </g>
   <g id="line2d_34">
    <path clip-path="url(#p7db4e540c9)" d="M 347.050909 32.655455 
L 347.188246 65.257457 
L 347.462919 157.241678 
L 347.600256 152.584249 
L 347.874929 209.637753 
L 348.012266 180.528823 
L 348.149602 225.938755 
L 348.286939 227.103112 
L 348.424276 207.309039 
L 348.561612 231.760541 
L 348.698949 223.61004 
L 349.110959 263.198186 
L 349.248296 251.554614 
L 349.385632 253.883328 
L 349.522969 242.239756 
L 349.660306 262.033829 
L 350.209652 237.582327 
L 350.346989 248.061542 
L 350.484326 244.56847 
L 350.758999 264.362543 
L 350.896336 242.239756 
L 351.033673 262.033829 
L 351.171009 265.5269 
L 351.308346 251.554614 
L 351.445683 255.047685 
L 351.583019 244.56847 
L 351.720356 266.691258 
L 351.857693 244.56847 
L 351.995029 252.718971 
L 352.132366 246.897185 
L 352.269703 262.033829 
L 352.407039 235.253612 
L 352.544376 236.41797 
L 352.681713 255.047685 
L 352.819049 243.404113 
L 352.956386 262.033829 
L 353.093723 251.554614 
L 353.231059 273.677401 
L 353.505733 252.718971 
L 353.643069 255.047685 
L 353.780406 263.198186 
L 353.917743 255.047685 
L 354.055079 239.911041 
L 354.192416 266.691258 
L 354.329753 260.869471 
L 354.467089 271.348686 
L 354.741763 257.3764 
L 354.879099 243.404113 
L 355.016436 279.499187 
L 355.153773 273.677401 
L 355.428446 250.390256 
L 355.703119 267.855615 
L 355.840456 257.3764 
L 355.977793 272.513044 
L 356.115129 243.404113 
L 356.389803 267.855615 
L 356.527139 271.348686 
L 356.801813 249.225899 
L 356.939149 242.239756 
L 357.213823 263.198186 
L 357.488496 253.883328 
L 357.625833 250.390256 
L 357.900506 266.691258 
L 358.037843 257.3764 
L 358.175179 266.691258 
L 358.312516 262.033829 
L 358.449853 273.677401 
L 358.587189 258.540757 
L 358.724526 265.5269 
L 358.861863 250.390256 
L 358.999199 271.348686 
L 359.136536 252.718971 
L 359.273873 272.513044 
L 359.411209 257.3764 
L 359.548546 266.691258 
L 359.685883 255.047685 
L 359.823219 263.198186 
L 360.097893 260.869471 
L 360.235229 251.554614 
L 360.372566 255.047685 
L 360.647239 271.348686 
L 360.784576 276.006115 
L 360.921913 270.184329 
L 361.059249 270.184329 
L 361.196586 248.061542 
L 361.333923 272.513044 
L 361.471259 250.390256 
L 361.608596 258.540757 
L 361.745933 253.883328 
L 362.020606 269.019972 
L 362.157943 258.540757 
L 362.432616 277.170473 
L 362.707289 258.540757 
L 362.981963 277.170473 
L 363.393973 255.047685 
L 363.531309 269.019972 
L 363.668646 260.869471 
L 363.805983 259.705114 
L 363.943319 252.718971 
L 364.080656 251.554614 
L 364.217993 273.677401 
L 364.492666 262.033829 
L 364.630003 253.883328 
L 364.767339 272.513044 
L 364.904676 266.691258 
L 365.042013 255.047685 
L 365.316686 271.348686 
L 365.454023 267.855615 
L 365.591359 250.390256 
L 365.728696 269.019972 
L 365.866033 262.033829 
L 366.003369 263.198186 
L 366.140706 279.499187 
L 366.278043 267.855615 
L 366.415379 267.855615 
L 366.690053 255.047685 
L 366.827389 253.883328 
L 366.964726 266.691258 
L 367.102063 265.5269 
L 367.239399 265.5269 
L 367.376736 280.663544 
L 367.514073 270.184329 
L 367.65141 272.513044 
L 367.788746 272.513044 
L 367.926083 260.869471 
L 368.200756 260.869471 
L 368.338093 267.855615 
L 368.47543 264.362543 
L 368.612766 267.855615 
L 368.750103 259.705114 
L 368.88744 259.705114 
L 369.024776 264.362543 
L 369.162113 256.212042 
L 369.29945 255.047685 
L 369.436786 276.006115 
L 369.574123 278.33483 
L 369.71146 262.033829 
L 369.848796 259.705114 
L 369.986133 271.348686 
L 370.12347 267.855615 
L 370.260806 269.019972 
L 370.398143 273.677401 
L 370.53548 259.705114 
L 370.672816 277.170473 
L 370.810153 267.855615 
L 370.94749 267.855615 
L 371.084826 251.554614 
L 371.222163 280.663544 
L 371.3595 270.184329 
L 371.496836 273.677401 
L 371.634173 271.348686 
L 371.908846 259.705114 
L 372.046183 276.006115 
L 372.320856 260.869471 
L 372.458193 269.019972 
L 372.59553 270.184329 
L 372.732866 262.033829 
L 372.870203 260.869471 
L 373.00754 280.663544 
L 373.144876 256.212042 
L 373.282213 273.677401 
L 373.41955 255.047685 
L 373.556886 273.677401 
L 373.694223 271.348686 
L 373.83156 252.718971 
L 373.968896 274.841758 
L 374.106233 257.3764 
L 374.24357 277.170473 
L 374.518243 259.705114 
L 374.65558 265.5269 
L 374.792916 286.48533 
L 374.930253 257.3764 
L 375.06759 273.677401 
L 375.204926 256.212042 
L 375.342263 255.047685 
L 375.616936 277.170473 
L 375.754273 271.348686 
L 375.89161 274.841758 
L 376.028946 262.033829 
L 376.166283 265.5269 
L 376.440956 287.649688 
L 376.578293 281.827901 
L 376.852966 252.718971 
L 376.990303 269.019972 
L 377.12764 271.348686 
L 377.264976 276.006115 
L 377.402313 259.705114 
L 377.53965 271.348686 
L 377.814323 265.5269 
L 377.95166 272.513044 
L 378.088996 271.348686 
L 378.226333 267.855615 
L 378.36367 274.841758 
L 378.501006 276.006115 
L 378.638343 265.5269 
L 378.77568 265.5269 
L 378.913016 276.006115 
L 379.050353 270.184329 
L 379.18769 271.348686 
L 379.325026 277.170473 
L 379.462363 277.170473 
L 379.5997 260.869471 
L 379.737036 278.33483 
L 380.01171 259.705114 
L 380.149046 280.663544 
L 380.286383 260.869471 
L 380.42372 271.348686 
L 380.561056 262.033829 
L 380.83573 266.691258 
L 380.973066 259.705114 
L 381.24774 271.348686 
L 381.385076 256.212042 
L 381.522413 267.855615 
L 381.65975 267.855615 
L 381.797086 262.033829 
L 382.07176 277.170473 
L 382.209096 273.677401 
L 382.346433 260.869471 
L 382.48377 266.691258 
L 382.621106 258.540757 
L 382.89578 280.663544 
L 383.033116 264.362543 
L 383.170453 264.362543 
L 383.30779 277.170473 
L 383.445126 252.718971 
L 383.7198 277.170473 
L 383.857137 265.5269 
L 383.994473 266.691258 
L 384.13181 263.198186 
L 384.269147 265.5269 
L 384.54382 276.006115 
L 384.681157 266.691258 
L 384.818493 271.348686 
L 384.95583 266.691258 
L 385.093167 249.225899 
L 385.230503 285.320973 
L 385.36784 264.362543 
L 385.642513 276.006115 
L 385.77985 269.019972 
L 385.917187 286.48533 
L 386.054523 260.869471 
L 386.19186 281.827901 
L 386.329197 269.019972 
L 386.466533 279.499187 
L 386.741207 267.855615 
L 386.878543 256.212042 
L 387.01588 276.006115 
L 387.153217 265.5269 
L 387.290553 265.5269 
L 387.42789 258.540757 
L 387.565227 258.540757 
L 387.702563 249.225899 
L 387.977237 286.48533 
L 388.114573 262.033829 
L 388.25191 270.184329 
L 388.389247 264.362543 
L 388.526583 284.156616 
L 388.66392 277.170473 
L 388.938593 256.212042 
L 389.213267 282.992259 
L 389.350603 264.362543 
L 389.48794 277.170473 
L 389.625277 278.33483 
L 389.762613 266.691258 
L 389.89995 280.663544 
L 390.037287 270.184329 
L 390.174623 277.170473 
L 390.586633 265.5269 
L 390.72397 281.827901 
L 390.998643 260.869471 
L 391.13598 274.841758 
L 391.273317 258.540757 
L 391.410653 279.499187 
L 391.685327 272.513044 
L 391.822663 280.663544 
L 392.097337 263.198186 
L 392.37201 278.33483 
L 392.509347 270.184329 
L 392.646683 286.48533 
L 392.78402 251.554614 
L 393.058693 266.691258 
L 393.333367 276.006115 
L 393.470703 262.033829 
L 393.60804 260.869471 
L 393.745377 266.691258 
L 393.882713 258.540757 
L 394.157387 280.663544 
L 394.294723 271.348686 
L 394.43206 278.33483 
L 394.569397 270.184329 
L 394.706733 270.184329 
L 394.84407 271.348686 
L 394.981407 277.170473 
L 395.118743 260.869471 
L 395.25608 274.841758 
L 395.393417 259.705114 
L 395.805427 276.006115 
L 395.942763 274.841758 
L 396.217437 267.855615 
L 396.354773 272.513044 
L 396.629447 257.3764 
L 396.766783 270.184329 
L 396.90412 260.869471 
L 397.041457 279.499187 
L 397.178793 263.198186 
L 397.31613 265.5269 
L 397.453467 273.677401 
L 397.590803 271.348686 
L 397.72814 282.992259 
L 397.865477 257.3764 
L 398.002813 274.841758 
L 398.14015 260.869471 
L 398.277487 259.705114 
L 398.414823 269.019972 
L 398.55216 266.691258 
L 398.689497 267.855615 
L 398.826833 286.48533 
L 398.96417 284.156616 
L 399.101507 270.184329 
L 399.238843 269.019972 
L 399.37618 270.184329 
L 399.513517 273.677401 
L 399.650853 287.649688 
L 399.925527 271.348686 
L 400.062863 272.513044 
L 400.2002 279.499187 
L 400.337537 266.691258 
L 400.749547 276.006115 
L 400.886884 258.540757 
L 401.02422 279.499187 
L 401.161557 269.019972 
L 401.298894 267.855615 
L 401.573567 277.170473 
L 401.84824 265.5269 
L 401.985577 276.006115 
L 402.122914 273.677401 
L 402.397587 259.705114 
L 402.534924 282.992259 
L 402.67226 257.3764 
L 402.809597 277.170473 
L 402.946934 269.019972 
L 403.08427 285.320973 
L 403.221607 265.5269 
L 403.49628 276.006115 
L 403.633617 260.869471 
L 403.770954 263.198186 
L 404.045627 278.33483 
L 404.3203 257.3764 
L 404.457637 286.48533 
L 404.594974 274.841758 
L 404.73231 279.499187 
L 405.281657 256.212042 
L 405.418994 273.677401 
L 405.55633 270.184329 
L 405.693667 278.33483 
L 405.831004 270.184329 
L 405.96834 282.992259 
L 406.105677 277.170473 
L 406.243014 277.170473 
L 406.655024 255.047685 
L 406.929697 273.677401 
L 407.067034 273.677401 
L 407.341707 256.212042 
L 407.753717 278.33483 
L 407.891054 267.855615 
L 408.02839 279.499187 
L 408.165727 266.691258 
L 408.303064 281.827901 
L 408.4404 273.677401 
L 408.577737 274.841758 
L 408.715074 273.677401 
L 408.85241 273.677401 
L 408.989747 280.663544 
L 409.26442 264.362543 
L 409.401757 273.677401 
L 409.539094 265.5269 
L 409.67643 280.663544 
L 409.813767 271.348686 
L 409.951104 272.513044 
L 410.225777 263.198186 
L 410.50045 281.827901 
L 410.637787 265.5269 
L 410.775124 277.170473 
L 410.91246 269.019972 
L 411.049797 270.184329 
L 411.187134 274.841758 
L 411.461807 267.855615 
L 411.599144 277.170473 
L 411.873817 263.198186 
L 412.011154 278.33483 
L 412.14849 272.513044 
L 412.285827 258.540757 
L 412.423164 284.156616 
L 412.697837 260.869471 
L 412.97251 284.156616 
L 413.38452 269.019972 
L 413.521857 280.663544 
L 413.659194 258.540757 
L 413.79653 260.869471 
L 414.071204 272.513044 
L 414.345877 263.198186 
L 414.483214 269.019972 
L 414.62055 260.869471 
L 414.895224 277.170473 
L 415.03256 260.869471 
L 415.169897 278.33483 
L 415.307234 256.212042 
L 415.44457 277.170473 
L 415.719244 266.691258 
L 415.85658 279.499187 
L 415.993917 274.841758 
L 416.131254 288.814045 
L 416.26859 273.677401 
L 416.405927 292.307117 
L 416.543264 289.978402 
L 416.817937 276.006115 
L 416.955274 256.212042 
L 417.229947 272.513044 
L 417.367284 272.513044 
L 417.504621 255.047685 
L 417.641957 258.540757 
L 417.779294 276.006115 
L 417.916631 266.691258 
L 418.053967 278.33483 
L 418.191304 262.033829 
L 418.328641 276.006115 
L 418.465977 267.855615 
L 418.603314 270.184329 
L 418.740651 284.156616 
L 418.877987 263.198186 
L 419.015324 259.705114 
L 419.152661 266.691258 
L 419.427334 264.362543 
L 419.564671 276.006115 
L 419.702007 267.855615 
L 419.839344 278.33483 
L 420.114017 265.5269 
L 420.388691 282.992259 
L 420.663364 260.869471 
L 420.938037 266.691258 
L 421.075374 262.033829 
L 421.212711 270.184329 
L 421.350047 266.691258 
L 421.487384 274.841758 
L 421.624721 276.006115 
L 421.762057 273.677401 
L 421.899394 277.170473 
L 422.036731 260.869471 
L 422.174067 286.48533 
L 422.448741 264.362543 
L 422.586077 273.677401 
L 422.723414 269.019972 
L 422.860751 270.184329 
L 422.998087 265.5269 
L 423.135424 267.855615 
L 423.272761 277.170473 
L 423.410097 250.390256 
L 423.547434 270.184329 
L 423.684771 267.855615 
L 423.822107 285.320973 
L 424.096781 263.198186 
L 424.234117 274.841758 
L 424.371454 273.677401 
L 424.508791 265.5269 
L 424.646127 280.663544 
L 424.783464 263.198186 
L 424.920801 289.978402 
L 425.058137 281.827901 
L 425.195474 251.554614 
L 425.332811 271.348686 
L 425.470147 267.855615 
L 425.607484 274.841758 
L 425.744821 276.006115 
L 425.882157 269.019972 
L 426.019494 256.212042 
L 426.294167 285.320973 
L 426.568841 262.033829 
L 426.706177 263.198186 
L 426.843514 274.841758 
L 426.980851 273.677401 
L 427.118187 264.362543 
L 427.255524 271.348686 
L 427.392861 270.184329 
L 427.530197 252.718971 
L 427.667534 265.5269 
L 427.804871 266.691258 
L 427.942207 263.198186 
L 428.079544 267.855615 
L 428.216881 258.540757 
L 428.491554 276.006115 
L 428.766227 280.663544 
L 428.903564 272.513044 
L 429.040901 271.348686 
L 429.178237 277.170473 
L 429.315574 259.705114 
L 429.590247 284.156616 
L 429.864921 266.691258 
L 430.002257 270.184329 
L 430.139594 270.184329 
L 430.276931 265.5269 
L 430.414267 255.047685 
L 430.551604 280.663544 
L 430.826277 277.170473 
L 431.100951 258.540757 
L 431.238287 284.156616 
L 431.375624 263.198186 
L 431.512961 264.362543 
L 431.650297 280.663544 
L 431.787634 274.841758 
L 431.924971 259.705114 
L 432.062307 274.841758 
L 432.199644 259.705114 
L 432.336981 282.992259 
L 432.474317 270.184329 
L 432.611654 276.006115 
L 432.748991 251.554614 
L 432.886327 279.499187 
L 433.023664 282.992259 
L 433.161001 272.513044 
L 433.435674 278.33483 
L 433.573011 269.019972 
L 433.710348 278.33483 
L 433.847684 274.841758 
L 433.985021 250.390256 
L 434.259694 296.964545 
L 434.534368 276.006115 
L 434.671704 263.198186 
L 434.809041 271.348686 
L 434.946378 260.869471 
L 435.083714 270.184329 
L 435.358388 264.362543 
L 435.633061 272.513044 
L 435.770398 265.5269 
L 435.907734 269.019972 
L 436.045071 285.320973 
L 436.319744 257.3764 
L 436.594418 282.992259 
L 436.731754 256.212042 
L 436.869091 262.033829 
L 436.869091 262.033829 
" style="fill:none;stroke:#4c72b0;stroke-linecap:round;stroke-width:1.5;"/>
   </g>
   <g id="line2d_35">
    <path clip-path="url(#p7db4e540c9)" d="M 347.050909 32.655455 
L 347.462919 150.243393 
L 347.600256 145.154371 
L 347.874929 186.328575 
L 348.012266 164.037213 
L 348.149602 193.817793 
L 348.286939 193.008721 
L 348.424276 179.967869 
L 348.561612 193.783346 
L 348.698949 188.871333 
L 349.110959 208.55543 
L 349.248296 203.4994 
L 349.385632 205.145054 
L 349.522969 201.386238 
L 349.660306 210.296994 
L 349.797642 209.445585 
L 349.934979 207.441514 
L 350.072316 209.807423 
L 350.209652 209.080545 
L 350.621662 222.364143 
L 350.758999 226.74102 
L 350.896336 223.926084 
L 351.171009 234.369853 
L 351.308346 233.825363 
L 351.445683 236.915281 
L 351.583019 237.244885 
L 351.720356 243.442195 
L 351.857693 241.702837 
L 352.269703 250.079763 
L 352.407039 248.003417 
L 352.544376 249.826756 
L 352.681713 253.68247 
L 352.819049 253.630427 
L 352.956386 256.996675 
L 353.093723 256.954573 
L 353.231059 260.221004 
L 353.505733 259.869236 
L 353.780406 262.151643 
L 353.917743 262.06063 
L 354.055079 261.442112 
L 354.192416 263.833567 
L 354.329753 263.778937 
L 354.467089 264.74856 
L 354.741763 264.323436 
L 354.879099 263.721887 
L 355.016436 265.765574 
L 355.153773 265.507638 
L 355.428446 264.468166 
L 355.703119 265.180833 
L 355.840456 264.714631 
L 355.977793 265.207129 
L 356.115129 264.095895 
L 356.389803 264.72575 
L 356.527139 264.709095 
L 356.939149 263.564075 
L 357.076486 263.888595 
L 357.213823 263.847637 
L 357.625833 263.229232 
L 357.900506 263.321149 
L 358.037843 263.055392 
L 358.175179 263.11236 
L 358.312516 262.94602 
L 358.449853 263.03147 
L 358.587189 262.735745 
L 358.724526 262.759968 
L 358.861863 262.505264 
L 358.999199 262.706435 
L 359.136536 262.442199 
L 359.273873 262.619477 
L 359.411209 262.425867 
L 359.548546 262.492348 
L 359.685883 262.363346 
L 359.960556 262.409059 
L 360.509903 262.476195 
L 361.059249 262.606899 
L 361.196586 262.527783 
L 361.333923 262.697005 
L 361.471259 262.635512 
L 362.157943 262.948218 
L 363.119299 263.423763 
L 364.080656 263.854361 
L 364.492666 264.070435 
L 366.003369 264.761304 
L 367.376736 265.383365 
L 375.89161 268.726382 
L 377.264976 268.958934 
L 378.638343 268.965715 
L 380.973066 268.692657 
L 382.758443 268.599905 
L 384.13181 268.7399 
L 385.505177 269.097485 
L 389.07593 270.160881 
L 390.72397 270.285128 
L 392.646683 270.204689 
L 395.118743 270.060405 
L 396.49211 270.235622 
L 401.43623 271.130204 
L 403.221607 271.106333 
L 405.693667 271.065656 
L 413.933867 271.354067 
L 416.131254 271.088824 
L 422.586077 270.202353 
L 425.607484 270.159564 
L 428.079544 270.376314 
L 431.650297 270.748867 
L 432.748991 270.565134 
L 434.122358 270.067837 
L 436.869091 268.958981 
L 436.869091 268.958981 
" style="fill:none;stroke:#dd8452;stroke-linecap:round;stroke-width:1.5;"/>
   </g>
   <g id="patch_13">
    <path d="M 342.56 310.18 
L 342.56 19.44 
" style="fill:none;stroke:#ffffff;stroke-linecap:square;stroke-linejoin:miter;stroke-width:1.25;"/>
   </g>
   <g id="patch_14">
    <path d="M 441.36 310.18 
L 441.36 19.44 
" style="fill:none;stroke:#ffffff;stroke-linecap:square;stroke-linejoin:miter;stroke-width:1.25;"/>
   </g>
   <g id="patch_15">
    <path d="M 342.56 310.18 
L 441.36 310.18 
" style="fill:none;stroke:#ffffff;stroke-linecap:square;stroke-linejoin:miter;stroke-width:1.25;"/>
   </g>
   <g id="patch_16">
    <path d="M 342.56 19.44 
L 441.36 19.44 
" style="fill:none;stroke:#ffffff;stroke-linecap:square;stroke-linejoin:miter;stroke-width:1.25;"/>
   </g>
  </g>
 </g>
 <defs>
  <clipPath id="pf093fb71a5">
   <rect height="290.74" width="98.8" x="45.5" y="19.44"/>
  </clipPath>
  <clipPath id="p6fb27c57e9">
   <rect height="290.74" width="98.8" x="194.03" y="19.44"/>
  </clipPath>
  <clipPath id="p7db4e540c9">
   <rect height="290.74" width="98.8" x="342.56" y="19.44"/>
  </clipPath>
 </defs>
</svg>
