4
10
7
10
6
35
97
87
112
108
108
102
95
108
97
90
109
108
113
131
120
100
94
117
96
100
108
79
131
103
98
118
121
103
120
110
125
96
112
106
108
111
100
102
82
112
95
110
100
75
107
107
99
107
106
80
92
96
96
104
98
99
105
101
87
101
90
88
110
103
93
105
113
88
81
96
102
119
88
74
101
94
103
97
86
80
111
100
99
87
116
94
91
92
100
95
117
78
80
90
104
95
93
98
87
104
75
85
106
96
87
93
85
81
87
97
97
98
73
84
91
89
97
95
82
85
107
89
111
72
76
87
78
86
83
100
84
102
83
83
69
106
89
97
75
89
68
80
89
84
84
84
83
94
81
94
81
72
83
103
79
84
79
71
78
76
85
85
89
88
78
97
71
73
81
81
62
86
97
86
89
75
82
84
66
79
87
73
85
91
77
80
77
106
74
86
89
75
72
68
79
79
69
93
73
75
79
66
82
78
90
68
79
71
82
58
84
85
78
89
65
72
85
88
83
71
68
75
81
87
71
74
80
76
88
82
72
86
74
86
82
76
102
87
85
83
91
80
94
94
73
78
77
83
70
85
96
75
80
95
101
81
70
85
78
84
76
72
61
57
83
67
97
69
74
77
84
69
68
79
62
80
81
82
82
82
65
70
73
77
77
86
89
79
84
75
74
61
95
69
78
72
90
88
89
90
58
80
75
70
80
85
63
69
82
83
62
70
73
74
72
69
76
85
66
76
71
85
65
81
76
74
70
69
84
82
77
80
84
84
74
70
91
66
66
80
69
63
72
82
70
75
71
63
74
72
79
88
67
67
67
88
71
83
71
71
77
79
74
73
69
76
86
65
79
66
75
66
83
74
74
85
103
79
78
61
74
72
76
92
87
75
85
79
77
79
72
84
82
67
84
76
60
80
71
74
67
82
65
83
84
67
75
81
80
82
90
77
83
84
83
75
89
86
75
72
81
77
78
81
74
96
79
87
87
76
74
87
83
91
62
69
88
65
79
84
71
74
85
73
77
57
66
70
86
75
88
80
90
72
82
89
73
80
82
77
67
77
84
74
86
70
74
75
81
78
74
84
67
88
89
57
84
83
75
72
83
93
73
73
89
82
68
81
63
72
80
77
94
82
82
97
66
74
80
79
81
75
75
79
82
71
65
65
75
82
75
97
77
83
84
68
72
72
82
85
76
75
64
69
69
73
75
79
72
81
71
87
84
75
92
70
77
68
90
82
76
86
89
74
72
75
89
85
67
66
84
75
88
66
73
68
58
77
83
84
73
80
74
69
57
64
84
86
72
76
69
82
100
87
70
60
66
79
78
75
75
86
89
80
68
71
57
74
78
93
85
91
73
75
75
80
82
86
67
67
74
79
76
75
82
80
71
73
93
59
81
79
83
73
84
85
83
81
77
75
67
85
80
82
64
76
81
71
78
80
68
74
62
65
72
73
84
72
77
88
98
71
57
83
76
79
71
76
83
61
77
70
76
68
84
72
56
92
82
75
67
62
80
70
77
75
70
78
71
84
87
98
83
66
77
90
78
78
80
72
91
59
76
69
62
75
81
74
71
92
81
69
71
92
70
60
29
16
12
12
7
3
8
15
8
8
10
11
10
8
10
3
8
4
8
8
9
6
9
10
7
8
7
12
6
9
7
8
6
3
8
11
7
9
12
10
8
9
2
11
8
7
10
11
11
12
11
13
9
9
7
9
10
7
9
10
5
6
8
7
8
8
9
8
7
12
11
7
8
7
8
10
4
6
8
4
3
8
9
8
8
8
16
8
7
7
8
7
14
6
6
16
6
8
7
6
6
5
5
11
12
7
6
7
7
8
8
8
9
4
10
9
5
6
10
6
6
9
8
6
6
6
9
12
4
8
4
8
11
6
11
9
6
4
12
3
10
8
11
8
11
14
9
7
5
0
5
6
7
7
9
6
6
11
12
8
14
12
10
11
7
6
12
7
9
10
12
6
10
15
13
17
9
2
12
5
9
6
9
15
2
9
8
7
9
3
13
10
13
5
8
6
6
7
7
11
8
7
6
5
7
11
15
10
4
10
11
12
6
9
12
7
5
9
7
12
7
8
4
8
5
3
10
8
8
10
9
5
12
6
4
8
6
7
6
5
11
6
9
9
7
10
10
9
8
9
7
6
8
7
6
10
10
6
3
5
7
7
10
11
6
5
8
8
6
7
4
8
12
8
6
11
9
2
6
4
10
14
9
9
5
6
8
8
7
7
7
4
8
7
6
9
4
5
11
8
7
6
6
7
8
7
5
6
4
9
4
8
12
9
12
13
10
8
8
3
7
12
7
8
9
11
10
9
4
4
12
10
6
5
8
11
6
6
5
13
6
8
9
4
5
9
5
6
7
10
6
12
8
6
11
6
10
5
8
8
9
4
5
12
10
9
5
7
8
8
6
8
1
11
6
4
9
5
7
4
4
7
7
7
12
7
4
7
9
9
5
9
7
13
18
6
7
15
8
12
11
10
6
9
14
5
4
11
8
8
7
8
5
7
7
7
5
4
9
8
7
5
6
6
7
10
9
5
3
13
8
4
5
11
7
8
6
7
9
9
9
5
7
5
5
9
14
8
8
15
8
7
4
9
7
9
7
17
5
7
5
10
9
9
5
8
10
10
8
11
9
6
9
9
8
10
7
6
8
11
7
9
9
6
7
9
10
8
9
6
9
7
6
7
11
7
8
9
8
7
5
12
5
8
8
13
7
2
6
6
9
6
7
14
10
14
3
9
13
7
5
13
9
7
6
10
5
8
9
6
6
6
11
3
7
5
9
7
8
9
11
13
10
10
12
5
6
6
9
4
9
7
14
11
13
13
7
12
13
11
10
9
10
12
5
10
7
4
5
6
8
4
6
8
11
5
12
8
7
7
5
5
9
6
5
9
9
12
10
10
5
9
12
8
9
5
3
4
7
15
8
14
8
13
4
14
4
6
9
4
8
8
7
7
7
10
12
10
8
4
10
10
7
12
4
8
6
5
6
4
8
6
12
11
7
8
4
5
6
5
5
11
7
9
7
9
9
11
8
5
11
5
7
7
5
14
9
6
7
12
3
8
8
8
6
3
5
8
11
7
4
5
6
8
7
9
11
9
9
10
6
5
4
5
5
12
13
11
6
6
9
8
8
12
11
9
6
9
9
8
7
6
7
3
6
10
4
8
11
5
8
5
3
6
13
7
7
5
12
9
10
12
8
10
11
4
9
8
9
10
3
8
5
11
7
7
10
13
5
7
5
2
5
7
7
9
5
12
4
8
8
9
11
6
7
4
13
10
14
5
7
5
8
9
9
8
6
11
6
10
8
9
11
9
4
8
5
8
4
6
12
7
10
6
11
9
6
8
11
6
11
10
4
9
5
6
6
9
7
7
11
10
6
8
8
8
6
6
12
9
7
5
6
8
6
10
9
12
10
9
6
7
11
7
8
6
3
6
10
8
5
4
7
4
7
11
6
4
12
9
9
9
10
4
6
9
7
8
10
5
11
6
8
9
6
7
9
5
8
10
9
9
14
11
8
9
4
11
9
6
5
9
8
7
9
8
5
13
4
9
4
4
5
11
10
7
9
8
5
7
4
9
9
10
9
9
8
9
6
9
7
12
16
12
12
5
10
5
8
4
7
4
5
5
12
4
4
8
10
14
7
6
7
7
7
5
8
6
12
7
2
6
10
9
10
7
1
10
4
5
10
7
5
7
5
9
5
7
15
6
7
7
5
8
10
9
8
8
8
9
9
10
9
6
9
7
10
8
9
7
4
10
4
5
7
10
6
9
15
8
10
10
8
3
8
5
15
10
6
10
6
11
12
4
11
10
4
8
6
5
8
9
13
6
8
6
12
16
9
7
4
8
9
6
8
3
9
3
9
7
5
5
3
10
8
9
8
8
6
8
4
5
6
10
11
12
10
9
10
13
8
12
5
5
8
12
59
133
195
205
185
181
235
196
190
188
196
193
180
187
182
188
188
221
203
181
188
183
184
180
170
191
197
191
183
183
180
174
173
181
157
184
170
158
173
142
176
159
158
173
173
144
167
177
163
159
169
190
155
157
169
151
163
161
146
151
149
154
163
129
141
154
158
143
136
150
144
161
135
139
125
138
139
131
161
138
155
136
153
138
123
145
140
132
145
125
124
170
141
127
120
134
137
133
133
149
126
127
129
116
130
141
128
150
104
150
152
127
135
120
133
128
130
159
117
121
146
119
114
116
131
121
130
117
136
130
150
132
122
151
125
110
111
136
135
120
128
141
117
113
119
128
110
144
137
118
118
119
103
111
116
117
103
106
111
107
136
111
101
101
137
140
134
122
130
103
125
114
114
114
121
118
119
106
129
141
118
110
103
116
112
103
120
108
106
111
105
124
121
94
100
105
114
120
103
113
134
99
128
115
100
122
117
108
130
106
108
134
103
120
127
117
102
100
112
131
105
96
113
105
124
101
110
112
98
105
112
94
111
125
91
109
118
96
124
118
135
103
121
104
121
106
100
125
100
100
115
112
116
116
117
100
113
114
103
97
114
118
127
119
125
112
106
91
104
120
124
99
112
126
127
119
86
82
120
107
110
113
139
119
103
110
128
112
122
123
98
113
118
96
123
106
109
124
125
98
94
103
118
127
103
127
97
109
110
127
111
116
108
92
117
108
98
111
104
103
100
101
87
101
102
106
114
115
106
113
105
140
101
123
125
120
112
99
122
109
115
100
116
115
104
105
110
115
78
107
101
100
135
111
104
102
120
87
114
124
110
111
109
85
114
88
108
120
102
116
97
119
112
95
124
136
109
109
109
97
102
113
120
110
104
109
113
105
118
102
105
109
111
114
90
94
108
102
91
116
110
110
107
103
93
95
116
110
97
110
111
118
101
104
106
108
95
101
112
89
107
95
130
96
108
113
116
112
119
127
93
94
109
111
85
102
103
107
105
113
108
104
115
112
120
108
107
119
99
123
101
111
98
119
110
103
111
118
98
130
90
115
115
121
118
89
107
115
111
123
93
97
84
105
104
87
113
108
119
108
114
105
118
97
113
100
113
112
93
138
114
96
130
99
86
102
98
109
108
102
111
95
113
110
106
104
108
112
109
96
103
108
107
104
124
99
95
110
126
105
102
103
97
91
106
102
110
105
108
112
101
101
114
108
102
115
97
90
96
117
107
113
97
105
104
112
102
107
101
107
118
114
102
115
112
102
86
131
120
112
109
105
119
90
132
95
120
111
97
118
119
117
120
112
107
100
113
118
106
110
129
122
107
121
100
107
105
95
121
129
99
109
102
116
111
105
125
95
108
120
128
106
103
102
102
113
97
109
98
105
103
108
101
95
111
94
104
122
96
90
108
106
123
101
102
124
128
115
131
116
121
106
113
117
102
105
107
107
99
123
138
107
105
114
101
113
111
117
104
109
101
103
79
113
112
91
119
98
100
102
111
105
125
113
98
108
119
110
106
115
90
117
103
109
120
97
100
111
106
92
118
91
104
112
114
118
114
119
111
128
106
110
113
92
120
110
89
48
11
11
8
15
9
10
6
10
9
10
8
12
7
4
6
17
13
14
7
10
10
7
8
7
7
8
7
5
10
7
6
5
14
11
8
9
13
11
9
6
6
13
5
9
6
6
11
7
8
13
7
10
12
7
7
11
11
5
9
8
7
7
7
8
13
10
7
6
4
11
2
6
10
4
6
5
6
12
9
10
7
6
9
9
4
9
7
10
12
10
8
4
5
5
7
7
5
4
6
11
6
7
6
10
4
9
8
9
6
8
12
6
13
8
15
11
6
6
12
9
12
7
8
9
9
8
7
5
13
8
11
7
3
9
7
9
6
6
7
7
10
9
7
9
3
9
11
4
7
11
10
8
7
14
7
6
17
13
13
14
7
2
11
3
7
11
5
11
11
11
7
10
6
11
6
11
7
12
6
4
5
9
13
11
8
6
7
10
8
7
7
8
7
8
6
6
8
8
12
7
10
7
6
6
9
13
2
11
6
11
13
6
7
9
7
6
4
6
10
5
6
5
8
7
5
6
5
8
1
9
6
7
2
8
7
6
11
12
8
9
8
10
9
9
3
6
7
6
6
8
9
11
3
5
11
10
8
13
8
6
7
8
8
12
16
5
8
4
7
7
9
3
9
7
5
10
6
4
5
8
11
6
8
13
7
6
6
7
5
7
5
5
12
5
6
9
10
11
7
10
12
8
7
11
6
2
6
7
10
6
9
7
6
1
7
5
11
5
6
7
15
15
5
9
9
13
8
6
11
9
9
11
12
12
6
8
7
6
12
11
12
9
16
9
4
8
8
14
7
8
6
15
5
7
4
10
6
9
6
12
6
11
8
4
14
8
2
10
10
10
4
5
5
10
11
11
5
11
13
5
6
4
8
9
7
12
5
7
6
7
8
8
10
9
8
6
11
5
8
6
13
6
10
6
9
7
4
9
13
8
7
6
11
5
8
7
8
7
5
6
6
9
13
11
7
11
8
11
7
11
11
7
5
9
4
6
6
6
9
16
14
11
8
8
9
11
5
8
9
5
7
7
10
18
9
9
8
8
5
9
7
8
8
6
10
7
4
6
8
7
11
8
8
4
7
5
8
7
9
3
6
12
7
4
8
10
6
10
8
6
6
3
8
8
7
8
5
9
4
5
7
9
6
8
7
13
7
5
4
8
14
7
10
9
6
13
9
5
7
11
6
10
7
9
10
7
13
12
9
8
6
8
10
4
15
8
9
7
7
8
15
12
6
5
10
4
8
5
6
5
11
4
7
9
8
5
9
7
7
8
4
12
12
4
7
5
8
5
9
11
7
5
6
7
8
10
5
7
7
6
7
10
8
5
10
10
12
8
6
8
6
9
7
3
9
12
12
12
5
2
10
3
8
8
6
3
7
12
7
9
11
9
10
7
4
12
9
6
9
12
11
6
12
7
3
5
7
13
5
8
6
5
11
6
8
5
9
8
14
8
3
8
11
8
7
9
10
7
2
5
11
14
6
4
8
6
10
9
12
7
10
6
7
9
5
9
11
6
5
10
12
8
2
8
5
11
5
11
7
10
10
4
6
13
10
4
7
11
15
3
6
8
8
6
7
7
10
5
8
6
9
8
9
4
9
9
7
9
13
12
12
9
8
6
7
11
6
8
5
10
5
9
6
6
6
8
9
7
5
5
11
8
10
8
10
11
6
6
8
8
14
9
8
8
7
6
6
11
6
5
6
4
9
8
5
8
10
7
11
10
11
11
14
5
9
8
6
7
6
7
6
13
10
9
7
9
4
7
9
5
8
11
12
9
5
11
8
11
8
9
9
9
12
6
9
5
7
8
10
6
4
17
8
6
4
3
16
6
6
1
10
7
8
10
10
3
13
6
6
8
6
7
4
9
8
7
2
8
9
11
7
6
8
9
10
10
8
9
7
10
8
6
4
6
14
11
7
13
10
8
12
7
11
8
9
5
5
5
11
5
6
7
5
10
11
7
4
6
7
7
12
6
7
5
7
4
7
4
12
5
12
6
6
9
8
5
8
11
7
7
11
6
9
8
4
6
12
4
3
10
6
4
11
7
11
10
15
7
6
5
8
4
8
9
7
7
9
4
10
9
4
6
5
9
9
7
5
14
10
6
8
6
11
7
3
4
13
4
8
12
6
5
5
7
14
2
6
9
12
7
8
7
16
8
2
8
8
5
3
11
7
6
10
8
12
8
4
7
7
12
8
8
13
6
5
7
5
6
10
7
4
9
7
7
5
6
7
10
9
8
8
6
5
9
17
5
6
2
5
8
8
7
7
10
8
6
6
6
5
11
7
3
10
6
9
7
5
5
12
11
1
6
9
8
6
8
14
5
8
12
11
5
3
8
6
6
3
5
9
8
5
7
5
8
7
40
181
264
297
294
253
289
309
278
266
258
277
255
245
270
266
308
246
266
246
242
247
246
234
230
271
237
244
248
222
232
233
223
227
219
222
209
234
233
244
206
202
172
198
217
227
215
221
181
190
172
209
200
191
173
199
196
173
180
174
172
173
183
184
163
193
160
181
155
193
190
187
183
181
181
172
175
183
172
184
160
175
169
129
170
137
173
162
181
161
169
162
155
185
148
159
148
176
159
152
153
146
152
155
179
166
156
158
143
155
169
153
163
139
148
128
132
158
150
146
127
154
158
133
150
158
144
143
142
141
140
153
156
139
137
156
117
169
130
153
173
147
140
132
143
155
148
136
137
134
127
140
162
162
148
147
124
150
152
141
132
127
149
157
142
140
130
145
133
119
114
148
157
144
126
125
135
135
129
132
129
140
132
139
138
135
134
143
152
137
119
149
142
135
147
126
149
126
139
128
129
121
126
149
129
134
142
129
126
115
156
137
119
117
147
127
131
141
111
104
132
132
127
125
122
117
155
111
124
141
115
137
143
128
127
130
146
142
147
146
133
127
138
122
152
129
110
143
144
109
134
143
123
132
115
139
135
120
101
117
131
118
133
133
143
123
137
144
117
148
134
143
139
127
131
124
137
133
133
112
136
149
135
124
126
134
134
119
128
151
128
121
132
120
122
114
143
122
122
119
131
136
112
148
124
107
125
147
127
125
120
126
131
122
143
139
110
136
130
139
140
125
141
124
138
131
127
132
129
130
143
119
109
126
139
115
131
132
145
119
127
109
119
110
135
138
122
112
141
120
115
129
114
126
120
106
123
125
126
106
120
110
138
126
127
124
116
130
129
145
138
129
136
137
132
142
136
124
132
117
126
116
135
107
125
136
128
140
118
145
117
126
132
136
125
130
111
141
129
132
120
116
121
157
138
118
143
130
130
149
143
124
136
126
134
125
121
130
140
143
132
121
129
144
158
148
133
127
144
123
131
142
122
110
145
129
134
112
136
140
109
158
135
137
115
139
134
144
132
129
127
124
128
125
118
119
126
147
124
136
126
118
111
129
114
129
146
117
127
132
133
138
118
142
128
127
121
129
126
122
118
118
143
113
122
132
126
134
145
149
131
129
123
129
113
109
140
122
154
125
129
115
116
139
128
134
99
111
146
119
127
115
127
136
118
119
111
139
133
145
133
134
117
126
139
124
131
154
148
130
135
118
118
148
117
134
122
137
122
111
119
120
131
123
115
125
135
142
105
112
131
135
131
123
114
126
146
114
115
118
113
112
126
120
126
126
124
127
145
107
124
139
137
131
116
137
148
134
143
124
129
137
111
136
127
143
125
157
124
126
128
108
114
112
133
118
102
124
134
137
135
121
156
145
152
126
140
137
138
132
123
130
136
137
136
137
112
121
145
132
121
123
123
132
126
130
128
139
149
140
127
150
131
130
121
123
112
128
117
120
128
124
125
124
161
125
129
150
144
133
136
116
133
141
114
127
122
141
139
121
121
128
134
137
138
134
128
141
137
119
126
136
117
128
127
129
116
122
141
146
124
121
117
140
130
124
139
114
118
139
148
146
120
123
114
135
122
84
39
11
3
9
4
11
3
7
6
12
10
9
12
7
9
7
4
7
8
3
7
7
12
5
12
15
7
9
8
9
6
7
6
9
12
9
9
11
8
4
6
6
7
4
7
7
8
9
8
5
7
8
8
11
7
5
6
8
9
8
8
9
14
9
9
11
5
7
10
9
11
5
11
8
12
6
6
13
6
6
13
12
6
9
12
7
5
8
10
6
7
7
5
10
13
10
7
6
7
10
12
11
10
10
9
9
11
11
7
9
8
5
11
9
9
7
4
5
9
8
7
14
8
4
3
10
7
11
9
11
7
8
4
7
11
6
7
14
5
6
6
5
5
11
9
6
7
5
10
8
11
6
10
7
9
7
10
8
8
4
6
12
4
11
13
7
1
9
14
8
5
7
5
14
4
10
7
6
3
8
1
12
7
12
7
7
4
6
9
14
13
3
8
5
6
10
7
10
9
10
7
7
9
7
5
9
7
13
8
5
6
11
10
3
8
9
4
5
8
12
6
6
13
2
5
5
7
7
2
8
11
12
7
4
8
12
8
7
14
10
4
10
8
7
12
6
14
7
8
5
7
7
13
10
0
6
4
8
11
10
11
10
7
8
8
8
13
5
7
12
4
6
10
9
11
14
14
5
10
7
6
4
10
12
10
8
8
7
11
9
9
8
9
11
9
7
4
6
9
9
9
10
2
9
7
9
5
7
10
7
13
7
7
12
11
6
5
15
5
8
13
4
9
10
11
10
7
7
5
11
9
6
6
5
8
11
8
6
6
10
8
7
8
8
6
6
10
8
12
12
9
10
10
11
6
10
10
9
6
12
5
7
7
11
13
6
15
9
12
9
12
10
11
10
6
8
7
9
10
10
16
10
9
1
7
5
6
4
5
5
9
5
9
16
12
7
7
1
7
9
9
13
9
7
11
4
3
8
6
8
8
4
9
11
8
7
5
9
6
8
5
7
9
7
11
6
6
6
7
11
5
8
7
9
9
9
13
10
5
4
7
8
4
10
8
7
12
5
11
5
9
10
8
12
7
6
12
7
11
12
17
9
8
8
6
8
4
8
6
6
11
13
8
12
7
4
10
8
7
11
8
8
8
9
8
13
10
13
10
9
10
3
5
5
11
9
9
9
9
12
10
8
9
7
6
8
11
5
10
8
11
12
10
1
5
7
7
3
8
4
9
4
9
4
10
11
8
14
10
6
5
7
7
9
6
7
9
6
10
6
9
11
6
5
4
11
7
6
12
9
12
6
9
8
2
8
15
4
10
13
9
9
7
3
8
6
10
8
6
6
9
12
7
5
13
8
10
10
8
11
8
7
9
5
6
6
5
5
5
8
7
4
7
3
11
9
8
8
6
6
6
8
8
9
12
6
4
7
6
5
6
6
4
8
8
8
5
8
9
5
2
13
8
8
9
9
7
12
8
13
5
5
5
5
10
12
3
10
5
9
6
5
4
9
7
6
9
5
7
5
7
14
11
7
7
7
10
5
8
8
5
11
9
10
9
8
8
5
7
11
8
7
7
8
6
6
8
11
6
7
9
10
14
9
8
12
9
10
5
7
9
5
9
6
4
11
4
7
2
8
6
8
8
9
8
7
14
8
10
8
4
7
7
4
12
12
8
2
9
10
9
9
5
9
7
10
11
5
8
4
8
14
10
3
3
11
6
8
8
4
3
11
10
3
9
5
9
9
6
7
7
5
4
14
2
11
10
8
7
8
6
5
4
7
8
11
8
8
7
8
4
9
9
14
6
6
8
9
12
8
10
10
10
10
10
3
11
10
5
2
11
3
9
7
10
7
5
6
12
13
7
9
10
10
9
8
10
8
5
4
4
6
5
7
9
6
5
1
10
9
8
9
5
3
7
4
9
12
8
9
10
3
7
5
7
6
10
13
6
7
1
7
8
4
9
9
7
5
7
8
10
7
9
8
9
10
4
6
5
11
16
9
8
14
10
8
10
3
5
8
10
8
10
7
9
6
5
8
8
9
15
4
6
11
8
6
8
5
8
9
3
7
2
6
6
12
10
10
8
7
6
9
8
8
11
6
13
7
8
6
5
5
6
11
9
8
8
13
5
4
5
8
11
6
7
11
9
8
8
6
6
5
7
9
10
9
7
7
8
10
5
3
8
8
10
7
17
14
2
4
13
8
4
9
10
8
8
8
8
7
11
4
7
6
6
6
8
5
9
8
3
8
11
6
13
8
3
9
9
9
7
9
7
6
12
7
7
9
10
9
5
11
7
5
8
6
12
9
11
9
13
9
10
6
8
10
8
7
11
7
6
10
9
5
11
8
16
6
13
12
8
11
7
8
7
9
9
6
12
6
6
3
10
8
12
13
9
4
5
10
7
6
9
11
8
42
199
317
383
347
379
361
369
345
318
317
325
340
337
336
316
324
319
351
324
324
268
303
310
315
327
288
288
314
310
278
268
269
265
254
287
265
257
219
254
263
249
262
235
244
245
229
265
253
243
220
234
198
227
252
197
211
235
233
203
214
194
208
193
200
241
215
234
172
205
205
216
198
198
209
189
207
187
184
204
196
205
197
216
169
179
196
171
196
185
180
161
189
191
210
194
200
187
203
153
172
184
199
178
173
166
178
173
178
165
185
156
179
162
158
158
180
193
160
180
173
155
147
159
163
173
147
151
155
151
171
172
159
168
162
162
159
136
147
166
159
162
165
168
149
175
178
165
147
154
158
165
158
145
158
181
159
143
172
153
168
147
151
145
138
174
139
166
181
147
150
146
138
137
146
160
181
163
137
151
150
172
169
147
138
150
134
177
138
160
133
153
157
158
157
144
168
139
129
149
144
138
141
153
145
120
138
140
129
126
147
132
150
161
141
144
136
147
149
148
131
160
153
129
161
152
143
132
141
116
161
129
147
142
165
167
133
151
148
131
134
153
134
124
128
143
150
138
150
163
139
156
134
133
160
156
156
147
140
146
149
151
132
126
136
164
137
146
124
166
128
161
164
141
128
132
164
141
158
137
150
108
144
139
147
154
160
148
140
148
140
149
149
162
158
146
130
130
137
136
137
156
143
141
140
152
135
156
161
144
149
154
160
146
155
153
131
154
144
161
151
141
142
130
143
137
145
148
139
145
138
132
133
153
132
157
163
147
147
141
136
147
141
120
158
123
155
152
124
140
147
141
148
131
143
149
153
128
141
129
148
144
154
144
130
144
147
141
139
126
140
138
155
157
138
142
135
121
142
148
134
151
130
134
151
147
130
147
139
157
150
149
123
142
153
133
158
161
153
140
142
157
149
120
160
159
165
144
130
142
151
132
136
140
158
156
162
157
133
138
144
164
146
144
149
139
144
138
142
161
175
138
134
166
127
159
135
132
167
133
148
145
113
148
134
125
154
155
159
158
155
145
138
114
134
159
147
147
141
142
142
146
141
142
131
158
142
144
150
114
133
161
152
156
137
153
164
135
127
138
138
142
146
123
138
132
149
148
129
153
153
138
135
127
137
126
142
136
165
156
149
140
137
141
162
136
138
146
157
149
145
152
133
141
151
155
161
150
128
139
138
164
143
134
138
126
136
152
148
133
141
131
151
139
162
164
142
144
141
135
146
156
126
147
140
145
144
138
138
163
152
140
150
155
152
140
154
141
140
121
128
163
152
147
136
141
118
130
147
153
141
139
179
140
147
144
145
160
148
131
144
146
135
157
145
145
156
141
158
145
151
145
148
143
158
146
137
140
127
155
125
162
154
136
154
118
166
121
151
181
137
135
149
138
145
139
129
136
139
151
140
163
140
140
162
139
129
139
150
131
145
129
134
152
140
161
172
141
137
151
118
136
130
161
137
149
132
156
148
141
139
149
159
132
127
134
140
156
160
126
124
152
165
151
146
144
156
143
158
153
148
138
159
171
151
158
128
135
151
147
130
154
129
147
173
128
147
149
133
136
137
116
141
134
137
171
138
108
58
10
10
9
8
7
11
12
12
7
8
12
7
6
12
3
8
12
7
11
10
10
15
9
7
9
6
9
11
5
13
11
10
8
7
6
2
11
8
11
12
7
9
11
9
9
5
6
12
3
11
11
11
6
5
12
12
12
10
10
10
14
6
10
8
8
15
8
11
7
12
11
7
7
9
12
4
14
5
7
6
9
4
8
12
9
7
9
13
7
11
2
8
8
9
6
6
14
7
7
13
10
12
9
6
7
7
12
4
9
8
8
9
8
8
10
14
9
10
8
11
11
5
7
11
8
11
9
10
9
7
6
9
10
7
4
12
6
6
5
3
8
8
8
8
9
9
13
5
6
3
6
10
9
10
5
7
7
7
8
8
6
10
8
9
5
8
3
13
9
12
13
10
6
11
7
7
9
8
13
5
11
9
12
8
11
11
11
6
8
11
12
8
4
7
6
7
8
9
6
8
7
9
5
11
13
5
8
11
10
8
7
6
5
12
9
5
6
9
7
5
5
13
9
10
4
7
4
10
7
8
8
10
9
6
6
8
10
4
4
8
9
10
7
6
3
10
5
9
13
14
11
8
13
6
6
10
9
9
14
6
16
10
9
12
7
7
7
5
10
9
6
8
15
7
11
4
4
5
8
14
9
6
7
5
13
5
7
12
7
13
7
8
8
8
13
5
10
10
13
9
10
7
9
5
13
6
8
8
9
12
8
13
7
9
10
9
3
9
8
11
3
8
6
18
6
11
6
10
8
8
9
5
12
18
7
5
7
10
12
6
9
8
9
8
6
7
5
6
6
9
11
9
8
8
6
10
6
4
3
6
4
4
7
6
8
6
11
9
8
10
8
10
7
9
8
6
9
12
11
8
7
7
13
11
6
7
6
9
5
8
8
7
2
7
5
14
8
7
5
4
9
4
5
6
10
6
8
5
7
13
5
9
6
5
10
11
9
8
4
7
7
10
13
10
11
10
7
5
10
5
8
13
12
8
10
3
6
3
4
8
10
7
11
6
5
4
12
7
9
7
8
4
4
6
4
10
8
14
7
8
11
11
6
8
7
8
5
5
3
10
3
10
8
9
9
5
10
4
6
13
8
3
2
5
4
2
9
10
7
10
14
10
11
11
9
14
9
3
7
5
6
4
8
13
3
14
7
8
3
7
6
10
7
4
11
7
2
4
9
7
8
5
9
7
5
5
15
11
9
9
8
9
8
6
8
4
10
6
7
7
7
11
9
6
11
4
13
8
10
6
10
4
7
9
6
4
9
5
9
9
4
9
8
4
5
8
4
12
4
5
4
8
3
6
10
9
4
8
9
8
6
9
10
8
12
6
5
8
5
10
10
8
9
10
8
8
4
10
6
7
4
7
5
6
10
12
9
3
6
4
8
6
7
13
7
10
10
12
6
9
10
9
14
10
6
8
8
9
6
6
10
6
4
8
6
9
10
7
9
7
9
5
8
4
7
6
11
10
9
6
8
6
13
10
9
12
7
7
6
4
6
9
10
5
5
10
12
6
11
5
8
6
5
6
6
9
8
9
6
15
9
9
10
5
8
11
4
6
4
9
5
9
5
8
9
7
11
9
8
10
9
11
6
5
6
5
10
4
7
11
6
10
9
12
10
6
7
6
8
10
8
3
8
12
11
16
11
5
10
10
7
10
5
4
12
3
4
7
4
7
15
9
8
8
8
12
5
9
6
7
11
5
9
5
7
8
9
8
7
8
4
14
6
6
10
7
2
5
12
7
6
7
6
10
4
4
15
11
7
10
12
12
3
5
7
8
6
6
10
13
14
4
4
3
10
8
13
7
8
12
6
7
12
6
16
9
8
7
10
8
7
7
7
5
7
9
5
13
8
8
6
11
9
14
3
10
8
7
14
7
7
11
5
4
6
6
11
7
9
5
11
7
3
5
8
13
8
11
7
9
9
10
7
6
10
6
5
9
9
4
8
9
7
8
13
9
11
6
13
5
6
9
8
7
10
8
3
12
7
9
8
9
8
7
8
2
5
4
11
5
6
5
2
10
10
8
11
7
11
7
3
4
6
7
8
3
6
9
9
9
13
4
7
5
6
8
12
8
9
8
11
6
13
10
10
10
11
10
7
6
7
7
5
11
7
9
4
4
10
6
7
7
4
11
3
6
9
13
7
11
7
5
8
11
5
10
7
8
11
8
9
11
7
3
6
7
6
6
3
5
11
8
11
7
4
8
10
11
5
6
7
11
8
12
10
10
11
6
14
6
5
8
6
7
10
10
4
12
4
10
7
9
10
7
8
9
8
2
11
9
2
10
5
9
7
8
8
6
11
4
6
6
10
3
3
8
7
9
4
7
14
6
7
7
8
8
8
7
4
2
8
7
7
6
7
6
4
9
11
5
11
10
12
6
4
4
8
10
7
11
4
5
5
4
9
5
7
