14
6
7
8
57
394
803
864
845
861
770
773
693
643
600
607
512
546
511
455
418
389
373
365
374
319
317
273
284
231
273
279
261
242
221
236
189
192
218
161
179
193
155
180
180
153
168
154
152
155
158
166
135
122
121
150
132
152
118
132
130
127
132
124
100
108
125
97
113
119
103
119
110
98
102
114
94
113
119
104
115
118
116
109
116
92
123
99
120
93
120
98
95
83
104
113
121
112
115
113
112
103
105
107
109
112
86
98
99
106
130
103
90
108
101
96
103
127
119
92
102
113
120
111
99
104
121
109
112
92
111
111
100
103
111
105
97
109
113
107
100
103
109
108
114
96
108
94
118
103
95
100
90
118
119
122
102
127
96
106
109
116
115
129
105
85
128
94
101
115
113
113
107
123
100
114
114
126
110
101
96
93
100
76
89
121
95
94
77
110
122
106
108
114
118
115
99
104
99
101
95
120
110
103
116
103
124
91
124
118
106
112
95
118
86
94
105
122
95
113
101
97
114
110
109
105
118
93
102
90
100
110
122
109
99
123
107
105
119
94
106
119
106
99
100
105
115
104
113
95
98
104
110
108
123
97
102
94
108
107
120
102
99
96
111
124
125
106
102
105
111
109
93
119
92
102
117
103
112
122
117
107
127
117
110
106
102
106
109
108
102
114
117
113
106
89
92
102
113
88
130
106
114
104
99
106
113
94
106
114
90
101
102
113
104
115
79
98
97
110
98
103
105
106
98
109
120
96
107
96
88
112
101
89
112
101
96
112
100
116
107
120
112
131
100
109
101
108
98
95
101
103
87
117
105
101
117
107
100
108
107
110
115
105
100
90
86
106
117
103
97
94
115
117
125
111
119
118
120
95
113
110
105
95
108
110
97
94
101
120
104
110
117
106
113
122
113
94
100
112
130
126
99
102
97
99
100
117
97
95
106
88
112
128
95
95
117
99
114
105
115
116
115
113
104
82
101
115
112
91
110
107
109
103
120
100
113
112
105
110
102
103
107
104
100
102
101
127
106
88
91
100
71
122
106
104
100
93
104
107
114
100
105
108
107
103
112
108
118
99
98
135
109
118
96
93
100
95
93
92
120
120
111
116
106
96
93
105
91
117
108
131
106
135
111
86
109
104
90
105
116
94
104
111
100
109
115
90
93
116
136
98
103
112
110
110
109
104
101
106
111
89
125
102
111
114
116
89
111
118
111
109
114
105
106
118
94
101
114
123
113
116
99
94
100
105
102
103
92
87
102
98
100
99
87
129
98
103
103
94
119
108
91
96
114
109
127
92
103
97
116
107
102
101
115
110
105
102
94
105
100
103
97
90
129
97
111
109
116
103
106
110
92
110
103
106
103
111
98
115
93
112
101
97
106
111
121
105
84
104
136
92
98
122
93
93
99
107
105
104
120
92
110
124
108
114
107
95
111
119
104
104
115
114
120
104
98
118
110
101
114
104
111
109
106
97
101
105
96
106
107
108
103
98
116
111
112
121
115
106
95
123
101
99
87
97
103
94
105
110
98
114
111
93
109
121
100
107
111
101
108
92
109
114
96
99
106
118
113
101
96
99
105
97
94
107
91
103
109
123
113
71
45
10
10
11
12
7
9
9
7
5
10
5
8
3
6
7
5
9
10
3
7
11
9
5
8
6
10
12
4
12
12
6
7
10
9
5
8
10
12
6
13
11
8
5
7
10
10
9
8
7
8
11
8
5
16
9
10
9
7
7
13
7
10
6
10
8
6
6
10
5
13
5
10
11
4
13
10
7
5
10
8
12
5
12
11
8
9
12
9
4
11
15
7
4
8
8
17
11
5
3
8
8
4
5
7
8
9
11
7
11
7
9
6
11
5
9
11
9
9
16
6
7
12
8
7
9
10
7
0
9
11
4
10
2
7
8
6
9
8
7
8
8
2
6
10
9
13
9
10
11
8
6
8
12
8
5
9
8
7
8
10
7
7
9
12
4
14
6
9
10
11
10
6
10
6
8
3
11
10
7
9
7
7
5
6
9
10
12
10
5
8
4
4
10
10
5
10
11
8
9
8
6
7
8
12
4
4
7
15
10
11
9
12
11
6
6
7
10
11
9
1
6
5
11
10
7
13
10
7
13
7
5
9
11
12
10
8
18
11
10
14
9
3
9
7
11
5
8
8
11
4
5
8
8
11
10
9
11
11
8
3
10
10
8
13
5
13
7
11
3
6
7
7
7
7
7
11
11
9
5
5
9
7
5
10
15
10
12
11
10
6
13
10
9
13
6
10
13
7
12
12
12
9
11
12
6
6
9
5
6
5
10
11
9
6
11
10
4
8
7
18
15
7
8
6
3
13
8
9
11
8
6
10
9
9
8
5
8
10
6
10
7
13
9
6
6
11
8
7
10
12
4
10
10
14
9
11
5
9
12
8
13
6
8
9
6
12
8
13
11
8
8
6
12
6
7
7
9
7
8
9
9
10
10
10
10
10
11
13
9
7
9
7
6
7
7
9
14
10
6
6
5
8
11
6
10
5
9
10
9
9
11
10
11
4
8
10
16
7
12
10
9
6
8
7
10
7
13
15
6
6
8
9
9
10
9
7
9
11
11
6
5
12
8
8
7
9
12
9
16
11
6
5
6
9
12
3
7
4
5
4
8
9
6
17
14
9
10
9
14
5
8
8
12
6
9
12
9
6
7
6
5
6
6
16
9
8
8
6
5
5
11
9
12
8
4
5
7
7
8
8
6
11
7
9
6
13
5
6
6
11
4
7
9
5
7
7
5
7
6
8
9
6
4
10
5
10
9
7
8
9
11
3
10
10
8
9
7
12
6
7
6
8
10
8
4
3
10
5
7
4
13
8
8
11
5
7
11
15
11
4
7
5
2
9
6
6
7
8
3
8
14
11
8
5
13
4
9
9
10
9
13
12
9
8
6
7
11
10
10
9
6
8
11
8
7
12
8
14
10
6
9
4
7
10
6
11
14
9
11
4
8
12
8
7
9
8
8
4
7
6
7
6
5
9
7
8
13
6
9
11
13
4
14
9
9
7
4
8
4
5
8
9
9
5
10
11
12
9
7
6
3
14
4
10
5
7
4
7
13
6
4
15
8
3
16
7
9
6
13
11
6
11
12
11
5
5
5
4
5
10
7
6
7
7
9
11
10
9
10
7
6
14
6
8
12
11
12
12
2
13
8
8
8
7
6
12
9
13
7
5
6
6
5
6
4
9
15
12
6
5
8
6
11
12
10
14
12
13
3
15
13
8
5
12
4
9
10
9
4
7
5
8
9
8
7
12
7
10
13
7
10
12
12
6
6
7
15
3
7
4
9
2
7
9
8
7
9
10
6
8
6
17
8
11
6
6
15
5
6
10
15
7
11
9
5
13
4
5
6
12
13
7
8
4
3
11
6
9
10
9
6
5
9
2
7
5
12
6
5
5
7
11
11
13
5
4
12
8
4
7
7
13
5
8
11
2
5
6
6
12
4
9
10
5
7
7
9
10
10
7
12
4
7
7
5
9
11
8
8
6
8
7
14
13
6
9
5
14
10
6
9
8
8
10
9
10
14
6
7
12
9
8
8
5
6
13
12
10
7
5
11
8
5
12
9
7
5
10
8
10
13
10
10
11
10
9
5
6
4
9
13
6
6
6
9
6
13
8
9
9
8
11
8
7
9
11
8
10
7
11
6
7
8
10
8
13
5
14
4
7
2
12
7
10
15
10
5
8
7
5
10
7
7
10
12
11
6
13
8
7
9
6
11
6
11
3
2
5
8
5
10
4
7
7
5
10
5
10
3
5
12
13
8
13
6
12
6
15
12
7
10
14
10
4
9
12
13
9
6
9
10
6
7
3
4
9
3
9
13
7
8
9
8
10
2
9
5
4
5
9
13
5
9
10
9
5
8
10
13
10
10
9
10
6
12
8
9
4
7
9
11
8
8
9
7
5
9
8
8
9
9
10
12
7
54
460
1212
1583
1528
1321
1154
1074
920
797
733
662
612
543
491
420
417
362
323
314
261
271
285
227
229
217
194
186
173
158
182
152
156
142
151
143
134
123
142
140
107
135
129
127
112
113
141
128
123
133
124
114
136
109
113
108
113
124
114
106
107
125
111
118
116
101
120
121
104
106
111
114
115
106
116
113
131
122
111
115
120
127
123
109
126
116
113
112
117
102
115
136
124
132
112
119
116
110
121
112
106
112
117
109
100
120
114
111
118
126
118
134
106
115
98
119
110
109
113
144
109
108
103
123
110
105
110
113
101
112
118
115
116
100
140
113
112
107
102
112
112
119
103
122
114
123
118
120
118
129
131
132
116
106
95
107
123
105
111
99
114
108
121
127
113
102
101
99
117
108
104
106
124
135
96
107
107
131
131
105
119
119
124
106
120
121
110
123
96
112
123
148
127
111
115
112
126
88
122
132
121
115
117
127
114
115
128
126
136
123
113
119
122
106
106
114
127
118
123
109
103
126
138
111
117
97
128
97
117
114
122
95
111
134
114
112
106
121
97
122
105
128
96
115
110
103
125
94
119
139
143
147
112
118
129
112
121
109
121
113
113
136
119
120
113
105
130
113
108
105
122
119
97
126
124
114
115
94
124
117
107
127
103
113
131
111
115
110
83
102
97
122
125
138
118
101
115
108
107
100
103
124
119
110
121
99
123
131
112
114
127
115
125
119
123
114
110
106
113
123
103
119
111
115
105
122
119
106
97
112
114
126
92
104
115
112
125
105
109
119
121
112
111
115
116
110
111
105
106
100
93
138
118
105
107
120
119
118
121
118
108
113
103
107
118
111
114
101
115
123
118
116
122
121
113
107
114
107
110
113
127
104
122
105
104
103
125
110
126
111
126
113
95
111
98
108
116
119
113
114
137
113
124
126
130
117
127
123
131
119
123
108
107
121
107
114
97
117
105
108
96
123
105
108
122
112
129
142
115
109
116
117
107
140
115
124
115
112
116
124
102
113
118
130
116
123
114
108
110
106
105
102
115
120
106
96
107
126
140
93
117
101
114
107
99
109
107
137
110
101
111
131
125
125
107
117
108
105
112
113
91
124
115
137
107
124
122
113
109
117
110
121
108
113
125
113
108
105
115
105
116
116
116
111
121
116
107
124
113
100
113
107
96
115
130
117
126
102
129
118
112
117
122
115
105
115
119
126
106
113
110
129
116
106
118
106
122
129
111
112
127
115
101
109
130
132
112
117
128
114
118
130
104
118
103
108
116
118
136
101
123
114
122
116
97
114
116
104
117
116
124
118
119
124
128
113
118
113
116
129
117
126
101
126
128
121
117
108
129
107
121
124
109
113
129
122
128
108
127
110
121
110
101
101
109
117
126
117
116
124
116
129
115
114
121
128
105
125
115
121
113
119
130
85
105
130
105
107
119
118
112
119
133
113
114
121
123
124
116
94
126
107
120
116
127
125
104
130
113
123
120
105
107
116
119
115
121
127
97
111
116
117
113
129
108
137
108
127
124
129
118
111
128
95
143
110
104
107
120
123
151
130
120
125
121
106
143
125
94
105
111
112
106
88
126
122
101
112
64
19
17
9
11
5
9
12
10
12
9
9
9
7
10
10
13
6
9
13
9
5
9
8
5
8
10
10
7
10
8
13
8
9
9
6
10
3
8
9
5
6
8
10
12
12
6
7
6
12
10
7
10
8
7
10
8
5
11
7
14
4
6
6
10
5
12
6
9
11
11
10
8
9
7
10
4
10
8
6
9
4
10
3
14
12
13
12
7
4
10
11
8
3
8
10
11
10
5
9
10
11
7
4
10
11
5
6
15
6
13
6
10
9
4
10
5
6
5
9
9
6
7
9
7
12
6
4
9
7
10
7
5
10
4
3
8
8
11
9
7
9
4
11
13
2
11
14
5
4
9
10
12
9
9
9
9
9
5
10
8
10
10
9
8
8
6
8
5
5
3
8
4
8
8
7
6
9
6
12
12
13
8
6
7
13
10
8
8
10
9
8
13
11
11
14
12
5
7
10
8
9
10
14
6
18
9
7
8
13
6
9
9
5
9
10
5
10
8
9
7
4
10
4
9
5
13
8
3
6
9
12
9
2
9
10
6
7
8
6
9
11
8
9
8
6
8
7
13
8
13
5
9
7
12
6
9
7
6
6
3
8
8
9
6
5
9
11
5
9
9
7
12
7
9
9
9
13
11
8
8
8
4
6
10
13
6
8
8
5
8
5
8
19
11
10
12
8
7
9
11
10
6
10
5
10
5
10
7
7
10
4
5
9
5
10
6
9
9
13
8
7
6
7
12
9
12
8
7
13
9
6
6
8
9
7
5
8
3
5
6
8
6
8
11
6
9
6
13
8
6
6
12
7
7
10
13
12
10
14
7
8
8
8
6
11
6
17
4
8
9
6
10
5
8
10
7
5
14
9
8
9
7
10
7
10
13
14
9
14
9
7
6
7
8
9
6
7
14
8
6
9
15
9
14
8
8
12
12
3
8
9
8
7
6
6
6
8
7
8
5
7
7
11
6
11
5
8
7
4
11
8
10
10
11
2
3
12
4
15
9
10
7
6
8
6
5
10
13
15
11
7
7
10
6
9
6
6
9
8
13
4
15
4
7
8
7
7
8
10
12
6
9
9
9
8
8
10
7
8
6
9
8
8
9
9
14
6
11
12
9
8
7
8
12
10
7
9
9
7
6
10
14
11
6
9
5
14
11
7
8
9
8
8
10
10
6
8
4
8
15
7
9
9
4
9
7
3
9
9
4
6
5
7
9
5
13
8
5
10
8
13
8
9
10
8
9
6
12
11
5
7
7
10
8
5
7
7
6
13
8
7
9
4
5
11
6
5
6
10
8
4
8
6
3
13
12
5
10
8
11
10
13
14
8
6
15
5
9
6
18
9
6
7
7
5
12
8
7
10
10
3
6
8
6
8
10
5
8
9
9
7
15
7
6
12
12
12
10
10
12
10
5
11
4
10
5
10
12
9
9
8
5
7
7
7
10
10
8
17
11
5
7
12
5
6
7
16
6
10
7
3
8
11
5
9
10
8
4
3
10
15
6
7
9
2
6
11
5
5
9
3
9
10
8
10
8
7
11
10
3
16
14
12
10
7
10
11
10
11
10
14
10
9
6
9
9
4
3
11
6
5
6
10
11
6
11
7
11
8
13
11
9
9
5
15
8
13
4
5
9
12
5
11
9
13
9
10
10
6
7
13
11
6
11
10
10
9
8
6
6
6
11
5
8
9
13
7
5
4
3
6
9
10
6
9
10
7
16
8
11
11
12
9
7
10
10
7
6
10
4
4
15
11
7
3
5
8
10
8
7
7
12
8
10
3
6
8
10
11
9
12
10
7
8
7
9
7
4
9
9
11
11
9
8
7
6
8
6
8
11
7
6
10
6
11
10
9
6
10
7
13
7
9
6
5
12
6
17
11
9
8
9
7
7
11
6
6
9
9
5
6
11
8
12
5
9
11
13
12
5
8
4
9
9
15
6
7
4
4
3
12
10
10
9
5
12
7
12
16
9
17
10
13
11
13
7
9
3
4
14
8
9
15
9
12
9
4
15
6
11
9
4
6
7
9
9
5
7
11
11
5
5
12
12
3
10
8
11
7
8
11
6
8
10
8
5
13
8
3
8
9
13
5
10
12
5
8
5
7
8
10
6
10
11
10
4
10
4
15
4
6
8
8
9
6
11
12
8
7
8
3
2
4
10
6
10
11
10
11
6
5
11
9
8
8
6
3
11
8
4
9
11
14
10
11
8
14
11
7
6
11
6
10
8
9
11
8
7
6
6
8
4
6
5
11
9
11
5
14
10
11
8
13
12
7
12
10
9
8
10
10
11
3
8
7
15
8
7
8
9
14
10
6
14
9
4
7
13
6
7
6
11
9
8
11
13
4
11
6
5
7
16
13
10
38
432
1395
1956
1873
1590
1320
1225
1007
833
685
622
542
488
411
358
348
324
277
236
239
203
201
166
151
161
162
153
140
135
137
134
126
127
128
155
130
124
105
137
121
113
107
132
98
110
111
144
120
107
126
113
125
124
129
109
116
119
104
126
124
103
116
109
115
104
126
99
99
113
114
128
93
117
125
124
128
113
133
124
109
110
107
111
108
112
100
115
138
99
106
121
131
117
121
101
106
119
116
112
111
126
112
122
114
128
105
123
126
128
112
126
101
109
122
120
138
142
120
131
132
119
123
115
114
116
102
104
113
131
108
115
122
108
117
112
120
122
137
124
119
120
132
101
108
115
134
121
101
110
95
118
108
139
126
135
127
143
126
123
112
113
117
110
130
142
119
140
140
122
127
142
112
108
109
140
122
110
116
126
109
118
113
125
133
136
115
129
131
115
121
119
129
109
111
117
110
114
122
103
105
110
104
135
115
115
118
125
110
123
131
105
137
111
119
139
121
118
106
120
123
124
120
107
101
109
129
123
117
109
115
109
126
96
101
106
123
115
120
124
103
123
117
127
111
122
113
132
125
111
117
110
114
108
139
125
122
146
123
135
124
106
129
127
116
126
119
128
120
118
120
113
110
95
130
122
107
120
136
126
126
131
131
128
114
117
131
112
114
124
105
121
121
130
120
123
137
117
124
131
110
135
125
120
104
139
105
109
114
130
117
116
118
113
128
118
117
120
140
113
127
125
121
144
122
109
117
107
116
98
122
131
109
108
129
131
122
112
120
153
105
128
117
115
129
124
122
118
105
113
132
121
106
118
112
123
132
139
128
109
127
117
128
113
109
141
114
117
113
134
113
133
116
100
124
120
126
113
119
133
109
115
98
129
115
119
127
117
128
126
121
127
110
120
125
126
113
112
107
104
110
136
110
99
138
120
124
118
123
122
120
114
96
111
117
121
133
104
109
115
117
140
130
126
129
121
127
116
134
128
127
130
120
115
115
101
123
132
127
115
120
116
132
137
123
135
113
134
145
142
118
129
127
127
123
122
121
112
113
123
129
136
112
120
135
117
140
131
123
117
116
131
117
122
131
115
136
111
118
127
122
123
123
123
119
109
115
118
108
132
137
123
123
117
100
122
112
122
136
107
108
108
127
128
115
133
105
128
120
113
137
101
132
124
122
122
118
127
124
96
105
122
147
112
111
124
119
123
116
120
119
108
126
134
111
117
120
120
133
127
131
148
132
142
120
110
122
117
111
118
134
133
134
111
120
109
112
153
123
94
138
113
149
110
106
134
114
105
128
119
113
141
113
114
134
119
118
120
120
122
130
113
108
129
119
130
118
124
107
115
117
122
127
125
117
128
141
125
123
122
134
107
100
134
121
116
139
119
117
112
125
118
120
121
130
117
135
128
127
119
106
123
117
114
130
135
107
139
109
118
106
101
109
141
107
107
129
130
124
132
126
140
114
117
115
114
122
126
120
124
114
116
116
123
125
106
120
116
128
106
122
125
136
113
132
128
124
110
144
119
134
148
120
130
118
130
128
119
115
120
124
105
123
117
132
133
127
126
122
119
133
119
118
115
119
124
114
111
79
28
12
11
9
12
9
7
6
5
5
8
14
5
4
4
10
3
7
12
12
7
8
9
14
9
7
7
13
5
10
10
7
8
9
12
10
15
3
5
8
2
7
6
9
14
9
8
6
6
5
5
5
10
4
6
5
6
7
9
5
13
13
11
3
8
8
5
8
10
5
9
5
6
7
8
5
4
12
8
8
10
8
11
10
4
9
6
13
12
15
8
8
3
10
5
7
11
15
6
7
8
10
13
7
7
9
10
10
7
5
7
6
8
6
9
15
8
8
16
10
7
7
15
7
6
10
9
10
6
9
8
11
11
8
9
9
8
5
8
6
8
9
12
11
7
10
14
7
4
8
12
11
6
15
14
9
3
2
15
12
9
5
12
6
7
8
6
8
8
8
10
11
7
6
2
7
6
8
7
7
12
10
12
10
8
10
11
16
7
5
8
7
4
7
13
6
10
9
8
8
6
8
9
7
15
5
4
7
5
10
10
11
14
8
8
10
9
12
16
4
13
5
10
7
7
9
8
10
10
10
6
5
9
9
7
7
13
8
6
6
8
7
11
5
9
1
9
9
10
14
7
6
7
7
5
13
2
8
13
9
6
8
7
7
4
7
4
7
9
10
7
10
8
11
6
3
15
10
3
9
8
3
10
8
8
5
7
7
9
9
8
5
9
8
9
10
7
10
9
5
11
6
7
11
6
9
8
9
11
9
7
8
7
9
14
9
8
9
10
12
7
13
9
9
8
4
11
10
11
4
10
9
7
7
12
7
9
4
12
15
5
4
12
5
5
12
14
13
10
10
10
10
16
6
6
9
5
6
9
8
6
7
10
8
10
5
7
9
12
5
10
6
9
6
9
12
8
13
6
9
6
11
8
9
7
13
4
9
13
7
6
7
14
6
9
12
10
11
6
6
6
8
5
10
15
4
7
7
5
6
6
10
8
4
12
5
6
6
11
14
3
13
6
8
7
7
11
10
7
10
14
9
5
7
4
10
6
10
9
6
10
7
8
6
6
7
9
9
6
9
11
6
9
9
10
6
3
10
4
14
11
13
7
9
8
8
11
11
11
5
5
7
8
14
3
16
9
10
9
9
8
8
7
8
5
6
5
8
9
7
11
7
13
12
4
5
14
6
9
7
8
4
7
7
13
10
12
8
8
8
8
17
9
8
5
5
11
14
8
7
9
14
7
10
5
9
6
11
10
12
6
7
5
12
6
5
6
12
11
8
12
9
7
13
8
4
4
10
8
8
13
8
12
7
8
11
16
6
5
10
13
3
5
13
11
7
12
6
8
5
13
7
11
13
6
4
6
6
4
9
7
8
8
6
10
8
8
8
10
13
7
9
9
13
10
10
8
11
13
9
4
9
5
8
10
10
9
9
13
6
9
5
6
9
9
4
8
10
8
16
16
5
11
13
6
9
12
8
10
14
5
10
4
7
11
9
6
7
6
9
9
10
11
12
11
10
12
10
10
9
10
5
5
6
0
8
7
8
11
6
10
9
5
9
11
7
2
2
9
17
10
11
4
10
6
3
9
6
6
12
11
10
16
13
11
8
12
5
5
14
13
5
13
11
11
7
9
12
10
9
7
4
10
6
5
9
9
5
7
6
11
4
14
8
8
10
9
15
7
13
10
7
9
4
7
10
10
8
6
8
4
5
6
9
12
6
7
14
8
10
7
8
8
10
11
8
9
9
11
7
7
6
7
6
6
8
6
9
8
15
8
6
5
8
7
12
7
6
6
7
12
5
8
10
7
10
10
6
8
11
7
11
7
16
2
8
10
8
7
14
9
9
14
7
9
9
11
14
5
14
7
3
5
7
15
9
10
9
6
7
13
4
7
10
8
12
2
7
10
5
10
8
8
10
3
6
13
11
8
10
7
13
4
8
13
6
7
10
9
14
7
7
12
8
6
13
11
4
12
8
9
6
9
8
7
6
9
8
10
7
7
8
10
10
4
9
5
10
4
9
5
8
13
9
13
14
7
7
14
7
8
5
9
9
12
7
11
9
12
10
6
7
7
4
7
13
9
6
12
12
10
10
8
5
12
9
9
10
7
14
11
4
7
10
9
11
3
8
3
6
9
10
12
10
5
10
8
7
10
8
12
11
5
9
9
12
7
7
5
8
15
8
12
4
9
5
12
4
4
13
7
10
3
5
11
8
9
6
7
13
7
6
7
11
12
9
10
8
12
11
11
10
8
20
7
9
11
8
5
12
7
8
8
10
15
8
10
7
9
9
9
11
6
9
6
9
7
11
11
10
14
3
10
13
6
6
6
7
6
7
10
9
7
7
12
11
9
6
13
12
10
4
7
8
8
7
7
9
5
9
5
4
10
6
4
15
9
7
3
5
9
5
6
11
22
314
1587
2522
2363
1944
1526
1217
991
847
623
491
450
385
340
315
247
235
208
194
183
170
168
152
151
155
125
152
145
127
138
129
130
130
137
132
118
128
124
132
121
97
134
122
134
103
129
125
122
125
135
131
122
134
113
136
127
127
126
115
132
135
126
132
130
126
100
119
128
117
121
114
129
141
136
146
121
124
146
144
121
141
137
97
112
126
128
124
125
120
146
132
131
123
142
131
126
127
118
103
129
136
157
161
134
142
123
116
143
116
125
137
126
123
116
113
127
118
147
125
137
129
128
132
150
129
126
146
118
113
118
133
133
123
115
123
130
126
131
150
130
132
126
126
111
122
125
126
131
130
134
128
116
129
135
133
124
115
108
133
147
129
136
141
126
112
113
126
137
109
109
126
125
133
113
120
119
125
122
123
132
122
134
127
135
120
116
119
127
132
137
118
139
115
127
134
112
141
133
126
125
128
144
125
105
129
119
140
125
122
132
128
116
144
116
118
120
137
127
129
117
114
141
122
132
129
135
136
135
122
128
128
121
114
159
141
129
142
146
107
140
122
142
120
121
136
141
128
112
128
123
117
130
122
135
112
135
119
140
121
127
139
133
111
125
125
134
133
122
133
126
116
133
115
113
113
125
130
125
127
129
122
136
134
125
124
130
129
124
136
131
134
117
130
111
141
148
125
112
126
126
105
128
138
119
152
134
140
119
105
119
128
142
141
139
117
137
129
122
117
127
136
131
131
133
149
135
125
127
121
130
124
136
106
113
148
136
140
142
140
122
125
113
134
125
134
141
130
145
113
136
131
117
144
102
131
118
116
128
136
134
141
109
135
120
134
144
113
129
152
122
115
130
115
119
122
119
133
135
126
116
139
137
119
120
124
144
132
116
125
126
117
124
120
150
134
125
139
115
127
119
133
150
124
152
128
136
115
122
131
128
122
130
131
123
136
125
112
147
155
136
134
116
131
117
122
131
123
108
125
121
146
134
131
126
132
145
135
128
118
139
136
99
126
139
142
137
131
130
121
113
117
115
128
128
123
125
117
138
125
120
135
125
109
123
138
133
131
128
110
127
142
126
103
103
147
127
132
127
123
113
120
137
136
110
126
116
138
155
112
137
133
134
129
130
114
121
130
122
113
142
117
146
129
108
126
144
126
110
130
145
130
146
127
141
111
131
155
118
128
125
133
119
133
130
148
127
119
144
119
130
129
127
123
125
109
120
151
124
128
128
130
108
129
121
124
152
134
127
119
125
112
133
134
108
140
123
116
129
135
126
106
132
116
132
123
142
132
127
124
120
136
117
123
100
121
124
140
131
143
136
143
128
139
123
117
141
104
96
121
129
110
140
130
122
123
129
126
135
121
127
124
119
134
124
112
147
123
130
122
123
137
127
127
124
130
127
120
126
129
138
130
127
129
108
134
121
123
126
122
138
132
127
139
117
132
136
140
160
133
126
142
126
135
138
126
123
135
143
120
126
107
114
111
114
137
120
118
102
126
113
119
134
125
129
129
128
104
115
113
123
126
118
132
145
144
137
131
158
162
131
139
122
146
165
130
134
131
125
135
118
131
119
153
137
117
142
118
94
53
13
15
5
17
22
12
13
11
11
12
8
8
5
7
7
11
16
12
10
11
9
6
9
11
14
13
13
14
18
12
3
8
5
15
9
9
12
10
7
7
11
8
13
6
5
6
12
8
3
8
10
10
8
6
9
7
4
10
11
6
8
8
9
13
8
8
9
6
7
2
7
12
13
7
10
3
12
9
8
9
6
13
9
8
7
3
6
8
12
5
9
10
7
3
9
11
8
5
9
13
5
10
7
5
1
7
11
8
6
12
11
9
11
7
12
11
8
7
5
6
15
5
7
7
17
5
9
11
13
6
9
11
11
8
6
10
12
10
6
7
13
7
10
8
9
7
7
5
6
4
8
7
6
11
9
8
5
10
12
17
11
14
6
11
4
10
11
14
5
8
6
13
7
13
13
7
7
8
8
7
12
14
10
4
8
10
4
9
5
5
4
12
2
6
9
8
8
7
9
9
8
8
6
6
9
7
13
7
12
6
12
4
10
8
9
11
9
11
9
12
10
7
7
6
6
4
6
9
5
4
17
8
6
7
5
7
8
9
10
10
14
12
7
5
4
8
7
7
9
5
8
13
17
6
11
11
6
6
10
9
9
10
11
14
13
14
10
11
12
5
6
10
10
9
7
7
10
10
10
9
9
9
13
11
7
16
15
9
9
14
6
8
11
8
12
16
6
8
8
11
10
14
6
5
5
11
9
9
7
9
5
9
10
10
9
10
8
15
14
8
10
9
9
8
10
8
6
12
11
11
6
6
7
11
10
11
7
9
6
4
11
8
12
12
5
10
14
6
6
6
9
8
9
11
7
6
8
9
7
13
11
12
9
10
7
9
8
9
11
8
9
6
5
9
7
8
15
8
6
9
13
7
8
5
9
7
10
6
13
6
12
7
9
13
5
11
15
16
11
8
10
11
11
5
13
9
7
7
6
7
8
8
7
14
5
4
5
11
6
6
4
12
3
9
5
8
8
10
6
3
15
11
7
12
8
5
9
9
11
15
6
13
7
13
6
10
6
6
10
7
13
14
9
16
11
15
9
5
9
5
13
8
15
8
6
9
8
5
6
10
9
11
7
8
7
6
8
6
11
7
7
10
9
6
6
8
7
8
2
8
2
10
6
12
6
12
6
8
7
16
8
11
8
14
5
11
4
4
4
12
10
7
11
7
7
6
7
7
6
11
12
11
11
11
7
5
6
7
11
7
12
11
8
10
12
6
4
9
7
10
11
7
6
9
11
12
7
4
12
10
7
8
8
10
16
4
8
12
7
4
10
7
10
9
10
8
9
7
5
4
10
12
7
12
9
7
7
9
13
6
11
6
9
8
10
11
7
7
7
9
11
9
7
3
13
8
10
6
8
8
7
11
5
5
8
7
8
7
10
8
7
11
13
7
13
8
10
8
9
10
13
8
5
3
7
7
7
3
4
10
7
12
5
6
9
8
8
10
10
8
4
9
11
6
5
8
14
7
11
13
9
4
12
11
9
7
9
12
7
9
11
12
6
5
8
7
10
9
8
5
9
8
9
8
5
11
6
8
6
11
10
5
1
8
12
8
11
11
4
8
5
10
8
12
10
8
6
9
5
6
4
15
7
6
5
8
5
5
10
5
9
10
13
7
11
10
12
8
10
6
9
9
9
5
10
6
8
11
5
8
4
4
7
8
4
9
13
12
7
11
10
6
4
7
7
6
6
12
10
5
5
8
9
9
9
12
8
8
11
2
9
10
6
9
4
7
6
5
11
15
13
10
8
12
15
10
8
2
8
8
13
6
6
8
10
10
6
8
7
7
13
4
12
10
6
5
5
9
9
12
10
6
5
8
4
4
9
5
6
9
8
14
9
16
6
11
6
11
8
7
14
11
6
8
15
11
9
9
10
5
10
7
13
2
7
12
7
12
12
8
11
7
10
4
9
14
12
9
8
8
9
8
10
10
7
8
12
7
14
11
8
4
16
5
9
6
5
8
3
7
7
15
6
8
7
8
9
8
3
6
9
9
9
5
4
4
8
9
4
7
2
7
11
5
10
11
12
9
7
6
7
5
9
10
8
10
11
10
6
3
7
9
6
7
9
6
8
10
14
3
9
8
9
8
4
8
7
7
7
5
10
12
13
10
10
12
13
10
6
8
10
8
8
10
9
13
5
11
6
10
9
6
8
11
7
5
7
9
6
9
6
6
11
10
15
6
15
5
5
7
12
8
6
5
4
7
7
8
6
9
2
14
6
10
10
14
13
13
8
4
11
12
12
7
0
13
7
11
16
7
4
2
11
8
5
10
3
5
13
10
7
11
11
7
10
3
11
12
6
14
9
16
7
14
8
7
9
4
14
9
8
11
7
8
4
10
10
7
4
13
12
10
4
14
12
8
9
11
8
11
12
3
3
9
6
8
13
4
9
7
8
11
10
6
6
8
4
