7
8
2
5
42
170
397
457
463
472
459
482
443
397
422
399
370
405
395
374
363
366
331
345
321
309
336
333
277
317
301
304
253
263
291
295
275
274
279
236
279
265
210
248
234
228
235
217
212
221
219
213
180
183
226
199
202
209
190
194
175
173
188
176
190
187
161
170
176
169
173
154
174
164
155
161
157
171
164
171
162
170
162
166
144
151
164
160
126
128
170
143
141
156
125
150
151
162
161
137
152
124
133
164
145
146
132
142
153
104
140
142
148
130
128
123
141
150
112
112
140
152
147
126
130
149
140
128
134
130
135
113
140
141
125
123
125
123
127
115
116
111
114
116
141
123
107
125
138
126
115
125
132
149
136
128
113
135
128
146
125
117
117
130
114
115
134
119
127
135
133
122
130
126
130
105
131
126
121
137
128
119
121
138
123
128
125
133
121
134
134
137
116
127
135
110
127
149
133
127
128
120
115
134
105
126
126
124
132
114
131
99
129
126
122
127
113
111
131
106
117
126
111
118
134
145
123
130
139
124
127
111
124
132
123
138
115
124
132
132
124
146
137
123
150
114
123
146
120
147
112
107
114
125
124
126
124
123
120
134
139
108
122
110
122
120
121
128
125
120
99
130
122
128
133
140
138
120
124
130
118
129
135
125
126
116
126
110
107
138
137
114
101
109
130
124
111
126
125
129
144
103
120
119
124
126
129
125
133
133
113
113
123
136
123
139
118
140
132
124
130
103
133
130
112
124
133
108
101
120
127
101
128
130
116
119
112
129
133
114
111
131
137
108
110
117
112
117
120
124
135
121
93
126
128
129
120
135
127
110
120
122
137
127
117
106
122
116
122
130
127
125
115
128
123
138
121
132
140
120
125
112
139
134
115
110
115
122
130
128
101
126
98
125
115
113
106
124
109
110
104
111
116
139
124
135
122
114
120
127
136
114
112
115
116
135
139
112
138
108
130
121
98
134
116
129
129
119
109
130
122
131
130
132
112
114
112
123
120
118
99
101
126
117
131
111
125
106
125
130
111
114
145
112
135
136
127
121
114
121
124
114
115
114
105
149
130
133
103
128
141
112
130
132
129
108
146
133
114
125
109
128
105
121
133
140
137
96
113
111
135
138
120
115
138
126
104
121
109
112
107
134
121
115
145
117
118
111
111
128
123
127
124
107
116
119
147
101
119
132
131
120
114
100
128
127
111
129
128
125
118
126
124
130
121
131
123
139
124
112
125
132
125
105
133
111
111
127
124
131
133
128
117
124
113
135
133
135
101
99
115
109
112
120
124
132
125
117
98
99
110
126
106
124
111
111
87
132
121
126
108
129
114
122
116
117
121
133
124
137
129
142
132
107
129
122
109
106
113
117
134
112
129
108
117
142
126
115
114
114
103
143
115
111
133
135
127
127
140
118
132
120
128
124
118
111
103
136
114
112
115
122
121
118
112
143
131
137
127
131
113
113
145
128
132
123
117
126
118
134
105
111
118
133
137
129
122
135
127
133
125
109
137
140
111
123
112
118
129
129
137
133
118
127
120
117
106
120
128
136
126
117
111
137
122
136
128
114
111
125
100
103
133
134
118
123
135
123
103
115
123
96
44
15
7
6
5
7
9
12
9
7
8
14
7
7
12
5
6
4
6
12
10
6
6
3
7
10
6
8
9
4
10
10
9
6
5
6
7
11
2
6
8
9
8
12
9
6
7
9
8
10
13
10
10
8
6
3
9
4
8
8
7
6
12
6
8
12
12
13
7
12
11
6
11
10
13
5
6
4
10
5
8
10
8
10
8
9
6
4
5
3
8
7
8
11
14
6
9
4
6
7
7
13
9
8
6
8
8
15
4
9
10
12
12
8
10
7
0
11
10
12
5
7
8
5
5
11
6
5
9
6
8
3
6
7
8
14
10
11
6
7
9
12
11
12
6
14
8
12
6
9
6
7
10
15
10
1
5
6
10
9
6
9
8
11
4
15
9
10
5
8
6
12
10
4
11
9
10
13
6
9
9
11
5
8
8
7
5
12
9
14
9
16
10
5
10
10
7
6
8
8
3
6
8
13
10
12
9
7
7
6
9
15
10
9
5
5
10
6
11
7
9
4
6
4
8
8
10
9
10
13
13
10
7
8
8
6
12
10
9
11
11
10
12
5
11
7
10
12
8
4
7
4
7
4
13
10
15
13
7
9
5
6
7
7
6
6
9
4
10
7
7
10
11
7
8
9
8
8
4
5
10
10
7
6
8
13
8
2
4
11
4
4
12
8
8
11
11
8
12
8
11
11
9
13
3
4
4
4
9
12
6
11
6
3
9
10
8
5
6
8
6
8
4
8
8
8
9
7
9
7
9
11
6
7
5
9
11
9
7
7
4
5
9
7
10
12
7
10
11
9
10
8
8
6
13
9
4
7
5
5
12
9
5
15
5
3
6
10
1
8
8
4
4
5
3
7
5
10
8
10
6
6
2
9
12
6
6
10
8
1
10
10
9
5
7
13
12
8
4
11
11
8
8
7
12
10
11
5
6
10
5
8
4
11
4
9
6
6
7
9
12
4
8
6
7
6
7
8
6
4
6
5
2
14
3
6
6
9
9
7
9
7
7
8
3
6
12
6
7
5
14
8
5
14
4
5
7
7
9
2
9
4
4
11
6
6
7
12
6
6
8
8
8
9
11
10
3
6
10
7
7
6
7
5
10
10
10
6
7
7
7
8
7
4
11
8
5
13
9
4
14
11
9
8
5
8
8
9
14
7
8
15
3
7
5
3
10
8
9
7
6
7
10
10
8
5
8
10
8
10
13
8
4
4
7
8
12
9
10
7
5
8
8
5
12
6
7
8
4
8
10
14
7
8
10
13
8
10
6
7
14
6
6
7
8
15
8
14
8
9
7
9
4
7
3
9
5
10
7
14
6
6
9
10
5
6
10
3
6
16
6
7
7
5
12
6
16
10
11
9
3
7
10
5
17
3
8
8
14
7
8
10
5
3
9
2
9
7
7
8
7
4
5
8
5
13
12
9
3
9
7
2
7
6
4
7
7
9
6
7
6
14
5
11
7
6
6
10
10
8
5
11
10
4
6
6
7
8
14
9
13
6
8
6
9
12
8
5
8
9
11
11
4
9
8
9
11
7
8
6
9
9
5
10
9
6
5
9
9
10
9
4
7
5
6
7
4
8
7
5
8
10
15
10
5
12
8
6
7
8
12
15
10
7
5
7
8
4
13
11
7
14
7
8
10
5
9
8
8
9
7
6
10
13
3
7
10
9
11
5
6
12
5
8
10
10
5
7
14
4
7
6
7
10
13
5
10
13
6
7
10
11
14
4
10
10
6
6
6
10
9
7
6
9
12
10
10
6
10
5
5
12
3
9
10
10
4
7
6
12
9
14
9
5
8
9
11
7
10
8
18
5
11
8
5
6
1
14
8
5
7
11
8
12
4
7
6
8
9
6
8
6
8
9
3
8
11
11
9
6
10
15
7
4
3
10
9
7
9
12
7
2
12
6
9
7
11
11
9
7
7
7
6
5
6
10
5
10
7
13
7
13
6
8
5
6
12
7
7
4
3
8
13
5
5
7
12
5
11
10
10
8
8
9
13
10
8
4
4
5
9
6
6
7
7
12
8
4
9
8
12
19
6
6
10
7
13
9
9
10
14
9
12
6
8
12
3
9
6
8
6
3
8
7
8
5
5
5
7
11
5
7
9
4
4
7
11
10
8
5
3
5
7
4
13
9
9
10
6
9
10
5
3
10
9
11
11
7
9
7
11
14
12
9
3
7
8
5
7
9
4
8
7
7
9
5
12
11
9
7
9
12
6
10
4
6
4
6
11
10
14
8
9
7
10
10
14
8
8
9
7
7
8
11
12
6
6
6
10
12
8
7
8
10
11
11
12
10
12
10
6
13
6
9
9
6
13
6
6
5
2
12
11
10
6
10
17
11
17
8
7
9
6
10
8
25
256
592
838
853
808
776
723
719
697
631
639
620
593
567
486
528
506
501
438
444
408
425
432
410
358
356
341
341
339
293
320
344
275
301
286
272
282
240
254
251
240
263
247
222
224
233
197
217
202
211
204
196
214
221
180
204
185
186
205
206
162
182
162
186
192
179
193
177
169
141
170
161
150
156
157
148
183
128
156
139
142
161
160
176
161
170
140
162
161
151
141
166
155
155
131
171
151
170
161
142
141
140
154
142
145
157
132
151
142
185
118
140
144
150
149
136
136
144
162
147
145
148
165
149
138
160
155
135
151
145
152
148
135
143
146
145
133
166
146
160
162
154
172
134
143
128
167
145
141
149
140
142
156
152
131
162
141
137
135
122
142
176
130
133
155
147
144
164
156
154
156
125
159
160
154
147
140
173
133
149
163
135
146
152
143
125
156
136
148
162
149
148
118
135
131
134
138
141
147
160
146
141
144
155
158
146
131
133
164
161
147
155
144
145
162
150
158
154
149
139
164
138
166
119
140
148
167
136
153
137
134
144
146
136
151
132
144
150
147
154
156
131
139
148
133
161
145
147
148
159
153
133
147
122
144
145
152
172
151
162
152
145
130
141
142
159
152
159
148
129
147
152
161
152
182
150
153
161
161
151
173
136
142
162
143
146
158
160
168
148
148
148
129
152
130
131
163
141
167
153
156
136
162
156
142
136
153
167
156
163
147
135
125
139
144
123
163
136
160
148
153
150
139
136
146
172
152
137
146
158
148
146
132
139
121
151
165
147
139
132
143
131
147
142
157
141
133
153
139
149
144
169
142
130
154
154
145
154
155
136
143
136
129
157
142
142
126
144
149
155
132
146
143
136
153
143
155
127
138
133
156
126
156
132
124
162
135
137
171
149
157
139
135
134
168
149
153
144
152
128
147
123
135
152
142
148
148
157
148
170
147
165
171
145
159
140
131
140
146
145
167
137
159
151
148
136
146
146
158
143
147
144
152
141
135
115
136
162
154
142
165
141
147
149
154
149
150
167
144
146
161
157
127
145
141
153
132
127
148
143
170
139
158
171
156
155
137
156
131
156
145
134
151
138
139
146
161
169
140
162
156
130
151
160
142
166
134
133
151
142
168
127
142
151
139
164
140
138
143
163
133
153
150
132
138
141
132
151
138
134
131
159
151
149
136
128
161
164
120
143
150
144
157
133
141
140
139
134
155
132
145
149
154
160
132
163
143
149
159
148
147
133
130
157
132
150
165
139
143
170
138
163
167
126
149
139
147
171
153
155
144
141
112
155
153
140
129
139
153
147
154
154
113
169
140
115
151
141
140
158
117
155
151
153
165
122
134
168
161
139
160
138
115
153
151
142
142
151
149
142
133
137
139
151
166
156
129
131
133
146
143
157
141
154
143
130
158
146
150
151
155
146
134
159
152
128
161
147
124
162
136
129
129
134
144
152
154
149
155
165
158
153
145
143
134
159
133
147
149
145
142
159
137
126
165
107
151
141
154
133
163
147
161
129
149
147
147
140
141
148
140
167
138
144
140
150
146
156
157
157
149
169
162
166
159
153
145
166
148
141
145
136
134
145
150
158
120
84
33
11
6
6
8
13
8
8
7
12
8
5
12
4
11
11
7
8
10
6
5
10
7
8
12
9
9
8
6
6
5
6
11
8
6
10
6
19
5
9
6
7
7
9
5
12
9
8
8
13
5
8
8
8
8
6
5
16
11
11
11
10
7
8
9
8
6
12
5
8
13
10
9
7
11
7
6
6
10
8
6
7
13
3
6
8
8
11
14
10
7
16
9
14
8
7
10
10
5
11
3
9
9
16
10
8
7
5
4
13
8
12
6
5
7
9
10
9
13
9
13
3
7
4
1
0
9
10
6
10
6
13
10
13
6
10
1
9
6
11
7
8
5
6
8
7
9
11
9
7
6
7
8
7
10
4
12
8
12
10
16
7
8
10
6
4
3
15
7
10
9
8
9
8
12
5
11
17
7
10
12
9
9
15
10
9
3
7
13
5
5
4
7
6
7
6
13
6
8
5
15
8
13
11
8
8
7
5
12
11
18
9
10
9
5
8
5
7
12
8
7
9
10
20
13
4
6
13
8
4
6
7
15
10
6
11
11
14
5
6
7
5
9
6
4
6
4
6
6
8
10
3
6
8
8
8
9
10
4
5
10
11
11
7
4
12
7
10
4
14
8
5
7
8
6
12
7
10
14
7
4
8
6
11
6
10
9
10
6
5
5
6
8
10
7
10
13
15
4
11
4
9
4
10
6
11
8
5
10
8
7
10
10
7
13
9
7
14
4
11
8
6
13
11
4
12
18
7
7
11
7
5
14
9
12
8
9
4
6
7
4
11
8
5
3
10
8
6
8
5
9
7
6
10
11
10
12
8
5
5
6
9
13
10
5
4
12
10
7
10
8
6
10
4
6
5
11
6
6
6
11
10
3
4
10
4
4
4
8
7
7
15
6
8
8
5
8
7
15
10
7
7
6
6
4
9
11
10
11
7
4
7
7
15
5
11
3
10
9
8
8
9
2
8
6
7
8
14
7
11
13
8
7
10
9
5
4
3
12
8
3
8
11
3
10
2
4
9
10
8
8
9
12
9
7
8
6
7
10
8
7
17
6
5
9
10
14
7
11
7
8
10
5
6
4
10
8
10
7
9
8
7
3
9
9
8
8
4
3
10
6
12
10
9
8
4
6
13
8
9
13
5
3
10
9
13
9
9
6
9
7
7
4
7
4
5
7
5
8
5
5
12
12
9
6
6
8
3
11
7
7
6
6
7
8
6
9
11
4
9
5
9
9
10
10
5
5
11
10
12
9
8
8
11
7
8
13
10
6
10
13
8
13
12
8
11
5
7
3
7
7
10
3
11
11
8
4
7
6
9
9
6
8
8
8
4
3
6
12
7
15
14
11
9
9
4
9
5
12
8
9
8
9
5
11
7
10
7
11
6
7
6
8
9
8
10
9
10
12
4
6
9
18
7
9
8
8
11
5
6
6
5
16
12
8
6
7
4
6
8
7
6
10
4
9
10
6
7
6
2
11
15
8
5
12
7
7
11
11
4
8
4
6
5
5
7
6
5
8
6
8
6
5
8
6
8
9
2
9
8
6
9
12
9
10
7
10
9
9
9
7
9
6
5
9
7
8
9
3
5
10
6
14
4
16
2
4
10
13
10
5
11
13
6
9
6
9
10
5
9
10
7
7
8
8
8
8
6
8
12
9
8
8
5
4
8
6
7
4
9
5
2
6
12
11
11
10
6
7
11
10
15
7
7
9
8
6
4
5
8
10
9
6
7
5
9
6
13
9
7
5
7
3
7
9
7
5
12
6
11
10
4
9
11
9
5
6
11
10
9
10
8
7
9
2
4
7
9
11
12
6
4
5
7
11
8
7
5
5
8
6
7
5
6
9
5
9
2
18
9
11
3
9
3
10
6
9
6
10
10
11
9
9
7
4
11
11
10
9
13
6
3
6
5
10
7
6
11
4
9
7
10
14
4
9
3
6
11
9
13
5
6
9
4
10
8
12
11
5
3
5
7
5
10
9
9
7
7
4
8
7
11
8
6
7
8
11
10
11
10
9
9
7
6
10
12
11
11
8
12
12
9
9
6
6
10
8
5
10
6
5
8
2
12
8
6
8
5
6
4
15
8
11
9
7
11
6
3
6
12
8
13
9
5
6
8
11
9
5
9
10
6
4
6
6
10
10
5
3
5
7
5
9
12
15
8
12
9
4
10
13
10
6
3
11
4
9
8
8
11
3
10
7
8
6
3
9
7
11
6
11
8
9
6
6
13
8
3
11
8
6
9
17
10
6
7
15
6
3
7
7
4
9
12
12
12
1
4
10
2
9
11
8
6
5
8
11
6
8
6
8
6
8
8
6
9
6
8
9
9
5
12
2
7
8
5
8
8
11
5
6
7
9
7
31
222
761
1048
1146
1149
1049
938
962
830
842
782
729
677
600
598
590
593
487
489
454
444
444
411
345
375
361
339
343
291
305
296
256
261
265
283
274
241
246
217
235
222
245
225
226
203
207
213
190
195
208
204
209
201
195
191
188
181
190
175
172
182
189
185
176
177
170
183
152
162
177
173
192
159
178
176
179
186
162
175
177
170
165
172
167
182
153
149
161
165
174
169
180
190
197
157
157
163
170
154
158
157
164
151
162
166
167
176
146
165
167
167
163
145
164
178
163
148
184
161
151
174
163
173
140
171
178
148
185
181
150
179
145
158
192
157
154
157
168
154
170
156
155
173
164
146
153
145
143
180
185
162
167
168
152
156
181
171
188
152
151
177
156
159
171
168
170
143
175
179
172
169
137
181
182
161
171
175
171
168
159
171
158
147
165
171
162
170
131
188
195
201
156
161
142
162
177
142
164
162
166
184
190
189
165
176
172
171
166
135
181
175
152
149
159
163
139
145
146
170
166
174
158
147
147
171
150
172
187
173
168
155
171
163
165
156
169
165
177
164
164
167
170
149
170
154
142
152
188
155
162
172
144
160
160
173
164
157
167
163
157
172
164
172
192
157
146
133
181
156
177
162
150
169
145
153
159
150
169
168
154
173
171
138
163
160
177
143
151
182
160
184
161
183
167
160
174
150
162
165
153
184
174
179
161
161
182
163
175
187
170
153
173
129
153
166
162
172
176
156
164
133
179
168
172
163
158
176
178
156
161
147
176
178
155
193
175
149
158
161
170
170
185
149
145
156
179
169
148
163
170
175
161
170
190
177
187
160
168
153
163
163
157
169
179
190
162
157
161
184
158
163
166
147
165
166
189
174
155
173
172
161
159
169
183
179
149
159
164
186
154
158
158
135
168
149
183
152
154
151
160
150
158
168
157
157
179
148
186
164
157
156
174
193
151
166
158
178
162
192
184
148
147
180
168
165
158
179
153
171
172
161
158
172
159
172
161
163
158
184
169
179
162
176
154
155
170
165
157
150
181
170
133
159
169
160
170
179
156
158
157
189
155
182
159
160
152
153
173
179
161
164
146
164
160
177
176
157
145
160
173
162
137
166
175
203
153
164
154
177
167
153
177
173
155
149
179
137
153
138
157
159
186
173
187
148
153
165
155
155
143
170
148
170
185
155
174
179
144
162
171
159
157
174
149
149
180
177
147
144
154
134
185
153
180
176
136
158
157
144
154
171
156
188
154
134
169
169
165
146
151
168
168
145
159
158
174
178
148
145
171
154
166
145
160
160
155
173
170
158
162
153
165
162
132
154
150
153
176
163
176
143
156
154
157
157
181
177
176
156
166
164
153
157
169
169
174
163
164
161
161
182
180
164
163
119
158
157
138
139
156
158
147
146
177
156
171
155
184
149
165
164
164
181
125
170
167
173
174
165
169
175
178
183
146
186
185
182
136
152
169
152
156
154
168
157
179
155
160
146
165
157
182
167
146
166
159
181
164
172
160
163
173
187
173
151
168
169
145
164
151
154
158
148
164
137
161
171
158
151
174
155
162
153
146
166
167
164
159
160
166
133
151
172
150
171
154
130
93
31
14
5
10
8
11
3
14
11
9
7
10
10
6
4
7
7
14
8
12
9
7
14
7
9
11
4
12
12
7
5
10
6
11
9
12
11
11
12
13
13
11
9
5
9
10
7
7
6
10
9
7
7
3
12
13
9
8
9
10
4
6
2
14
10
9
12
9
6
7
11
9
10
3
7
6
8
13
7
10
7
6
11
8
15
9
8
11
8
9
6
4
7
9
9
13
8
4
5
8
7
10
11
5
10
7
10
8
13
8
10
5
5
10
8
4
7
8
14
13
13
11
8
6
12
7
8
6
3
8
4
7
16
5
10
7
7
9
7
8
6
12
6
13
7
8
9
9
12
9
7
6
14
12
9
15
7
6
20
12
9
3
10
9
9
3
7
8
10
7
8
16
6
5
7
8
15
6
8
6
9
10
3
10
7
5
10
8
8
3
6
6
3
10
7
10
7
12
5
12
8
13
10
11
9
4
9
10
7
11
9
13
9
10
7
8
13
11
5
7
7
7
7
8
5
6
12
9
10
5
10
9
9
11
6
8
9
8
8
11
10
11
6
11
7
10
10
4
8
9
8
8
12
7
11
9
3
9
8
10
9
8
4
12
11
8
5
6
6
7
9
9
9
10
4
9
13
8
7
13
7
9
11
7
14
4
10
7
7
11
2
11
4
9
6
7
2
8
12
8
6
7
7
9
8
7
4
9
9
7
16
9
7
6
9
14
7
9
9
8
12
6
13
8
9
7
4
5
11
17
8
7
6
11
9
3
10
11
14
8
9
4
8
7
11
7
9
12
5
10
6
3
7
12
7
11
8
8
10
9
8
6
9
7
6
6
7
8
5
4
9
8
8
9
10
6
10
10
8
6
3
3
9
7
11
8
11
10
7
8
5
5
10
8
9
7
12
12
6
12
10
4
7
11
12
11
5
9
8
11
7
5
8
7
9
6
5
10
8
12
5
1
6
14
11
10
8
5
8
8
7
5
6
7
13
8
9
7
8
4
10
5
12
9
7
9
9
6
7
7
7
7
14
13
10
9
3
8
5
6
8
12
7
15
11
5
9
7
11
7
9
7
8
5
7
2
9
10
6
8
9
12
4
7
7
8
11
13
5
9
4
11
12
12
7
3
5
12
9
6
7
5
6
10
4
14
6
7
9
13
7
4
4
5
11
7
12
6
9
10
4
10
15
7
11
9
4
7
6
11
11
6
8
10
8
11
9
9
3
13
5
11
7
14
13
8
2
13
10
7
8
12
7
7
10
9
10
7
7
7
7
4
7
5
8
9
8
9
12
8
9
10
14
3
4
6
7
10
11
11
8
7
10
4
13
9
5
10
9
8
8
7
10
9
11
14
7
5
6
5
12
5
10
9
4
12
12
7
8
8
10
8
7
8
7
11
8
5
8
11
7
9
8
8
4
5
7
15
5
9
12
7
4
10
9
3
9
4
10
10
12
7
11
10
9
11
11
9
4
3
6
7
8
15
6
9
11
7
9
9
11
8
9
10
7
8
11
8
8
11
5
12
4
8
2
5
12
5
11
7
11
4
13
6
6
4
15
5
10
9
5
10
9
10
7
13
4
9
13
9
9
8
6
8
6
12
7
7
6
10
7
11
5
10
7
5
9
5
9
14
18
10
13
11
11
6
12
8
5
7
11
12
6
5
6
4
6
7
10
10
10
7
14
4
5
9
10
6
13
5
6
5
10
9
8
7
13
4
15
13
9
4
8
7
5
15
8
10
13
11
11
10
8
9
15
7
8
8
3
6
5
14
12
15
14
6
8
6
7
8
3
6
1
7
7
6
9
13
9
12
9
8
7
7
4
9
7
13
10
9
6
15
6
6
6
4
5
4
7
3
12
12
12
8
8
9
6
13
11
11
7
11
5
3
8
4
6
7
8
8
9
11
6
11
7
7
10
2
7
4
9
4
8
10
9
11
8
10
9
9
7
12
3
7
3
13
6
6
9
6
3
6
9
5
9
13
8
9
11
7
5
7
8
13
3
5
15
6
12
12
4
5
8
6
5
7
9
7
8
12
7
6
7
8
5
4
8
6
4
8
7
13
7
6
7
7
9
3
9
5
5
4
8
7
7
8
9
8
6
6
7
5
4
5
7
6
8
7
4
7
3
10
12
8
5
12
10
10
6
7
7
7
4
8
8
6
7
8
6
8
5
6
11
10
10
10
6
7
11
6
6
10
10
7
11
11
7
6
4
7
4
5
10
9
7
9
9
10
11
9
6
8
8
4
9
10
10
7
6
8
6
9
11
4
12
8
6
10
9
6
7
11
5
8
4
5
9
8
6
9
5
4
4
8
6
9
9
8
9
4
11
7
6
10
9
5
10
11
4
9
8
3
8
13
14
163
816
1368
1481
1397
1214
1179
1091
978
896
882
830
758
703
647
573
538
543
535
465
432
400
384
347
383
328
332
297
326
274
292
276
277
259
243
269
256
229
225
201
206
196
224
206
215
211
209
214
162
197
197
183
214
203
184
191
187
178
186
200
183
178
202
183
198
206
200
167
213
185
211
203
176
202
186
172
171
180
162
190
195
188
179
176
181
198
209
174
181
170
184
177
178
197
180
174
167
180
191
168
179
192
169
187
198
169
180
151
185
194
192
187
172
177
204
192
177
212
196
162
188
186
199
179
188
170
159
191
197
161
178
202
165
175
157
173
172
180
186
183
188
212
164
208
183
217
190
185
186
185
159
178
180
166
179
187
184
173
189
167
175
193
164
178
177
150
162
205
170
202
187
166
171
171
162
149
207
185
181
192
199
197
165
186
174
174
189
163
163
169
179
182
218
180
181
188
180
189
192
212
200
183
166
181
164
169
184
191
191
166
184
169
182
202
179
195
170
180
182
178
175
189
196
195
167
174
173
167
194
173
180
188
180
154
161
186
172
160
173
168
181
185
166
182
195
165
187
193
183
159
181
182
179
172
189
182
154
165
185
194
187
168
204
170
210
183
175
163
166
189
163
181
188
185
205
200
180
199
181
176
161
195
169
181
185
190
174
167
162
182
187
191
193
180
193
173
167
172
204
185
209
181
193
184
187
186
190
161
172
172
170
168
173
179
174
181
170
175
164
184
160
170
193
193
184
181
176
195
142
166
182
172
184
139
192
181
181
177
163
176
163
196
175
175
176
180
191
186
197
175
153
186
186
183
164
172
190
194
170
170
179
214
184
164
202
174
197
167
203
185
154
156
168
206
186
171
196
154
156
202
181
141
178
162
164
160
173
189
178
179
152
172
165
185
184
176
198
195
176
167
178
209
174
183
188
184
152
192
201
179
185
186
180
202
180
186
173
200
177
192
178
163
189
188
183
173
191
175
186
177
176
185
150
200
173
165
181
166
154
186
166
176
193
163
164
186
176
174
170
178
181
187
160
161
182
172
178
174
185
175
175
175
161
192
155
144
162
179
184
173
182
164
186
185
171
204
180
180
201
183
174
190
195
189
157
159
178
174
202
169
203
160
173
167
180
188
191
189
170
149
196
196
171
189
183
198
171
187
175
204
186
198
186
185
176
189
172
175
184
171
197
209
189
199
188
171
164
176
177
199
195
176
171
158
197
179
179
168
177
192
180
180
200
196
192
181
197
162
178
137
177
183
185
162
178
191
179
194
185
188
174
167
170
166
175
179
183
198
183
206
173
162
173
188
194
156
180
175
182
162
196
172
186
166
190
154
183
198
175
180
153
176
183
164
170
168
188
188
152
182
192
192
162
172
179
195
194
173
166
193
175
172
188
175
189
174
186
160
192
182
182
170
195
191
185
187
173
184
183
165
172
186
207
191
180
185
186
167
170
201
179
164
192
189
198
176
185
168
185
159
199
165
161
203
184
203
173
187
200
169
167
189
172
185
186
199
165
176
192
171
190
183
192
171
181
184
174
166
170
154
179
181
169
170
173
196
189
194
159
190
172
173
180
174
187
183
183
123
58
13
10
10
9
7
14
12
7
10
10
12
7
7
8
9
12
12
8
11
11
4
10
1
8
8
8
6
3
6
11
11
7
8
9
5
8
11
13
9
7
10
7
9
7
12
8
12
9
5
9
12
10
10
4
6
10
5
13
10
13
4
8
8
10
8
6
12
8
11
12
4
11
9
10
11
9
12
3
8
10
14
12
6
8
11
11
11
9
11
10
6
8
9
12
6
14
11
7
13
6
5
11
7
15
4
12
8
12
8
11
10
7
4
11
8
6
1
12
12
11
10
6
2
16
9
12
14
6
12
11
8
7
9
4
13
6
5
10
12
7
7
8
6
12
9
9
8
10
9
5
12
6
12
11
11
8
12
8
9
13
7
6
7
9
11
6
7
9
11
7
6
10
11
8
5
10
6
9
7
7
8
9
6
8
5
7
17
10
4
6
6
8
8
12
6
9
6
8
8
8
16
8
11
8
4
6
8
8
7
8
13
11
6
6
7
19
7
8
7
13
12
8
10
14
8
4
5
6
9
6
8
3
7
11
5
10
9
5
12
8
8
6
3
7
4
7
5
7
10
6
6
5
7
9
9
6
7
5
6
10
5
11
9
11
8
4
7
11
8
9
11
7
8
14
6
13
5
14
14
5
7
9
9
9
10
7
10
10
6
10
12
10
9
9
7
8
6
8
9
9
13
9
9
8
10
4
6
9
15
1
8
11
13
7
11
11
13
7
5
10
5
9
9
13
9
9
6
3
6
3
9
9
12
9
11
11
5
9
2
6
6
7
10
13
7
8
11
9
5
10
10
12
6
7
5
9
15
15
8
8
10
8
11
11
10
7
11
12
6
8
7
7
5
7
11
8
4
3
10
5
12
5
5
3
12
9
11
9
11
6
11
13
9
5
7
9
10
8
12
8
5
9
8
9
9
7
9
7
2
8
13
5
9
8
6
9
5
6
10
8
10
13
9
7
12
7
7
10
9
3
10
11
17
5
3
11
10
9
6
5
10
3
5
5
13
9
14
16
15
10
8
8
8
7
10
7
7
11
6
11
5
8
8
15
20
8
6
11
10
9
5
6
8
9
6
12
9
12
7
12
10
6
7
4
9
1
5
7
5
13
8
10
13
5
11
13
8
3
11
10
5
11
8
8
9
6
10
8
5
8
9
6
12
9
7
7
4
8
12
9
10
8
13
6
13
10
10
7
7
8
6
4
10
6
9
6
5
6
5
5
12
9
7
8
8
8
8
8
10
10
9
9
9
5
6
9
6
10
6
4
10
7
6
10
7
8
4
10
4
3
4
7
12
7
14
5
5
6
10
10
7
5
5
8
5
5
9
7
8
7
10
12
4
7
5
9
12
5
9
9
4
10
8
7
7
9
10
13
5
6
12
5
11
6
7
6
7
10
8
6
14
9
8
8
7
7
3
11
7
11
8
9
3
12
4
9
3
9
7
16
4
11
14
10
11
6
7
9
8
6
3
10
3
10
7
12
7
10
8
4
11
3
9
12
9
13
5
9
8
9
11
7
8
4
7
10
11
14
10
10
6
10
8
9
9
6
8
8
10
10
6
4
7
6
11
15
9
6
8
9
10
9
6
7
12
13
6
6
8
4
6
9
10
7
7
9
11
9
9
7
5
10
8
8
6
6
6
6
12
11
8
7
9
6
6
4
6
5
12
8
9
9
8
8
7
12
7
7
5
6
6
7
9
7
8
9
8
11
8
4
3
6
10
10
12
13
10
4
11
10
5
9
12
7
6
7
7
10
5
6
8
6
5
7
5
7
10
8
10
8
7
2
3
13
14
5
7
12
4
12
8
11
17
7
11
8
9
6
9
11
9
12
7
7
16
7
9
7
10
5
6
4
8
6
5
12
11
8
9
8
12
8
3
8
9
8
9
9
8
5
9
8
9
3
9
11
8
7
9
10
8
10
9
8
11
9
5
9
7
14
8
11
10
4
9
6
16
10
7
10
9
10
9
10
11
7
10
5
6
6
11
10
8
14
9
9
7
10
6
8
15
5
7
9
6
6
8
11
8
9
8
5
13
4
6
15
8
8
6
9
11
7
8
10
8
9
7
8
7
8
4
12
10
10
11
9
7
7
15
8
2
3
10
7
6
2
11
7
7
6
8
8
9
9
7
9
14
13
5
8
6
8
9
7
7
9
13
7
6
7
3
11
7
6
6
10
7
16
11
5
8
8
3
15
7
9
9
7
10
7
8
5
11
7
9
9
7
6
9
10
7
10
16
6
6
6
9
7
7
10
9
15
5
9
6
9
8
5
7
13
6
9
10
9
9
8
10
10
7
10
9
8
6
6
4
6
13
6
4
6
6
5
5
8
6
10
8
5
9
10
3
7
7
11
10
4
6
8
6
6
7
15
11
6
5
5
9
9
7
10
9
7
10
6
8
12
9
