5
12
11
8
21
129
258
339
326
334
323
311
309
310
386
332
323
315
309
288
307
331
292
291
318
284
275
299
270
270
300
276
291
279
282
274
273
248
244
252
248
245
226
248
222
225
241
251
256
218
264
233
218
231
217
190
221
212
207
242
226
219
192
217
196
214
215
219
195
195
228
196
184
215
184
221
190
179
198
210
179
201
182
178
196
187
197
191
197
202
204
168
193
191
156
176
173
199
192
178
175
168
173
189
179
179
166
140
184
159
183
184
182
169
161
148
147
169
149
157
157
157
162
140
182
183
154
170
147
148
155
186
155
155
147
153
167
171
128
161
148
132
173
161
138
153
150
149
129
148
165
158
149
150
150
156
124
142
162
161
164
134
155
153
172
162
148
158
157
156
152
167
138
130
152
154
145
146
156
151
155
155
149
146
155
145
151
148
159
158
131
173
133
157
134
128
146
135
144
141
146
154
132
124
150
144
158
150
143
140
138
142
131
157
142
133
159
131
154
139
144
133
155
153
141
135
147
125
157
168
144
155
153
143
144
149
148
141
164
146
146
138
141
143
136
134
142
136
130
135
137
125
134
129
122
132
137
128
150
153
141
154
147
120
130
148
139
148
141
136
136
138
146
161
157
128
153
120
153
141
137
122
142
145
145
145
134
154
150
145
167
132
132
131
118
154
149
156
136
129
120
147
147
173
145
148
134
133
127
127
139
131
141
141
123
122
120
129
135
145
120
137
162
154
126
127
130
142
119
129
149
144
141
133
136
155
153
129
127
132
133
130
145
128
136
133
126
134
138
144
144
145
154
136
131
147
146
138
125
134
113
134
126
130
146
128
137
133
139
150
126
148
156
116
161
128
132
142
138
136
125
126
137
136
137
118
150
135
140
133
125
146
133
152
117
119
128
127
149
145
131
158
138
148
133
147
117
135
118
123
133
132
130
131
142
113
148
161
126
129
125
142
117
133
121
133
147
124
160
120
123
131
119
126
134
126
119
131
144
124
117
128
133
161
131
133
141
133
164
155
136
136
140
132
122
149
133
152
130
136
136
133
129
136
126
139
131
136
150
136
146
155
143
146
142
130
142
144
109
120
114
152
153
149
149
143
139
144
128
134
127
172
149
142
136
141
136
143
148
136
128
131
135
143
123
146
138
120
136
132
132
133
148
130
116
139
146
114
142
146
131
134
147
135
152
130
169
145
120
129
143
137
140
146
116
141
132
134
140
124
133
138
152
150
123
141
145
144
136
151
125
117
140
131
121
163
138
169
127
142
138
133
126
160
143
135
165
142
139
126
119
144
148
154
129
133
128
165
153
141
164
126
151
127
124
137
116
141
133
132
125
129
115
139
135
163
147
168
129
124
150
136
139
125
137
148
118
143
141
125
142
131
137
132
148
131
127
142
105
121
146
116
123
127
122
135
145
144
134
138
124
131
121
158
151
150
131
160
132
118
124
155
133
133
138
130
143
131
145
137
147
134
144
114
129
147
119
152
129
147
131
156
111
144
132
139
134
142
108
146
126
131
158
139
146
138
133
131
124
162
129
125
122
134
147
145
133
147
149
143
148
135
132
148
138
135
155
133
136
124
126
118
56
17
12
12
7
12
12
15
7
9
10
7
5
9
4
12
14
8
9
5
7
7
4
6
8
11
6
20
7
7
9
5
10
13
10
6
9
15
7
6
9
9
8
7
10
7
4
5
14
3
6
10
6
10
11
5
7
8
5
7
10
6
8
10
2
9
7
10
11
7
8
6
9
11
15
5
12
10
9
6
9
7
10
4
7
5
9
8
6
7
5
9
12
8
6
5
6
5
12
11
13
13
5
5
7
6
5
5
7
10
4
8
5
6
8
9
9
12
6
8
8
12
8
4
4
12
9
8
8
7
11
12
6
4
11
11
8
6
4
8
8
7
8
9
13
6
6
10
12
9
7
9
14
16
9
10
14
16
7
7
10
7
12
4
8
11
10
6
9
8
5
8
10
10
9
9
7
10
7
11
3
8
7
5
6
7
9
10
9
6
7
4
10
10
14
10
8
11
10
8
10
12
7
7
5
13
11
8
6
7
11
8
3
7
13
11
9
4
12
7
7
12
9
15
4
5
7
7
12
9
6
7
2
2
11
19
6
5
4
8
7
7
6
8
5
13
5
7
6
5
8
8
4
7
6
6
8
9
5
9
10
7
12
9
3
5
10
9
11
10
11
7
4
10
11
9
7
14
7
15
8
6
2
11
6
6
8
8
9
4
4
8
7
8
6
8
10
10
8
9
7
6
11
11
11
5
6
12
12
3
7
9
11
8
4
9
12
7
8
4
8
7
10
6
7
6
5
7
9
8
6
12
5
8
8
6
9
7
8
7
7
6
8
12
10
6
10
4
10
21
6
7
9
10
10
9
8
6
10
4
3
8
10
8
10
7
10
8
8
5
6
5
11
8
11
8
15
6
7
10
12
6
4
7
3
4
3
15
10
10
9
15
5
12
6
10
4
9
6
3
5
8
13
10
13
3
6
9
11
10
9
8
12
4
13
10
7
6
9
12
6
7
4
8
7
6
8
7
6
8
9
5
5
10
10
11
5
11
5
10
7
9
8
8
6
13
17
6
8
8
9
11
5
9
10
10
4
7
6
16
11
10
9
7
10
6
7
9
7
10
10
5
7
6
9
8
7
14
8
10
8
12
5
12
2
7
9
8
12
5
10
10
14
5
9
14
9
10
6
7
11
9
7
8
9
8
11
9
6
14
5
7
8
9
11
10
9
9
8
8
10
13
7
10
9
13
7
3
4
6
9
8
5
7
13
12
8
12
9
5
13
4
5
4
11
8
13
10
10
5
6
8
11
11
10
12
8
5
8
7
7
12
6
13
6
10
8
8
9
13
8
8
10
6
8
6
8
8
12
9
8
9
9
11
4
6
9
5
13
8
6
6
8
14
14
12
12
7
6
7
8
7
9
6
12
7
5
11
8
11
4
5
15
11
7
10
7
6
8
7
8
11
11
5
12
8
6
5
17
10
7
12
5
13
3
16
6
7
14
8
8
10
10
10
5
9
12
1
9
9
13
8
12
9
4
8
10
8
11
6
4
4
15
10
9
12
10
9
7
9
2
6
8
8
6
8
3
5
8
4
9
7
9
10
7
8
10
9
11
6
11
9
6
10
8
10
9
11
5
7
12
9
5
3
5
6
8
6
8
8
9
11
7
7
9
7
5
14
8
10
8
5
9
10
5
7
8
5
10
8
9
8
8
7
5
5
10
12
7
7
8
4
6
12
13
13
8
5
5
11
7
8
4
4
4
5
9
12
12
6
8
10
15
8
5
8
6
11
8
6
7
8
7
7
12
9
7
9
4
4
9
9
9
7
10
7
5
9
9
7
6
8
8
4
10
7
8
7
7
4
13
12
9
5
9
7
15
8
6
7
9
14
11
5
12
10
7
12
14
15
10
6
11
10
6
8
8
6
6
8
5
8
11
14
10
6
4
20
6
10
9
12
4
6
7
8
9
8
8
5
6
7
12
5
5
9
11
13
10
5
11
7
6
7
6
5
6
9
9
2
10
9
7
7
8
6
10
7
5
11
7
12
9
5
10
11
11
7
7
11
8
9
4
6
3
12
11
5
7
8
10
12
11
6
4
6
10
7
14
8
5
4
7
7
9
8
8
7
7
8
11
3
8
5
5
9
7
6
8
10
6
15
5
13
10
5
9
16
9
10
14
9
13
12
14
8
9
5
9
11
11
11
13
10
13
11
10
10
5
3
12
7
14
7
9
11
9
6
4
10
9
6
9
8
7
7
8
14
13
12
9
6
9
12
12
4
14
9
14
8
7
7
12
5
6
10
9
5
8
11
5
6
7
9
12
15
5
7
11
9
12
17
12
7
9
11
6
14
11
5
13
11
3
11
12
6
12
8
13
11
3
9
7
6
14
8
7
6
14
12
6
19
11
10
6
27
170
459
626
634
601
606
608
606
614
548
530
525
522
481
482
496
461
490
450
481
474
427
451
467
447
399
413
377
384
414
375
352
350
396
356
391
358
318
341
348
360
331
308
327
342
331
310
285
299
300
268
258
266
288
269
286
265
246
255
240
261
239
242
240
252
258
241
238
261
231
210
249
241
236
201
269
210
245
206
231
249
229
221
233
204
219
208
219
235
207
216
192
206
213
208
192
219
192
173
221
211
193
202
205
195
175
186
177
174
185
206
191
195
191
190
170
187
181
189
198
192
166
177
198
193
192
187
165
185
162
174
177
175
178
178
182
175
186
201
161
181
150
169
182
205
182
179
160
165
182
166
176
186
191
159
184
160
219
177
159
182
181
195
172
184
179
163
200
174
181
160
175
179
181
152
171
169
149
186
199
144
187
181
177
173
201
162
161
180
163
169
165
143
179
153
189
197
157
180
158
169
171
168
167
170
149
182
178
169
171
178
152
155
174
163
194
187
179
183
192
167
164
172
174
154
163
152
171
174
184
161
180
171
174
156
141
190
169
183
158
153
185
175
173
182
172
178
149
163
131
174
178
155
176
187
144
164
171
153
158
187
184
160
162
179
163
173
176
173
187
150
195
181
174
198
168
179
197
201
163
178
175
181
158
181
179
173
183
176
183
185
173
192
175
178
150
175
175
183
145
153
181
175
168
196
173
176
169
179
175
161
166
158
181
167
162
181
169
172
168
172
163
153
196
176
184
186
179
179
157
163
181
171
182
167
163
171
162
151
140
178
170
181
169
181
184
163
163
183
181
180
165
193
161
159
178
176
171
163
160
184
157
138
175
178
168
155
193
181
166
164
158
162
182
200
161
181
169
149
170
173
161
176
171
169
156
143
168
159
158
173
175
164
176
156
179
177
185
155
185
190
188
168
174
184
153
167
191
165
176
188
202
165
186
164
167
157
154
184
183
164
181
186
162
182
166
187
161
165
170
160
177
184
164
171
159
160
175
162
177
158
161
173
168
185
149
175
183
175
179
171
167
157
170
167
174
132
181
174
164
173
185
167
173
162
166
168
166
180
160
178
160
180
176
176
166
150
183
194
175
156
163
181
149
151
158
174
175
177
149
174
172
184
176
159
164
150
170
179
202
151
176
175
181
164
171
176
157
163
161
162
153
161
183
182
154
174
188
175
174
170
184
172
185
186
166
169
173
177
160
175
169
154
164
174
149
183
157
156
142
190
143
152
172
155
161
178
163
168
182
173
158
172
188
163
170
143
168
163
164
141
197
182
171
194
171
161
160
177
191
189
186
163
146
154
155
181
162
161
185
193
167
159
146
154
172
153
156
169
170
159
159
148
160
176
165
161
150
165
185
170
186
194
169
157
152
189
178
183
147
163
170
184
190
170
185
173
163
160
170
200
176
194
165
167
176
151
153
175
177
172
187
177
195
166
184
184
175
168
182
165
167
175
178
168
168
165
164
158
177
186
197
144
169
168
148
152
150
165
176
162
180
140
168
175
179
165
175
162
175
173
184
184
198
160
174
162
168
172
175
197
183
169
151
127
171
173
167
175
153
182
208
151
161
205
161
143
79
31
6
8
7
10
4
9
9
16
9
10
9
12
3
9
5
10
10
7
7
3
5
6
8
7
10
8
8
7
9
5
14
3
5
8
5
8
6
7
5
10
9
9
12
16
10
10
11
12
8
8
9
6
13
16
10
7
15
9
8
9
9
6
12
6
8
4
7
7
6
9
10
11
3
7
9
4
8
12
10
8
2
10
9
10
11
10
8
13
7
14
6
7
12
4
11
9
7
4
10
6
8
3
7
9
8
13
4
16
13
11
8
8
7
10
8
7
10
8
9
9
14
7
6
9
12
12
6
7
13
8
11
12
4
12
9
15
11
5
8
12
8
7
10
4
10
3
8
15
6
7
12
13
4
10
10
5
14
13
8
11
8
7
12
9
8
3
7
10
8
8
7
8
6
5
7
8
14
4
8
8
7
11
6
8
8
5
11
10
8
11
6
11
15
15
9
12
5
9
10
16
9
9
11
6
11
5
5
8
7
11
7
6
13
15
11
7
9
10
10
9
7
13
11
8
13
6
11
12
8
10
10
2
0
16
9
6
10
5
5
5
7
4
7
16
5
9
16
2
7
8
13
5
8
6
9
11
7
10
8
7
8
10
11
8
7
9
8
3
7
11
9
4
6
15
10
11
9
8
7
8
13
6
9
7
15
11
7
12
6
6
11
5
12
11
5
9
11
7
8
11
10
14
12
6
8
5
12
10
9
7
11
8
9
8
8
5
8
7
11
2
9
2
7
11
9
11
11
9
13
12
12
12
7
8
5
5
8
5
10
5
10
7
5
4
9
10
9
8
7
8
9
7
9
8
11
7
6
8
8
7
8
3
10
10
10
6
10
12
11
6
8
8
7
8
10
9
6
10
8
8
7
7
8
12
13
11
9
6
11
5
12
6
10
6
3
9
14
12
6
6
8
8
8
6
7
6
5
5
7
12
9
8
13
9
7
9
6
5
4
6
10
7
4
9
8
5
7
12
8
4
8
6
7
9
8
11
7
7
8
19
8
8
11
6
11
8
13
6
10
8
9
5
8
14
14
7
7
13
8
9
4
6
11
9
11
8
7
5
9
4
8
9
12
10
16
11
12
8
5
7
8
5
5
7
9
14
8
11
11
5
10
5
9
1
4
7
11
5
6
8
15
10
7
9
4
9
9
4
4
14
9
10
9
7
6
3
6
11
12
5
11
3
6
9
5
5
8
8
8
13
4
10
8
13
5
5
12
8
3
2
6
8
10
7
7
8
13
5
8
7
5
8
7
13
6
5
6
5
10
6
10
9
9
8
6
9
9
10
16
11
5
7
10
5
3
2
7
10
5
8
10
6
8
8
8
11
6
8
8
9
8
5
9
12
7
10
3
10
3
4
7
7
8
5
7
6
13
13
7
9
17
12
9
8
10
11
10
9
7
8
4
11
5
9
7
8
7
9
11
10
6
4
8
8
10
5
5
10
9
18
7
5
7
12
6
8
9
11
14
13
9
10
9
9
7
10
5
4
10
8
3
7
10
5
5
8
3
11
8
7
7
9
6
9
9
9
9
7
11
8
6
5
6
16
13
8
8
8
10
8
6
12
3
10
10
9
16
9
6
5
9
2
4
12
9
5
8
7
11
5
9
7
9
7
11
6
11
5
10
14
10
12
4
10
8
7
16
10
6
12
14
12
9
11
10
8
8
6
10
7
7
10
8
14
7
4
10
8
6
7
13
7
9
5
7
11
15
11
5
11
4
6
14
10
6
9
4
4
9
5
6
5
9
11
13
5
2
11
11
16
9
7
8
6
6
6
14
7
9
11
4
10
7
7
12
8
7
10
10
3
9
10
7
12
9
7
9
6
11
10
11
8
8
5
8
4
5
7
9
8
7
3
11
8
9
9
11
11
8
5
11
13
11
11
5
7
5
8
11
8
6
5
6
6
9
12
11
6
7
6
7
9
9
10
6
8
6
6
5
16
6
13
11
11
14
11
7
8
6
9
7
7
8
11
10
10
12
8
7
14
8
13
7
9
8
10
5
5
5
4
13
8
8
10
8
10
8
7
6
12
13
10
5
8
10
4
5
7
3
7
9
7
11
9
10
8
10
8
10
12
7
7
7
10
13
8
8
13
8
7
8
7
6
9
9
4
7
7
5
11
5
8
4
7
6
5
10
13
12
10
6
5
8
6
16
4
10
6
7
14
8
10
13
6
6
7
11
14
3
13
6
7
5
9
9
8
10
4
5
7
6
12
7
9
14
8
9
13
7
9
7
9
11
10
9
5
9
13
9
8
9
8
10
6
9
7
9
11
6
4
8
4
12
9
9
6
10
6
3
8
4
12
9
6
8
7
16
6
4
5
5
9
9
8
13
5
9
8
10
4
5
7
12
23
159
551
821
899
807
809
792
811
749
781
764
715
698
654
590
605
577
584
629
563
512
498
584
527
485
473
470
439
452
480
443
467
430
404
405
382
370
373
378
361
339
349
307
350
306
355
346
287
307
317
288
298
292
297
275
272
322
282
285
293
280
292
271
259
256
260
239
259
260
229
244
257
238
231
242
233
235
246
200
214
227
222
227
217
199
231
240
221
213
213
223
221
222
211
208
227
213
196
197
217
199
228
213
188
222
220
217
201
208
181
211
233
188
188
199
192
181
176
180
200
197
187
177
201
195
185
161
206
214
194
210
190
198
194
188
190
183
218
197
173
202
181
175
214
210
197
198
194
197
197
177
184
191
187
183
214
207
208
180
205
182
201
171
184
190
180
178
178
187
197
201
201
182
184
207
186
192
173
196
203
207
172
184
183
211
183
188
199
174
212
224
196
179
181
206
177
172
192
181
178
183
175
197
215
201
206
186
196
174
199
188
177
175
189
189
182
196
200
175
183
180
196
171
185
196
194
205
176
200
196
182
226
208
185
186
192
156
157
189
199
182
186
201
171
178
181
206
202
199
197
203
199
184
180
209
177
190
188
191
190
179
189
194
231
168
195
195
181
209
202
181
193
213
181
177
180
195
184
199
192
163
189
177
195
184
196
182
193
171
176
169
181
178
197
195
194
194
183
176
189
203
201
170
188
176
183
189
167
173
182
192
174
171
161
177
208
206
196
195
219
171
183
182
189
179
193
191
180
171
181
189
177
199
210
168
187
209
201
184
178
160
182
169
167
166
186
199
206
187
204
191
187
165
185
191
185
192
201
179
186
163
201
171
210
182
181
185
197
173
179
178
201
193
194
194
178
194
187
202
186
206
188
190
158
189
187
185
206
208
194
185
189
183
204
215
193
179
183
180
192
202
176
176
192
160
194
189
184
183
189
198
194
174
166
184
171
185
191
176
174
161
175
189
167
168
185
181
236
207
188
214
181
199
175
176
208
201
175
183
179
180
204
195
195
189
170
170
216
188
196
182
196
192
173
210
174
191
172
178
182
197
173
158
196
194
155
178
180
178
181
197
195
219
207
177
160
168
158
181
177
206
182
202
197
174
182
205
156
200
210
203
180
188
170
189
183
171
183
196
185
168
197
191
200
171
164
170
204
180
196
173
193
215
179
191
173
183
198
172
164
170
182
191
194
180
200
157
176
187
166
168
173
176
155
196
162
182
174
179
204
192
156
200
189
198
192
200
191
181
178
184
209
193
186
163
163
195
184
181
201
188
189
173
217
176
205
163
215
179
203
180
166
161
189
207
190
180
177
187
163
182
166
178
202
199
164
199
181
197
198
188
197
167
179
154
195
190
196
204
169
192
194
194
196
187
180
215
200
185
183
197
187
188
186
169
188
181
176
200
208
216
188
207
182
172
176
171
194
193
192
180
195
190
172
197
189
169
184
213
210
160
182
171
198
198
172
185
194
167
179
173
184
181
191
187
183
176
174
195
205
181
211
170
192
204
164
190
176
205
199
196
195
174
186
197
174
206
180
177
179
210
172
195
203
173
181
202
181
182
173
211
190
154
176
172
189
170
104
42
14
5
10
14
7
10
8
8
7
8
10
4
12
6
7
7
7
7
9
10
13
5
12
6
7
11
9
13
10
7
17
12
9
9
8
9
9
9
7
6
10
12
7
10
11
4
9
6
15
9
6
6
7
4
11
6
7
11
9
12
11
9
7
11
7
8
5
9
11
10
11
6
8
9
8
7
8
8
7
7
8
10
8
11
9
10
13
7
3
10
13
10
11
10
9
4
12
9
5
8
3
15
10
9
8
6
7
12
9
9
9
13
12
13
6
7
6
6
16
6
14
12
7
13
5
8
9
10
10
14
3
10
17
9
11
10
5
6
9
9
8
8
9
18
12
5
15
8
6
7
7
13
11
10
7
11
5
8
7
16
9
8
10
7
12
8
7
6
9
7
8
8
8
12
15
9
8
8
11
9
9
7
8
13
10
12
10
13
6
7
6
2
8
10
8
14
5
8
12
12
11
8
7
11
11
13
8
9
10
14
6
10
12
7
8
13
10
9
5
9
11
7
4
7
10
8
8
9
8
13
4
7
9
9
11
5
6
9
11
11
2
9
14
8
9
6
8
13
4
8
8
11
7
10
13
5
9
14
9
11
5
6
8
9
7
8
7
9
7
10
6
8
10
13
6
11
7
9
7
9
3
11
5
11
9
14
13
5
4
5
10
14
5
10
9
10
8
12
12
2
8
5
11
4
10
7
15
6
11
7
11
7
13
8
8
5
5
8
5
6
6
5
15
9
8
13
10
11
11
1
7
6
7
9
4
4
6
11
6
6
7
10
7
6
7
9
3
5
7
6
10
10
11
5
10
11
8
2
7
7
10
5
6
6
8
10
9
5
7
4
10
11
3
6
7
8
7
9
8
5
4
9
8
8
9
17
12
8
7
15
11
4
8
14
8
11
7
5
11
9
9
6
11
10
7
12
9
10
12
7
7
8
9
16
11
5
4
9
6
8
11
6
8
9
9
9
12
5
8
5
7
11
12
4
10
5
10
9
8
13
10
7
6
9
8
5
3
15
12
9
6
9
11
8
9
4
6
13
7
7
8
8
8
10
8
7
9
4
9
13
10
11
7
18
10
9
8
5
6
7
9
6
10
6
9
10
6
12
8
8
3
8
17
10
6
4
13
9
7
7
6
7
7
6
14
10
8
10
9
14
12
8
7
9
16
7
5
10
8
7
12
7
9
6
15
7
9
5
11
13
11
10
7
9
12
13
9
12
8
12
9
8
7
8
7
13
12
5
9
8
10
6
13
10
6
7
7
11
15
9
6
9
6
15
5
17
6
11
9
6
9
8
10
12
6
9
7
11
9
10
5
7
12
12
7
12
7
4
8
11
6
7
10
10
6
9
15
7
5
9
11
8
15
8
6
13
7
9
9
7
9
12
9
9
16
4
7
9
9
10
9
11
3
9
8
6
12
3
9
7
6
10
8
4
6
9
9
7
9
11
10
10
8
7
12
9
12
9
11
7
5
4
4
4
6
6
13
7
7
7
12
12
12
6
6
12
9
11
5
12
7
8
8
8
13
6
9
8
10
10
8
7
12
4
13
7
13
8
6
12
8
9
15
8
5
4
7
5
13
12
12
9
9
5
9
12
4
12
7
11
10
11
8
10
8
6
5
10
10
6
12
6
10
6
7
10
9
10
12
7
11
9
4
8
7
8
7
9
6
6
4
10
7
9
6
12
11
8
8
10
8
9
6
7
3
12
10
14
9
11
12
6
9
4
9
13
8
7
2
8
10
4
14
11
9
5
2
8
7
9
3
8
11
11
9
10
6
5
10
10
6
6
16
6
6
8
6
6
6
7
13
7
5
10
11
8
9
7
8
6
7
7
13
13
5
9
8
7
1
13
9
10
6
9
9
14
10
10
13
5
12
7
7
6
4
6
12
7
11
5
7
16
6
10
6
11
7
9
6
5
7
5
6
8
11
12
5
6
8
4
8
8
11
6
7
6
13
5
12
10
10
10
10
8
4
11
6
7
10
15
6
5
11
15
11
11
9
7
9
6
9
7
7
5
4
12
5
7
6
4
8
11
11
13
11
7
9
12
15
7
7
17
14
9
7
12
2
4
8
6
8
5
5
18
10
10
8
8
8
9
8
11
7
8
8
9
11
8
12
4
9
7
10
9
10
13
8
13
15
5
11
11
8
7
4
6
3
8
10
14
4
12
10
6
10
10
10
10
7
11
11
9
14
11
10
6
4
6
11
5
7
9
7
3
7
8
6
6
9
8
11
10
6
9
9
6
3
9
7
12
14
6
12
9
8
9
5
9
12
10
9
3
10
5
8
7
5
9
10
5
4
9
7
7
11
10
4
4
6
9
8
12
8
3
10
8
11
8
8
8
9
14
7
11
137
535
1001
1104
1085
1063
1001
961
964
960
868
863
772
820
788
751
743
673
658
627
581
584
577
552
525
564
505
490
468
495
470
425
433
446
426
398
388
400
396
375
400
366
335
331
320
348
351
316
320
312
291
305
296
288
294
270
275
253
278
300
256
255
245
230
268
268
270
217
236
200
240
215
262
232
226
221
232
224
226
222
218
223
202
246
240
208
214
225
204
219
193
229
197
221
223
230
217
201
214
219
206
227
209
207
206
219
194
228
216
204
206
202
236
219
181
206
208
202
202
233
193
219
225
200
197
212
210
190
203
198
176
205
208
191
188
211
208
201
185
183
191
215
197
204
199
209
191
212
197
192
206
223
221
220
173
221
219
205
224
184
215
209
199
195
202
194
183
184
191
210
235
215
186
192
175
190
197
234
201
187
202
203
193
174
201
181
167
196
185
179
204
209
197
180
196
200
212
208
208
198
201
193
183
186
228
165
210
193
215
209
206
222
193
205
197
182
183
202
217
199
202
229
204
204
208
179
185
200
186
208
188
194
205
223
188
209
199
188
192
216
202
202
208
200
188
198
209
204
204
183
189
200
204
207
186
203
199
199
219
202
190
200
197
198
197
196
202
178
210
177
195
185
201
218
198
199
192
200
195
205
212
200
211
190
203
201
214
189
209
213
206
197
187
215
212
223
207
201
214
204
212
208
205
198
195
183
191
210
202
195
211
201
197
226
194
210
184
178
204
197
203
203
192
210
180
211
211
217
206
198
205
210
227
177
226
185
203
195
202
189
196
198
186
214
184
188
208
202
207
206
180
201
193
236
192
194
181
187
184
172
203
201
198
231
199
181
213
202
204
212
201
193
184
207
208
213
189
207
202
208
187
213
211
210
193
222
198
219
203
211
188
202
229
195
218
207
213
185
181
203
189
182
200
193
194
208
206
173
205
206
191
205
192
181
238
195
187
177
188
208
185
196
205
202
221
182
201
198
189
190
204
198
216
212
185
199
224
182
170
195
205
224
213
204
207
205
199
212
205
229
211
196
190
225
205
193
203
202
201
181
212
197
212
203
209
217
197
217
220
235
209
209
173
202
198
189
227
183
206
210
194
210
209
191
201
212
190
225
172
190
208
208
196
203
185
203
186
189
202
195
191
208
196
196
173
218
223
192
179
195
195
203
217
195
189
201
200
199
191
190
193
240
210
220
211
184
238
204
211
183
186
204
201
198
193
195
207
187
241
212
196
201
192
196
192
223
187
202
197
184
227
218
195
203
188
201
185
195
195
183
186
223
210
194
183
219
186
230
186
185
215
194
199
219
221
211
194
204
189
206
212
200
187
213
216
198
197
198
209
205
226
186
206
219
217
192
212
200
205
207
214
177
207
193
195
199
216
202
205
184
185
206
200
176
191
233
196
211
187
205
229
209
207
187
216
189
200
217
201
205
191
183
177
214
195
204
208
195
198
230
186
223
206
193
227
200
202
192
203
195
193
220
191
186
198
201
185
216
216
213
182
231
219
191
176
211
222
190
224
218
181
196
190
182
216
192
196
214
228
206
210
232
191
220
211
218
205
194
184
225
190
205
210
200
204
213
217
154
63
20
11
13
9
8
7
17
8
10
8
4
8
14
9
9
8
9
10
13
12
10
12
11
5
13
6
4
9
12
12
10
14
11
10
12
14
5
6
7
7
12
9
6
4
9
7
14
4
8
7
9
11
11
5
11
9
5
9
8
10
7
10
8
11
12
12
5
11
11
9
13
8
7
11
12
10
9
8
8
4
9
12
6
11
8
9
10
12
8
19
8
9
12
11
10
11
4
8
6
11
6
9
10
4
9
12
8
8
9
13
9
9
8
5
10
7
10
12
6
5
6
6
11
8
7
5
4
12
10
9
8
9
8
10
5
10
6
8
9
8
7
7
10
6
14
16
6
14
7
7
4
10
4
7
10
10
13
10
10
11
8
12
13
7
8
9
10
6
12
10
10
11
12
12
6
10
9
13
10
7
9
15
11
8
7
5
7
9
6
10
6
5
6
9
13
16
11
8
4
8
4
9
2
8
11
5
8
9
6
4
6
4
10
7
9
7
5
11
8
13
8
10
5
11
9
5
9
8
6
10
10
6
9
15
8
8
5
7
3
12
10
10
6
9
8
10
8
11
17
5
9
6
8
15
9
3
5
8
7
12
6
6
9
10
15
9
9
6
6
9
8
11
11
9
5
9
10
15
8
4
8
8
10
8
12
6
12
15
12
5
13
6
14
6
12
10
8
12
7
8
11
10
8
11
5
9
11
7
5
9
13
7
19
7
8
12
11
4
10
9
5
6
6
7
7
3
13
8
6
9
12
5
9
7
11
9
6
10
10
6
6
7
5
10
10
11
11
9
11
10
8
13
7
8
12
13
8
6
5
8
8
12
10
9
10
8
15
5
8
16
13
8
11
4
9
6
11
10
8
11
5
3
12
7
7
10
9
5
7
8
3
4
9
11
3
4
5
5
10
9
12
6
8
10
7
9
6
10
7
9
9
11
10
7
9
8
14
2
8
8
12
11
7
4
11
8
12
5
8
12
8
5
7
6
9
9
5
7
11
9
16
4
7
12
11
8
18
10
6
5
11
6
6
8
16
4
8
10
6
7
10
7
7
15
6
13
9
8
7
9
8
7
6
9
4
6
8
7
9
12
7
3
7
9
13
11
9
14
7
3
15
6
8
5
14
8
8
10
10
13
13
8
13
10
10
14
3
10
9
11
6
10
9
7
2
10
13
10
7
8
10
6
11
3
10
11
7
9
12
6
5
7
8
10
4
11
4
8
4
7
9
9
5
10
15
14
11
12
5
7
5
4
7
5
4
4
5
11
5
11
9
9
13
5
6
9
14
12
3
4
4
7
9
8
3
10
5
6
10
8
4
12
12
9
9
12
10
9
9
10
13
13
8
15
14
8
8
10
7
16
9
5
11
6
11
8
6
9
8
13
9
9
10
9
8
10
10
10
7
5
13
12
9
8
13
5
8
8
8
11
6
6
5
8
6
17
8
9
5
6
11
8
6
10
6
13
10
7
4
8
9
3
7
7
13
9
9
12
11
10
8
5
6
6
12
2
6
6
5
6
8
11
9
7
12
7
4
8
13
5
8
7
5
6
8
8
8
8
10
10
12
8
9
6
7
3
7
7
10
7
9
3
14
7
9
13
6
8
10
5
5
10
11
4
12
6
5
8
6
6
13
9
5
8
5
10
8
5
6
4
14
11
10
10
9
8
7
12
10
11
7
11
14
6
6
11
6
9
7
6
6
8
3
15
9
5
12
16
9
13
13
11
6
8
11
4
13
15
6
19
5
6
10
9
11
11
9
6
6
13
5
8
5
12
4
6
7
10
5
4
7
19
8
5
7
4
13
10
13
12
10
8
13
9
9
8
8
5
8
12
10
12
10
8
7
7
8
8
7
4
12
10
9
9
8
12
6
12
16
6
10
6
10
10
6
8
7
9
4
8
13
10
6
6
9
9
11
6
8
7
5
13
12
6
11
16
11
7
6
13
4
6
2
13
8
13
11
12
10
10
9
9
10
8
10
9
8
7
8
7
11
6
11
9
6
7
4
9
14
11
10
11
6
11
11
9
5
15
10
4
10
20
9
9
9
5
9
13
11
6
5
9
13
6
6
8
12
5
7
5
5
12
13
9
7
7
9
3
13
6
10
11
9
4
13
11
12
8
9
6
5
10
5
7
7
10
12
10
9
11
8
12
8
4
8
7
8
15
6
5
6
6
8
17
8
12
16
9
11
6
10
13
11
10
6
6
9
9
4
6
7
11
12
13
8
16
5
14
6
12
5
6
7
10
7
7
9
7
8
5
11
9
10
16
4
9
7
6
7
7
14
9
7
11
10
14
4
10
14
6
9
4
5
11
9
4
11
9
15
6
8
13
8
11
8
7
8
8
8
8
11
5
8
12
5
10
12
6
6
9
4
7
9
10
9
21
7
8
3
11
11
8
5
6
5
5
7
