8
5
14
9
55
284
495
638
661
635
605
590
586
632
598
590
541
557
513
502
517
470
499
499
467
438
410
425
427
425
403
427
427
417
371
401
394
382
404
355
361
338
352
388
347
301
338
337
340
329
328
306
319
298
277
285
251
294
283
295
302
286
281
285
301
283
268
248
257
259
240
253
254
230
250
244
238
251
242
220
212
216
261
239
210
222
200
210
238
224
193
210
204
207
187
225
219
189
225
215
230
208
204
205
181
194
219
200
209
189
205
184
198
197
183
209
183
194
196
230
197
207
171
196
187
233
188
168
147
188
177
175
153
189
187
179
188
212
179
162
161
163
184
174
197
159
154
200
169
203
197
168
215
176
172
169
191
220
180
190
178
178
181
170
190
182
209
182
163
182
173
182
156
165
180
171
171
186
183
180
162
174
186
181
188
184
176
164
171
187
181
157
171
187
184
172
205
183
168
174
215
168
187
169
160
156
178
163
188
161
171
167
176
160
161
188
166
168
184
174
179
149
168
191
158
188
166
181
183
180
177
167
171
169
171
165
148
165
166
200
176
195
162
178
174
190
177
172
185
165
170
176
190
170
158
154
176
178
177
176
189
157
149
175
144
189
172
171
163
171
192
171
153
187
209
162
169
170
158
165
158
193
180
175
180
166
153
157
179
146
173
184
168
171
159
184
160
180
172
177
195
186
169
167
161
192
161
171
158
195
170
171
156
173
180
132
171
148
165
195
174
171
161
179
201
148
172
153
188
182
165
161
165
179
141
181
182
174
166
180
179
160
180
153
172
181
179
191
175
151
182
194
163
157
150
162
177
151
187
158
159
169
177
177
158
168
165
161
172
162
184
172
148
184
159
197
180
191
166
153
181
151
180
175
178
169
175
170
162
157
213
189
182
164
148
173
158
166
152
163
167
144
197
183
156
177
165
184
163
162
156
165
166
164
194
160
186
160
170
144
189
185
182
185
177
149
157
196
139
187
173
160
161
181
157
159
198
159
140
156
173
146
157
161
172
162
164
159
186
148
185
174
170
145
201
211
173
177
185
155
165
159
177
193
154
169
182
189
182
180
181
161
177
173
141
155
159
153
175
173
166
156
159
141
166
177
155
157
193
152
167
173
177
171
174
163
175
183
182
159
175
152
166
158
159
168
153
151
172
190
170
173
190
167
202
161
177
168
159
175
149
157
169
158
160
173
161
157
195
169
158
163
191
183
179
162
184
180
147
185
171
163
169
181
166
202
161
164
173
183
172
180
152
185
178
190
166
171
167
160
192
177
182
154
171
175
166
150
163
172
182
182
173
176
166
190
175
174
183
156
155
174
138
186
168
179
167
161
156
167
162
157
165
159
165
147
162
184
183
161
186
177
170
157
181
173
177
166
174
163
180
175
160
156
184
176
191
183
160
172
182
173
138
155
172
186
159
184
173
169
174
180
161
153
185
174
168
162
176
177
149
172
186
171
186
166
185
170
179
196
175
185
135
157
186
165
157
164
174
167
182
168
174
175
158
180
149
188
157
172
130
176
171
168
162
151
153
153
185
173
147
175
187
180
174
198
171
138
158
155
192
167
148
169
184
178
160
153
162
151
171
114
61
14
7
9
9
12
12
10
14
6
15
10
11
7
8
11
9
9
8
17
8
13
7
12
11
13
3
10
2
7
10
6
7
14
9
12
3
9
13
9
5
6
11
6
8
5
13
8
9
5
6
9
9
10
14
13
9
7
7
11
3
4
13
12
8
15
8
9
15
7
2
10
10
9
7
7
10
9
7
14
9
7
6
8
10
5
5
9
4
6
6
8
12
10
9
10
5
5
6
10
4
8
7
8
7
12
18
17
2
9
5
13
8
9
2
9
9
8
9
13
11
10
11
7
8
6
15
7
11
11
10
7
8
11
12
11
12
5
12
14
15
7
8
8
7
10
12
8
8
6
8
11
12
7
7
6
10
8
12
12
6
9
16
8
7
6
10
9
11
12
8
7
9
13
12
7
10
11
8
10
11
7
6
8
7
18
4
12
4
7
8
10
3
7
8
5
11
8
7
11
9
5
11
3
7
6
4
12
6
10
7
8
12
7
11
8
7
6
11
9
11
14
12
7
15
9
8
3
13
5
10
8
7
5
13
8
9
8
7
10
6
14
3
14
8
12
7
6
10
7
9
9
6
7
11
7
8
10
6
9
7
6
14
5
9
16
11
5
5
15
8
8
11
7
8
3
4
14
5
14
8
6
6
8
6
7
14
8
8
7
4
9
7
10
12
4
11
11
12
9
10
6
10
8
11
2
5
10
9
5
10
13
6
10
13
11
5
8
13
9
9
9
7
12
9
12
9
7
12
7
12
14
9
8
10
12
7
7
13
12
6
6
9
6
10
10
5
4
5
11
7
9
11
9
8
6
13
6
8
10
11
10
15
6
6
7
8
10
10
13
11
13
8
8
11
8
10
7
11
7
8
12
8
13
8
4
3
11
12
9
7
7
7
13
8
6
11
8
10
10
4
7
7
7
11
8
7
12
11
6
4
5
8
7
6
8
12
8
9
15
8
7
6
5
11
11
7
11
10
6
3
2
9
12
12
11
9
6
5
16
10
8
8
9
9
9
7
8
8
11
12
4
7
11
10
4
9
5
9
12
10
8
13
11
9
15
10
9
12
12
8
9
9
11
10
8
14
5
8
9
7
8
7
11
11
9
6
7
14
11
11
8
15
9
6
10
9
9
9
7
8
9
10
7
11
6
10
10
9
8
14
9
6
7
6
9
9
5
12
8
11
11
11
18
5
8
8
10
6
8
12
6
6
4
7
7
7
11
12
17
7
5
4
9
11
8
11
7
9
4
6
5
5
6
7
7
7
9
11
8
6
8
16
6
15
18
10
11
15
8
9
9
13
8
10
17
9
6
5
6
4
10
8
6
8
6
4
8
10
10
7
11
8
12
7
9
12
8
5
9
10
9
13
14
8
13
9
11
7
8
8
6
9
5
7
7
10
8
10
7
8
13
11
4
13
10
10
7
12
12
9
13
5
14
6
5
7
11
8
8
9
12
4
9
9
10
11
8
7
10
13
6
9
11
7
7
17
14
8
11
7
7
5
11
9
12
9
8
6
5
13
12
7
7
11
10
7
7
6
5
11
10
10
8
6
18
7
11
8
8
6
8
11
13
6
11
4
10
8
5
14
14
4
11
9
4
10
13
12
6
10
12
16
10
13
7
6
10
6
11
11
10
6
9
13
10
14
7
14
7
12
9
11
9
4
6
11
11
3
4
2
7
10
6
11
6
13
8
8
5
7
10
12
8
14
9
13
13
17
6
9
5
8
9
9
9
9
12
9
12
10
11
9
12
6
13
10
18
8
6
14
13
13
10
7
7
14
9
9
12
11
19
7
10
21
12
6
6
7
7
4
7
7
7
11
4
5
9
13
11
11
16
8
7
5
10
4
14
7
12
10
16
7
17
12
11
13
11
9
5
12
11
5
14
9
10
12
10
10
14
8
9
11
8
8
8
10
13
11
5
11
9
5
8
11
7
13
6
9
10
9
14
9
6
10
14
11
10
10
7
8
11
15
7
9
11
9
10
9
10
8
13
15
11
9
5
5
7
10
6
13
5
10
10
6
13
10
10
10
12
3
8
12
9
6
8
9
13
9
9
11
9
9
8
3
12
6
11
9
9
8
14
6
7
14
9
11
14
7
9
8
11
9
7
7
8
5
9
5
5
9
9
7
12
15
7
10
14
9
4
7
8
10
12
7
9
11
8
10
8
10
12
8
4
13
10
8
11
8
7
3
9
13
13
5
8
12
8
15
10
11
8
9
7
7
13
10
8
8
12
11
5
15
14
10
7
10
2
10
12
15
9
11
8
11
6
12
7
11
2
3
9
12
7
8
10
6
12
7
10
11
3
7
9
10
8
9
8
9
10
8
7
10
7
12
9
15
4
5
10
16
11
7
12
6
51
372
825
1158
1140
1117
1128
1042
1062
980
904
944
820
825
814
780
764
740
697
691
630
641
596
579
629
548
480
508
488
517
486
458
449
441
422
421
418
401
388
385
378
360
369
319
335
310
322
324
325
323
340
303
303
270
266
262
296
256
275
256
252
230
216
219
256
226
246
258
232
237
211
202
243
232
205
218
250
211
233
216
220
222
197
213
199
190
221
211
211
216
218
209
197
189
197
208
203
191
220
180
207
202
201
206
183
168
196
211
199
211
204
191
200
196
189
191
179
217
199
185
214
195
212
210
209
204
199
170
187
194
189
194
204
182
205
209
201
185
201
212
185
189
211
189
190
177
193
181
199
206
206
171
224
194
192
196
170
211
184
235
198
201
175
212
197
180
189
195
213
185
189
196
165
184
197
196
196
200
175
188
196
184
198
184
178
184
187
203
186
206
188
188
195
183
201
193
200
196
220
218
194
181
204
197
185
186
184
194
195
204
194
184
217
187
208
169
177
195
212
186
176
202
216
171
172
202
186
180
211
186
211
195
203
185
185
207
208
190
172
206
164
206
200
183
221
199
191
188
198
187
195
191
205
192
210
223
190
188
223
198
185
193
202
188
178
194
196
186
191
190
218
193
180
211
194
212
200
205
176
221
186
196
190
215
226
159
197
175
183
181
194
185
172
191
190
191
205
185
177
180
219
194
198
206
185
187
213
201
178
191
206
215
206
174
181
177
181
197
195
167
212
188
201
181
208
199
185
215
186
195
207
202
199
201
197
192
198
202
180
211
202
190
182
182
198
204
173
187
163
204
227
205
173
222
199
196
199
188
196
183
184
200
222
224
220
185
198
199
195
181
233
183
176
196
212
198
186
205
201
196
212
180
183
203
201
190
193
156
223
201
174
206
200
207
222
197
196
205
202
179
186
214
164
175
203
188
198
207
158
212
190
195
175
198
198
183
201
186
203
198
178
204
200
191
193
216
191
187
205
183
184
216
174
201
202
192
186
207
193
179
180
190
206
184
203
199
179
197
191
186
201
185
181
191
200
175
188
198
207
214
188
204
183
195
204
198
207
175
191
202
190
201
202
208
201
187
210
209
214
185
204
169
204
206
209
197
202
214
212
202
189
188
203
210
211
183
208
196
197
186
213
166
166
176
194
187
214
184
173
210
187
193
191
201
216
183
185
193
187
203
192
200
196
195
197
187
176
207
197
185
206
190
199
203
193
209
184
197
193
196
184
201
188
182
179
181
214
206
192
193
192
215
195
207
209
176
186
157
200
210
188
199
196
209
186
181
200
193
175
201
203
187
197
217
181
197
212
212
192
229
189
195
201
213
184
183
189
191
198
196
185
192
205
188
175
186
208
184
186
205
183
168
221
205
227
205
175
183
210
182
167
209
194
202
179
195
186
189
202
205
188
205
215
197
189
171
184
208
185
197
199
190
192
180
206
192
165
194
202
203
211
204
168
218
186
187
176
199
191
201
225
207
179
198
191
198
169
200
191
194
201
208
177
179
186
178
204
184
216
201
181
189
192
210
194
182
197
190
207
182
189
193
218
185
216
162
187
188
203
191
175
195
201
196
201
212
184
168
87
36
13
5
9
8
4
11
11
9
11
12
8
9
8
8
10
8
11
10
10
10
11
10
11
12
13
11
9
17
6
10
11
11
9
13
13
6
4
7
6
13
6
9
6
3
8
8
12
8
11
13
7
4
8
8
9
9
12
10
10
9
9
14
6
11
9
8
19
10
12
8
10
9
15
9
12
7
12
10
11
6
6
8
9
6
10
14
11
7
6
10
11
14
6
6
12
9
9
9
9
6
17
9
11
6
11
6
10
8
13
7
17
6
5
12
7
9
14
9
12
5
6
7
8
7
6
7
9
9
6
11
7
5
9
9
12
12
4
3
7
6
3
9
12
11
11
8
11
8
14
10
6
16
11
8
10
12
7
5
11
5
8
5
11
11
6
8
13
10
9
13
8
11
10
8
6
5
8
12
11
7
10
9
11
8
11
12
9
11
13
13
11
10
15
5
6
17
11
9
6
9
6
11
11
9
11
7
11
13
5
7
10
5
12
8
11
9
10
19
10
13
10
9
12
11
10
16
12
10
7
12
14
11
8
14
7
7
10
11
7
7
6
8
7
6
6
7
7
12
15
14
7
10
12
11
9
8
7
13
6
13
9
11
4
9
15
6
13
6
6
9
6
5
14
16
4
10
7
11
16
7
12
9
6
10
2
12
7
5
6
14
12
3
5
16
9
13
9
8
12
10
11
5
10
11
8
11
13
13
10
13
9
11
9
7
10
11
6
9
17
7
12
8
13
5
7
10
3
11
6
9
11
14
12
8
6
11
10
12
6
5
11
8
8
4
7
9
12
12
4
12
6
6
10
10
12
5
13
9
13
9
11
9
10
5
7
10
6
7
11
9
5
13
5
6
9
8
9
5
8
7
11
4
6
14
8
9
7
14
8
10
9
6
12
9
7
7
11
11
12
6
15
10
3
12
8
9
7
13
12
9
12
9
16
7
11
3
10
6
6
13
9
9
10
8
9
10
6
7
7
5
8
7
13
10
10
15
11
13
6
11
11
5
6
2
14
14
6
8
9
13
12
6
7
5
5
12
8
6
6
14
6
3
10
6
10
8
3
7
7
6
14
7
6
8
7
10
9
10
18
12
7
5
13
6
9
11
11
7
7
6
11
14
11
8
11
12
7
9
9
4
9
5
7
9
11
15
11
6
7
9
11
14
12
9
11
8
11
6
12
5
10
13
8
5
11
14
10
16
7
4
9
11
17
12
10
6
6
7
3
6
11
10
6
7
11
6
9
10
12
9
7
13
10
6
12
5
9
10
10
9
8
7
8
9
9
6
6
5
9
7
7
9
8
9
8
5
2
8
9
6
6
11
4
7
6
4
13
6
4
8
6
6
8
11
16
7
12
6
8
13
11
12
11
13
8
6
12
15
10
3
15
11
9
11
10
5
7
10
9
8
6
8
10
3
6
14
7
10
15
8
6
8
2
8
10
11
10
9
10
9
13
9
10
7
6
9
9
7
8
10
8
8
8
6
5
5
6
10
10
12
8
13
15
9
8
8
9
6
9
4
7
9
8
13
10
10
10
8
7
7
5
7
6
11
10
9
15
7
11
8
7
14
8
9
11
10
5
10
10
9
14
12
12
8
5
9
6
11
7
10
5
8
11
15
11
12
5
9
14
7
8
8
12
10
8
11
8
10
9
11
8
11
7
8
6
8
6
15
11
10
12
11
14
9
18
14
8
15
9
6
7
12
4
7
7
10
11
7
8
11
5
5
9
7
10
8
4
11
16
9
2
7
20
7
13
11
8
7
10
7
6
12
6
9
6
7
15
6
7
8
6
11
9
12
7
7
18
7
5
12
11
10
11
12
12
5
4
8
14
7
8
10
13
9
10
12
11
8
11
7
8
5
8
7
9
14
7
14
10
9
10
10
5
9
5
12
11
11
6
14
7
13
8
7
6
6
11
9
12
8
12
6
13
15
8
7
5
8
8
4
8
7
11
14
6
9
7
10
7
14
9
7
12
15
8
13
9
11
12
9
6
9
4
6
7
9
11
14
15
7
3
6
7
12
14
6
7
11
13
11
5
9
8
7
11
6
9
3
7
8
10
8
13
10
11
5
7
10
18
5
6
1
8
12
2
11
6
10
13
11
8
5
8
12
8
7
12
8
13
8
6
6
12
9
12
7
10
12
7
12
12
10
10
10
7
7
14
5
12
10
10
7
11
9
9
7
5
13
10
8
11
8
10
11
9
10
13
8
8
11
10
11
5
12
10
13
12
11
5
9
8
12
6
7
10
6
8
9
16
8
10
9
9
10
11
10
7
9
9
13
5
11
6
9
8
9
10
12
9
9
4
9
10
9
7
6
9
3
9
9
8
5
5
9
6
4
5
9
8
7
12
9
2
36
373
1145
1592
1545
1567
1474
1356
1335
1236
1152
1172
1072
961
944
919
850
816
748
722
701
659
644
612
585
536
510
536
452
469
486
439
425
396
396
366
379
366
371
326
366
339
324
312
300
306
297
288
295
278
305
291
245
259
264
242
242
248
257
238
246
257
242
241
212
223
228
227
250
233
258
241
217
242
223
251
237
220
242
202
221
227
209
215
236
202
202
220
200
207
182
213
208
210
211
205
239
214
192
191
241
223
181
205
224
186
219
222
232
217
210
193
211
180
204
207
203
199
188
223
211
203
189
212
209
190
190
221
181
195
199
208
205
207
229
204
198
223
203
223
223
245
224
189
229
224
189
186
220
224
220
221
237
201
215
203
223
217
216
214
223
192
214
213
219
192
207
232
226
204
199
217
187
187
208
182
206
214
204
199
221
213
201
208
217
193
226
219
198
217
207
210
216
213
221
206
184
200
213
203
218
215
183
186
228
222
191
227
193
199
209
237
213
193
171
232
190
213
211
199
187
198
204
195
200
219
239
201
201
201
211
203
209
202
205
178
180
201
213
233
208
206
209
203
247
193
189
215
239
214
210
195
206
210
190
209
219
198
213
190
197
186
217
227
194
242
229
205
203
200
221
216
211
215
216
210
191
212
201
222
217
224
205
216
184
181
231
217
203
202
195
205
221
181
217
218
226
212
187
216
216
223
198
231
188
202
213
194
222
200
213
203
207
191
211
188
206
222
212
227
201
190
196
239
189
198
201
226
179
211
184
162
221
201
214
226
218
214
204
218
225
209
205
194
226
194
176
220
233
215
217
183
220
224
203
224
208
210
173
216
196
208
215
184
206
220
213
203
213
205
206
202
190
191
243
214
206
191
189
192
199
226
228
196
188
192
180
193
193
206
201
212
188
195
212
186
178
225
221
210
216
196
215
204
199
189
219
199
207
208
214
204
202
217
199
207
226
231
224
210
195
207
212
201
208
220
197
210
204
200
203
184
198
201
199
185
215
209
192
197
231
181
204
207
206
229
188
206
204
198
199
207
222
212
194
222
196
204
198
233
193
236
226
208
205
229
209
219
210
212
185
216
213
201
199
218
212
193
216
230
194
213
190
228
176
223
218
204
199
235
208
208
218
207
193
197
194
190
210
248
204
220
205
199
213
196
249
218
210
178
210
197
192
193
225
194
217
185
209
207
204
226
200
189
229
223
201
209
197
197
233
228
194
219
188
203
198
199
210
193
213
187
190
217
219
196
225
196
211
189
186
184
211
205
215
187
202
206
211
165
198
211
190
216
229
223
214
192
203
217
211
204
180
196
172
218
210
233
186
228
206
216
239
231
216
209
214
205
224
202
199
209
201
210
167
211
166
212
197
230
232
179
184
191
188
211
211
197
227
197
185
199
213
204
193
190
199
223
223
219
204
216
192
200
207
212
196
193
209
206
201
226
203
197
209
225
200
210
236
211
205
199
219
202
228
189
214
187
203
186
194
211
194
222
199
207
209
213
196
208
204
233
227
188
201
197
217
204
188
213
197
211
200
212
208
199
185
217
210
191
229
228
205
245
196
205
199
185
209
226
178
191
209
217
219
209
184
182
110
35
17
16
13
7
15
9
5
13
15
6
12
13
11
7
13
7
14
11
4
5
12
10
8
14
10
6
6
16
8
6
9
5
11
12
9
8
6
9
6
9
7
10
6
11
12
7
8
12
9
14
9
7
9
16
9
13
5
11
14
8
7
7
10
17
15
12
6
8
10
9
9
7
4
14
10
7
11
8
10
12
11
6
12
6
17
11
7
14
7
13
10
6
10
11
9
9
8
10
9
6
9
12
5
11
9
8
12
9
9
6
6
9
10
4
7
10
11
6
9
11
10
8
23
11
9
15
13
10
12
14
7
11
9
11
10
18
12
14
17
9
6
10
12
12
12
9
12
5
12
5
9
13
7
10
12
14
7
11
8
6
7
6
8
11
4
8
13
9
11
10
12
9
4
12
13
12
10
5
8
6
16
10
8
6
8
8
10
9
8
7
15
7
6
8
12
11
9
15
6
15
10
9
2
11
9
4
5
7
14
7
7
12
8
11
7
12
12
15
7
5
10
5
17
11
12
4
9
12
6
12
5
7
16
10
6
7
13
8
6
5
13
5
6
11
10
11
5
6
14
14
6
9
14
6
11
4
6
8
5
11
7
10
4
9
4
10
8
14
6
11
9
4
10
12
10
11
11
5
6
4
14
3
4
3
13
13
13
9
9
12
11
11
9
9
5
2
8
12
5
10
12
6
9
9
10
16
11
11
9
8
10
10
7
5
8
5
6
12
7
15
8
10
11
7
11
11
9
10
10
10
9
5
11
9
4
10
14
11
9
16
10
7
8
11
6
4
12
9
6
5
5
6
7
11
10
13
8
9
12
7
12
9
9
8
16
9
17
9
11
14
16
12
5
9
8
10
9
7
7
9
7
9
11
10
7
5
8
11
11
18
9
4
9
5
10
11
10
8
10
12
10
4
13
4
10
12
11
9
12
4
8
10
5
6
12
7
3
9
10
11
11
15
7
15
7
13
12
8
5
5
8
7
15
14
6
14
11
10
11
8
11
6
12
14
13
8
7
9
8
7
12
10
11
10
8
10
7
8
16
11
6
9
7
11
10
8
10
8
6
8
15
7
9
11
9
10
5
13
10
8
12
13
17
11
7
11
9
8
7
9
9
13
6
12
7
8
8
5
13
17
6
9
8
9
17
11
6
10
7
15
15
7
3
10
9
7
6
10
11
12
13
8
6
4
6
8
8
13
12
9
11
8
10
7
11
8
10
10
11
10
12
6
8
7
10
11
11
10
9
13
9
7
5
8
6
16
8
14
5
2
9
17
6
8
7
14
2
10
8
3
12
4
7
4
10
13
8
15
8
5
11
7
5
5
9
6
3
14
12
7
5
9
7
9
9
11
12
5
8
10
8
7
10
13
7
7
10
6
7
9
7
11
5
10
9
6
10
9
9
7
9
6
6
5
10
8
7
11
13
14
10
6
5
12
10
12
11
12
8
10
6
8
16
10
12
13
10
5
13
11
12
16
8
11
12
6
12
8
13
9
7
7
6
10
12
4
11
3
7
12
7
9
15
9
11
9
12
11
5
14
8
6
6
6
6
11
8
7
10
7
11
13
11
14
7
8
10
16
6
16
5
4
9
11
12
8
8
8
9
10
11
10
10
8
10
5
10
10
5
12
8
10
10
11
8
9
9
9
10
11
9
6
9
6
9
12
14
6
11
9
12
14
10
7
7
4
8
10
5
8
11
7
7
10
8
3
7
12
7
9
11
9
6
11
11
7
10
9
12
6
9
5
8
9
8
10
10
10
9
14
6
7
9
10
12
12
10
12
9
12
7
8
7
11
8
4
8
10
15
11
16
5
8
13
15
7
5
19
9
14
7
9
15
9
8
6
10
11
8
10
7
6
8
7
7
12
10
7
6
12
5
7
7
6
5
9
7
9
7
8
9
12
8
9
9
9
14
11
8
12
8
9
7
6
8
8
8
9
7
11
19
5
13
17
9
5
5
9
7
12
5
16
11
8
13
11
10
5
13
10
4
8
13
11
9
11
7
8
8
9
13
7
9
14
13
9
9
5
12
10
8
9
9
11
13
15
14
7
12
10
12
4
8
6
6
10
5
7
5
6
14
7
10
7
13
7
7
5
10
4
9
6
10
10
14
5
12
12
9
10
9
10
9
11
11
6
8
7
8
14
12
8
12
8
3
5
10
11
11
8
12
10
7
7
7
8
13
9
12
9
7
5
8
10
11
13
9
5
16
11
8
12
9
7
12
11
6
8
11
9
6
11
10
7
7
2
11
10
9
10
10
7
7
8
7
8
12
3
8
12
11
9
15
5
6
12
8
3
8
9
14
9
12
11
9
8
9
7
6
5
7
14
6
8
8
13
4
13
8
9
11
5
9
30
281
1251
2060
2088
1929
1801
1676
1553
1422
1360
1280
1107
1113
1021
979
886
881
728
685
726
626
631
563
587
548
533
448
483
463
426
392
397
354
354
363
333
336
314
315
307
300
319
298
287
276
260
252
290
266
253
228
248
257
258
263
259
236
251
242
227
243
219
223
247
237
198
215
226
217
232
224
209
208
250
223
212
246
200
223
218
249
198
226
193
220
229
224
209
210
199
206
240
218
214
221
219
209
226
212
230
230
216
191
219
225
218
216
222
231
237
212
234
241
255
211
206
212
210
206
213
250
245
198
201
224
208
239
191
236
206
216
213
201
209
222
254
202
233
197
192
219
220
216
218
202
193
234
228
216
202
227
203
224
214
235
211
218
199
233
226
234
196
200
236
214
231
204
207
233
186
230
219
176
225
227
209
214
198
241
220
211
212
211
212
195
226
225
183
195
229
216
239
199
234
228
236
194
224
207
238
210
200
220
183
199
214
232
219
212
226
199
210
216
190
204
191
204
215
222
236
192
207
205
178
184
225
209
227
220
253
206
218
243
218
216
228
233
220
232
193
194
213
222
199
215
221
224
197
210
227
223
220
238
208
216
229
237
232
219
227
231
208
194
212
223
250
210
219
206
205
207
256
192
238
219
202
204
209
212
192
214
212
197
223
206
227
221
233
204
211
232
248
233
224
233
229
227
219
218
206
223
243
229
207
208
198
212
204
233
217
215
207
211
234
214
207
208
197
209
198
219
210
231
213
209
205
212
225
251
237
219
185
244
256
201
228
235
223
205
229
211
225
246
239
205
212
212
208
219
231
207
246
203
222
217
224
198
245
198
202
207
212
216
207
251
189
227
210
229
222
252
194
208
215
208
193
207
217
227
226
199
265
197
213
206
211
208
205
227
226
213
241
212
197
203
199
206
210
242
239
246
222
212
234
218
228
233
203
245
200
188
228
204
244
228
220
237
207
239
241
260
237
200
248
209
204
208
203
199
220
198
229
223
206
210
231
195
240
222
223
215
248
230
216
206
210
216
221
204
204
219
223
245
223
210
233
216
222
228
218
193
208
195
218
209
227
201
214
222
195
215
205
217
215
207
193
191
221
214
216
221
201
224
222
223
229
191
223
221
235
225
214
207
217
245
269
204
204
204
227
225
178
206
221
205
206
223
202
241
227
220
191
208
218
214
224
226
208
224
204
199
236
227
226
220
222
221
210
196
203
201
200
205
210
225
205
226
241
218
225
214
236
209
237
238
226
242
202
248
203
208
199
242
205
231
229
216
210
210
204
198
212
198
230
219
219
226
217
206
226
248
211
190
218
229
189
206
222
213
195
204
205
264
208
213
215
218
211
205
213
214
234
194
217
214
219
210
217
230
238
218
199
221
212
220
209
236
220
222
195
219
199
201
209
215
218
200
236
228
200
206
213
211
220
213
218
215
222
222
242
203
223
235
190
205
212
231
256
202
218
220
193
230
247
214
236
210
228
216
210
230
240
209
217
224
222
222
219
224
215
241
208
190
216
219
226
219
188
222
238
228
220
218
196
217
255
223
207
225
240
218
245
206
233
221
224
214
201
204
215
210
217
250
218
209
231
213
145
65
16
4
10
7
9
12
12
7
11
6
11
16
9
9
11
16
10
9
5
13
11
8
13
7
9
8
5
8
16
13
9
19
9
9
8
13
8
9
12
9
10
11
16
9
7
13
11
9
7
10
11
8
7
4
10
11
10
7
11
9
13
9
9
13
13
7
9
9
5
5
4
10
12
6
10
10
11
8
9
7
12
9
9
8
5
9
7
14
8
7
8
12
9
10
9
12
12
10
8
11
11
8
16
5
10
9
14
6
9
5
7
7
9
11
11
13
9
4
10
12
10
9
6
11
8
9
3
8
7
2
10
8
7
9
13
8
9
13
12
4
9
13
3
9
5
6
12
12
14
9
11
8
10
8
13
18
13
12
9
9
7
9
8
9
14
5
10
9
17
8
6
9
8
15
10
11
11
8
12
7
8
6
8
7
12
9
14
11
8
7
9
8
10
9
7
7
10
9
6
9
14
10
7
10
6
8
6
10
7
9
12
9
7
6
12
6
10
13
13
5
8
8
12
13
6
13
13
13
14
8
11
11
11
10
11
6
8
13
15
14
8
7
10
7
9
7
14
12
14
5
12
7
6
8
11
16
9
11
11
8
10
14
14
7
7
8
8
9
4
5
17
7
11
12
9
10
13
7
7
13
6
9
7
10
8
6
8
7
15
13
10
6
8
11
4
7
6
6
4
9
11
9
11
11
8
5
7
8
8
9
6
12
4
6
14
6
9
8
4
9
6
2
12
10
10
13
11
10
7
8
5
5
6
11
13
15
7
10
9
5
12
11
8
14
9
7
5
9
8
8
6
3
6
8
7
9
13
8
8
13
7
7
8
9
6
2
9
6
7
9
9
13
4
9
6
9
10
12
8
17
11
8
5
8
3
11
5
7
12
6
6
10
9
9
6
12
10
6
9
8
9
13
8
8
7
15
14
9
10
12
12
9
11
10
12
16
7
4
13
12
13
12
4
12
16
13
14
5
9
14
7
6
10
14
16
9
7
11
7
13
13
13
13
8
11
8
12
8
8
8
10
8
9
8
7
11
15
10
9
12
9
8
9
10
14
12
11
11
7
15
5
8
7
12
6
6
11
9
8
9
9
5
9
13
14
10
7
8
7
8
8
7
14
8
10
3
10
10
6
8
7
13
7
10
8
6
10
8
5
7
16
11
14
10
9
8
6
11
12
11
10
10
15
6
7
9
11
8
10
8
12
8
7
9
4
11
9
13
13
10
11
8
11
10
13
11
9
12
11
7
11
11
14
5
14
9
12
8
7
10
8
5
17
8
14
6
8
10
6
6
12
11
7
10
7
11
9
8
7
2
9
5
10
9
11
9
14
6
14
11
10
9
6
6
8
4
13
9
11
10
7
9
13
12
5
13
12
8
4
6
5
6
9
13
11
14
16
8
6
13
10
12
8
8
5
12
8
10
13
7
8
9
13
7
6
13
8
9
13
4
9
13
10
13
9
6
6
9
10
11
12
8
9
7
13
12
9
14
4
12
12
8
10
7
5
9
9
5
10
13
9
6
3
7
9
8
9
7
7
8
6
11
6
8
10
13
9
11
10
10
1
4
8
7
10
10
14
7
11
5
5
11
8
7
3
12
10
7
8
10
9
7
10
3
11
7
12
10
9
10
11
10
5
10
12
12
4
13
8
10
11
13
11
11
10
6
8
9
10
9
12
11
5
9
7
12
7
10
5
7
12
8
12
8
7
11
10
10
9
12
13
4
17
9
10
8
18
12
10
9
9
8
12
9
13
8
8
10
8
12
12
9
8
13
8
2
16
15
11
3
7
7
16
5
5
17
16
6
7
6
9
6
7
6
10
11
8
7
6
7
14
5
6
8
7
12
6
9
8
7
12
6
10
9
8
15
9
6
9
6
8
10
11
10
15
10
6
9
10
9
8
7
7
5
8
17
11
9
16
5
8
11
4
11
7
7
7
7
12
8
9
9
13
5
16
6
14
10
9
9
6
5
9
11
8
9
6
5
8
8
6
9
4
10
6
6
7
10
12
8
10
12
12
9
10
6
6
6
13
8
17
4
10
10
7
8
11
10
6
11
7
13
12
6
10
5
10
8
5
10
8
11
5
6
11
15
15
12
10
11
6
14
7
10
5
10
10
10
11
12
2
9
11
8
9
14
8
8
8
8
9
12
10
12
6
5
9
6
4
13
6
8
7
13
15
13
16
9
6
13
10
6
9
11
7
12
14
8
8
12
5
10
11
11
11
5
10
7
5
6
11
8
9
8
9
6
11
15
6
7
8
12
20
11
5
11
7
10
3
9
13
7
2
9
8
8
9
9
7
7
6
8
13
2
18
10
8
15
10
12
8
10
11
10
3
8
10
7
10
14
6
9
11
12
16
8
12
7
6
9
5
8
8
5
8
13
7
9
5
7
11
7
12
8
7
9
11
