3
11
9
6
18
99
189
263
275
250
254
265
213
261
249
246
258
221
266
245
233
240
246
257
246
209
227
238
202
229
246
241
238
210
235
211
234
211
213
225
218
218
230
225
210
209
224
216
216
190
227
196
217
204
208
202
214
216
207
214
191
218
209
213
204
197
211
198
202
185
187
189
211
188
197
198
178
192
161
201
201
151
172
152
172
181
186
183
196
169
170
179
158
190
165
175
184
182
178
191
169
158
185
182
177
194
182
170
163
178
153
184
176
179
182
173
174
171
163
168
159
168
172
172
149
163
169
155
153
145
170
159
180
178
148
151
157
161
160
168
206
156
178
167
155
162
159
164
151
164
164
159
141
156
164
163
156
142
180
161
148
167
151
169
168
158
163
178
157
151
156
173
142
173
151
148
169
156
161
178
163
134
140
176
170
140
170
150
145
156
150
165
164
158
151
144
168
154
169
165
157
143
152
161
141
182
150
160
156
159
156
152
158
134
159
157
149
154
144
175
162
144
157
141
136
171
146
162
167
165
146
138
133
137
131
144
174
134
153
164
166
175
145
132
163
149
140
158
140
150
135
173
143
158
146
125
162
146
145
151
178
150
137
146
150
132
164
136
132
157
134
158
147
144
162
167
158
141
161
136
163
152
129
166
124
156
153
140
166
146
147
146
137
172
158
152
140
163
129
150
155
149
145
150
162
123
145
141
146
153
131
134
146
150
164
149
138
134
162
134
150
134
152
174
153
128
133
129
141
148
136
160
163
154
142
169
136
157
138
146
136
147
136
157
131
127
155
155
145
150
151
144
149
137
153
146
143
141
137
147
148
159
141
136
139
135
165
143
137
132
137
130
151
136
149
138
157
158
140
141
154
162
116
135
144
151
134
160
136
167
142
145
163
138
140
133
149
143
119
159
141
151
152
149
163
121
152
145
151
127
162
140
148
142
147
130
128
143
139
146
137
128
163
116
146
133
150
175
150
140
151
145
138
137
135
138
143
154
143
131
153
122
163
149
147
156
155
136
139
162
134
165
142
164
151
146
158
133
174
145
156
138
141
135
140
147
141
160
136
162
156
132
151
141
137
148
162
147
149
145
137
136
152
145
142
140
137
132
149
133
138
117
148
142
148
135
151
163
159
136
145
132
126
144
139
154
139
146
124
138
154
144
144
148
134
142
133
145
138
139
134
152
149
139
145
151
154
148
154
151
166
138
142
142
142
160
156
133
143
152
149
125
133
154
161
145
144
135
151
146
133
143
161
135
136
133
124
141
131
140
148
145
128
136
158
150
154
142
156
138
149
157
156
132
154
138
159
145
157
154
162
140
158
155
141
161
183
134
143
123
142
170
153
147
149
137
159
152
146
142
141
157
146
152
140
143
158
131
153
139
142
146
127
115
136
119
124
141
129
142
140
145
144
121
134
151
164
151
151
140
148
134
153
146
151
140
130
139
133
155
147
132
145
143
153
149
131
163
182
128
139
138
149
154
156
155
132
174
152
160
153
125
132
152
150
142
128
148
140
132
129
147
128
152
164
144
150
143
147
151
139
143
142
153
164
146
143
141
146
141
125
133
144
156
148
143
167
161
137
159
129
131
46
20
8
15
6
9
11
10
16
11
6
7
3
6
7
9
8
14
6
6
4
2
12
14
13
7
16
5
7
8
10
8
10
6
6
8
9
5
6
5
2
7
10
9
8
4
6
7
6
15
11
10
6
12
6
5
8
4
9
9
3
9
7
4
5
11
11
7
18
10
5
12
2
6
11
7
6
4
9
6
9
9
7
8
8
9
10
10
9
9
15
8
6
13
10
4
8
12
7
10
7
4
10
4
5
11
10
10
4
5
15
10
6
8
3
11
9
9
7
7
6
6
13
3
4
8
4
4
6
5
11
8
16
8
13
12
8
7
3
10
5
10
7
10
6
10
13
8
9
9
7
5
13
9
7
5
9
7
8
10
7
7
8
7
7
8
9
10
4
4
7
3
7
8
5
10
7
4
5
8
10
8
8
4
14
6
16
6
8
9
8
9
9
8
5
6
7
10
6
1
9
12
5
11
10
5
6
7
4
7
9
7
11
8
3
14
12
11
9
5
5
8
5
12
15
15
9
4
9
6
7
13
5
7
13
9
7
12
5
11
9
8
10
9
5
11
9
13
6
8
9
9
5
5
6
8
9
13
7
14
6
12
12
5
5
9
8
7
7
8
6
7
2
11
2
2
11
11
9
10
10
8
8
8
7
4
4
6
9
8
4
16
16
12
8
9
8
11
10
6
7
7
6
8
12
4
11
4
13
5
9
6
10
8
10
10
4
10
14
11
12
5
12
9
3
7
1
5
12
8
9
8
10
9
11
11
7
10
8
5
5
10
6
4
12
8
6
10
8
7
3
8
6
8
9
13
12
8
11
6
7
6
3
8
4
8
9
7
4
10
6
9
9
2
5
8
13
8
8
9
3
6
10
5
13
9
8
4
5
8
6
5
5
5
10
9
6
9
7
6
10
5
10
9
5
4
9
10
14
10
9
8
9
11
6
3
7
5
2
5
8
6
7
10
3
9
10
6
7
7
11
5
8
5
7
8
6
9
10
5
9
10
9
4
8
5
8
10
11
10
10
1
8
7
9
8
10
10
7
5
6
7
10
9
9
13
5
9
3
8
10
6
6
6
11
11
11
8
10
9
11
12
7
7
8
8
5
5
9
13
7
5
5
10
10
5
17
10
7
12
10
6
3
3
9
6
8
7
10
9
10
9
15
18
6
9
4
8
10
13
4
10
8
9
9
7
5
5
7
6
8
8
6
4
8
9
10
9
13
10
5
7
6
4
7
8
6
5
8
5
9
12
3
11
6
9
4
11
7
12
6
7
5
8
11
10
3
8
1
4
7
12
5
7
8
11
9
9
5
8
10
10
10
10
5
4
7
8
9
10
12
10
9
8
7
5
8
4
4
10
4
8
5
6
5
5
5
8
10
8
10
16
15
9
10
6
6
11
14
10
9
10
5
7
9
11
7
6
5
8
5
9
7
5
8
10
14
7
5
13
7
8
7
8
5
8
4
12
9
12
4
5
7
7
8
6
11
8
9
10
15
9
14
10
10
9
6
9
7
8
10
4
11
7
6
14
8
9
4
3
10
8
10
10
4
8
8
10
9
3
8
7
5
8
9
8
10
7
5
10
8
9
6
12
2
3
6
9
3
5
8
6
8
2
6
9
3
11
5
6
3
7
9
8
3
10
8
16
12
4
8
8
8
11
11
8
11
10
8
6
8
8
8
14
10
7
10
11
5
8
6
3
7
7
15
10
11
8
9
9
9
9
14
8
7
9
10
8
10
8
8
5
7
12
7
6
5
8
6
10
8
4
3
6
9
5
3
3
3
4
10
11
7
10
12
10
8
9
8
7
8
6
5
6
7
11
7
9
4
9
6
8
7
6
7
6
10
8
12
4
7
7
8
5
7
7
8
10
10
4
7
4
8
8
7
9
6
8
10
9
11
11
9
6
14
11
6
9
10
7
5
5
9
6
7
5
11
10
7
11
8
8
5
2
5
8
10
9
11
14
7
7
4
8
5
5
6
6
6
7
2
7
7
9
5
1
9
8
6
11
4
11
7
9
7
5
10
7
7
11
10
6
9
4
3
8
4
4
7
7
4
6
9
7
9
6
12
12
4
11
7
4
9
12
7
6
9
5
4
11
8
12
14
10
6
7
8
6
10
7
8
8
10
8
5
7
9
8
9
12
6
7
9
12
6
14
13
2
6
6
6
9
7
9
12
4
7
7
6
10
8
7
7
6
5
11
8
10
8
6
13
7
7
9
6
13
5
9
13
7
6
13
8
6
11
6
5
6
9
8
9
6
6
5
7
7
7
8
2
8
10
4
7
8
6
10
8
13
12
11
3
7
10
11
9
7
4
9
7
10
11
11
8
7
5
6
3
6
10
16
10
7
5
14
5
10
127
318
440
464
437
437
429
487
436
463
453
397
463
411
424
413
440
427
395
392
417
387
368
400
384
352
368
330
358
388
347
371
373
344
345
348
345
339
361
355
353
331
343
342
325
374
323
338
336
280
327
299
328
317
274
333
275
299
319
273
313
281
303
309
261
277
279
272
285
250
262
254
270
282
243
278
259
278
260
287
263
281
271
262
242
267
252
255
255
263
252
263
254
248
245
254
284
212
232
239
248
242
231
255
251
256
227
232
227
237
242
241
243
229
246
226
246
235
236
242
249
250
245
214
190
237
215
230
189
231
220
233
217
225
225
229
232
211
212
187
233
240
227
229
223
219
187
213
195
181
206
210
211
187
200
211
213
191
214
213
209
196
195
211
203
223
219
205
190
216
227
247
194
202
203
218
185
207
226
228
240
224
206
189
209
220
195
168
192
192
210
227
218
186
208
220
196
202
223
188
192
190
192
205
204
206
196
203
216
196
201
195
184
182
211
207
178
189
188
224
210
206
209
209
206
230
185
196
185
213
191
192
197
190
207
191
181
224
197
180
240
196
193
207
183
200
187
189
205
209
224
186
185
171
193
177
185
222
187
200
196
187
202
180
202
191
190
187
204
221
198
188
201
205
192
195
184
192
229
190
207
200
174
194
192
189
195
206
187
212
177
209
209
207
163
198
223
175
214
199
202
174
179
196
219
185
178
200
229
180
186
197
206
195
185
174
186
203
206
183
201
220
178
175
184
227
204
187
202
185
213
207
187
196
184
195
191
185
225
183
232
200
204
198
193
177
221
194
198
172
183
200
211
189
211
198
183
202
204
188
200
188
187
168
200
192
193
200
192
215
208
201
197
209
192
184
184
189
220
177
218
184
195
185
196
170
192
193
181
198
198
216
196
184
172
193
212
193
187
178
216
179
188
190
159
172
191
211
176
201
204
185
179
191
196
194
173
186
204
200
204
181
205
192
214
183
188
202
236
191
194
187
208
231
209
187
170
186
187
171
181
213
176
213
226
189
194
190
200
197
195
201
174
204
193
194
185
196
206
180
196
195
203
193
191
211
212
175
189
196
160
188
191
186
192
197
195
197
196
213
200
179
177
192
201
178
213
195
193
209
207
191
188
196
212
194
190
186
186
191
181
195
201
202
216
214
205
185
188
196
206
216
208
191
183
180
236
193
183
210
197
192
183
203
185
205
217
172
165
201
191
181
201
191
202
205
179
210
185
190
170
182
197
181
223
181
192
191
196
170
198
201
186
196
199
195
179
184
195
216
197
187
172
186
200
169
184
214
192
200
174
178
198
174
201
166
194
209
176
183
185
195
206
189
200
182
160
195
194
186
189
213
197
198
212
191
182
208
185
207
208
210
186
213
183
180
191
216
192
181
193
185
203
199
183
194
189
192
192
202
193
196
197
169
199
216
187
169
189
199
165
200
185
164
177
227
213
191
198
194
200
184
182
195
203
204
208
186
197
214
187
175
195
214
204
196
165
205
182
174
191
225
192
193
197
221
189
172
188
203
187
170
194
191
195
191
190
180
190
186
193
184
228
165
195
210
216
200
188
197
182
209
204
195
219
204
156
99
34
11
13
6
12
12
8
3
5
8
9
5
6
8
5
10
6
7
6
10
8
13
10
7
11
13
7
8
4
10
11
10
7
14
5
6
9
8
13
14
6
7
6
9
4
8
10
9
10
7
8
8
7
8
7
6
10
10
6
8
11
7
10
10
7
7
9
10
5
7
15
8
6
8
10
7
11
7
4
10
6
6
15
5
4
7
15
12
7
6
11
6
9
5
5
13
7
10
13
8
8
11
8
6
6
8
9
6
6
9
12
9
5
5
9
6
10
14
10
6
6
7
8
7
6
10
9
6
8
9
8
9
9
11
12
10
7
14
10
9
11
9
3
3
9
8
5
6
5
6
6
9
6
7
6
7
6
10
8
3
12
9
7
8
8
6
6
11
14
8
4
12
4
8
11
9
7
11
5
5
4
13
2
12
9
5
6
5
8
7
5
8
4
8
13
11
9
8
11
8
13
10
8
13
6
6
4
7
4
7
8
5
6
8
7
6
8
10
11
4
7
8
12
9
7
9
6
10
8
7
8
3
7
9
6
11
7
10
8
10
10
6
4
9
5
7
6
4
9
8
10
9
5
6
8
8
5
5
6
9
13
11
10
9
4
6
5
9
8
12
6
8
3
6
8
9
11
11
8
7
6
12
6
4
9
8
12
13
2
8
7
13
11
9
7
6
7
8
11
9
11
9
10
10
7
6
6
10
9
10
6
3
5
7
8
9
8
11
12
8
12
9
6
6
6
7
7
9
8
12
8
9
8
6
12
3
11
9
8
11
5
10
6
13
4
13
4
6
7
12
8
2
7
2
10
10
8
5
7
13
11
6
13
5
4
4
6
6
6
13
8
11
7
7
8
8
5
8
7
7
6
12
3
11
8
11
3
7
8
7
7
5
9
9
12
9
5
11
7
9
7
9
6
9
11
6
4
7
6
9
7
5
6
9
9
8
11
9
12
5
9
7
13
8
5
4
4
5
4
5
15
10
11
6
10
10
5
9
8
5
9
10
8
6
4
6
11
10
7
3
10
6
6
6
12
4
10
9
12
6
7
12
11
10
12
7
10
12
12
8
9
9
11
7
3
5
6
3
5
9
7
13
4
9
4
15
9
11
9
4
10
10
7
9
7
3
4
7
7
11
12
12
9
10
7
12
8
6
8
6
8
3
7
5
13
9
10
15
10
8
7
14
11
10
8
6
7
8
8
5
8
7
9
4
8
8
7
6
7
7
9
5
8
7
8
15
4
6
10
8
8
7
8
8
8
5
12
6
15
7
16
5
6
7
10
6
7
8
8
6
12
14
10
8
5
5
3
0
13
6
6
9
9
9
11
7
9
6
8
9
4
10
5
7
9
11
12
9
4
12
10
8
10
9
9
10
6
6
9
10
2
5
5
16
8
10
6
5
5
7
11
11
9
7
7
2
4
2
10
5
12
6
13
8
9
9
10
8
7
6
13
12
8
5
5
6
6
6
5
11
13
8
8
8
3
10
8
10
9
9
13
6
5
15
9
6
9
12
10
8
7
9
11
9
6
4
8
5
6
12
7
10
8
6
6
6
5
10
7
5
7
11
9
5
5
3
4
9
9
10
9
4
6
10
7
7
8
12
12
12
9
10
11
9
12
10
17
8
8
9
10
11
6
4
8
9
8
9
4
8
6
9
11
7
9
8
12
6
8
6
14
8
3
8
6
6
10
4
11
5
8
5
10
8
6
7
10
11
6
5
6
8
12
6
7
6
5
9
5
8
7
8
7
7
9
7
10
7
7
10
9
9
3
10
8
7
8
7
5
5
8
5
6
5
7
11
12
9
8
8
7
9
12
9
7
7
8
8
9
9
9
8
9
11
6
10
10
7
15
14
6
9
12
8
11
9
15
8
9
5
7
6
10
5
8
11
6
12
8
12
8
8
5
4
11
6
5
8
7
9
10
8
11
5
9
9
6
9
8
6
4
9
11
6
12
9
8
5
9
5
4
10
6
5
9
13
10
11
9
6
7
7
10
6
6
5
9
10
5
8
11
11
7
10
10
6
6
10
11
5
6
5
13
8
8
10
10
14
10
4
6
5
10
11
6
11
10
6
4
10
9
6
6
9
2
10
12
6
9
11
7
8
10
7
13
10
8
5
2
8
6
11
8
12
6
10
8
11
6
4
3
7
5
10
14
7
6
7
4
9
10
6
8
8
10
4
8
7
5
8
5
8
11
3
10
7
10
10
6
7
6
5
9
9
7
8
11
10
11
9
14
12
11
5
5
4
7
12
7
8
10
5
9
9
4
10
15
7
8
9
8
4
6
16
6
8
4
7
9
3
11
11
5
11
5
7
6
9
7
4
10
10
10
5
6
12
5
1
9
11
8
4
5
8
22
139
395
622
668
683
637
631
610
634
607
586
595
594
552
585
579
564
556
531
501
504
544
526
507
483
479
459
490
489
490
462
455
437
433
421
462
446
412
417
397
400
410
433
397
443
366
402
361
387
359
381
389
369
369
378
368
368
390
384
322
341
331
339
331
341
328
356
343
300
293
293
307
295
334
301
307
304
303
308
320
295
314
300
305
293
304
291
277
275
273
281
301
313
269
251
291
284
300
275
248
308
284
267
290
264
278
277
262
266
257
241
243
251
255
257
286
266
267
253
265
242
226
245
237
222
247
235
256
247
243
240
235
267
252
243
263
239
236
229
254
264
232
236
277
249
246
228
242
268
224
243
244
233
241
278
246
232
246
227
242
256
254
249
241
230
231
230
208
228
232
206
208
217
219
240
230
245
235
233
221
215
236
234
257
217
233
218
233
226
252
241
233
233
219
236
228
212
238
233
218
224
236
219
208
213
224
239
212
216
234
224
211
192
225
244
228
232
204
234
213
214
230
204
226
214
220
247
231
222
208
196
235
216
209
210
233
231
231
238
188
233
222
226
217
229
218
221
228
228
226
228
198
195
220
226
218
234
228
232
229
189
209
210
223
196
228
213
212
208
215
226
229
223
209
224
234
206
229
255
211
233
217
232
239
239
226
235
236
245
193
198
234
214
227
218
244
231
227
222
227
216
246
239
231
186
219
226
220
220
219
210
234
203
222
238
221
218
211
248
205
199
207
232
209
228
210
202
217
199
192
225
235
219
254
195
205
222
210
222
204
220
228
213
199
207
227
214
227
216
208
233
241
210
211
192
217
193
243
235
205
225
237
217
218
221
209
217
234
237
243
220
223
201
213
228
255
202
216
193
223
246
212
198
218
229
226
230
228
213
228
218
217
205
206
228
228
229
233
211
230
199
213
195
206
203
226
200
233
221
209
224
240
202
210
212
221
198
218
221
248
214
227
243
220
215
215
213
225
240
227
204
210
206
195
200
199
224
223
220
214
213
213
223
211
222
222
227
211
209
205
216
224
210
233
219
215
205
211
213
228
208
220
204
205
211
227
230
204
211
217
232
224
243
194
205
204
226
218
202
233
203
228
183
244
229
225
244
199
198
250
235
217
190
207
204
250
202
214
240
227
218
233
206
236
210
223
212
218
221
208
241
213
221
217
214
207
186
188
236
238
242
235
204
259
208
200
237
215
232
206
219
188
223
208
225
220
226
231
217
232
239
204
211
234
202
222
228
216
226
221
233
246
224
222
219
197
253
233
208
220
203
214
215
210
202
216
210
216
223
206
213
227
218
208
212
215
190
206
209
226
244
218
222
234
241
235
240
228
242
251
220
208
178
216
204
193
223
241
197
234
230
213
238
204
211
226
228
189
195
199
199
230
232
219
209
208
236
224
240
226
211
193
186
219
207
231
207
215
231
218
239
208
234
201
203
202
225
183
226
210
200
204
181
204
218
219
236
211
201
234
223
233
202
228
226
201
213
214
218
223
237
195
189
245
223
200
212
233
225
238
234
235
231
209
217
212
215
213
237
213
206
221
207
220
206
219
223
217
231
224
195
207
197
235
247
222
208
145
42
11
15
11
10
5
7
12
12
11
7
7
7
7
14
10
11
4
11
5
4
8
10
4
8
5
10
7
7
6
6
12
10
11
13
5
4
7
11
14
9
12
12
7
11
4
7
5
9
7
4
9
8
10
15
11
11
13
9
9
5
7
10
7
10
7
11
14
8
8
7
13
7
6
8
7
19
9
16
8
16
6
12
6
14
6
7
5
5
10
11
11
11
11
10
10
10
12
6
5
9
6
4
6
2
10
10
12
9
8
11
6
6
10
11
2
2
4
6
5
12
16
11
11
14
8
7
8
5
10
9
10
6
7
6
8
7
11
2
11
5
8
8
7
3
6
6
9
11
6
7
10
1
10
8
9
7
9
12
4
7
10
14
9
12
14
2
7
12
3
12
13
6
6
4
4
4
17
3
9
5
11
9
12
2
10
10
11
12
6
7
8
10
9
11
9
6
7
9
9
4
6
6
8
8
6
9
9
14
7
4
8
11
7
2
9
4
12
8
7
9
4
10
7
12
3
16
9
9
5
8
12
9
7
9
11
14
9
9
7
6
9
10
10
9
4
9
7
9
9
6
11
10
9
10
4
15
4
7
6
9
8
5
11
6
7
8
9
10
4
8
4
4
5
8
7
6
6
10
6
11
5
7
11
6
9
8
10
12
4
10
10
6
8
7
8
10
9
9
10
9
7
9
9
13
8
13
7
14
7
6
9
7
5
13
8
12
11
12
8
8
8
9
7
5
4
6
12
9
2
9
9
5
1
9
9
6
7
11
11
3
4
13
6
10
7
7
9
8
6
6
10
7
11
7
12
6
9
6
15
7
5
13
12
10
4
12
13
4
7
13
4
9
11
11
6
13
7
7
8
4
8
6
5
4
8
9
10
5
9
8
7
8
9
9
8
5
11
7
10
10
7
6
10
10
15
10
13
6
8
6
13
8
8
5
6
5
10
6
7
2
11
7
6
5
10
8
4
10
8
10
5
11
10
8
8
11
8
11
8
11
12
7
4
10
11
6
13
9
8
7
10
8
14
4
3
5
5
7
12
10
6
8
11
4
6
9
9
10
4
18
5
11
9
7
6
8
9
7
8
6
7
5
6
8
8
11
7
4
12
5
14
10
7
15
6
11
6
15
3
10
5
8
5
9
4
6
5
5
14
5
7
5
7
5
12
8
5
9
9
13
6
10
2
7
9
10
8
2
9
5
9
3
5
4
5
6
7
8
11
11
5
19
8
4
17
6
12
4
7
11
5
11
4
9
5
13
8
5
10
10
6
13
9
4
5
9
12
8
8
9
12
11
11
4
5
6
9
6
6
7
7
8
8
9
6
9
6
5
9
5
8
5
11
5
6
14
11
12
9
6
9
6
3
5
3
7
8
7
9
10
7
11
5
10
5
8
11
9
9
12
14
6
3
8
5
3
8
9
12
9
3
13
7
8
13
9
5
8
7
7
5
7
8
9
9
4
7
7
7
5
7
13
9
7
11
9
6
7
9
8
7
6
6
9
9
4
2
7
4
6
8
6
7
8
11
6
5
2
9
7
5
13
8
8
4
6
5
7
7
2
18
9
6
11
12
9
7
5
7
6
13
10
4
11
13
4
8
8
12
7
9
8
7
4
6
7
7
12
6
5
11
12
8
11
6
10
5
9
4
12
12
2
7
10
10
8
9
4
8
7
12
5
7
10
2
8
13
10
9
7
8
8
13
9
10
7
8
9
2
10
5
4
7
6
6
3
5
9
8
4
4
9
8
6
6
8
6
4
10
8
9
9
9
8
3
3
7
4
8
7
10
13
8
8
7
8
7
12
12
4
7
4
11
8
7
10
12
8
8
10
2
10
6
7
8
9
12
8
6
12
10
3
9
13
9
9
4
7
13
9
6
6
4
6
9
7
8
9
7
10
11
8
10
17
9
13
11
9
6
6
10
5
8
12
6
5
6
6
8
8
8
9
8
7
9
7
4
7
9
10
7
8
3
8
6
8
12
8
9
4
9
6
5
7
4
14
7
8
9
7
13
6
8
8
5
7
9
8
6
7
10
11
12
9
8
12
5
10
4
11
6
8
7
9
4
8
9
7
14
5
11
8
8
4
6
9
6
8
7
6
8
13
2
7
8
3
7
10
7
7
7
8
6
7
5
5
7
12
7
9
5
6
9
7
7
7
8
0
8
15
10
10
6
11
8
6
7
14
6
10
9
5
5
8
8
5
13
6
8
10
10
5
7
3
13
10
12
6
9
9
10
8
7
6
9
8
13
7
7
9
4
11
7
7
5
4
4
8
3
8
10
8
3
9
5
11
7
6
9
7
6
6
6
12
6
10
6
3
7
10
9
7
6
5
8
8
11
6
2
9
9
7
11
8
90
405
746
812
841
841
862
819
785
776
771
752
745
749
737
681
674
648
688
634
620
621
565
587
606
566
604
583
537
584
604
535
511
518
505
486
467
499
468
501
486
481
428
467
447
451
423
404
434
437
419
428
401
385
390
386
424
376
386
398
364
384
389
373
355
352
361
343
348
318
381
344
321
304
333
306
312
342
332
309
321
346
322
301
330
309
297
324
313
308
276
283
268
289
297
329
297
283
300
277
314
293
254
293
282
296
291
307
282
296
296
271
279
290
281
288
288
295
277
273
241
294
267
250
299
261
255
241
297
268
256
230
287
267
245
262
230
256
267
286
255
290
236
238
232
244
261
235
229
246
211
242
254
233
238
278
241
257
233
278
233
256
264
226
236
242
226
262
246
281
269
255
230
231
201
227
240
225
263
246
257
270
242
261
251
230
260
258
258
241
224
234
236
259
230
237
252
249
269
234
240
246
259
251
243
220
229
243
257
235
231
258
219
256
232
285
262
223
258
199
236
228
247
232
248
234
239
239
242
250
246
235
260
245
241
215
205
264
241
225
225
248
203
237
244
209
224
247
235
231
230
233
243
246
236
247
253
241
280
225
239
222
229
251
252
252
208
244
230
243
238
203
226
246
238
209
257
233
239
246
253
244
252
215
202
247
215
230
251
258
242
246
237
220
228
239
227
223
222
234
258
241
249
220
240
234
246
224
254
223
222
230
208
217
237
234
223
228
251
229
254
235
256
246
238
264
230
243
268
244
231
238
216
233
227
265
237
275
233
249
243
251
238
232
241
214
298
253
258
208
244
257
249
233
238
225
242
264
216
238
222
222
249
274
253
232
228
222
225
232
229
248
230
249
251
228
236
259
244
251
244
208
219
234
254
248
228
239
233
249
225
222
231
255
232
226
251
226
235
242
234
256
246
234
229
262
257
224
229
216
231
220
243
242
246
231
228
223
230
245
229
244
238
257
228
222
230
234
242
241
256
231
241
228
225
227
241
244
250
247
244
245
238
232
247
239
216
238
273
229
265
223
245
229
245
233
248
226
228
233
234
242
250
223
251
249
231
261
239
229
235
242
255
243
212
248
252
231
223
243
221
241
257
249
248
245
220
239
222
252
241
253
265
241
245
246
240
229
242
241
237
244
267
211
249
247
239
254
235
239
260
247
232
240
242
229
253
253
249
255
224
239
263
239
244
223
213
242
246
236
230
228
241
227
238
216
249
226
232
220
242
238
234
241
232
255
237
240
249
248
226
269
237
206
231
240
248
216
239
235
257
264
239
239
245
250
236
247
258
231
257
237
247
259
248
249
245
225
233
288
229
237
244
255
240
235
261
215
243
235
255
232
232
228
243
259
230
227
250
258
226
276
236
231
235
223
228
239
248
232
218
212
222
271
244
253
251
254
254
242
244
277
237
231
227
230
222
227
248
227
228
251
217
217
247
265
246
204
257
227
245
244
255
221
239
247
245
218
215
243
268
238
239
243
246
236
263
250
237
237
256
211
214
234
261
261
217
217
236
260
231
211
243
252
251
228
267
230
211
261
272
236
216
234
260
260
281
245
245
264
250
238
238
222
239
217
239
153
70
16
8
11
6
13
3
13
9
11
12
8
8
9
9
5
9
12
11
9
11
9
6
10
3
7
20
8
9
9
13
7
11
11
7
3
8
5
11
11
9
9
5
11
8
8
9
10
7
11
7
14
9
10
14
8
7
10
7
8
6
9
12
6
8
4
7
9
3
8
9
4
7
11
8
8
6
8
7
14
9
9
4
7
10
8
11
7
7
8
6
12
8
8
7
5
12
10
14
7
9
9
6
5
11
10
17
7
12
6
13
5
10
8
7
7
6
4
8
11
12
3
8
5
8
7
5
16
8
10
8
3
11
10
8
16
4
10
7
5
8
11
5
5
10
4
12
6
10
9
8
11
9
9
9
9
12
8
7
6
10
8
7
10
8
5
14
9
10
14
10
11
7
15
7
4
8
7
14
4
10
14
4
10
5
10
11
11
9
8
13
11
8
10
12
3
10
10
9
5
9
3
6
9
8
9
7
6
10
10
6
12
11
10
9
13
11
11
8
10
10
11
13
7
10
8
5
8
8
8
8
8
9
8
12
14
11
3
9
5
10
7
8
9
3
15
10
5
10
7
8
6
4
8
9
7
7
9
5
8
9
7
10
10
8
10
13
10
9
7
8
10
14
5
5
7
6
7
13
9
7
9
8
8
18
6
10
9
9
8
6
7
12
7
6
5
12
5
9
9
6
12
11
2
7
12
10
9
11
7
9
14
8
9
9
6
5
6
14
8
11
6
7
11
5
8
6
8
12
9
13
9
12
10
7
7
6
3
9
11
7
12
8
18
8
11
10
8
12
8
10
8
7
12
6
13
6
8
5
8
9
15
8
12
11
7
8
7
6
9
9
5
8
10
9
9
10
14
6
4
11
7
6
11
5
9
6
7
9
9
12
4
8
7
7
10
13
11
9
8
6
6
8
8
10
12
6
10
9
10
10
8
7
9
4
3
7
11
7
10
6
4
10
8
7
8
2
11
10
9
7
10
11
6
5
8
6
4
6
4
6
7
11
7
5
8
8
7
3
1
8
5
6
6
8
6
6
6
6
8
5
5
9
10
10
7
17
5
10
10
7
6
6
7
9
6
7
6
8
6
4
9
8
8
5
5
8
4
5
6
8
7
6
7
12
9
11
14
6
7
8
8
9
9
8
6
3
9
8
8
4
9
9
10
11
7
6
11
9
10
9
5
11
7
5
10
5
11
7
9
11
6
7
12
12
6
9
12
8
5
7
8
8
9
6
7
5
10
18
6
6
16
10
8
8
20
8
4
7
10
6
10
8
6
6
8
6
11
6
8
9
6
9
9
8
11
10
7
10
8
8
5
11
6
3
12
17
9
8
6
8
16
10
5
6
12
10
9
4
6
7
6
7
6
6
13
6
4
9
11
8
5
6
9
7
9
5
7
10
9
12
6
6
11
4
10
5
10
6
8
14
6
5
4
5
10
8
8
7
10
5
8
6
9
12
8
2
13
7
7
7
9
8
6
11
10
4
6
7
4
12
12
6
10
8
9
9
8
8
5
11
5
12
4
6
12
8
3
5
12
10
13
6
5
7
8
11
9
8
8
5
11
12
9
8
11
6
9
6
7
11
11
11
6
6
4
12
6
10
6
7
6
6
6
14
6
6
4
7
13
4
5
9
6
8
7
8
5
8
9
9
6
7
9
3
10
11
11
9
5
7
9
10
8
5
12
4
4
10
10
6
12
5
6
7
8
11
7
4
8
10
8
8
7
11
7
4
4
7
8
5
8
7
7
12
9
7
7
4
7
9
12
4
10
7
12
16
6
12
10
3
9
5
10
10
8
5
11
9
5
4
14
13
11
17
10
7
10
6
9
8
7
7
7
12
10
3
6
9
6
4
9
8
3
7
5
8
11
16
13
11
5
12
5
7
2
4
9
7
13
9
13
14
5
6
8
6
8
6
8
8
17
5
13
7
8
12
2
6
9
11
8
9
7
12
3
5
8
12
7
8
6
7
14
12
8
9
3
8
5
7
11
9
6
7
11
11
3
8
6
10
2
13
4
5
10
8
10
7
7
10
8
4
7
8
11
8
6
5
5
13
7
13
10
9
8
2
9
7
5
7
2
11
7
5
11
10
7
11
9
16
10
6
4
13
10
7
9
6
4
6
5
11
8
2
13
8
3
9
10
6
6
14
9
5
4
14
4
5
4
6
8
11
5
5
4
5
8
8
4
5
12
6
10
10
7
9
15
12
5
7
8
3
13
8
8
11
10
8
7
4
4
6
8
13
7
8
8
9
10
9
8
6
11
10
3
7
9
10
7
7
12
15
4
7
10
8
8
6
4
12
7
11
7
1
6
9
11
6
10
9
11
8
7
11
8
9
7
9
6
11
9
5
6
10
9
8
6
9
10
12
15
10
10
11
13
11
6
10
6
11
5
12
10
4
6
7
6
