12
7
11
8
5
21
45
55
43
49
47
45
50
48
51
39
39
39
41
41
43
48
33
43
33
35
24
36
36
29
42
38
27
37
32
42
26
34
29
32
34
29
24
25
31
33
38
26
19
22
32
28
24
30
25
31
24
31
32
38
26
23
34
31
33
32
29
24
25
25
25
24
31
22
42
23
30
43
31
30
31
24
25
29
30
29
19
24
23
33
33
33
21
32
25
26
22
29
24
30
22
28
29
38
31
27
29
29
33
36
31
29
29
18
26
29
26
23
31
28
31
19
27
32
26
29
29
19
29
33
33
37
25
28
36
29
20
35
29
36
35
24
24
24
27
28
28
22
24
23
27
22
26
30
28
27
22
22
34
19
38
21
23
22
19
26
19
32
20
29
32
32
24
26
28
28
24
32
29
28
29
25
22
24
29
19
24
27
25
28
28
31
28
26
19
33
35
26
22
37
27
26
19
26
29
34
26
29
25
27
14
26
21
11
24
32
21
31
26
33
25
21
28
35
35
22
28
26
22
30
22
29
36
31
29
31
32
32
27
38
30
26
22
25
25
26
20
29
35
25
33
27
34
25
20
18
38
24
21
31
18
31
32
33
24
31
27
36
33
24
31
21
29
25
22
26
25
33
33
29
29
28
26
25
25
28
38
22
21
24
28
29
23
29
25
23
23
33
35
20
30
30
29
22
26
37
26
28
28
27
29
25
25
23
28
25
37
14
28
20
18
32
23
25
26
29
34
25
32
28
30
29
24
24
34
27
21
28
22
23
41
15
24
24
26
32
26
37
32
25
27
29
20
27
25
26
22
30
25
30
19
35
33
26
28
38
30
25
25
21
33
31
37
26
29
27
30
24
23
38
27
31
21
25
29
34
24
36
37
31
19
39
27
26
21
29
25
29
24
33
25
34
28
21
25
29
27
25
28
25
27
23
26
37
25
19
29
15
25
28
21
30
35
35
33
31
30
27
24
25
36
19
29
32
16
19
24
22
22
27
24
34
27
31
26
33
30
32
33
20
25
33
36
28
25
35
31
35
22
26
20
30
23
24
34
43
41
35
28
27
28
24
25
19
29
28
19
19
24
34
25
27
32
24
26
32
30
26
27
28
31
26
21
27
27
32
26
24
31
31
28
32
32
19
26
38
32
27
24
27
23
27
30
24
25
18
28
30
24
36
26
29
29
27
32
21
24
37
17
29
26
30
28
21
32
27
35
31
19
20
25
26
31
29
22
29
30
22
49
20
33
29
33
26
30
29
29
31
35
32
24
24
25
22
29
41
26
20
35
22
28
31
21
20
21
33
30
20
33
31
28
21
37
19
33
32
25
21
23
34
30
29
23
29
36
22
28
38
28
36
28
24
26
29
38
26
26
33
27
37
24
22
25
30
29
30
26
24
41
20
16
31
27
30
39
24
14
20
35
25
35
30
25
27
33
31
23
27
19
25
25
34
21
33
27
34
34
26
29
20
25
35
29
31
18
19
20
27
37
32
26
22
18
26
28
35
25
24
36
28
31
25
28
33
29
41
30
28
30
26
30
19
34
24
29
23
30
23
30
32
34
26
28
25
29
25
37
29
21
35
26
23
11
5
7
11
6
8
8
11
6
7
6
8
5
4
6
10
5
4
7
6
11
7
5
7
7
6
10
10
9
6
8
5
9
10
9
6
6
7
10
6
8
9
7
8
10
8
4
5
8
6
11
8
9
6
10
10
5
5
7
5
6
4
4
14
6
6
12
7
11
4
9
9
9
9
6
9
15
11
5
8
10
11
10
8
13
9
5
8
6
12
9
7
8
9
16
7
8
10
5
14
8
11
11
11
10
13
9
7
7
8
7
6
11
12
5
8
6
11
6
16
6
5
9
7
6
8
5
10
7
13
8
6
5
7
7
8
9
8
9
5
10
7
12
5
6
8
9
6
7
8
8
4
12
6
4
4
7
9
4
7
12
9
9
11
7
7
6
10
11
7
11
7
11
6
7
4
11
7
8
7
13
6
10
10
5
8
11
5
6
12
5
8
7
6
6
6
6
6
10
10
9
7
11
12
6
9
10
12
7
7
7
8
7
8
9
5
12
3
1
15
6
9
5
11
4
8
4
5
6
11
8
4
10
6
2
8
10
15
2
8
3
11
7
7
11
10
6
6
8
5
12
8
5
9
10
7
11
6
5
9
7
9
12
9
7
7
2
6
5
18
8
4
7
15
4
7
5
12
4
7
9
13
3
12
6
8
5
8
6
15
10
9
10
8
8
14
6
14
8
7
8
4
6
9
9
5
9
3
6
3
8
10
8
5
9
10
7
13
13
7
8
4
3
3
4
11
9
6
12
7
4
11
5
6
14
7
12
3
12
6
8
3
12
10
5
9
8
8
7
10
7
8
6
6
2
7
7
6
4
3
7
7
8
9
13
5
7
8
7
9
7
4
5
7
4
4
9
11
12
8
7
11
10
7
7
8
5
5
7
9
7
6
4
4
11
12
9
6
6
12
11
6
11
8
9
12
6
7
7
2
5
12
6
8
10
7
7
3
11
11
9
7
6
8
12
12
9
7
7
6
6
9
5
11
7
12
12
6
7
4
11
11
11
8
7
4
4
8
6
14
9
8
7
9
15
6
9
11
11
7
7
6
5
6
13
8
7
10
3
10
10
4
4
8
11
4
6
6
6
6
11
4
7
4
11
10
7
6
5
2
10
9
14
8
5
4
5
7
8
5
9
7
8
9
8
5
13
7
10
5
9
6
3
11
8
7
8
8
11
7
6
5
13
4
9
4
6
11
4
10
9
6
11
9
6
10
8
6
7
9
8
7
5
5
8
13
8
3
7
8
8
12
9
11
10
6
10
7
4
11
4
5
11
6
8
10
9
8
9
8
7
4
8
5
6
11
14
5
8
7
7
3
9
8
6
10
9
11
7
4
11
12
8
8
6
7
6
11
4
6
6
7
5
8
2
13
5
5
7
2
6
5
7
11
11
9
7
9
16
7
5
8
13
10
8
4
3
6
6
5
8
4
13
4
9
9
9
10
14
11
10
6
6
9
7
10
8
10
4
12
4
7
10
10
11
3
8
11
6
11
8
6
14
4
8
12
7
4
6
12
8
7
7
2
7
10
11
8
11
5
8
9
6
8
12
8
6
7
7
6
11
7
10
9
12
9
10
7
6
7
8
14
9
6
8
10
16
6
11
8
7
6
11
12
8
10
12
6
8
8
16
4
8
12
7
7
10
7
8
6
6
10
10
10
6
4
9
5
11
5
7
5
7
7
3
9
9
15
7
8
11
4
6
6
7
12
9
7
2
9
13
5
5
7
10
5
8
6
4
9
7
6
6
11
9
6
6
9
11
10
4
6
13
7
9
6
7
10
6
9
3
10
7
2
10
7
8
6
10
7
12
6
6
9
6
5
10
8
9
10
6
9
6
6
6
12
4
8
14
3
7
7
8
11
7
3
7
3
8
10
10
7
6
10
9
6
9
5
3
6
5
8
4
5
5
7
8
7
8
10
8
8
11
9
12
8
7
4
6
7
4
8
10
14
7
10
7
10
8
8
9
8
14
7
8
12
10
14
12
8
6
7
5
10
10
3
9
7
9
5
10
8
6
9
6
5
5
10
8
12
11
9
5
9
3
9
5
8
11
10
5
6
8
10
5
12
5
8
13
5
8
2
4
6
2
11
6
8
9
4
11
17
11
10
11
8
7
6
10
6
15
3
11
3
10
10
7
7
10
7
11
10
13
6
10
4
11
11
4
6
9
5
8
5
10
8
4
6
8
9
12
4
5
11
6
8
7
4
3
9
5
5
6
6
7
6
6
7
4
8
3
9
5
10
7
8
8
11
7
11
8
8
10
13
5
7
5
6
12
10
7
4
2
12
6
3
6
6
10
5
12
6
5
9
12
2
8
10
8
12
6
7
10
8
7
7
11
2
10
5
14
3
12
7
10
6
34
58
75
91
71
79
77
69
64
86
65
57
62
55
57
50
70
48
56
40
44
61
44
44
48
62
47
50
46
62
40
42
36
34
37
42
31
33
34
48
37
36
40
37
37
37
48
28
36
52
46
38
38
38
35
37
33
50
47
40
42
44
46
46
45
43
37
55
38
38
41
55
41
53
42
44
39
43
38
46
46
35
43
31
48
35
32
43
45
44
34
46
37
44
24
38
44
36
47
37
48
43
47
47
49
37
55
46
40
42
54
43
47
54
42
54
33
52
39
45
43
48
33
44
49
47
41
43
53
39
35
50
61
46
45
38
38
37
45
44
47
41
37
42
44
56
38
42
41
47
45
40
39
45
43
49
42
37
45
30
28
46
41
46
42
51
49
43
34
30
55
39
32
37
47
46
42
42
54
42
43
54
34
51
55
39
47
40
37
36
47
33
39
45
36
47
39
40
49
30
43
43
42
46
31
41
44
30
41
39
35
40
50
52
47
59
38
40
42
39
40
48
47
35
47
32
48
43
38
37
41
43
30
44
36
40
41
38
49
37
38
54
52
38
48
38
49
36
40
42
58
51
47
49
43
46
48
49
37
49
53
42
50
54
49
46
37
44
51
38
39
36
42
47
49
46
45
51
37
29
41
36
36
47
41
39
39
52
49
59
48
41
36
50
38
53
46
40
36
50
54
48
53
30
34
52
28
42
44
43
37
48
41
27
44
40
38
47
59
35
58
37
41
45
52
55
44
33
46
44
33
49
38
31
48
34
54
44
58
28
38
51
46
54
38
44
37
41
49
42
54
41
44
33
42
50
50
42
39
45
52
36
43
54
42
44
47
33
42
35
48
41
55
44
45
46
40
37
51
51
49
51
40
42
47
53
39
49
43
42
40
46
39
35
53
41
42
63
50
42
47
43
46
54
52
48
43
51
45
37
38
44
39
43
45
41
44
52
53
49
52
34
42
41
48
47
27
44
43
59
30
53
38
35
42
57
58
46
41
43
39
38
44
47
41
55
40
57
40
46
43
37
41
43
55
44
47
43
43
40
52
41
47
45
43
44
45
47
53
38
42
45
45
42
52
51
46
53
41
55
43
49
41
56
41
40
41
48
42
35
35
33
40
47
54
48
53
42
44
42
46
53
46
50
31
46
51
43
48
41
38
40
33
39
47
43
39
48
42
36
39
39
50
49
56
48
41
41
49
43
50
35
39
40
53
37
48
42
41
50
45
37
50
49
32
43
38
40
44
47
40
45
44
42
45
42
38
44
49
41
48
34
40
51
36
46
34
46
46
45
38
52
38
39
48
55
40
45
37
40
42
42
36
40
41
50
51
37
48
39
46
47
51
43
39
44
34
40
45
45
40
40
40
44
47
42
37
47
34
44
51
43
44
46
46
55
40
38
34
43
43
45
41
48
39
40
34
41
50
53
51
53
40
35
41
41
40
47
46
39
59
48
42
48
46
52
44
41
41
40
37
37
48
50
47
45
41
53
40
40
39
34
40
47
33
51
45
48
41
41
52
55
32
57
38
45
36
49
34
41
44
43
49
45
39
39
47
42
41
34
42
46
50
51
38
33
30
28
10
11
12
9
9
5
10
11
8
5
8
7
8
7
10
6
8
9
14
6
10
10
9
6
7
7
8
6
6
9
7
8
7
14
10
8
6
8
6
5
11
7
9
11
13
11
7
11
8
8
5
6
7
11
8
11
7
7
5
7
5
9
10
9
10
7
18
10
6
7
12
6
9
13
7
16
8
11
11
9
5
8
7
7
5
6
3
5
15
8
7
14
9
7
8
5
10
6
8
12
9
5
8
5
10
6
7
6
5
13
12
9
5
6
6
11
6
6
9
9
9
7
5
5
7
12
12
16
3
4
7
11
11
9
10
8
12
11
8
11
11
6
6
9
5
9
7
9
9
3
5
8
9
8
16
8
7
8
12
4
8
6
4
6
8
6
3
6
6
6
8
9
6
7
5
7
13
16
7
9
8
4
6
14
7
8
10
6
9
9
13
8
8
11
7
7
6
10
14
9
4
10
3
9
9
12
4
5
6
7
3
7
12
4
3
8
7
6
10
12
10
10
5
7
7
5
7
7
6
7
6
10
9
6
6
6
13
9
0
5
11
4
8
8
5
6
6
5
5
9
4
8
9
4
7
10
5
11
10
9
7
11
8
5
8
15
11
9
12
9
12
8
14
16
7
8
2
6
7
3
6
7
9
5
2
9
4
8
6
9
4
11
11
11
5
12
7
8
2
10
9
14
8
5
6
7
6
11
6
9
9
7
11
4
15
7
5
14
4
11
9
6
4
7
9
10
4
5
8
13
6
6
15
10
6
8
8
6
12
11
7
4
10
7
3
3
5
5
10
10
5
10
1
10
9
6
7
6
6
5
12
8
10
6
9
9
9
4
7
11
3
8
6
10
6
7
8
6
10
8
9
9
4
9
6
11
8
7
6
6
3
7
11
9
8
8
8
7
7
7
6
9
6
6
6
6
4
7
7
9
7
9
3
3
8
8
8
6
12
10
12
9
7
12
6
8
10
9
8
8
10
8
6
11
8
8
7
11
8
6
8
12
6
4
0
5
8
9
10
7
10
5
12
11
6
8
6
4
9
7
5
13
4
3
11
3
7
5
4
10
10
14
12
9
9
13
8
7
10
8
5
8
7
7
6
5
8
6
9
4
12
6
13
4
6
8
9
9
7
7
8
11
9
6
3
9
8
4
8
11
5
9
8
3
8
10
3
8
7
11
4
6
3
10
3
10
6
7
6
9
11
13
7
6
7
6
2
9
6
9
5
5
8
10
10
6
6
4
3
8
8
12
3
4
6
12
3
11
5
4
6
6
2
10
8
11
1
8
4
7
7
5
11
10
6
5
4
9
6
8
10
10
9
6
8
5
8
6
9
3
5
7
6
8
6
10
10
12
10
8
7
6
6
9
7
5
8
11
6
8
6
11
10
2
10
11
6
7
9
8
4
6
8
11
5
6
5
8
10
5
5
7
5
9
4
7
5
13
6
11
10
12
7
11
9
7
8
6
9
11
8
9
5
6
16
3
13
7
6
11
10
7
7
11
9
9
4
12
9
9
7
11
3
7
8
7
9
8
9
9
7
8
5
9
9
9
7
13
9
4
11
9
8
11
6
12
9
5
9
8
5
10
8
11
8
6
6
7
6
12
9
7
8
8
9
9
13
4
4
9
10
7
3
11
12
8
7
11
7
9
8
6
7
13
9
10
9
7
8
8
13
8
6
11
2
5
11
6
9
11
12
11
6
13
10
5
15
7
10
10
4
4
9
4
6
14
5
5
13
5
9
8
12
8
11
10
3
12
5
12
9
8
12
7
14
12
3
4
5
7
7
4
20
7
5
9
4
3
6
6
7
3
14
8
9
13
8
3
9
10
3
10
3
12
6
8
8
5
5
7
9
7
15
6
5
11
6
4
7
6
8
9
12
12
12
2
12
13
5
18
6
9
6
4
8
9
9
10
13
5
11
13
11
9
11
8
9
5
7
5
8
12
9
8
8
11
9
7
10
9
9
7
7
16
11
8
7
7
9
7
13
4
9
5
10
14
10
14
4
9
6
5
9
8
9
6
9
8
9
8
7
5
8
6
4
7
9
7
5
11
11
6
5
7
7
8
5
14
9
12
3
8
13
8
9
5
4
9
10
6
12
10
13
7
10
7
5
5
11
11
2
7
13
5
8
5
11
5
6
5
6
10
7
10
7
6
13
6
9
10
8
11
4
10
1
5
8
7
10
8
10
8
10
7
10
11
14
7
9
8
8
7
6
8
8
5
3
9
8
8
8
6
16
9
14
5
8
7
10
10
5
11
7
8
5
5
6
3
7
6
13
10
7
4
4
8
3
6
9
9
4
6
9
6
3
10
9
4
7
8
5
10
7
6
5
5
9
6
11
8
9
6
8
8
11
34
74
112
94
94
80
78
81
81
73
66
65
75
79
62
60
61
60
81
66
67
57
52
56
57
57
51
61
54
60
63
49
62
58
49
52
65
54
67
40
59
58
56
63
45
39
62
61
51
53
44
48
53
54
51
51
65
57
39
67
59
59
70
53
53
47
42
50
45
65
64
62
58
53
60
52
68
55
69
53
62
52
56
60
72
41
58
48
48
62
59
51
50
63
68
61
52
55
39
58
51
44
53
68
58
59
54
65
48
41
49
50
61
71
61
39
58
55
61
54
56
57
62
51
62
51
47
51
63
55
57
57
46
58
52
53
56
55
49
46
43
54
59
44
62
53
50
54
62
54
58
48
44
64
61
60
59
58
68
73
57
61
54
65
48
52
59
57
60
45
57
52
52
56
51
50
52
56
66
52
61
60
48
45
59
48
56
58
59
63
56
66
68
51
69
47
54
50
50
56
57
66
54
53
56
56
71
59
55
59
60
58
44
63
48
58
40
60
63
49
60
65
50
74
47
69
62
59
67
56
54
55
50
59
47
39
60
54
64
56
52
66
45
57
53
59
63
48
65
69
34
55
47
55
68
54
49
41
65
58
47
73
54
55
63
61
54
53
49
62
56
52
44
60
49
51
40
67
54
52
59
49
54
53
70
56
63
57
50
61
65
45
41
56
74
61
51
66
65
44
63
53
57
57
50
53
53
77
46
76
56
62
53
56
67
49
58
57
72
63
56
64
56
67
58
55
44
48
55
60
61
49
55
63
61
45
57
61
57
54
58
63
52
48
58
44
63
63
41
43
51
59
46
51
64
52
44
50
66
52
51
71
54
54
48
54
53
50
53
64
62
59
66
59
55
60
69
55
53
49
54
49
63
54
48
57
57
70
49
49
58
41
40
52
52
59
57
55
57
52
65
52
63
61
72
54
64
70
58
54
48
65
53
64
49
66
55
54
61
60
60
57
56
48
68
59
71
52
56
60
49
59
62
55
49
55
61
68
47
49
44
61
74
55
63
54
42
38
63
57
57
52
66
45
54
55
57
55
61
53
56
56
57
54
57
44
53
64
52
62
63
63
65
57
64
53
58
56
55
55
62
52
57
62
53
58
51
53
60
58
57
63
70
61
59
53
55
62
66
60
65
62
42
53
51
44
48
55
68
61
56
61
46
56
58
62
42
51
54
54
49
55
51
65
61
65
53
68
42
68
42
61
50
52
68
47
61
58
51
55
63
52
57
63
52
47
62
48
43
65
62
57
52
58
49
54
41
54
46
64
59
56
37
62
46
54
58
58
54
58
54
51
62
42
55
57
47
48
53
53
56
56
52
43
65
53
53
49
49
55
59
56
67
55
57
50
59
57
65
60
58
64
74
51
53
58
57
59
59
53
48
62
46
63
49
63
56
56
46
55
57
60
66
59
53
51
60
64
54
56
60
68
48
61
77
59
55
63
52
55
52
55
54
58
46
59
43
47
66
49
59
69
70
54
60
60
57
64
53
51
53
47
74
46
68
48
58
56
65
72
62
52
56
53
60
61
63
61
46
50
48
44
52
69
63
58
46
53
47
48
48
62
57
49
59
56
51
34
14
7
8
6
6
6
12
7
11
12
9
6
11
9
9
5
5
3
6
6
9
9
4
9
14
9
7
10
5
10
8
9
9
8
12
8
8
5
10
12
9
10
5
8
12
9
13
3
6
6
5
14
6
7
8
2
6
5
6
10
9
10
8
4
14
6
6
9
11
8
5
11
9
5
6
11
8
8
14
10
7
12
7
9
11
6
5
8
7
11
9
4
10
8
6
6
14
5
10
6
12
14
13
11
6
10
6
11
9
8
13
8
7
8
7
9
5
9
5
14
6
7
12
9
7
7
6
11
8
6
8
9
11
13
11
12
6
9
13
12
9
9
11
3
5
7
7
11
7
14
8
6
4
8
3
6
7
7
14
1
7
9
3
15
8
5
7
10
11
5
10
13
13
9
5
5
13
8
2
7
10
13
6
5
7
11
10
8
7
11
6
10
7
10
9
8
8
6
3
6
7
8
14
10
7
6
11
15
10
10
7
9
9
9
9
9
4
5
11
9
8
9
11
6
7
8
7
15
8
8
4
8
7
7
6
8
8
7
8
12
13
11
9
6
9
5
2
12
10
4
12
4
9
7
1
12
12
7
7
7
4
5
7
8
7
5
7
10
6
7
8
8
11
6
6
8
7
7
12
7
11
9
3
15
7
5
6
6
7
5
9
6
10
9
7
8
3
7
4
15
11
6
10
11
5
11
6
9
4
3
9
7
7
15
7
7
7
13
8
8
8
8
6
6
10
4
8
15
9
9
8
9
7
8
5
9
6
4
8
7
8
7
7
10
3
7
8
12
8
11
7
8
15
5
8
10
12
8
7
18
7
10
10
7
13
8
12
12
7
6
7
15
4
5
7
5
9
4
8
4
11
10
15
10
7
6
8
7
12
10
8
6
7
9
7
5
7
10
8
7
4
12
9
7
11
10
8
5
15
10
10
9
3
9
7
6
5
7
6
12
14
8
6
7
3
8
3
7
11
9
12
10
6
10
6
11
5
7
9
7
8
7
10
7
6
3
9
7
11
13
9
13
12
5
4
9
9
10
6
11
5
8
7
9
8
10
8
5
11
7
6
7
11
7
7
5
9
8
3
9
8
13
10
6
13
9
9
12
9
7
15
9
3
7
8
8
8
6
10
10
10
8
14
2
7
10
10
7
5
5
8
9
9
10
8
8
10
10
3
9
9
4
9
8
11
12
12
7
7
8
2
4
3
7
4
5
4
8
10
9
7
10
11
12
8
11
5
6
7
3
10
8
7
11
8
6
9
11
5
9
8
11
8
6
12
6
10
13
4
7
7
9
9
9
6
9
5
10
8
10
2
9
5
11
9
6
6
9
7
12
5
8
13
8
10
10
7
7
7
9
12
6
11
8
8
11
10
7
10
9
10
8
5
8
11
7
8
13
7
4
2
7
4
5
11
4
5
10
2
8
11
6
6
7
9
8
8
8
10
3
7
8
8
5
5
8
7
7
8
11
3
5
6
8
2
11
11
6
6
11
7
10
8
13
6
10
9
8
7
15
8
9
10
5
8
9
9
7
13
10
14
9
6
10
4
7
4
15
4
8
7
10
7
7
5
3
4
10
7
8
11
5
6
7
9
10
10
11
7
6
9
4
6
8
11
5
3
7
13
7
7
7
8
6
9
8
3
8
4
8
13
4
13
4
6
14
7
5
7
4
9
7
8
10
4
7
13
8
7
9
5
6
11
5
16
4
5
10
8
10
6
5
10
8
9
8
8
7
6
10
8
5
6
7
7
7
10
3
11
6
9
5
11
8
7
7
10
7
11
5
10
7
6
7
8
8
11
9
14
6
6
7
11
8
8
8
10
8
2
4
7
5
8
4
11
8
9
10
5
6
12
10
8
7
4
8
8
10
7
10
10
5
5
11
7
9
4
7
8
7
7
8
10
12
9
10
9
8
5
8
5
5
3
7
9
9
7
9
7
4
4
9
10
4
10
8
5
6
6
9
11
7
6
2
11
4
6
6
7
8
8
11
9
6
9
9
4
6
5
5
8
2
11
7
12
6
17
7
10
6
5
10
7
4
15
4
10
9
9
11
3
7
6
8
6
5
4
7
11
7
5
11
8
17
6
8
9
14
8
4
12
7
8
12
5
9
6
8
8
6
4
6
4
5
10
14
13
6
5
8
9
6
7
13
8
9
7
11
9
8
5
8
6
8
9
11
7
10
3
13
7
16
3
7
5
6
10
8
7
6
7
5
11
8
8
5
8
6
6
4
6
7
6
4
7
10
10
8
7
6
9
9
11
4
10
10
8
8
6
11
14
12
8
10
11
8
6
5
8
7
10
8
10
9
6
9
8
10
10
7
4
9
9
5
12
5
6
10
12
8
5
9
6
8
10
16
95
144
135
117
123
102
107
88
88
100
84
77
83
72
78
81
65
79
69
79
68
66
62
62
70
70
79
62
61
76
72
73
73
63
65
70
77
71
69
78
76
61
80
61
64
81
79
79
68
72
59
67
69
67
68
68
84
68
77
91
79
79
75
60
73
66
80
71
63
74
52
54
64
66
61
73
77
64
65
77
68
76
69
76
70
60
67
62
70
64
72
56
58
70
68
88
68
74
68
73
79
71
70
66
75
61
60
83
75
68
73
67
60
60
71
76
62
69
65
85
62
54
64
73
77
90
73
71
51
62
75
54
77
77
65
68
63
66
74
69
72
55
78
76
71
49
75
74
55
61
76
58
66
77
66
62
60
61
72
84
75
61
68
75
64
78
68
70
73
77
65
67
72
77
70
71
83
58
67
87
82
67
60
75
64
75
75
72
79
66
67
63
68
79
63
72
63
72
58
78
80
69
76
74
81
72
67
71
67
78
65
83
78
82
73
74
70
76
63
58
80
69
74
73
68
51
80
75
83
67
63
77
63
79
74
84
73
71
67
61
79
89
71
65
77
55
68
65
74
67
78
72
68
68
81
73
78
71
79
71
72
70
50
65
81
60
69
66
78
58
77
66
71
67
61
83
61
66
69
63
60
66
57
66
83
65
63
69
60
76
65
65
75
58
67
60
60
62
62
69
83
70
75
63
62
81
70
71
76
70
83
74
64
66
68
73
74
65
63
72
70
67
65
60
70
79
78
70
69
70
61
56
81
85
65
89
68
77
65
72
48
68
60
80
76
76
60
78
76
72
66
58
61
87
68
76
55
80
69
64
63
70
76
63
62
54
67
80
82
86
68
67
66
76
59
64
65
75
69
62
65
86
76
85
58
81
62
61
68
59
72
64
64
77
80
69
73
66
69
63
72
66
71
59
71
65
79
78
86
64
64
80
64
75
68
68
75
68
75
68
65
69
68
59
71
53
77
67
78
79
74
66
79
59
75
90
66
64
72
60
67
65
57
64
55
71
88
73
70
60
79
70
70
58
65
77
72
60
70
76
85
59
57
74
68
64
59
75
70
70
67
68
72
69
55
67
67
86
87
79
81
75
75
53
71
75
83
63
76
58
83
68
58
70
74
71
66
66
75
75
62
59
65
64
88
59
104
72
83
69
76
78
76
65
77
79
62
60
73
83
70
66
62
72
68
72
61
80
65
72
60
82
58
71
49
67
65
70
57
82
61
81
77
86
59
64
79
78
78
76
73
65
74
64
68
65
70
80
63
60
76
73
73
79
65
67
65
76
67
78
53
51
64
81
80
71
68
69
68
66
60
66
69
73
79
62
78
58
79
68
76
59
75
63
74
59
71
71
67
68
64
61
79
56
69
64
75
58
90
70
68
69
72
71
79
55
72
77
91
65
61
63
69
72
62
69
63
74
62
70
74
78
65
88
62
77
73
67
83
49
69
89
67
69
63
66
69
80
81
67
72
67
69
67
67
69
66
87
73
77
70
76
63
67
91
59
85
72
60
80
69
70
72
79
59
86
82
63
65
71
63
80
89
63
64
76
62
69
76
59
87
63
56
69
65
75
46
32
7
10
10
7
10
7
10
13
6
8
4
4
13
6
10
7
12
8
9
10
8
7
3
9
14
16
10
6
3
1
8
9
5
8
9
14
6
15
10
8
10
11
12
10
7
10
7
9
6
9
6
6
10
14
5
18
10
3
9
6
11
10
7
14
9
14
4
12
11
6
7
5
8
12
12
8
9
13
7
9
7
9
14
11
8
6
7
5
7
7
9
6
7
10
7
7
10
7
6
2
6
4
5
4
6
6
4
10
14
7
6
6
8
6
6
6
8
10
8
7
8
12
8
7
6
7
15
7
7
6
8
4
10
6
8
8
5
9
10
8
12
10
7
7
8
10
7
9
3
7
5
8
11
13
7
9
9
8
6
8
5
6
9
10
6
9
9
7
7
8
11
11
8
10
8
12
7
7
10
6
10
7
10
9
9
10
5
12
11
12
8
6
8
10
11
6
8
6
13
9
5
7
9
10
7
11
7
5
8
7
11
7
11
6
14
7
6
5
8
8
5
2
7
10
10
7
8
4
9
8
7
5
10
8
4
4
13
2
6
5
14
8
9
7
5
4
7
11
10
10
10
7
5
7
16
5
6
11
5
11
10
11
6
4
9
7
10
9
10
5
5
7
7
5
5
10
1
13
11
10
9
4
12
2
10
5
7
8
6
13
7
14
5
4
8
10
7
4
17
4
5
8
12
9
9
9
9
13
6
10
5
10
8
13
8
5
8
5
15
9
9
13
11
6
9
11
16
10
9
9
16
9
5
6
16
8
9
7
9
5
7
7
6
6
8
15
4
7
6
8
16
6
5
8
6
5
3
6
6
3
10
8
8
7
13
9
8
7
8
11
8
12
7
9
9
7
7
12
4
8
9
13
11
5
11
10
7
4
10
10
6
8
8
8
10
10
15
8
6
11
7
9
6
12
12
7
8
7
6
7
10
9
11
9
6
12
11
5
4
12
14
12
10
4
8
8
6
11
6
6
5
10
15
6
8
9
13
10
7
6
9
7
10
8
6
11
7
5
3
7
8
5
6
7
8
6
10
7
10
10
6
5
6
4
7
6
10
5
7
8
4
6
7
11
8
4
8
12
17
9
13
7
9
7
11
12
8
7
9
8
10
7
7
14
6
8
8
8
8
5
10
7
4
10
14
4
14
10
6
13
7
9
6
8
11
2
3
8
8
7
10
9
11
7
6
6
4
4
16
11
7
12
10
8
6
10
11
12
11
6
10
6
10
8
10
4
8
7
13
5
9
5
9
8
11
9
7
14
9
11
9
8
5
12
11
13
9
9
7
9
7
6
7
5
7
4
8
7
9
12
6
7
12
3
11
10
7
14
10
7
6
13
10
7
7
8
8
5
6
6
12
3
7
5
16
6
8
6
7
7
9
8
10
12
6
11
11
8
6
11
14
1
10
8
11
7
3
9
7
13
8
5
8
7
8
5
7
15
4
13
6
9
10
7
9
5
7
15
8
9
6
12
7
10
8
6
6
9
4
5
7
12
6
6
7
9
9
6
10
5
6
10
10
9
8
6
8
12
7
8
10
5
7
6
15
4
11
6
12
15
5
10
6
9
7
10
7
6
6
6
16
8
12
6
3
8
5
8
8
12
9
8
8
6
11
5
11
5
8
6
8
7
4
11
11
16
9
8
7
7
6
11
7
10
9
9
8
8
7
5
11
12
8
6
3
7
15
5
7
9
6
6
7
8
4
17
5
5
10
5
4
10
10
9
8
6
6
6
9
5
11
10
8
11
10
11
9
10
6
6
5
7
13
5
10
15
7
6
8
10
12
5
6
10
8
10
5
10
10
6
6
11
8
9
11
11
2
8
4
12
7
6
6
9
13
10
12
6
6
12
4
12
5
6
14
15
11
4
6
8
7
4
9
7
8
3
9
11
9
5
11
9
9
7
3
15
10
5
9
5
3
7
9
8
7
15
7
5
5
5
6
7
7
5
10
10
14
8
6
4
5
6
7
7
8
10
9
11
10
9
5
4
5
5
10
6
3
6
7
7
5
8
11
8
5
10
10
10
11
4
12
6
6
5
9
13
13
11
10
15
7
7
10
13
8
6
9
9
13
5
7
10
9
7
10
8
14
8
8
3
5
10
7
4
2
6
9
10
6
11
14
10
4
13
6
5
5
10
8
15
13
4
4
7
7
2
11
9
12
4
9
5
8
5
7
9
7
7
7
9
11
5
8
7
6
9
5
12
7
13
9
10
8
9
6
5
13
6
8
6
7
12
4
11
8
5
8
13
6
5
6
7
9
9
10
9
7
4
5
6
7
13
8
6
8
9
6
10
9
4
9
5
6
9
6
11
5
3
1
10
6
8
7
4
11
7
10
7
6
8
5
12
8
4
7
6
9
15
6
9
14
6
8
12
9
8
9
8
5
5
8
6
15
10
10
7
8
