4
18
72
121
137
136
102
119
115
102
87
78
103
72
97
81
68
79
72
72
65
59
52
47
64
63
55
70
43
54
46
57
41
34
41
39
38
37
48
35
27
38
33
31
25
31
33
36
29
40
39
41
25
22
25
26
27
30
34
34
30
17
25
37
23
27
31
31
35
20
23
21
23
24
34
27
29
21
18
19
18
23
33
25
19
17
29
19
30
23
24
31
26
21
25
17
23
14
20
15
23
17
16
29
20
36
18
14
25
19
28
14
26
31
26
24
17
20
16
19
18
15
16
19
13
23
25
16
27
26
18
15
24
26
30
21
29
16
26
25
25
19
21
22
22
26
29
19
22
13
17
16
15
21
24
22
23
31
24
26
25
13
26
18
28
18
29
20
23
16
17
18
22
18
15
16
17
20
29
18
20
17
22
33
19
22
26
24
12
25
24
23
14
24
19
18
19
25
22
28
17
22
26
23
20
17
24
18
21
21
22
25
19
17
24
22
22
19
21
22
21
30
24
19
20
27
13
23
11
19
27
25
15
24
19
17
18
23
24
35
20
18
25
20
19
19
16
28
18
29
23
20
29
26
19
18
18
30
30
17
16
22
12
18
19
13
25
15
17
13
17
19
23
16
18
27
20
30
25
9
19
26
26
23
26
27
23
23
24
16
13
28
23
19
16
25
15
15
26
17
19
30
24
24
20
22
20
21
15
22
25
20
20
22
19
24
25
24
21
16
22
17
22
21
25
27
16
21
27
21
28
24
16
22
23
23
25
20
13
23
24
24
25
30
15
26
17
10
18
30
25
25
24
21
19
24
21
15
27
15
26
24
21
23
23
21
25
24
20
28
19
24
30
18
20
22
28
28
22
25
11
22
14
16
23
28
25
23
30
19
19
25
26
28
19
33
27
14
22
25
24
12
25
33
22
31
23
22
25
17
22
29
19
21
16
27
19
24
27
18
17
27
12
17
26
20
17
17
21
24
21
17
22
27
16
21
14
26
20
18
13
22
23
19
27
12
11
15
27
25
28
34
25
27
20
16
17
20
22
16
23
18
17
22
14
15
18
16
26
20
30
15
27
26
14
17
32
20
17
22
22
17
25
34
15
15
18
20
17
26
19
18
26
10
20
18
23
20
24
14
28
31
23
27
24
25
17
14
18
28
25
17
29
25
17
20
17
21
24
18
24
17
24
28
22
17
21
32
32
21
17
30
23
21
32
16
18
20
11
19
27
14
24
20
15
15
20
16
30
23
12
23
23
28
29
21
31
18
16
21
17
21
27
18
24
23
21
22
22
17
19
22
19
23
31
18
30
22
26
22
17
19
12
17
14
19
20
18
34
17
20
20
29
18
28
23
24
19
25
25
17
16
15
15
23
22
22
23
26
22
16
25
25
30
15
18
28
20
25
24
17
19
14
22
20
17
18
24
26
27
25
21
16
21
19
26
18
25
25
17
18
24
22
20
15
21
19
19
24
18
25
27
19
26
24
21
21
22
19
20
14
10
24
16
22
17
22
20
26
21
19
16
16
26
17
18
23
23
17
20
12
26
18
23
29
30
19
19
19
18
23
31
17
15
18
18
22
16
23
20
18
23
17
17
17
21
15
22
25
14
23
25
21
19
32
25
24
19
23
26
18
18
27
16
29
23
15
18
21
16
24
25
19
13
18
28
18
20
18
28
19
18
23
23
9
31
24
24
21
17
20
20
14
27
25
28
17
25
17
19
17
15
24
24
18
28
13
17
25
20
17
22
18
27
27
15
25
28
18
18
20
18
25
21
13
12
25
25
22
13
18
17
28
20
22
10
25
22
11
14
14
16
21
22
20
23
27
25
24
21
26
21
25
14
22
25
11
29
12
23
16
19
23
27
18
16
17
15
23
24
16
16
21
15
15
23
17
22
20
22
19
25
28
22
28
25
16
17
16
27
30
13
19
15
14
23
19
20
20
31
23
19
17
18
16
19
27
21
15
24
26
11
17
23
25
17
25
28
27
31
20
29
14
28
18
20
22
20
27
25
20
29
21
21
22
27
20
23
22
21
18
20
23
15
17
22
21
16
22
14
22
21
18
24
14
30
13
16
11
18
18
20
22
23
20
27
18
14
20
27
24
17
30
18
28
20
22
24
24
23
26
22
17
21
29
23
24
24
20
25
23
32
21
24
16
28
33
22
22
21
27
22
20
32
16
24
25
26
27
18
20
18
24
19
18
28
14
13
21
22
24
20
27
16
20
18
24
17
22
17
24
13
24
32
18
22
24
19
16
21
27
19
31
17
17
23
18
18
23
29
27
24
17
19
21
29
19
36
18
19
24
15
20
29
27
18
26
18
19
23
28
25
21
18
21
18
20
22
16
22
20
20
24
29
20
15
31
21
20
25
24
19
17
23
19
15
15
30
17
20
20
16
15
21
26
19
17
29
29
28
21
20
28
30
17
20
11
21
34
28
20
27
21
22
24
15
16
18
19
18
17
15
24
24
22
27
25
17
30
17
18
29
23
27
22
19
17
19
17
29
20
20
20
23
20
14
17
12
17
25
20
18
16
20
27
20
32
35
24
24
20
24
25
32
11
17
23
23
21
18
24
26
23
19
22
28
24
27
21
25
23
23
23
22
22
17
29
23
18
26
15
26
16
15
17
18
19
21
24
30
21
20
17
33
11
18
18
22
16
18
22
20
21
18
24
18
17
20
24
23
22
22
18
5
6
4
4
5
4
3
4
4
3
6
7
4
3
4
5
5
2
3
5
2
4
1
3
3
3
5
1
3
2
4
2
3
9
6
4
3
4
2
3
4
2
4
1
1
4
2
1
6
6
2
1
1
1
3
1
5
2
5
4
7
5
4
2
1
7
4
3
4
4
5
0
3
3
3
4
3
7
6
4
3
1
4
7
4
5
4
7
0
6
4
3
1
4
4
3
2
5
3
4
5
3
2
5
4
5
3
4
2
6
4
4
5
8
6
7
6
6
1
3
4
0
5
3
5
5
1
6
3
5
3
1
4
5
3
3
5
2
6
3
4
2
3
3
5
4
4
5
3
4
5
2
3
8
3
4
3
2
5
2
2
5
4
2
6
3
2
2
5
3
4
6
5
3
2
4
7
4
4
3
1
5
6
3
2
2
6
2
7
2
4
2
5
4
3
2
7
3
2
2
6
3
2
6
7
4
2
1
7
3
3
4
3
1
1
2
2
3
2
1
4
3
1
3
2
1
3
4
5
3
5
4
2
3
2
3
11
6
2
2
8
3
4
8
5
8
4
1
5
2
6
3
4
3
5
6
0
5
9
1
1
6
2
2
5
3
5
8
5
5
2
4
3
7
0
3
4
1
6
6
1
3
0
2
4
3
2
1
3
4
3
3
3
0
8
2
6
4
3
5
5
3
3
0
4
4
5
4
3
6
8
1
4
4
4
6
2
3
3
2
4
5
3
10
5
0
2
4
3
5
4
3
5
1
7
3
2
1
5
6
6
5
5
5
3
3
3
2
3
5
6
6
7
6
2
2
4
7
7
4
4
2
6
1
5
4
2
6
2
4
3
2
3
5
2
2
4
5
3
1
2
3
5
3
6
5
6
3
1
6
3
2
3
3
7
4
2
3
2
5
2
5
1
1
6
6
3
8
1
4
4
3
2
4
2
2
2
3
4
7
1
2
4
6
5
7
3
2
4
3
5
4
3
4
2
1
3
1
2
4
4
4
5
4
1
4
4
4
3
0
3
4
2
1
2
1
4
2
7
3
3
2
9
4
4
3
4
4
3
2
3
4
2
1
6
3
0
3
2
4
5
8
7
4
3
6
2
2
0
5
3
4
3
3
2
5
1
3
4
2
3
2
1
3
6
5
1
4
2
4
4
3
3
2
4
6
5
11
2
4
1
0
5
0
6
2
3
8
1
6
2
7
4
6
4
1
4
2
2
4
2
4
6
2
3
3
3
3
9
6
3
3
3
1
7
5
6
4
2
7
5
3
3
2
1
6
8
5
5
3
5
3
2
6
0
2
0
4
2
2
3
2
1
5
3
4
6
4
3
3
6
9
2
4
1
5
5
2
6
3
2
4
2
2
6
2
4
3
6
10
7
3
7
2
2
6
5
1
6
4
1
3
6
3
4
7
4
4
2
2
4
4
2
6
6
7
3
5
2
2
5
4
3
2
2
4
0
1
2
3
4
2
7
5
4
2
1
4
5
4
6
3
5
1
4
3
1
4
4
7
1
2
2
5
2
0
3
5
6
7
4
4
1
4
3
3
8
4
5
3
6
4
2
3
3
4
8
2
0
2
7
1
7
1
1
5
3
6
8
4
3
2
3
3
6
4
2
3
3
6
5
11
6
3
3
2
2
2
2
6
5
5
1
6
2
1
3
2
1
4
5
1
2
5
3
5
4
7
10
7
2
3
3
3
2
1
4
4
2
2
5
2
1
3
4
4
0
2
3
2
3
4
3
6
3
2
2
7
5
6
5
4
3
3
7
4
5
3
1
2
2
3
3
3
6
2
3
4
2
2
4
4
4
3
1
4
2
1
2
2
2
0
6
3
4
5
5
6
5
1
2
5
2
3
4
2
2
2
3
2
2
1
4
6
1
1
2
4
1
2
4
4
4
3
4
3
1
5
8
5
4
3
2
5
5
3
4
8
4
5
2
1
3
3
4
2
6
1
3
5
3
1
4
4
4
1
1
3
4
0
1
3
4
6
3
1
4
2
2
2
4
4
3
2
7
3
2
1
2
5
3
3
4
6
2
1
7
2
4
5
5
4
1
1
1
2
2
3
2
1
4
6
3
4
8
2
1
1
2
8
2
2
5
4
1
1
4
6
2
1
3
2
4
0
2
1
5
5
6
5
2
1
6
7
3
3
3
6
4
2
6
2
3
4
2
3
2
2
0
5
5
1
3
8
2
4
2
5
3
2
5
2
3
5
7
6
2
3
4
1
7
2
5
1
5
3
3
0
7
4
2
5
4
2
4
5
3
5
6
4
2
3
5
3
6
1
3
2
2
2
2
7
3
4
0
2
3
1
5
3
6
2
4
4
1
1
2
3
1
6
3
5
4
3
3
2
4
3
2
3
2
3
6
4
3
2
7
3
6
5
6
5
6
5
5
2
3
0
3
4
3
1
7
4
6
4
1
2
5
5
1
7
3
2
3
0
4
1
3
6
4
4
3
3
2
6
3
6
4
4
4
4
5
4
1
1
2
5
5
4
0
2
5
4
5
5
6
5
6
3
4
2
6
5
3
2
1
3
5
3
3
3
3
3
3
4
3
4
5
3
6
5
2
3
3
11
6
3
2
5
1
3
5
2
3
3
3
3
2
3
4
3
0
7
4
3
3
5
1
0
8
4
0
3
4
0
3
6
2
3
3
7
6
11
1
5
6
4
6
4
4
4
4
3
4
3
4
2
8
1
0
4
3
4
4
7
4
2
5
1
3
2
3
4
3
2
3
5
7
4
3
0
3
6
7
7
1
2
1
4
1
2
6
8
3
3
1
3
4
3
5
3
3
2
2
2
4
4
2
5
4
6
5
5
4
6
2
2
2
4
1
2
7
2
2
2
5
0
4
2
4
2
2
5
6
6
5
5
4
4
2
4
2
2
2
5
6
4
4
2
3
1
4
3
6
4
2
8
19
99
237
244
239
211
199
179
165
137
128
135
109
112
88
79
87
86
61
64
61
56
46
55
44
49
42
51
42
27
32
49
30
30
35
34
23
29
29
26
30
26
34
36
31
35
28
29
32
20
32
34
25
27
21
30
33
26
30
33
31
31
29
22
30
28
36
23
27
34
27
32
23
18
37
25
29
25
22
29
30
26
22
22
30
28
33
24
17
26
30
27
23
38
26
27
27
20
19
28
26
30
25
27
25
26
22
25
17
25
31
27
31
22
29
23
22
23
19
29
23
33
23
34
29
26
33
26
22
22
21
19
25
40
22
30
26
39
25
40
30
28
36
25
38
32
43
27
29
26
24
25
31
23
32
27
36
24
21
24
33
26
24
33
22
29
32
29
32
30
32
25
31
24
27
21
21
30
31
25
29
42
16
29
25
31
29
23
33
23
29
34
28
29
27
35
30
26
25
19
31
40
35
29
35
23
25
26
22
29
26
19
19
33
30
18
35
30
31
25
28
29
25
25
31
39
24
27
32
24
28
33
27
31
18
37
30
31
24
24
27
28
20
21
20
34
29
30
27
32
23
30
27
23
28
27
31
33
32
23
31
31
31
26
20
30
26
36
27
38
28
24
23
24
34
42
24
30
26
41
27
26
19
22
19
26
25
19
35
28
24
16
18
30
26
33
25
26
22
26
31
31
42
23
28
33
21
25
38
24
23
39
32
35
30
30
27
34
34
34
23
24
27
30
34
25
25
31
29
20
33
25
31
26
22
22
26
24
26
33
29
28
27
21
24
19
21
28
26
23
28
30
35
28
28
32
31
26
30
23
24
25
26
22
28
32
29
24
23
20
29
23
28
30
32
27
21
31
32
27
32
30
23
24
16
24
30
26
32
23
27
27
24
22
21
36
26
36
30
30
30
34
23
31
20
28
34
26
17
23
29
31
23
22
26
34
19
29
29
32
26
31
28
33
24
24
23
28
30
24
30
31
30
27
25
28
27
19
21
35
25
39
28
29
39
27
25
32
24
34
23
20
31
20
31
28
28
21
27
28
33
25
39
37
30
22
24
35
25
28
21
31
25
26
13
23
27
28
27
26
28
30
35
20
31
25
26
28
30
25
23
20
28
23
34
28
25
28
33
24
32
20
32
25
26
34
26
24
38
35
30
33
32
31
24
24
31
26
31
32
38
29
32
23
26
28
31
34
20
31
33
25
30
25
33
24
37
26
26
23
23
32
32
21
22
27
29
22
27
25
32
27
27
28
23
32
44
35
23
25
16
30
36
31
25
29
30
33
26
41
24
29
19
34
22
23
30
26
26
35
19
30
26
33
43
27
34
29
32
19
27
32
24
22
29
24
33
28
34
40
34
24
26
19
24
27
29
21
30
35
24
31
26
22
28
19
34
38
24
34
19
26
35
30
26
35
30
27
30
33
25
36
27
28
23
23
22
37
26
27
26
26
29
23
23
25
23
27
32
21
21
28
33
36
29
31
24
34
21
28
25
29
29
25
34
25
33
25
18
28
34
27
33
35
31
24
28
24
34
21
24
27
18
35
18
24
28
29
36
28
26
37
30
31
24
37
39
25
28
28
22
29
25
33
21
39
29
25
34
31
21
24
33
22
24
26
20
18
32
21
36
19
28
36
29
33
29
25
22
25
31
21
19
24
29
21
23
29
22
28
34
31
27
22
37
33
30
32
36
29
30
22
24
19
20
34
37
28
23
17
26
27
23
29
36
28
30
36
27
29
25
38
24
31
29
27
32
25
28
23
37
22
30
27
25
30
26
27
31
32
38
29
22
35
29
22
22
26
27
28
26
31
35
39
28
25
30
22
36
22
23
31
43
34
31
24
24
32
31
30
22
24
28
28
22
24
25
31
30
27
34
28
26
30
35
31
30
26
20
23
23
28
28
20
32
34
28
37
27
36
26
29
39
26
28
22
33
21
29
29
24
32
21
29
29
32
26
28
31
17
19
30
23
29
18
24
26
36
27
28
36
20
35
27
28
29
34
30
31
22
24
27
31
28
26
24
31
33
30
20
27
30
28
23
36
32
23
41
33
27
30
29
22
29
33
28
32
31
24
29
25
38
33
26
31
32
32
28
26
22
31
32
28
28
24
38
20
20
24
30
33
26
25
24
27
27
21
30
23
28
34
22
27
38
41
25
27
29
32
30
28
27
31
27
27
27
41
38
31
34
20
26
34
23
29
33
39
32
24
26
23
27
20
31
34
34
33
27
29
35
29
26
22
19
21
23
27
28
32
30
33
24
34
26
31
24
35
31
24
27
16
21
30
23
31
31
31
22
22
33
26
33
33
20
21
32
22
21
30
35
23
31
31
24
25
38
29
26
34
25
21
30
26
23
27
25
37
26
30
30
30
35
32
29
20
32
30
20
23
37
40
26
29
29
29
28
27
30
28
32
29
39
29
33
23
31
34
26
21
27
31
35
32
32
33
32
24
29
22
27
30
35
21
24
35
31
33
35
23
30
31
30
36
35
21
30
32
35
18
27
32
24
29
32
28
34
28
29
31
28
24
20
33
30
28
35
23
32
33
31
36
18
30
32
25
24
26
15
24
26
42
32
22
31
37
24
23
24
23
26
18
28
22
33
27
29
29
30
25
28
34
25
18
34
29
32
37
32
36
32
34
29
31
28
30
30
29
28
19
28
35
34
28
33
27
21
24
27
32
20
25
19
15
12
1
3
2
5
2
3
2
3
2
1
3
2
5
5
3
3
7
6
3
6
2
2
6
4
2
4
2
2
5
6
3
4
4
8
2
3
3
4
2
6
0
5
2
6
9
2
4
6
6
0
1
3
3
2
3
2
2
4
3
7
3
5
3
4
3
0
6
4
2
8
3
2
4
2
4
2
1
3
3
4
2
3
2
4
2
6
7
7
8
2
2
1
3
1
5
4
7
6
2
6
4
0
4
2
5
6
1
3
5
2
4
6
3
3
4
3
5
3
4
3
1
9
2
4
4
4
1
3
4
6
6
1
2
2
3
7
3
4
3
2
2
1
2
3
4
3
1
1
2
4
3
3
2
0
0
4
3
4
5
4
2
3
3
6
2
5
0
3
0
4
0
3
4
5
1
3
3
4
4
2
2
2
2
2
6
2
3
3
4
1
4
1
3
0
2
3
6
3
3
1
1
3
5
7
5
5
4
1
2
3
2
4
11
3
2
6
3
2
5
1
4
1
2
4
7
6
5
1
2
0
1
3
6
3
5
3
5
5
3
2
3
1
2
4
1
7
2
5
2
0
1
2
7
3
4
4
7
2
5
3
5
2
5
5
4
7
4
3
6
4
5
4
8
4
6
5
3
1
4
2
3
3
3
3
6
4
4
3
4
7
1
2
2
6
2
1
3
6
5
1
5
0
7
2
2
5
5
2
0
2
1
3
3
4
3
2
4
1
6
4
6
3
4
3
6
1
1
3
5
4
3
2
4
4
2
4
3
2
0
3
4
2
5
2
4
5
2
3
3
1
4
1
1
5
3
1
7
3
1
3
4
2
1
6
5
2
3
6
2
7
4
2
4
2
4
6
2
4
2
1
7
3
4
3
4
1
3
3
6
4
1
2
5
6
7
1
2
3
2
2
2
7
4
3
6
1
3
3
3
2
5
2
5
1
2
3
1
1
2
3
4
1
3
5
1
2
3
2
3
3
3
2
3
2
4
2
6
8
0
2
11
6
1
2
4
3
2
2
8
5
4
2
7
2
3
1
5
2
1
2
2
0
0
8
2
6
4
6
0
6
3
4
3
2
0
4
4
0
6
5
3
3
1
3
2
5
6
5
5
5
3
9
3
6
5
2
6
3
4
6
4
3
5
2
7
3
7
2
1
1
3
7
4
2
4
1
5
5
5
2
2
2
4
4
3
2
3
5
5
4
6
4
3
1
4
2
4
2
3
4
2
1
2
4
4
7
2
4
6
4
0
3
5
6
5
6
3
3
4
3
3
3
6
5
2
3
6
4
2
4
5
2
4
1
4
3
5
2
1
0
2
4
2
1
4
5
3
2
4
0
2
4
5
3
5
8
4
2
3
4
6
4
1
5
0
4
4
2
5
4
2
3
4
3
2
3
3
2
0
3
4
2
8
2
3
4
10
2
2
4
1
5
1
1
4
2
3
3
10
6
2
2
2
3
2
3
2
3
8
4
3
2
1
0
4
3
2
2
2
4
5
2
7
2
1
5
1
8
3
3
3
1
3
2
3
3
5
2
2
5
5
4
6
1
2
9
3
3
2
1
3
5
5
5
2
5
4
3
1
7
4
4
3
2
5
8
3
5
8
2
4
7
8
6
8
2
3
2
3
1
4
2
3
5
5
8
7
3
4
4
6
5
3
2
4
1
2
3
2
8
4
6
2
4
4
6
8
2
3
7
3
2
1
4
1
5
4
4
4
5
4
5
1
3
5
3
4
2
3
6
2
4
2
9
7
5
1
3
3
4
5
5
2
1
2
4
4
2
3
3
1
2
3
3
1
1
3
4
1
1
6
5
2
4
4
5
3
5
4
3
5
5
2
1
3
3
3
1
2
7
2
3
2
4
3
5
2
5
5
2
4
7
5
4
4
6
5
1
7
3
4
2
2
5
3
4
3
3
2
3
3
4
1
5
6
5
2
7
4
3
11
3
5
4
5
3
3
5
7
3
3
5
4
4
2
6
3
4
4
4
1
2
2
2
0
3
0
4
5
4
3
2
2
7
4
2
2
2
4
1
2
1
5
7
4
3
2
4
0
3
1
0
2
3
1
5
3
1
5
5
4
5
2
0
5
3
5
2
3
5
5
7
5
2
9
3
5
2
5
4
4
2
4
1
7
4
3
4
2
5
2
9
5
4
3
2
3
9
1
3
2
2
2
2
3
4
1
7
2
3
5
3
0
4
5
6
4
3
4
5
2
3
4
4
1
7
7
5
2
7
4
5
2
2
6
5
0
4
3
1
8
2
4
4
1
2
2
4
5
5
5
2
8
5
3
2
2
1
3
3
4
2
9
0
3
4
3
5
4
3
2
6
3
3
1
1
2
4
1
3
2
5
6
1
2
6
1
5
4
5
6
3
2
2
5
3
4
3
2
4
3
2
2
4
2
7
5
3
5
7
5
6
2
2
2
1
2
7
2
4
1
1
3
4
5
2
9
6
5
5
1
5
6
10
1
4
2
2
2
6
5
2
3
2
3
4
2
1
3
4
3
2
4
2
2
2
3
3
3
5
2
3
1
1
4
1
6
5
5
5
2
5
4
1
1
4
7
3
1
7
2
3
2
5
3
1
5
2
2
7
3
5
4
4
4
2
6
5
2
4
6
4
4
3
2
6
3
3
3
3
2
2
1
7
1
3
8
1
4
6
3
6
7
2
4
3
2
2
5
3
6
1
2
2
0
2
5
3
6
4
4
3
4
3
2
3
1
3
2
5
3
4
2
3
5
1
5
3
1
3
5
3
5
4
4
4
4
1
0
4
4
5
2
5
2
3
6
1
4
0
2
1
0
8
6
3
6
4
1
6
4
4
3
1
7
1
5
2
7
4
1
5
4
5
3
4
8
2
4
2
4
2
7
5
2
4
3
3
2
3
7
3
5
2
4
2
3
1
9
2
0
5
2
1
4
4
14
131
379
488
452
334
289
206
188
140
123
96
86
72
66
50
56
60
45
54
59
52
43
38
36
28
42
41
33
37
38
38
50
33
27
38
51
38
52
51
44
37
34
48
41
45
46
45
41
45
34
45
34
32
38
38
35
37
30
37
54
42
47
37
38
34
38
39
34
38
46
38
30
49
29
23
44
45
34
48
51
48
35
44
48
42
32
42
51
46
43
40
47
30
38
49
47
58
35
40
41
41
47
32
54
30
34
48
34
40
37
41
33
38
40
31
32
45
37
40
33
37
36
39
30
32
36
41
41
32
46
44
39
38
22
28
36
43
33
40
43
26
29
37
31
41
36
49
29
39
48
41
37
42
37
36
40
45
42
35
39
37
29
36
34
46
38
43
56
32
38
45
42
37
36
45
34
34
43
38
38
44
44
43
39
41
36
45
36
44
50
34
36
49
35
37
47
49
42
41
43
49
33
34
48
37
34
33
50
45
42
39
32
40
32
48
34
48
39
34
40
38
30
31
40
40
46
31
26
42
47
53
39
53
43
52
49
48
44
54
43
34
30
35
34
41
32
47
40
38
42
49
28
31
36
35
43
45
40
55
41
39
50
36
48
42
32
39
44
27
36
36
43
54
44
37
40
36
45
39
44
35
47
29
35
41
31
38
42
44
31
30
39
33
34
32
39
41
47
34
36
47
53
45
40
25
41
47
44
41
37
44
42
37
46
30
50
45
37
44
36
46
38
33
32
29
39
40
33
31
42
36
33
27
46
34
36
48
48
35
40
44
34
40
37
44
35
40
40
26
34
43
33
42
39
31
33
46
49
33
44
38
40
33
44
37
50
35
39
31
39
28
43
36
37
42
41
41
34
31
40
40
33
39
48
29
36
32
48
46
49
49
37
39
36
40
37
36
33
31
39
50
29
46
41
30
39
49
42
38
32
31
41
40
37
38
44
36
31
43
45
40
41
44
46
37
40
35
33
52
38
41
36
41
40
54
31
54
58
32
41
49
55
45
41
41
46
47
39
39
42
40
46
40
40
37
47
36
56
45
48
36
46
41
46
41
41
39
37
38
51
33
27
29
43
43
39
50
43
46
41
31
41
46
30
34
31
53
42
49
37
44
29
33
42
44
41
32
45
42
37
29
38
44
39
42
35
28
45
44
34
44
30
54
30
48
41
50
42
38
24
43
32
46
33
31
44
34
38
35
23
49
39
35
35
45
48
36
36
43
34
44
40
45
32
54
39
33
39
34
35
41
47
41
39
43
43
40
39
50
44
35
33
47
42
55
47
38
32
34
54
36
45
49
24
31
41
34
33
41
56
38
41
42
29
41
42
51
56
35
40
42
45
42
39
39
41
47
31
49
34
35
41
34
35
44
48
34
54
54
45
44
34
36
39
26
32
36
37
35
48
38
32
44
56
32
48
40
32
43
39
50
25
39
49
29
37
38
37
26
52
57
43
23
36
37
44
47
33
35
34
50
41
34
41
37
36
46
39
51
32
34
41
48
49
42
36
56
47
43
42
25
32
45
36
54
29
39
49
37
35
50
42
40
46
44
34
40
43
40
29
36
47
39
45
34
40
45
55
35
39
30
57
36
44
48
39
55
42
50
47
37
36
43
40
45
50
34
48
43
39
40
34
40
55
31
41
40
38
43
35
38
37
33
34
41
36
37
35
39
38
42
33
46
32
39
37
47
28
43
38
44
32
40
37
46
49
37
45
32
52
43
42
36
32
50
43
37
35
40
44
42
34
38
57
43
30
43
45
42
39
50
46
35
39
34
45
36
31
45
49
39
39
34
34
38
36
34
36
41
44
37
26
46
47
23
41
44
36
45
41
45
31
43
33
30
52
52
34
44
36
39
34
48
37
35
44
36
31
37
43
59
46
32
42
44
56
42
29
39
49
42
58
41
30
32
39
45
41
50
35
44
33
35
38
31
40
43
39
52
29
35
31
46
43
30
50
37
33
38
38
55
35
38
43
40
40
38
38
32
42
41
42
38
34
35
45
35
42
36
27
38
49
46
46
39
39
39
38
38
40
44
44
34
47
37
41
43
30
32
39
44
46
47
40
39
38
32
34
44
48
47
43
32
34
51
44
33
39
47
53
47
36
44
42
41
44
35
38
41
40
56
39
39
34
46
50
48
30
47
36
37
43
62
31
40
38
41
39
34
42
47
34
38
45
35
40
42
46
42
34
47
37
45
32
38
39
43
41
35
42
44
33
43
42
36
42
43
31
37
39
33
45
44
29
33
40
39
43
37
32
46
44
32
34
49
42
44
42
36
49
48
36
44
44
42
45
45
41
45
41
42
50
30
44
45
36
50
32
38
32
38
33
41
46
40
42
40
37
37
54
48
39
37
37
39
41
61
34
30
36
40
40
44
39
46
36
41
31
49
43
35
36
43
37
48
44
43
37
53
44
31
45
46
57
51
44
36
46
51
43
52
59
42
49
39
48
30
45
39
42
41
34
43
35
47
38
43
49
36
48
38
53
17
49
40
35
34
36
39
42
43
38
33
45
31
44
43
46
42
47
38
55
51
54
40
38
37
33
55
44
26
49
50
45
36
37
52
48
38
49
40
35
38
40
40
39
42
49
51
38
34
44
39
44
48
33
41
43
44
38
44
52
41
43
40
46
40
48
43
44
46
37
42
43
49
43
37
41
44
42
42
41
38
49
47
49
40
31
39
52
35
23
11
6
4
2
2
2
4
7
3
4
2
7
3
1
7
10
5
4
5
5
3
3
3
2
4
2
6
0
4
5
2
8
4
5
3
2
6
1
3
3
4
2
1
6
4
2
2
5
5
2
4
5
3
5
2
3
6
2
5
2
4
3
1
2
5
2
2
5
2
5
4
7
4
6
6
5
5
6
8
7
4
4
5
6
4
3
3
4
3
4
3
3
4
1
5
5
4
1
6
3
4
3
5
5
5
2
4
2
4
3
4
2
6
2
4
3
3
4
2
5
6
5
3
5
4
0
6
4
1
1
5
2
1
5
4
1
2
5
4
4
5
6
4
3
4
2
1
4
6
6
3
2
2
2
2
4
4
3
6
2
5
5
5
4
2
1
2
4
3
4
3
1
5
3
5
2
3
2
5
5
3
2
3
7
3
2
3
9
6
2
2
6
1
3
2
4
7
4
5
7
3
3
2
4
0
2
3
3
1
4
3
3
3
5
2
7
1
8
2
2
5
4
2
5
1
3
3
3
1
2
1
5
4
4
3
4
5
3
4
5
3
1
5
3
6
5
6
3
4
6
3
3
2
2
4
6
6
4
7
3
2
5
2
4
3
3
7
6
3
3
5
1
2
3
1
2
3
2
3
2
5
5
4
6
2
5
4
6
3
1
3
3
2
2
3
4
1
5
2
2
3
7
1
3
3
7
4
4
3
3
3
6
4
4
5
4
3
2
6
3
4
4
4
1
2
3
8
0
5
2
9
7
2
3
1
3
3
6
4
3
1
3
5
0
2
8
1
3
1
6
4
1
8
1
3
4
5
1
6
4
3
3
1
3
2
3
2
4
5
4
3
3
4
3
5
6
4
2
3
0
5
7
6
6
3
0
3
3
1
3
5
4
6
1
6
3
5
3
3
9
6
8
2
3
1
6
6
5
5
4
6
5
4
4
5
6
6
3
5
3
3
3
1
2
2
2
1
2
3
3
3
5
2
2
2
4
0
5
0
0
2
3
3
6
6
2
3
1
0
4
4
5
4
2
2
5
3
3
4
4
3
7
3
2
2
3
5
5
2
4
4
0
6
5
4
2
3
1
6
5
3
5
2
5
3
3
7
1
2
2
3
4
3
5
2
3
3
2
4
6
4
0
6
3
2
4
5
0
0
5
5
2
4
3
3
5
4
5
3
2
4
6
3
3
5
3
4
2
4
2
4
4
4
2
2
6
3
1
0
2
2
5
2
3
4
1
1
3
2
3
2
7
3
0
2
3
4
4
6
3
6
7
4
2
6
6
2
6
1
5
4
2
4
5
3
4
2
3
3
8
9
5
3
1
5
1
2
3
3
0
1
1
5
1
2
6
2
2
2
3
4
2
2
6
0
5
3
2
4
3
5
1
2
2
6
4
5
6
6
3
3
4
11
2
5
3
4
4
3
5
3
5
4
2
1
2
8
1
4
4
7
2
4
7
7
5
4
3
3
3
5
4
5
2
4
7
2
2
3
2
3
3
3
6
6
8
3
7
1
1
3
7
5
2
8
3
3
3
4
6
4
2
0
4
6
2
3
3
0
1
2
5
0
4
4
7
1
3
5
6
5
2
4
3
4
1
1
1
6
2
3
1
5
4
2
1
5
1
7
5
3
4
3
3
6
1
4
3
4
2
4
3
3
3
4
2
3
3
5
4
3
2
2
2
2
4
6
3
4
4
4
1
4
4
3
2
4
1
4
1
2
4
3
1
5
0
3
3
5
1
5
5
1
4
4
4
9
10
2
4
1
3
3
2
2
2
4
6
4
2
5
5
8
4
0
3
4
3
6
2
2
4
3
3
6
3
2
2
6
5
5
4
1
2
4
1
6
3
6
6
1
1
3
2
2
4
1
1
2
3
5
1
4
3
2
6
6
1
1
1
3
4
3
5
1
1
6
3
3
6
0
1
1
0
2
6
3
3
3
6
4
3
5
1
4
2
4
3
4
0
4
2
6
1
4
7
4
3
4
3
3
6
3
3
1
1
10
4
6
4
1
4
5
8
3
5
3
6
3
4
1
1
3
1
2
6
3
6
4
4
8
2
2
6
2
4
3
5
1
5
4
5
2
2
4
3
4
3
5
2
5
2
2
2
2
5
2
4
0
6
0
3
0
4
5
2
4
3
6
3
1
1
4
2
3
5
3
1
1
2
2
4
5
5
5
2
7
2
3
4
1
3
4
1
1
4
4
2
5
6
3
0
4
2
3
2
0
4
1
2
6
4
7
6
1
2
3
1
5
2
3
4
2
4
2
2
3
2
3
2
5
6
5
5
2
4
4
5
2
6
0
4
6
4
4
2
2
3
3
1
4
5
3
0
2
6
4
2
7
2
2
3
0
2
2
5
1
2
2
5
5
2
4
3
4
3
4
1
1
3
4
3
1
3
3
3
5
1
2
4
2
1
7
6
2
7
2
1
6
5
5
7
3
2
3
1
7
4
5
2
3
7
3
2
2
5
3
5
1
5
2
5
6
1
5
1
5
3
3
3
3
4
2
0
2
6
3
4
3
1
6
2
2
4
2
1
3
5
3
4
5
6
6
2
5
2
3
4
2
4
2
4
5
1
5
2
3
3
2
7
3
5
1
2
4
7
1
5
4
5
6
1
3
5
4
4
5
2
3
2
0
3
9
3
5
3
5
4
0
4
5
5
4
0
2
5
5
8
3
2
3
0
1
5
6
3
6
5
5
3
7
3
2
2
7
4
4
2
1
3
5
4
4
4
1
4
2
5
1
3
2
3
3
2
1
6
4
4
7
3
0
1
4
4
8
1
6
4
6
3
1
6
1
2
5
2
3
3
5
2
0
1
1
0
2
2
1
4
3
5
8
5
5
4
6
8
0
3
7
2
2
3
2
2
6
2
2
0
1
3
3
1
3
4
3
4
2
11
1
1
5
1
0
2
8
5
1
11
133
610
798
573
376
228
158
117
107
97
81
88
72
69
57
76
60
70
46
71
62
72
80
46
54
68
72
63
61
60
74
70
59
55
51
74
61
70
58
61
80
57
67
67
64
66
73
70
54
72
58
71
60
84
52
63
64
52
68
72
63
63
70
58
57
57
60
48
75
67
64
68
54
66
73
60
48
57
71
64
61
68
59
63
60
55
75
71
65
66
52
60
63
60
66
73
55
52
51
62
53
57
68
56
66
74
67
48
67
63
53
74
73
61
55
53
68
66
74
63
52
70
51
52
62
60
53
66
60
58
69
55
60
85
60
63
77
69
56
55
65
72
60
54
76
66
54
58
74
58
56
52
53
71
66
63
81
57
65
62
68
77
66
74
58
72
62
62
65
64
54
66
66
65
71
47
76
59
67
69
69
63
55
68
67
59
59
64
63
79
76
62
78
68
67
74
60
60
67
69
49
44
71
76
59
61
80
65
63
62
64
54
62
65
69
63
56
75
67
60
53
59
57
68
61
72
71
58
60
71
61
78
69
69
55
52
58
70
67
64
63
56
61
66
61
64
64
67
56
56
71
67
69
79
64
71
58
54
68
66
63
80
77
63
59
77
73
63
70
71
69
74
46
59
79
58
58
64
67
80
57
50
56
58
71
51
53
63
76
55
43
72
64
55
58
63
71
54
68
78
69
61
69
53
63
74
65
65
56
64
55
66
55
58
70
62
72
76
76
50
62
60
54
63
62
68
53
69
72
55
66
67
62
83
66
70
53
54
61
59
65
56
54
70
63
79
55
61
68
54
59
74
90
59
58
71
68
79
66
54
71
60
65
68
56
77
61
73
65
55
79
62
54
56
57
57
66
58
53
66
68
82
53
68
60
70
56
61
64
55
69
64
61
55
72
65
58
52
77
69
56
70
68
66
71
63
55
68
63
57
51
60
76
65
72
65
78
77
65
49
78
58
70
80
58
68
55
68
67
65
65
64
67
72
67
70
55
57
64
64
63
66
68
70
65
65
64
66
68
58
66
61
67
56
58
74
69
73
73
67
56
62
62
68
79
72
75
67
53
49
81
56
70
68
78
67
59
52
66
64
67
55
45
73
85
65
59
64
46
52
76
70
75
60
69
77
73
58
71
62
62
54
62
67
55
50
62
67
52
60
80
64
61
77
68
70
59
73
60
64
60
61
67
59
83
46
71
83
74
57
77
62
68
68
62
59
59
62
59
63
76
64
66
58
72
64
61
67
62
77
69
55
61
83
62
61
49
85
70
44
54
62
81
62
71
66
66
47
69
80
69
58
51
62
61
53
59
63
59
63
70
60
84
58
77
64
66
80
56
70
80
76
64
70
73
68
63
58
66
73
70
57
59
59
64
62
60
74
54
64
66
70
72
67
69
59
65
80
65
60
65
79
61
49
62
63
70
73
69
54
66
69
68
48
73
66
65
76
55
90
63
59
75
71
72
76
70
65
56
58
60
52
68
79
58
62
71
68
56
63
56
40
67
62
61
59
71
66
75
75
60
65
62
55
59
62
77
64
71
67
74
59
58
63
82
65
69
65
67
67
64
73
64
67
56
69
67
57
80
67
61
73
82
64
63
80
69
54
64
62
70
75
54
70
62
69
69
85
66
66
65
62
86
57
60
62
60
69
57
67
60
73
66
68
62
56
66
64
62
66
61
54
71
60
64
65
56
52
72
76
61
70
67
60
67
70
52
71
63
68
76
70
62
79
69
64
69
66
59
55
61
51
67
64
69
57
71
77
67
71
73
59
70
54
62
60
56
58
64
61
61
59
67
67
64
72
65
59
49
66
58
56
60
77
45
71
85
53
66
54
66
58
64
61
78
65
67
71
64
58
68
61
62
62
69
79
65
55
57
56
78
67
64
60
69
63
71
72
65
54
65
67
58
63
76
58
74
61
58
73
79
65
70
59
59
69
76
64
77
55
65
69
56
68
52
61
56
79
52
71
60
62
64
55
66
71
72
69
66
64
61
70
64
69
43
70
60
72
68
63
59
67
52
56
64
68
56
65
62
47
52
79
61
57
69
63
65
58
57
74
56
69
58
60
59
62
58
66
69
61
59
60
63
70
65
67
73
56
75
74
56
51
63
80
56
78
64
57
63
54
59
61
62
72
72
53
53
58
68
66
66
68
52
57
66
66
62
63
66
62
81
66
64
73
76
62
67
64
65
63
61
78
54
74
69
66
74
57
59
66
70
61
53
69
74
48
55
57
53
56
69
63
61
61
68
70
60
71
78
64
63
69
71
70
76
54
59
62
71
70
57
77
48
53
76
58
61
59
60
54
58
55
62
55
48
70
59
69
59
63
65
49
57
61
56
65
69
69
48
62
62
57
57
54
72
50
84
65
76
69
63
65
58
73
69
69
64
57
60
57
62
57
71
67
62
58
67
72
62
71
62
63
76
60
59
72
44
72
53
66
58
71
69
65
53
66
40
69
66
47
90
72
83
60
62
65
58
69
66
67
79
77
53
59
59
58
69
58
79
67
59
69
76
52
66
59
65
67
57
58
67
70
70
67
59
57
65
74
72
58
73
55
51
63
60
64
49
73
62
71
71
70
64
72
55
64
66
63
61
67
68
59
68
62
72
72
74
67
69
72
71
74
58
67
49
64
60
65
85
57
67
61
76
69
67
59
65
67
70
55
81
63
70
71
65
63
55
63
67
61
59
69
34
8
5
6
6
4
5
4
5
3
4
4
1
8
4
1
7
5
3
9
4
4
6
2
6
5
3
7
4
3
4
8
4
4
3
6
3
2
3
3
5
7
1
1
4
3
5
8
3
6
3
2
2
5
6
5
7
6
3
6
0
6
3
5
6
2
4
1
1
6
2
7
6
4
5
2
4
7
7
4
8
4
4
6
5
1
4
4
2
5
7
3
6
4
7
4
3
4
4
8
4
6
6
1
9
6
3
4
8
8
4
3
5
4
5
4
1
4
5
5
3
5
3
3
7
7
5
6
7
5
5
3
2
3
3
2
2
5
4
2
4
0
2
6
3
5
3
4
5
3
4
2
4
1
3
2
4
5
4
6
5
4
2
3
2
2
4
1
5
2
2
5
2
3
3
1
7
1
3
4
3
2
4
7
5
5
4
3
4
4
2
0
5
3
2
3
1
5
1
2
4
7
5
1
7
2
5
3
4
4
2
3
3
5
2
2
6
2
2
3
4
2
2
3
5
8
6
7
3
3
7
5
4
4
3
2
4
4
4
7
2
3
6
8
4
3
2
5
2
2
5
6
2
4
4
4
7
3
3
3
3
3
4
4
7
2
4
2
1
4
4
3
4
5
5
3
6
5
3
9
4
3
2
2
6
6
4
5
5
5
2
6
4
5
3
2
4
7
7
4
1
4
4
3
2
6
10
5
4
3
2
4
3
3
4
4
1
0
5
5
2
4
3
4
2
4
2
4
0
4
5
5
3
3
6
5
1
4
4
5
5
3
4
4
3
5
2
2
4
3
2
2
5
4
3
6
3
3
5
5
7
4
4
2
6
3
2
4
3
2
2
8
1
10
4
1
4
5
3
1
4
3
1
4
4
7
5
7
3
4
3
3
5
1
4
2
2
3
2
2
7
7
3
6
5
0
3
2
5
6
2
4
2
2
4
1
1
2
5
4
1
4
2
5
3
4
3
4
4
4
4
1
5
3
5
3
1
4
6
3
2
1
2
8
2
5
4
4
5
1
5
5
3
4
1
0
1
2
4
1
2
4
5
4
7
1
5
5
3
2
3
2
5
3
3
4
3
5
5
6
2
2
4
5
2
2
3
6
7
3
4
7
2
4
4
4
6
1
3
5
3
3
6
3
9
2
5
4
1
7
8
4
3
5
5
2
1
5
2
6
2
6
5
4
7
3
5
3
1
4
0
6
3
2
2
4
2
5
5
1
1
6
1
3
2
5
5
3
1
2
3
2
3
6
4
1
7
4
6
3
5
8
4
4
2
9
4
4
2
4
2
3
2
5
1
5
7
5
3
1
3
6
1
0
2
3
3
5
3
3
3
3
4
2
6
4
3
3
1
2
2
3
3
6
4
5
5
7
2
0
4
3
6
5
5
5
2
4
5
2
3
4
7
6
3
4
2
2
6
2
4
4
9
2
6
5
2
1
1
4
5
4
5
6
4
2
6
7
6
4
7
3
3
6
1
2
5
4
3
2
1
5
2
6
3
5
3
3
6
2
7
5
3
5
4
3
2
7
4
3
2
1
4
5
2
6
0
4
4
2
5
4
6
4
2
4
3
3
2
2
5
2
8
2
1
4
6
3
3
7
1
3
6
5
2
3
2
3
2
2
4
0
2
4
3
3
4
4
2
5
3
6
3
3
1
4
3
1
5
2
2
4
3
2
2
2
4
6
0
2
2
3
2
4
6
3
4
2
5
8
3
3
3
6
4
4
0
6
8
2
2
1
9
2
5
3
2
3
9
7
1
3
5
6
3
1
4
4
5
4
2
3
4
1
3
4
8
3
3
1
6
2
3
3
5
1
5
2
2
3
1
2
5
0
6
1
0
3
3
2
2
1
3
5
2
2
2
2
2
5
3
5
4
1
2
1
4
7
5
3
6
2
7
4
3
5
1
6
7
1
3
5
5
3
5
2
3
3
4
3
1
6
4
3
3
4
4
2
1
4
5
2
1
4
3
3
7
1
5
5
2
0
7
4
6
2
4
0
4
3
4
4
2
5
5
4
4
3
0
2
1
2
4
3
4
4
2
4
3
5
4
5
3
4
5
2
5
7
4
3
3
2
4
1
4
5
5
2
2
3
1
3
6
3
4
2
4
2
6
2
1
0
6
2
3
1
1
2
3
6
1
2
2
7
5
2
2
2
3
4
4
3
6
0
6
5
3
2
3
4
2
3
4
2
2
2
3
3
3
6
4
3
6
3
3
3
5
7
5
5
3
3
5
5
1
7
4
2
4
2
6
4
3
3
3
4
6
1
4
3
3
4
2
6
4
4
4
4
3
4
3
3
5
2
0
5
1
3
6
5
4
2
0
2
4
4
3
5
1
3
1
4
2
7
5
6
4
1
3
8
2
3
5
6
2
4
1
6
3
5
2
2
2
4
4
5
4
3
3
7
7
1
7
9
2
1
4
4
6
6
2
3
2
1
4
4
2
5
7
6
3
5
2
1
6
1
4
2
2
2
5
2
5
6
4
3
6
3
0
7
1
2
7
5
6
3
6
2
4
2
2
9
3
3
4
6
5
5
3
2
4
5
3
7
1
5
5
4
3
2
6
2
8
4
4
3
1
4
3
4
5
2
4
3
5
2
3
2
4
8
5
6
4
3
2
3
2
3
1
4
2
3
1
2
3
1
1
1
5
1
5
5
4
6
6
1
4
3
4
7
0
3
3
5
3
2
3
3
6
5
4
5
6
3
3
2
2
3
3
2
5
4
2
5
5
5
4
1
7
3
3
3
4
6
2
2
4
1
6
5
2
2
2
3
2
3
4
2
0
2
7
0
0
4
3
4
2
3
1
3
3
3
5
3
4
4
3
4
3
4
8
2
3
1
5
11
2
0
7
2
2
0
3
0
6
2
3
4
3
2
1
7
1
2
3
3
8
2
4
3
1
4
4
2
9
1
2
2
10
6
2
4
2
6
6
5
4
1
7
1
2
3
5
4
2
9
1
4
4
2
1
3
7
3
2
3
1
7
6
4
2
3
2
0
3
3
