name,ktt,kst,n,TEx_1,TEx_2,TEx_3,P_1,P_2,P_3,Error
tran8_53nw_little_variance,6565.2461940563,382888209.500927,5.34870925680741,5.39328175242846,7.02609647802675,8.68380827043607,0.999995079456382,0.999648729861224,0.990000000002719,54.6016463347102
trans12_53nw_some_variance,319772.813527602,62880607365.8266,0.995594998493161,0.610067105315086,0.738288175661297,0.867394909445354,1.00000000038727,1.00000000043542,1.00000000047182,38.7708659772462
trans13_53nw_whole_lotta_quench,32944.628459312,3376807166.78905,12.0345371101256,5.89828899866686,7.20759516318515,8.47178201644426,0.999990931636055,0.999533225630077,0.990000000000106,2.22836572991028
trans14_53nw_quenching_with_a_blink,40801.1810378383,5006264999.87297,11.8040250801123,5.3701995134085,6.54265180836606,7.7322028986277,0.999998163172474,0.999927132151586,0.998107425099284,0.564217731377221
trans18_53nw_quenched_but_lot_of_blinking,17768.786929898,338129152.590712,7.22986149352837,5.25972085221567,6.58910093182004,7.94999275235775,0.999997855171831,0.999907733799265,0.997496125774941,152.439675260682
trans19_53nw_quenched_initial_high_then_steady,23118.9474485032,1891341319.12109,4.99948110881561,3.76966630460821,4.73533521145502,5.7395859180404,0.999999998039677,0.999999249942926,0.999991363877694,1.81405681999851
trans2_53nw_little_variance,1400.45291855112,413522420.775468,3.93082999425379,4.90938940999364,6.72088191469518,8.69459602174904,0.999992007340618,0.999733183838972,0.990000000007952,26.5652481578453
trans20_53nw_quenched_steady,20976.8523140743,1582683271.83135,8.87265253972858,5.72094294159713,7.09960735276677,8.45910753456783,0.999992021268682,0.999663596678459,0.992083805223175,2.01844005009755
trans21_53nw_quenched_steady,10964.9902570844,2156967056.92813,2.45813809397324,2.60666769612897,3.42720291101844,4.31469286407345,1.0000000000491,0.999999999263618,0.999999818509071,36.4758503136279
trans22_53nw_quenched_steady,1531.30603506843,447879810.523982,3.33465882403052,4.18156357968046,5.73398759436037,7.50641609836821,0.999999810845294,0.999972149431566,0.99872659999914,16.7967979610019
trans23_53nw_quenched_lots_of_blinking,42638.8049935343,4074259374.61468,14.3577333964243,5.92452264743374,7.19019535642051,8.40835271360068,0.999990235601751,0.999527168104937,0.990000000002651,1.37432280456474
trans24_53nw_quenched_consistent_blinking,4070.20524427422,584756795.953377,4.30983928756184,4.85763607631451,6.47010916922559,8.2046061049177,0.999992095794615,0.999887033205662,0.995870952090986,7.08610770162313
trans25_53nw_quenched_quiet_but_some_blinking,7873.50631194139,407425504.051484,4.89721389292845,4.85035810619464,6.30189673708341,7.83627929018714,0.99999880792673,0.999944316852881,0.998046752226168,22.9980656061871
trans34_53nw_quenching_but_some_blinking,18103.9001378784,495202643.970349,8.361366733333,5.77090800184564,7.19684359852142,8.58980851765894,0.999990882076082,0.999569656486082,0.990000000191152,20.0831133379695
trans35_53nw_quenching_some_blinking_rise_in_counts,113998.717587003,4107608392.1687,1.14135426750903,0.872322774504866,1.08912603255429,1.31241902949262,1.00000000000503,1.00000000013793,1.00000000014895,79.3939747024248
trans36_53nw_quenching_little_variance,19356.3411238601,9802578539.13846,0.925022677970086,1.0466678958943,1.39470628148427,1.77714713988633,1.00000000000003,1.00000000000201,1.0000000000022,20.6890867927254
trans37_53nw_quenching_little_variance,21056.609197547,3087446490.8975,9.10545960021147,5.81137246903658,7.20615934409905,8.56376309845827,0.99998967805892,0.999557656691348,0.990000000003517,0.294023199641068
trans39_53nw_quenching_little_variance,8525.61547821259,1131770036.25337,4.89643095778566,4.77202757872286,6.18426087840016,7.67779624863005,0.999999409714182,0.999960960086303,0.998600704836326,13.7515862287577
trans40_53nw_quenching_some_blinking,12999.288303314,1509794790.71393,6.73082878558916,5.47767173134294,6.93506903585006,8.40597298682887,0.999995906294384,0.999759170394663,0.993752363711057,11.4383916992733
trans42_53nw_quenching_dip_but_then_steady,2158.24085597356,601975013.705913,4.14258001954623,5.00809197105246,6.78916148593702,8.69752709769396,0.999990473910784,0.999713778823935,0.990000000004646,8.67435099270166
trans5_53nw_little_variance,34181.0990695009,4041645342.237,4.42160620398102,3.07928753031889,3.83963450200568,4.6268759786311,1.00000000213659,0.999999997945499,0.999998947363184,0.860997777100915
trans6_53nw_little_variance,6355.74688653426,1232714308.28832,4.55245249620712,4.7576343256202,6.23941335015203,7.82143870423564,0.999992689673852,0.999947936425703,0.998064341789349,5.28562005140818
trans7_53nw_some_blinking,4841.80762617262,727380410.106988,4.88208550432672,5.27301573797605,6.95745921510771,8.69364057088977,0.999994719831531,0.999667355219462,0.990000000002866,44.1162446517127
trans9_53nw_little_variance,5540.67334988593,414594367.980389,4.16824427877163,4.51995048457991,5.97064850741147,7.53950014744405,0.999999669890998,0.999972920571674,0.998901570171627,27.5886284046055
